<?xml version="1.0" encoding="utf-8"?>
<!-- Generator: Adobe Illustrator 19.0.0, SVG Export Plug-In . SVG Version: 6.00 Build 0)  -->
<svg version="1.1" id="Layer_1" xmlns="http://www.w3.org/2000/svg" xmlns:xlink="http://www.w3.org/1999/xlink" x="0px" y="0px"
	 viewBox="2175.6 -36.4 248.5 820" style="enable-background:new 2175.6 -36.4 248.5 820;" xml:space="preserve">
<style type="text/css">
	.st0{fill:none;stroke:#262626;stroke-width:0.6667;stroke-linejoin:round;stroke-miterlimit:10;stroke-opacity:0.149;}
	.st1{fill:none;stroke:#262626;stroke-width:0.6667;stroke-linecap:square;stroke-linejoin:round;stroke-miterlimit:10;}
	.st2{fill:#262626;}
	.st3{font-family:'ArialMT';}
	.st4{font-size:13px;}
	.st5{font-size:11px;}
	.st6{font-family:'Arial-BoldMT';}
	.st7{font-size:15px;}
	.st8{fill:none;stroke:#000000;stroke-linejoin:round;stroke-miterlimit:10;}
	.st9{fill:none;stroke:#000000;stroke-width:0.6667;stroke-linejoin:round;stroke-miterlimit:10;}
</style>
<g>
	<g>
		<line class="st0" x1="2392" y1="772" x2="2176" y2="772"/>
		<line class="st0" x1="2392" y1="673.8" x2="2176" y2="673.8"/>
		<line class="st0" x1="2392" y1="575.5" x2="2176" y2="575.5"/>
		<line class="st0" x1="2392" y1="477.3" x2="2176" y2="477.3"/>
		<line class="st0" x1="2392" y1="379" x2="2176" y2="379"/>
		<line class="st0" x1="2392" y1="280.8" x2="2176" y2="280.8"/>
		<line class="st0" x1="2392" y1="182.5" x2="2176" y2="182.5"/>
		<line class="st0" x1="2392" y1="84.3" x2="2176" y2="84.3"/>
		<line class="st0" x1="2392" y1="-14" x2="2176" y2="-14"/>
		<line class="st1" x1="2176" y1="379" x2="2392" y2="379"/>
		<line class="st1" x1="2392" y1="772" x2="2392" y2="-14"/>
		<line class="st1" x1="2392" y1="772" x2="2384.1" y2="772"/>
		<line class="st1" x1="2392" y1="673.8" x2="2384.1" y2="673.8"/>
		<line class="st1" x1="2392" y1="575.5" x2="2384.1" y2="575.5"/>
		<line class="st1" x1="2392" y1="477.3" x2="2384.1" y2="477.3"/>
		<line class="st1" x1="2392" y1="379" x2="2384.1" y2="379"/>
		<line class="st1" x1="2392" y1="280.8" x2="2384.1" y2="280.8"/>
		<line class="st1" x1="2392" y1="182.5" x2="2384.1" y2="182.5"/>
		<line class="st1" x1="2392" y1="84.3" x2="2384.1" y2="84.3"/>
		<line class="st1" x1="2392" y1="-14" x2="2384.1" y2="-14"/>
	</g>
	<g transform="translate(1743.3334,858)">
		<text transform="matrix(1 0 0 1 654.0001 -80.5)" class="st2 st3 st4">-2</text>
	</g>
	<g transform="translate(1743.3334,759.75)">
		<text transform="matrix(1 0 0 1 654.0001 -80.5)" class="st2 st3 st4">-1.5</text>
	</g>
	<g transform="translate(1743.3334,661.5)">
		<text transform="matrix(1 0 0 1 654.0001 -80.5)" class="st2 st3 st4">-1</text>
	</g>
	<g transform="translate(1743.3334,563.25)">
		<text transform="matrix(1 0 0 1 654.0001 -80.5)" class="st2 st3 st4">-0.5</text>
	</g>
	<g transform="translate(1743.3334,465)">
		<text transform="matrix(1 0 0 1 654.0001 -80.5)" class="st2 st3 st4">0</text>
	</g>
	<g transform="translate(1743.3334,366.75)">
		<text transform="matrix(1 0 0 1 654.0001 -80.5)" class="st2 st3 st4">0.5</text>
	</g>
	<g transform="translate(1743.3334,268.5)">
		<text transform="matrix(1 0 0 1 654.0001 -80.5)" class="st2 st3 st4">1</text>
	</g>
	<g transform="translate(1743.3334,170.25)">
		<text transform="matrix(1 0 0 1 654.0001 -80.5)" class="st2 st3 st4">1.5</text>
	</g>
	<g transform="translate(1743.3334,72)">
		<text transform="matrix(1 0 0 1 654.0001 -80.5)" class="st2 st3 st4">2</text>
	</g>
	<g transform="translate(1738,65)">
		<text transform="matrix(1 0 0 1 654.0001 -86)" class="st2 st3 st4">#</text>
	</g>
	<g transform="translate(1749,65)">
		<text transform="matrix(1 0 0 1 654.0001 -86)" class="st2 st3 st4">10</text>
	</g>
	<g transform="translate(1764,59)">
		<text transform="matrix(1 0 0 1 654.0001 -86)" class="st2 st3 st5">4</text>
	</g>
	<g transform="translate(1630.0016,69.25)">
		<text transform="matrix(1 0 0 1 580.5001 -90)" class="st6 st7">Unit 3 Zero-Pole plot</text>
	</g>
	<g>
		<line class="st8" x1="2176" y1="-9" x2="2183" y2="-16"/>
		<line class="st8" x1="2176" y1="-16" x2="2183" y2="-9"/>
		<line class="st8" x1="2176" y1="774" x2="2183" y2="767"/>
		<line class="st8" x1="2176" y1="767" x2="2183" y2="774"/>
		<path class="st8" d="M2395.5,70.5l-0.9-2.1l-2.1-0.9l-2.1,0.9l-0.9,2.1l0.9,2.1l2.1,0.9l2.1-0.9L2395.5,70.5z"/>
		<path class="st8" d="M2395.5,687.5l-0.9-2.1l-2.1-0.9l-2.1,0.9l-0.9,2.1l0.9,2.1l2.1,0.9l2.1-0.9L2395.5,687.5z"/>
	</g>
	<g transform="translate(1717,159)">
		<text transform="matrix(1 0 0 1 654.0001 -86)" class="st3 st4">z</text>
	</g>
	<g transform="translate(1724,165)">
		<text transform="matrix(1 0 0 1 654.0001 -86)" class="st3 st5">3</text>
	</g>
	<g transform="translate(1717,777)">
		<text transform="matrix(1 0 0 1 654.0001 -86)" class="st3 st4">z</text>
	</g>
	<g transform="translate(1724,783)">
		<text transform="matrix(1 0 0 1 654.0001 -86)" class="st3 st5">3</text>
	</g>
	<g transform="translate(1536,76)">
		<text transform="matrix(1 0 0 1 654.0001 -86)" class="st3 st4">ω</text>
	</g>
	<g transform="translate(1547,82)">
		<text transform="matrix(1 0 0 1 654.0001 -86)" class="st3 st5">03</text>
	</g>
	<g transform="translate(1536,860)">
		<text transform="matrix(1 0 0 1 654.0001 -86)" class="st3 st4">ω</text>
	</g>
	<g transform="translate(1547,866)">
		<text transform="matrix(1 0 0 1 654.0001 -86)" class="st3 st5">03</text>
	</g>
	<g>
		<line class="st9" x1="2179.4" y1="-12.9" x2="2179.4" y2="770.9"/>
	</g>
</g>
</svg>
