<?xml version="1.0"?>
<!DOCTYPE svg PUBLIC '-//W3C//DTD SVG 1.0//EN'
          'http://www.w3.org/TR/2001/REC-SVG-20010904/DTD/svg10.dtd'>
<svg xmlns:xlink="http://www.w3.org/1999/xlink" style="fill-opacity:1; color-rendering:auto; color-interpolation:auto; stroke:black; text-rendering:auto; stroke-linecap:square; stroke-miterlimit:10; stroke-opacity:1; shape-rendering:auto; fill:black; stroke-dasharray:none; font-weight:normal; stroke-width:1; font-family:'Dialog'; font-style:normal; stroke-linejoin:miter; font-size:12px; stroke-dashoffset:0; image-rendering:auto;" width="1920" height="964" xmlns="http://www.w3.org/2000/svg"
><!--Generated by the Batik Graphics2D SVG Generator--><defs id="genericDefs"
  /><g
  ><defs id="defs1"
    ><clipPath clipPathUnits="userSpaceOnUse" id="clipPath1"
      ><path d="M0 0 L1920 0 L1920 964 L0 964 L0 0 Z"
      /></clipPath
      ><font horiz-adv-x="75.0" id="font1"
      ><font-face ascent="100.53711" descent="21.972656" units-per-em="100" style="font-style:normal; font-family:Dialog; font-weight:normal;"
        /><missing-glyph horiz-adv-x="75.0" d="M12.5 0 L12.5 62.5 L62.5 62.5 L62.5 0 L12.5 0 ZM14.0625 1.5625 L60.9375 1.5625 L60.9375 60.9375 L14.0625 60.9375 L14.0625 1.5625 Z"
        /><glyph unicode="2" horiz-adv-x="55.615234" d="M50.3438 8.4531 L50.3438 0 L3.0312 0 Q2.9375 3.1719 4.0469 6.1094 Q5.8594 10.9375 9.8359 15.625 Q13.8125 20.3125 21.3438 26.4688 Q33.0156 36.0312 37.1172 41.625 Q41.2188 47.2188 41.2188 52.2031 Q41.2188 57.4219 37.4766 61.0078 Q33.7344 64.5938 27.7344 64.5938 Q21.3906 64.5938 17.5781 60.7891 Q13.7656 56.9844 13.7188 50.25 L4.6875 51.1719 Q5.6094 61.2812 11.6641 66.5781 Q17.7188 71.875 27.9375 71.875 Q38.2344 71.875 44.2422 66.1641 Q50.25 60.4531 50.25 52 Q50.25 47.7031 48.4922 43.5547 Q46.7344 39.4062 42.6562 34.8125 Q38.5781 30.2188 29.1094 22.2188 Q21.1875 15.5781 18.9453 13.2109 Q16.7031 10.8438 15.2344 8.4531 L50.3438 8.4531 Z"
        /><glyph unicode="-" horiz-adv-x="33.30078" d="M3.1719 21.4844 L3.1719 30.3281 L30.1719 30.3281 L30.1719 21.4844 L3.1719 21.4844 Z"
        /><glyph unicode="6" horiz-adv-x="55.615234" d="M49.75 54.0469 L41.0156 53.375 Q39.8438 58.5469 37.7031 60.8906 Q34.125 64.6562 28.9062 64.6562 Q24.7031 64.6562 21.5312 62.3125 Q17.3906 59.2812 14.9922 53.4688 Q12.5938 47.6562 12.5 36.9219 Q15.6719 41.75 20.2656 44.0938 Q24.8594 46.4375 29.8906 46.4375 Q38.6719 46.4375 44.8516 39.9688 Q51.0312 33.5 51.0312 23.25 Q51.0312 16.5 48.125 10.7188 Q45.2188 4.9375 40.1406 1.8594 Q35.0625 -1.2188 28.6094 -1.2188 Q17.625 -1.2188 10.6953 6.8594 Q3.7656 14.9375 3.7656 33.5 Q3.7656 54.25 11.4219 63.6719 Q18.1094 71.875 29.4375 71.875 Q37.8906 71.875 43.2891 67.1406 Q48.6875 62.4062 49.75 54.0469 ZM13.875 23.1875 Q13.875 18.6562 15.7969 14.5078 Q17.7188 10.3594 21.1875 8.1797 Q24.6562 6 28.4688 6 Q34.0312 6 38.0391 10.4922 Q42.0469 14.9844 42.0469 22.7031 Q42.0469 30.125 38.0859 34.3984 Q34.125 38.6719 28.125 38.6719 Q22.1719 38.6719 18.0234 34.3984 Q13.875 30.125 13.875 23.1875 Z"
        /><glyph unicode="." horiz-adv-x="27.783203" d="M9.0781 0 L9.0781 10.0156 L19.0938 10.0156 L19.0938 0 L9.0781 0 Z"
        /><glyph unicode="1" horiz-adv-x="55.615234" d="M37.25 0 L28.4688 0 L28.4688 56 Q25.2969 52.9844 20.1406 49.9531 Q14.9844 46.9219 10.8906 45.4062 L10.8906 53.9062 Q18.2656 57.375 23.7812 62.3047 Q29.2969 67.2344 31.5938 71.875 L37.25 71.875 L37.25 0 Z"
        /><glyph unicode="8" horiz-adv-x="55.615234" d="M17.6719 38.8125 Q12.2031 40.8281 9.5703 44.5391 Q6.9375 48.25 6.9375 53.4219 Q6.9375 61.2344 12.5547 66.5547 Q18.1719 71.875 27.4844 71.875 Q36.8594 71.875 42.5781 66.4297 Q48.2969 60.9844 48.2969 53.1719 Q48.2969 48.1875 45.6797 44.5078 Q43.0625 40.8281 37.75 38.8125 Q44.3438 36.6719 47.7812 31.8828 Q51.2188 27.0938 51.2188 20.4531 Q51.2188 11.2812 44.7266 5.0312 Q38.2344 -1.2188 27.6406 -1.2188 Q17.0469 -1.2188 10.5469 5.0547 Q4.0469 11.3281 4.0469 20.7031 Q4.0469 27.6875 7.5938 32.3984 Q11.1406 37.1094 17.6719 38.8125 ZM15.9219 53.7188 Q15.9219 48.6406 19.1953 45.4141 Q22.4688 42.1875 27.6875 42.1875 Q32.7656 42.1875 36.0156 45.3828 Q39.2656 48.5781 39.2656 53.2188 Q39.2656 58.0625 35.9141 61.3594 Q32.5625 64.6562 27.5938 64.6562 Q22.5625 64.6562 19.2422 61.4297 Q15.9219 58.2031 15.9219 53.7188 ZM13.0938 20.6562 Q13.0938 16.8906 14.875 13.375 Q16.6562 9.8594 20.1719 7.9297 Q23.6875 6 27.7344 6 Q34.0312 6 38.1328 10.0547 Q42.2344 14.1094 42.2344 20.3594 Q42.2344 26.7031 38.0156 30.8594 Q33.7969 35.0156 27.4375 35.0156 Q21.2344 35.0156 17.1641 30.9141 Q13.0938 26.8125 13.0938 20.6562 Z"
        /><glyph unicode="0" horiz-adv-x="55.615234" d="M4.1562 35.2969 Q4.1562 48 6.7656 55.7422 Q9.375 63.4844 14.5234 67.6797 Q19.6719 71.875 27.4844 71.875 Q33.25 71.875 37.5938 69.5547 Q41.9375 67.2344 44.7734 62.8672 Q47.6094 58.5 49.2188 52.2266 Q50.8281 45.9531 50.8281 35.2969 Q50.8281 22.7031 48.2422 14.9688 Q45.6562 7.2344 40.5078 3.0078 Q35.3594 -1.2188 27.4844 -1.2188 Q17.1406 -1.2188 11.2344 6.2031 Q4.1562 15.1406 4.1562 35.2969 ZM13.1875 35.2969 Q13.1875 17.6719 17.3125 11.8359 Q21.4375 6 27.4844 6 Q33.5469 6 37.6719 11.8594 Q41.7969 17.7188 41.7969 35.2969 Q41.7969 52.9844 37.6719 58.7891 Q33.5469 64.5938 27.3906 64.5938 Q21.3438 64.5938 17.7188 59.4688 Q13.1875 52.9375 13.1875 35.2969 Z"
        /><glyph unicode="4" horiz-adv-x="55.615234" d="M32.3281 0 L32.3281 17.1406 L1.2656 17.1406 L1.2656 25.2031 L33.9375 71.5781 L41.1094 71.5781 L41.1094 25.2031 L50.7812 25.2031 L50.7812 17.1406 L41.1094 17.1406 L41.1094 0 L32.3281 0 ZM32.3281 25.2031 L32.3281 57.4688 L9.9062 25.2031 L32.3281 25.2031 Z"
        /><glyph unicode="s" horiz-adv-x="50.0" d="M3.0781 15.4844 L11.7656 16.8438 Q12.5 11.625 15.8438 8.8438 Q19.1875 6.0625 25.2031 6.0625 Q31.25 6.0625 34.1797 8.5234 Q37.1094 10.9844 37.1094 14.3125 Q37.1094 17.2812 34.5156 19 Q32.7188 20.1719 25.5312 21.9688 Q15.875 24.4219 12.1406 26.2031 Q8.4062 27.9844 6.4766 31.1328 Q4.5469 34.2812 4.5469 38.0938 Q4.5469 41.5469 6.1328 44.5078 Q7.7188 47.4688 10.4531 49.4219 Q12.5 50.9219 16.0391 51.9766 Q19.5781 53.0312 23.6406 53.0312 Q29.7344 53.0312 34.3516 51.2734 Q38.9688 49.5156 41.1641 46.5078 Q43.3594 43.5 44.1875 38.4844 L35.5938 37.3125 Q35.0156 41.3125 32.2031 43.5547 Q29.3906 45.7969 24.2656 45.7969 Q18.2188 45.7969 15.625 43.7969 Q13.0312 41.7969 13.0312 39.1094 Q13.0312 37.4062 14.1094 36.0312 Q15.1875 34.625 17.4844 33.6875 Q18.7969 33.2031 25.25 31.4531 Q34.5781 28.9531 38.2578 27.3672 Q41.9375 25.7812 44.0391 22.7578 Q46.1406 19.7344 46.1406 15.2344 Q46.1406 10.8438 43.5781 6.9609 Q41.0156 3.0781 36.1797 0.9531 Q31.3438 -1.1719 25.25 -1.1719 Q15.1406 -1.1719 9.8438 3.0312 Q4.5469 7.2344 3.0781 15.4844 Z"
        /><glyph unicode="o" horiz-adv-x="55.615234" d="M3.3281 25.9219 Q3.3281 40.3281 11.3281 47.2656 Q18.0156 53.0312 27.6406 53.0312 Q38.3281 53.0312 45.1172 46.0234 Q51.9062 39.0156 51.9062 26.6562 Q51.9062 16.6562 48.9062 10.9141 Q45.9062 5.1719 40.1641 2 Q34.4219 -1.1719 27.6406 -1.1719 Q16.75 -1.1719 10.0391 5.8125 Q3.3281 12.7969 3.3281 25.9219 ZM12.3594 25.9219 Q12.3594 15.9688 16.7031 11.0156 Q21.0469 6.0625 27.6406 6.0625 Q34.1875 6.0625 38.5312 11.0391 Q42.875 16.0156 42.875 26.2188 Q42.875 35.8438 38.5 40.7969 Q34.125 45.75 27.6406 45.75 Q21.0469 45.75 16.7031 40.8203 Q12.3594 35.8906 12.3594 25.9219 Z"
        /><glyph unicode="r" horiz-adv-x="33.30078" d="M6.5 0 L6.5 51.8594 L14.4062 51.8594 L14.4062 44 Q17.4375 49.5156 20 51.2734 Q22.5625 53.0312 25.6406 53.0312 Q30.0781 53.0312 34.6719 50.2031 L31.6406 42.0469 Q28.4219 43.9531 25.2031 43.9531 Q22.3125 43.9531 20.0156 42.2188 Q17.7188 40.4844 16.75 37.4062 Q15.2812 32.7188 15.2812 27.1562 L15.2812 0 L6.5 0 Z"
        /><glyph unicode="e" horiz-adv-x="55.615234" d="M42.0938 16.7031 L51.1719 15.5781 Q49.0312 7.625 43.2188 3.2266 Q37.4062 -1.1719 28.375 -1.1719 Q17 -1.1719 10.3281 5.8359 Q3.6562 12.8438 3.6562 25.4844 Q3.6562 38.5781 10.3984 45.8047 Q17.1406 53.0312 27.875 53.0312 Q38.2812 53.0312 44.875 45.9531 Q51.4688 38.875 51.4688 26.0312 Q51.4688 25.25 51.4219 23.6875 L12.75 23.6875 Q13.2344 15.1406 17.5781 10.6016 Q21.9219 6.0625 28.4219 6.0625 Q33.25 6.0625 36.6719 8.6016 Q40.0938 11.1406 42.0938 16.7031 ZM13.2344 30.9062 L42.1875 30.9062 Q41.6094 37.4531 38.875 40.7188 Q34.6719 45.7969 27.9844 45.7969 Q21.9219 45.7969 17.7969 41.75 Q13.6719 37.7031 13.2344 30.9062 Z"
        /><glyph unicode="z" horiz-adv-x="50.0" d="M1.9531 0 L1.9531 7.125 L34.9688 45.0156 Q29.3438 44.7344 25.0469 44.7344 L3.9062 44.7344 L3.9062 51.8594 L46.2969 51.8594 L46.2969 46.0469 L18.2188 13.1406 L12.7969 7.125 Q18.7031 7.5625 23.875 7.5625 L47.8594 7.5625 L47.8594 0 L1.9531 0 Z"
        /><glyph unicode=" " horiz-adv-x="27.783203" d=""
        /><glyph unicode="ω" horiz-adv-x="78.07617" d="M11.9688 51.8594 L20.4531 51.8594 Q13.1875 35.7969 13.1875 24.7031 Q13.1875 16.1562 16.3125 10.9375 Q19.4375 5.7188 24.2656 5.7188 Q27.3906 5.7188 30.125 8.1562 Q32.8594 10.5938 33.7656 14.0156 Q34.6719 17.4375 34.6719 23.5781 L34.6719 38.7656 L43.4062 38.7656 L43.4062 23.5781 Q43.4062 17.5781 44.3125 14.0625 Q45.2188 10.5469 47.9766 8.1328 Q50.7344 5.7188 53.8594 5.7188 Q58.6406 5.7188 61.7656 10.9141 Q64.8906 16.1094 64.8906 24.7031 Q64.8906 35.7969 57.6719 51.8594 L66.1094 51.8594 Q73.8281 38.1406 73.8281 25.25 Q73.8281 12.3125 68.4844 5.5703 Q63.1406 -1.1719 54.8281 -1.1719 Q43.7969 -1.1719 39.0625 10.5 Q34.2812 -1.1719 23.25 -1.1719 Q14.5 -1.1719 9.375 5.9062 Q4.25 12.9844 4.25 25.25 Q4.25 38.1406 11.9688 51.8594 Z"
        /><glyph unicode="3" horiz-adv-x="55.615234" d="M4.2031 18.8906 L12.9844 20.0625 Q14.5 12.5938 18.1406 9.2969 Q21.7812 6 27 6 Q33.2031 6 37.4766 10.2969 Q41.75 14.5938 41.75 20.9531 Q41.75 27 37.7969 30.9297 Q33.8438 34.8594 27.7344 34.8594 Q25.25 34.8594 21.5312 33.8906 L22.5156 41.6094 Q23.3906 41.5 23.9219 41.5 Q29.5469 41.5 34.0391 44.4297 Q38.5312 47.3594 38.5312 53.4688 Q38.5312 58.2969 35.2578 61.4766 Q31.9844 64.6562 26.8125 64.6562 Q21.6875 64.6562 18.2656 61.4297 Q14.8438 58.2031 13.875 51.7656 L5.0781 53.3281 Q6.6875 62.1562 12.3984 67.0156 Q18.1094 71.875 26.6094 71.875 Q32.4688 71.875 37.3984 69.3594 Q42.3281 66.8438 44.9453 62.5 Q47.5625 58.1562 47.5625 53.2656 Q47.5625 48.6406 45.0703 44.8281 Q42.5781 41.0156 37.7031 38.7656 Q44.0469 37.3125 47.5625 32.6953 Q51.0781 28.0781 51.0781 21.1406 Q51.0781 11.7656 44.2422 5.25 Q37.4062 -1.2656 26.9531 -1.2656 Q17.5312 -1.2656 11.3047 4.3516 Q5.0781 9.9688 4.2031 18.8906 Z"
      /></font
      ><font horiz-adv-x="75.0" id="font2"
      ><font-face ascent="65.42969" descent="22.558594" units-per-em="100" style="font-style:normal; font-family:mwb_cmsy10; font-weight:normal;"
        /><missing-glyph horiz-adv-x="75.0" d="M12.5 0 L12.5 62.5 L62.5 62.5 L62.5 0 L12.5 0 ZM60.8906 1.6094 L60.8906 60.8906 L14.1094 60.8906 L14.1094 1.6094 L60.8906 1.6094 Z"
        /><glyph unicode="#" horiz-adv-x="77.68555" d="M14.7031 2.875 Q14.7031 3.6562 15.1875 4.2969 L35.9844 25 L15.1875 45.7969 Q14.7031 46.2969 14.7031 47.125 Q14.7031 47.8594 15.2891 48.4922 Q15.875 49.125 16.7031 49.125 Q17.3906 49.125 18.2188 48.4844 L38.9219 27.7812 L59.5156 48.4844 Q60.3594 49.125 60.9844 49.125 Q61.8125 49.125 62.3984 48.5391 Q62.9844 47.9531 62.9844 47.125 Q62.9844 46.2969 62.5 45.7969 L41.7031 25 L62.5 4.2969 Q62.9844 3.6562 62.9844 2.875 Q62.9844 2.0469 62.3984 1.4609 Q61.8125 0.875 60.9844 0.875 Q60.25 0.875 59.5156 1.6094 L38.9219 22.2188 L18.2188 1.6094 Q17.4844 0.875 16.7031 0.875 Q15.875 0.875 15.2891 1.5156 Q14.7031 2.1562 14.7031 2.875 Z"
      /></font
      ><font horiz-adv-x="75.0" id="font3"
      ><font-face ascent="100.53711" descent="21.972656" units-per-em="100" style="font-style:normal; font-family:Dialog; font-weight:bold;"
        /><missing-glyph horiz-adv-x="75.0" d="M12.5 0 L12.5 62.5 L62.5 62.5 L62.5 0 L12.5 0 ZM14.0625 1.5625 L60.9375 1.5625 L60.9375 60.9375 L14.0625 60.9375 L14.0625 1.5625 Z"
        /><glyph unicode="t" horiz-adv-x="33.30078" d="M30.9531 51.8594 L30.9531 40.9219 L21.5781 40.9219 L21.5781 20.0156 Q21.5781 13.6719 21.8516 12.625 Q22.125 11.5781 23.0781 10.8906 Q24.0312 10.2031 25.3906 10.2031 Q27.2969 10.2031 30.9062 11.5312 L32.0781 0.875 Q27.2969 -1.1719 21.2344 -1.1719 Q17.5312 -1.1719 14.5547 0.0703 Q11.5781 1.3125 10.1875 3.2969 Q8.7969 5.2812 8.25 8.6406 Q7.8125 11.0312 7.8125 18.3125 L7.8125 40.9219 L1.5156 40.9219 L1.5156 51.8594 L7.8125 51.8594 L7.8125 62.1562 L21.5781 70.1719 L21.5781 51.8594 L30.9531 51.8594 Z"
        /><glyph unicode="p" horiz-adv-x="61.083984" d="M6.7812 51.8594 L19.5781 51.8594 L19.5781 44.2344 Q22.0781 48.1406 26.3203 50.5859 Q30.5625 53.0312 35.75 53.0312 Q44.7812 53.0312 51.0781 45.9531 Q57.375 38.875 57.375 26.2188 Q57.375 13.2344 51.0234 6.0312 Q44.6719 -1.1719 35.6406 -1.1719 Q31.3438 -1.1719 27.8516 0.5391 Q24.3594 2.25 20.5156 6.3906 L20.5156 -19.7344 L6.7812 -19.7344 L6.7812 51.8594 ZM20.3594 26.8125 Q20.3594 18.0625 23.8281 13.8906 Q27.2969 9.7188 32.2812 9.7188 Q37.0625 9.7188 40.2344 13.5547 Q43.4062 17.3906 43.4062 26.125 Q43.4062 34.2812 40.1328 38.2344 Q36.8594 42.1875 32.0312 42.1875 Q27 42.1875 23.6797 38.3047 Q20.3594 34.4219 20.3594 26.8125 Z"
        /><glyph unicode=" " horiz-adv-x="27.783203" d=""
        /><glyph unicode="s" horiz-adv-x="55.615234" d="M2.3438 14.7969 L16.1094 16.8906 Q17 12.8906 19.6797 10.8125 Q22.3594 8.7344 27.2031 8.7344 Q32.5156 8.7344 35.2031 10.6875 Q37.0156 12.0625 37.0156 14.3594 Q37.0156 15.9219 36.0312 16.9375 Q35.0156 17.9219 31.4531 18.75 Q14.8438 22.4062 10.4062 25.4375 Q4.25 29.6406 4.25 37.1094 Q4.25 43.8438 9.5703 48.4375 Q14.8906 53.0312 26.0781 53.0312 Q36.7188 53.0312 41.8984 49.5625 Q47.0781 46.0938 49.0312 39.3125 L36.0781 36.9219 Q35.25 39.9375 32.9297 41.5547 Q30.6094 43.1719 26.3125 43.1719 Q20.9062 43.1719 18.5625 41.6562 Q17 40.5781 17 38.875 Q17 37.4062 18.3594 36.375 Q20.2188 35.0156 31.1797 32.5234 Q42.1406 30.0312 46.4844 26.4219 Q50.7812 22.75 50.7812 16.2188 Q50.7812 9.0781 44.8281 3.9531 Q38.875 -1.1719 27.2031 -1.1719 Q16.6094 -1.1719 10.4297 3.125 Q4.25 7.4219 2.3438 14.7969 Z"
        /><glyph unicode="l" horiz-adv-x="27.783203" d="M7.1719 0 L7.1719 71.5781 L20.9062 71.5781 L20.9062 0 L7.1719 0 Z"
        /><glyph unicode="P" horiz-adv-x="66.69922" d="M7.2812 0 L7.2812 71.5781 L30.4688 71.5781 Q43.6562 71.5781 47.6562 70.5156 Q53.8125 68.8906 57.9609 63.5 Q62.1094 58.1094 62.1094 49.5625 Q62.1094 42.9688 59.7188 38.4766 Q57.3281 33.9844 53.6406 31.4219 Q49.9531 28.8594 46.1406 28.0312 Q40.9688 27 31.1562 27 L21.7344 27 L21.7344 0 L7.2812 0 ZM21.7344 59.4688 L21.7344 39.1562 L29.6406 39.1562 Q38.1875 39.1562 41.0703 40.2812 Q43.9531 41.4062 45.5859 43.7969 Q47.2188 46.1875 47.2188 49.3594 Q47.2188 53.2656 44.9219 55.8047 Q42.625 58.3438 39.1094 58.9844 Q36.5312 59.4688 28.7188 59.4688 L21.7344 59.4688 Z"
        /><glyph unicode="-" horiz-adv-x="33.30078" d="M5.6094 19.0938 L5.6094 32.8125 L32.5625 32.8125 L32.5625 19.0938 L5.6094 19.0938 Z"
        /><glyph unicode="o" horiz-adv-x="61.083984" d="M4 26.6562 Q4 33.5 7.375 39.8984 Q10.75 46.2969 16.9219 49.6641 Q23.0938 53.0312 30.7188 53.0312 Q42.4844 53.0312 50 45.3906 Q57.5156 37.75 57.5156 26.0781 Q57.5156 14.3125 49.9219 6.5703 Q42.3281 -1.1719 30.8125 -1.1719 Q23.6875 -1.1719 17.2188 2.0547 Q10.75 5.2812 7.375 11.5 Q4 17.7188 4 26.6562 ZM18.0625 25.9219 Q18.0625 18.2188 21.7266 14.1172 Q25.3906 10.0156 30.7656 10.0156 Q36.1406 10.0156 39.7734 14.1172 Q43.4062 18.2188 43.4062 26.0312 Q43.4062 33.6406 39.7734 37.7422 Q36.1406 41.8438 30.7656 41.8438 Q25.3906 41.8438 21.7266 37.7422 Q18.0625 33.6406 18.0625 25.9219 Z"
        /><glyph unicode="r" horiz-adv-x="38.916016" d="M20.3125 0 L6.5938 0 L6.5938 51.8594 L19.3438 51.8594 L19.3438 44.4844 Q22.6094 49.7031 25.2188 51.3672 Q27.8281 53.0312 31.1562 53.0312 Q35.8438 53.0312 40.1875 50.4375 L35.9375 38.4844 Q32.4688 40.7188 29.5 40.7188 Q26.6094 40.7188 24.6094 39.1328 Q22.6094 37.5469 21.4609 33.3984 Q20.3125 29.25 20.3125 16.0156 L20.3125 0 Z"
        /><glyph unicode="e" horiz-adv-x="55.615234" d="M37.2031 16.5 L50.875 14.2031 Q48.25 6.6875 42.5547 2.7578 Q36.8594 -1.1719 28.3281 -1.1719 Q14.7969 -1.1719 8.2969 7.6719 Q3.1719 14.75 3.1719 25.5312 Q3.1719 38.4219 9.9141 45.7266 Q16.6562 53.0312 26.9531 53.0312 Q38.5312 53.0312 45.2188 45.3906 Q51.9062 37.75 51.6094 21.9688 L17.2344 21.9688 Q17.3906 15.875 20.5625 12.4766 Q23.7344 9.0781 28.4688 9.0781 Q31.6875 9.0781 33.8828 10.8359 Q36.0781 12.5938 37.2031 16.5 ZM37.9844 30.375 Q37.8438 36.3281 34.9141 39.4297 Q31.9844 42.5312 27.7812 42.5312 Q23.2969 42.5312 20.3594 39.2656 Q17.4375 35.9844 17.4844 30.375 L37.9844 30.375 Z"
        /><glyph unicode="Z" horiz-adv-x="61.083984" d="M1.0781 0 L1.0781 13.0312 L38.6719 59.4688 L5.3281 59.4688 L5.3281 71.5781 L57.7188 71.5781 L57.7188 60.3594 L18.5 12.0625 L59.2344 12.0625 L59.2344 0 L1.0781 0 Z"
      /></font
    ></defs
    ><g style="fill:white; stroke:white;"
    ><rect x="0" y="0" width="1920" style="clip-path:url(#clipPath1); stroke:none;" height="964"
    /></g
    ><g style="fill:white; text-rendering:optimizeSpeed; color-rendering:optimizeSpeed; image-rendering:optimizeSpeed; shape-rendering:crispEdges; color-interpolation:sRGB; stroke:white;"
    ><rect x="0" width="1920" height="964" y="0" style="stroke:none;"
      /><path style="stroke:none;" d="M250 858 L1738 858 L1738 72 L250 72 Z"
    /></g
    ><g style="stroke-linecap:butt; fill-opacity:0.149; fill:rgb(38,38,38); text-rendering:geometricPrecision; color-rendering:optimizeQuality; image-rendering:optimizeQuality; stroke-linejoin:round; color-interpolation:linearRGB; stroke:rgb(38,38,38); stroke-width:0.6667; stroke-opacity:0.149;"
    ><line y2="779.4" style="fill:none;" x1="1738" x2="250" y1="779.4"
      /><line y2="716.52" style="fill:none;" x1="1738" x2="250" y1="716.52"
      /><line y2="653.64" style="fill:none;" x1="1738" x2="250" y1="653.64"
      /><line y2="590.76" style="fill:none;" x1="1738" x2="250" y1="590.76"
      /><line y2="527.88" style="fill:none;" x1="1738" x2="250" y1="527.88"
      /><line y2="402.12" style="fill:none;" x1="1738" x2="250" y1="402.12"
      /><line y2="339.24" style="fill:none;" x1="1738" x2="250" y1="339.24"
      /><line y2="276.36" style="fill:none;" x1="1738" x2="250" y1="276.36"
      /><line y2="213.48" style="fill:none;" x1="1738" x2="250" y1="213.48"
      /><line y2="150.6" style="fill:none;" x1="1738" x2="250" y1="150.6"
      /><line x1="250" x2="1738" y1="465" style="stroke-linecap:square; fill-opacity:1; fill:none; stroke-opacity:1;" y2="465"
      /><line x1="1738" x2="1738" y1="858" style="stroke-linecap:square; fill-opacity:1; fill:none; stroke-opacity:1;" y2="72"
      /><line x1="1738" x2="1723.12" y1="779.4" style="stroke-linecap:square; fill-opacity:1; fill:none; stroke-opacity:1;" y2="779.4"
      /><line x1="1738" x2="1723.12" y1="716.52" style="stroke-linecap:square; fill-opacity:1; fill:none; stroke-opacity:1;" y2="716.52"
      /><line x1="1738" x2="1723.12" y1="653.64" style="stroke-linecap:square; fill-opacity:1; fill:none; stroke-opacity:1;" y2="653.64"
      /><line x1="1738" x2="1723.12" y1="590.76" style="stroke-linecap:square; fill-opacity:1; fill:none; stroke-opacity:1;" y2="590.76"
      /><line x1="1738" x2="1723.12" y1="527.88" style="stroke-linecap:square; fill-opacity:1; fill:none; stroke-opacity:1;" y2="527.88"
      /><line x1="1738" x2="1723.12" y1="402.12" style="stroke-linecap:square; fill-opacity:1; fill:none; stroke-opacity:1;" y2="402.12"
      /><line x1="1738" x2="1723.12" y1="339.24" style="stroke-linecap:square; fill-opacity:1; fill:none; stroke-opacity:1;" y2="339.24"
      /><line x1="1738" x2="1723.12" y1="276.36" style="stroke-linecap:square; fill-opacity:1; fill:none; stroke-opacity:1;" y2="276.36"
      /><line x1="1738" x2="1723.12" y1="213.48" style="stroke-linecap:square; fill-opacity:1; fill:none; stroke-opacity:1;" y2="213.48"
      /><line x1="1738" x2="1723.12" y1="150.6" style="stroke-linecap:square; fill-opacity:1; fill:none; stroke-opacity:1;" y2="150.6"
    /></g
    ><g transform="translate(1743.3334,779.4)" style="font-size:13px; fill:rgb(38,38,38); text-rendering:geometricPrecision; color-rendering:optimizeQuality; image-rendering:optimizeQuality; color-interpolation:linearRGB; stroke:rgb(38,38,38);"
    ><text x="0" xml:space="preserve" y="5.5" style="stroke:none;"
      >-2</text
    ></g
    ><g transform="translate(1743.3334,716.52)" style="font-size:13px; fill:rgb(38,38,38); text-rendering:geometricPrecision; color-rendering:optimizeQuality; image-rendering:optimizeQuality; color-interpolation:linearRGB; stroke:rgb(38,38,38);"
    ><text x="0" xml:space="preserve" y="5.5" style="stroke:none;"
      >-1.6</text
    ></g
    ><g transform="translate(1743.3334,653.64)" style="font-size:13px; fill:rgb(38,38,38); text-rendering:geometricPrecision; color-rendering:optimizeQuality; image-rendering:optimizeQuality; color-interpolation:linearRGB; stroke:rgb(38,38,38);"
    ><text x="0" xml:space="preserve" y="5.5" style="stroke:none;"
      >-1.2</text
    ></g
    ><g transform="translate(1743.3334,590.76)" style="font-size:13px; fill:rgb(38,38,38); text-rendering:geometricPrecision; color-rendering:optimizeQuality; image-rendering:optimizeQuality; color-interpolation:linearRGB; stroke:rgb(38,38,38);"
    ><text x="0" xml:space="preserve" y="5.5" style="stroke:none;"
      >-0.8</text
    ></g
    ><g transform="translate(1743.3334,527.88)" style="font-size:13px; fill:rgb(38,38,38); text-rendering:geometricPrecision; color-rendering:optimizeQuality; image-rendering:optimizeQuality; color-interpolation:linearRGB; stroke:rgb(38,38,38);"
    ><text x="0" xml:space="preserve" y="5.5" style="stroke:none;"
      >-0.4</text
    ></g
    ><g transform="translate(1743.3334,402.12)" style="font-size:13px; fill:rgb(38,38,38); text-rendering:geometricPrecision; color-rendering:optimizeQuality; image-rendering:optimizeQuality; color-interpolation:linearRGB; stroke:rgb(38,38,38);"
    ><text x="0" xml:space="preserve" y="5.5" style="stroke:none;"
      >0.4</text
    ></g
    ><g transform="translate(1743.3334,339.24)" style="font-size:13px; fill:rgb(38,38,38); text-rendering:geometricPrecision; color-rendering:optimizeQuality; image-rendering:optimizeQuality; color-interpolation:linearRGB; stroke:rgb(38,38,38);"
    ><text x="0" xml:space="preserve" y="5.5" style="stroke:none;"
      >0.8</text
    ></g
    ><g transform="translate(1743.3334,276.36)" style="font-size:13px; fill:rgb(38,38,38); text-rendering:geometricPrecision; color-rendering:optimizeQuality; image-rendering:optimizeQuality; color-interpolation:linearRGB; stroke:rgb(38,38,38);"
    ><text x="0" xml:space="preserve" y="5.5" style="stroke:none;"
      >1.2</text
    ></g
    ><g transform="translate(1743.3334,213.48)" style="font-size:13px; fill:rgb(38,38,38); text-rendering:geometricPrecision; color-rendering:optimizeQuality; image-rendering:optimizeQuality; color-interpolation:linearRGB; stroke:rgb(38,38,38);"
    ><text x="0" xml:space="preserve" y="5.5" style="stroke:none;"
      >1.6</text
    ></g
    ><g transform="translate(1743.3334,150.6)" style="font-size:13px; fill:rgb(38,38,38); text-rendering:geometricPrecision; color-rendering:optimizeQuality; image-rendering:optimizeQuality; color-interpolation:linearRGB; stroke:rgb(38,38,38);"
    ><text x="0" xml:space="preserve" y="5.5" style="stroke:none;"
      >2</text
    ></g
    ><g transform="translate(1738,65)" style="font-size:13px; fill:rgb(38,38,38); text-rendering:geometricPrecision; color-rendering:optimizeQuality; image-rendering:optimizeQuality; font-family:'mwb_cmsy10'; color-interpolation:linearRGB; stroke:rgb(38,38,38);"
    ><text x="0" xml:space="preserve" y="0" style="stroke:none;"
      >#</text
    ></g
    ><g transform="translate(1749,65)" style="font-size:13px; fill:rgb(38,38,38); text-rendering:geometricPrecision; color-rendering:optimizeQuality; image-rendering:optimizeQuality; color-interpolation:linearRGB; stroke:rgb(38,38,38);"
    ><text x="0" xml:space="preserve" y="0" style="stroke:none;"
      >10</text
    ></g
    ><g transform="translate(1764,59)" style="font-size:11px; fill:rgb(38,38,38); text-rendering:geometricPrecision; color-rendering:optimizeQuality; image-rendering:optimizeQuality; color-interpolation:linearRGB; stroke:rgb(38,38,38);"
    ><text x="0" xml:space="preserve" y="0" style="stroke:none;"
      >4</text
    ></g
    ><g transform="translate(994.0009,69.25)" style="font-size:15px; text-rendering:geometricPrecision; color-rendering:optimizeQuality; image-rendering:optimizeQuality; color-interpolation:linearRGB; font-weight:bold;"
    ><text x="-55" xml:space="preserve" y="-4" style="stroke:none;"
      >Zero-Poles plot</text
    ></g
    ><g style="text-rendering:geometricPrecision; color-interpolation:linearRGB; color-rendering:optimizeQuality; stroke-linejoin:round; stroke-linecap:butt; image-rendering:optimizeQuality;"
    ><line y2="137" style="fill:none;" x1="261" x2="268" y1="144"
      /><line y2="144" style="fill:none;" x1="261" x2="268" y1="137"
      /><line y2="289" style="fill:none;" x1="948" x2="955" y1="296"
      /><line y2="296" style="fill:none;" x1="948" x2="955" y1="289"
      /><line y2="148" style="fill:none;" x1="1546" x2="1553" y1="155"
      /><line y2="155" style="fill:none;" x1="1546" x2="1553" y1="148"
      /><line y2="267" style="fill:none;" x1="1617" x2="1624" y1="274"
      /><line y2="274" style="fill:none;" x1="1617" x2="1624" y1="267"
      /><line y2="786" style="fill:none;" x1="261" x2="268" y1="793"
      /><line y2="793" style="fill:none;" x1="261" x2="268" y1="786"
      /><line y2="634" style="fill:none;" x1="948" x2="955" y1="641"
      /><line y2="641" style="fill:none;" x1="948" x2="955" y1="634"
      /><line y2="775" style="fill:none;" x1="1546" x2="1553" y1="782"
      /><line y2="782" style="fill:none;" x1="1546" x2="1553" y1="775"
      /><line y2="656" style="fill:none;" x1="1617" x2="1624" y1="663"
      /><line y2="663" style="fill:none;" x1="1617" x2="1624" y1="656"
      /><path d="M1741.4814 218.5 L1740.6082 216.3918 L1738.5 215.5186 L1736.3918 216.3918 L1735.5186 218.5 L1736.3918 220.6082 L1738.5 221.4814 L1740.6082 220.6082 Z" style="fill:none; fill-rule:evenodd;"
      /><path d="M1741.4814 711.5 L1740.6082 709.3918 L1738.5 708.5186 L1736.3918 709.3918 L1735.5186 711.5 L1736.3918 713.6082 L1738.5 714.4814 L1740.6082 713.6082 Z" style="fill:none; fill-rule:evenodd;"
      /><path d="M1744.4629 218.5 L1743.6639 215.5186 L1741.4814 213.336 L1738.5 212.5372 L1735.5186 213.336 L1733.3361 215.5186 L1732.5371 218.5 L1733.3361 221.4814 L1735.5186 223.664 L1738.5 224.4628 L1741.4814 223.664 L1743.6639 221.4814 Z" style="fill:none; fill-rule:evenodd;"
      /><path d="M1744.4629 711.5 L1743.6639 708.5186 L1741.4814 706.336 L1738.5 705.5372 L1735.5186 706.336 L1733.3361 708.5186 L1732.5371 711.5 L1733.3361 714.4814 L1735.5186 716.664 L1738.5 717.4628 L1741.4814 716.664 L1743.6639 714.4814 Z" style="fill:none; fill-rule:evenodd;"
      /><path d="M1747.4442 218.5 L1746.5585 214.6192 L1744.0767 211.5071 L1740.4902 209.78 L1736.5098 209.78 L1732.9233 211.5071 L1730.4415 214.6192 L1729.5558 218.5 L1730.4415 222.3808 L1732.9233 225.4929 L1736.5098 227.22 L1740.4902 227.22 L1744.0767 225.4929 L1746.5585 222.3808 Z" style="fill:none; fill-rule:evenodd;"
      /><path d="M1747.4442 711.5 L1746.5585 707.6192 L1744.0767 704.5071 L1740.4902 702.78 L1736.5098 702.78 L1732.9233 704.5071 L1730.4415 707.6192 L1729.5558 711.5 L1730.4415 715.3808 L1732.9233 718.4929 L1736.5098 720.22 L1740.4902 720.22 L1744.0767 718.4929 L1746.5585 715.3808 Z" style="fill:none; fill-rule:evenodd;"
      /><path d="M1750.047 218.5 L1749.1681 214.0811 L1746.6649 210.335 L1742.9188 207.832 L1738.5 206.953 L1734.0812 207.832 L1730.3351 210.335 L1727.8319 214.0811 L1726.953 218.5 L1727.8319 222.9189 L1730.3351 226.665 L1734.0812 229.168 L1738.5 230.047 L1742.9188 229.168 L1746.6649 226.665 L1749.1681 222.9189 Z" style="fill:none; fill-rule:evenodd;"
      /><path d="M1750.047 711.5 L1749.1681 707.0812 L1746.6649 703.335 L1742.9188 700.832 L1738.5 699.953 L1734.0812 700.832 L1730.3351 703.335 L1727.8319 707.0812 L1726.953 711.5 L1727.8319 715.9188 L1730.3351 719.665 L1734.0812 722.168 L1738.5 723.047 L1742.9188 722.168 L1746.6649 719.665 L1749.1681 715.9188 Z" style="fill:none; fill-rule:evenodd;"
    /></g
    ><g transform="translate(1656.4,174.18)" style="text-rendering:geometricPrecision; font-size:13px; color-interpolation:linearRGB; color-rendering:optimizeQuality; image-rendering:optimizeQuality;"
    ><text x="0" xml:space="preserve" y="5.5" style="stroke:none;"
      >4 zeros</text
    ></g
    ><g transform="translate(1656.4,755.82)" style="text-rendering:geometricPrecision; font-size:13px; color-interpolation:linearRGB; color-rendering:optimizeQuality; image-rendering:optimizeQuality;"
    ><text x="0" xml:space="preserve" y="5.5" style="stroke:none;"
      >4 zeros</text
    ></g
    ><g transform="translate(293,157)" style="text-rendering:geometricPrecision; font-size:13px; color-interpolation:linearRGB; color-rendering:optimizeQuality; image-rendering:optimizeQuality;"
    ><text x="0" xml:space="preserve" y="0" style="stroke:none;"
      >ω</text
    ></g
    ><g transform="translate(304,163)" style="text-rendering:geometricPrecision; font-size:11px; color-interpolation:linearRGB; color-rendering:optimizeQuality; image-rendering:optimizeQuality;"
    ><text x="0" xml:space="preserve" y="0" style="stroke:none;"
      >01</text
    ></g
    ><g transform="translate(981,308)" style="text-rendering:geometricPrecision; font-size:13px; color-interpolation:linearRGB; color-rendering:optimizeQuality; image-rendering:optimizeQuality;"
    ><text x="0" xml:space="preserve" y="0" style="stroke:none;"
      >ω</text
    ></g
    ><g transform="translate(992,314)" style="text-rendering:geometricPrecision; font-size:11px; color-interpolation:linearRGB; color-rendering:optimizeQuality; image-rendering:optimizeQuality;"
    ><text x="0" xml:space="preserve" y="0" style="stroke:none;"
      >02</text
    ></g
    ><g transform="translate(1578,142)" style="text-rendering:geometricPrecision; font-size:13px; color-interpolation:linearRGB; color-rendering:optimizeQuality; image-rendering:optimizeQuality;"
    ><text x="0" xml:space="preserve" y="0" style="stroke:none;"
      >ω</text
    ></g
    ><g transform="translate(1589,148)" style="text-rendering:geometricPrecision; font-size:11px; color-interpolation:linearRGB; color-rendering:optimizeQuality; image-rendering:optimizeQuality;"
    ><text x="0" xml:space="preserve" y="0" style="stroke:none;"
      >03</text
    ></g
    ><g transform="translate(1650,261)" style="text-rendering:geometricPrecision; font-size:13px; color-interpolation:linearRGB; color-rendering:optimizeQuality; image-rendering:optimizeQuality;"
    ><text x="0" xml:space="preserve" y="0" style="stroke:none;"
      >ω</text
    ></g
    ><g transform="translate(1661,267)" style="text-rendering:geometricPrecision; font-size:11px; color-interpolation:linearRGB; color-rendering:optimizeQuality; image-rendering:optimizeQuality;"
    ><text x="0" xml:space="preserve" y="0" style="stroke:none;"
      >04</text
    ></g
    ><g transform="translate(293,779)" style="text-rendering:geometricPrecision; font-size:13px; color-interpolation:linearRGB; color-rendering:optimizeQuality; image-rendering:optimizeQuality;"
    ><text x="0" xml:space="preserve" y="0" style="stroke:none;"
      >ω</text
    ></g
    ><g transform="translate(304,785)" style="text-rendering:geometricPrecision; font-size:11px; color-interpolation:linearRGB; color-rendering:optimizeQuality; image-rendering:optimizeQuality;"
    ><text x="0" xml:space="preserve" y="0" style="stroke:none;"
      >01</text
    ></g
    ><g transform="translate(981,628)" style="text-rendering:geometricPrecision; font-size:13px; color-interpolation:linearRGB; color-rendering:optimizeQuality; image-rendering:optimizeQuality;"
    ><text x="0" xml:space="preserve" y="0" style="stroke:none;"
      >ω</text
    ></g
    ><g transform="translate(992,634)" style="text-rendering:geometricPrecision; font-size:11px; color-interpolation:linearRGB; color-rendering:optimizeQuality; image-rendering:optimizeQuality;"
    ><text x="0" xml:space="preserve" y="0" style="stroke:none;"
      >02</text
    ></g
    ><g transform="translate(1578,794)" style="text-rendering:geometricPrecision; font-size:13px; color-interpolation:linearRGB; color-rendering:optimizeQuality; image-rendering:optimizeQuality;"
    ><text x="0" xml:space="preserve" y="0" style="stroke:none;"
      >ω</text
    ></g
    ><g transform="translate(1589,800)" style="text-rendering:geometricPrecision; font-size:11px; color-interpolation:linearRGB; color-rendering:optimizeQuality; image-rendering:optimizeQuality;"
    ><text x="0" xml:space="preserve" y="0" style="stroke:none;"
      >03</text
    ></g
    ><g transform="translate(1650,675)" style="text-rendering:geometricPrecision; font-size:13px; color-interpolation:linearRGB; color-rendering:optimizeQuality; image-rendering:optimizeQuality;"
    ><text x="0" xml:space="preserve" y="0" style="stroke:none;"
      >ω</text
    ></g
    ><g transform="translate(1661,681)" style="text-rendering:geometricPrecision; font-size:11px; color-interpolation:linearRGB; color-rendering:optimizeQuality; image-rendering:optimizeQuality;"
    ><text x="0" xml:space="preserve" y="0" style="stroke:none;"
      >04</text
    ></g
    ><g style="stroke-linecap:butt; text-rendering:geometricPrecision; color-rendering:optimizeQuality; image-rendering:optimizeQuality; stroke-linejoin:round; color-interpolation:linearRGB; stroke-width:0.6667;"
    ><line y2="789.0009" style="fill:none;" x1="264.3369" x2="264.3369" y1="140.9991"
      /><line y2="637.8499" style="fill:none;" x1="951.822" x2="951.822" y1="292.1502"
      /><line y2="778.4844" style="fill:none;" x1="1549.0641" x2="1549.0641" y1="151.5156"
      /><line y2="659.2015" style="fill:none;" x1="1620.9554" x2="1620.9554" y1="270.7985"
      /><line x1="1738" x2="264.3369" y1="465" style="fill:none; stroke-linejoin:bevel; stroke-dasharray:10,6; stroke-miterlimit:1;" y2="140.9991"
      /><line x1="1738" x2="1549.0641" y1="465" style="fill:none; stroke-linejoin:bevel; stroke-dasharray:10,6; stroke-miterlimit:1;" y2="151.5156"
      /><line x1="1738" x2="264.3369" y1="465" style="fill:none; stroke-linejoin:bevel; stroke-dasharray:10,6; stroke-miterlimit:1;" y2="789.0009"
      /><line x1="1738" x2="1549.0641" y1="465" style="fill:none; stroke-linejoin:bevel; stroke-dasharray:10,6; stroke-miterlimit:1;" y2="778.4844"
      /><line y2="209.047" style="fill:none;" x1="1678.0801" x2="1719.8843" y1="182.2924"
      /><path d="M1718.6489 202.3201 L1727.184 213.7188 L1719.8843 209.047 L1718.6489 202.3201" style="fill:none; fill-rule:evenodd;"
      /><path d="M1727.184 213.7188 L1713.2584 210.7428 L1719.8843 209.047 L1727.184 213.7188" style="fill:none; fill-rule:evenodd;"
    /></g
    ><g style="text-rendering:optimizeSpeed; shape-rendering:crispEdges; color-interpolation:sRGB; color-rendering:optimizeSpeed; image-rendering:optimizeSpeed;"
    ><path style="stroke:none;" d="M1718.6489 202.3201 L1727.184 213.7188 L1719.8843 209.047 Z"
      /><path style="stroke:none;" d="M1727.184 213.7188 L1713.2584 210.7428 L1719.8843 209.047 Z"
    /></g
    ><g style="stroke-linecap:butt; text-rendering:geometricPrecision; color-rendering:optimizeQuality; image-rendering:optimizeQuality; stroke-linejoin:round; color-interpolation:linearRGB; stroke-width:0.6667;"
    ><line y2="721.213" style="fill:none;" x1="1678.0801" x2="1719.8843" y1="747.9676"
      /><path d="M1713.2584 719.5172 L1727.184 716.5412 L1719.8843 721.213 L1713.2584 719.5172" style="fill:none; fill-rule:evenodd;"
      /><path d="M1727.184 716.5412 L1718.6489 727.9399 L1719.8843 721.213 L1727.184 716.5412" style="fill:none; fill-rule:evenodd;"
    /></g
    ><g style="text-rendering:optimizeSpeed; shape-rendering:crispEdges; color-interpolation:sRGB; color-rendering:optimizeSpeed; image-rendering:optimizeSpeed;"
    ><path style="stroke:none;" d="M1713.2584 719.5172 L1727.184 716.5412 L1719.8843 721.213 Z"
      /><path style="stroke:none;" d="M1727.184 716.5412 L1718.6489 727.9399 L1719.8843 721.213 Z"
    /></g
  ></g
></svg
>
