X--Trace 1::[Signal],Y--Trace 1::[Signal],,X--Trace 2::[Ref_Line],Y--Trace 2::[Ref_Line]
0,0.398438,,0,0
100,7.07935e-009,,0,0
200,5.00586e-009,,0,0
300,7.07935e-009,,0,0
400,0.0112674,,0,0
500,7.07935e-009,,0,0
600,5.00586e-009,,0,0
700,7.07935e-009,,0,0
800,0.00743772,,0,0
900,7.07935e-009,,0,0
1000,5.00586e-009,,0,0
1100,7.07935e-009,,0,0
1200,0.00100319,,0,0
1300,7.07935e-009,,0,0
1400,5.00586e-009,,0,0
1500,7.07935e-009,,0,0
1600,0.0101378,,0,0
1700,7.07935e-009,,0,0
1800,5.00586e-009,,0,0
1900,7.07935e-009,,0,0
2000,0.604504,,0,0
2100,7.07935e-009,,0,0
2200,5.00586e-009,,0,0
2300,7.07935e-009,,0,0
2400,0.00329664,,0,0
2500,7.07935e-009,,0,0
2600,5.00586e-009,,0,0
2700,7.07935e-009,,0,0
2800,0.00569687,,0,0
2900,7.07935e-009,,0,0
3000,5.00586e-009,,0,0
3100,7.07935e-009,,0,0
3200,0.00800709,,0,0
3300,7.07935e-009,,0,0
3400,5.00586e-009,,0,0
3500,7.07935e-009,,0,0
3600,0.00464353,,0,0
3700,7.07935e-009,,0,0
3800,5.00586e-009,,0,0
3900,7.07935e-009,,0,0
4000,0.189636,,0,0
4100,7.07935e-009,,0,0
4200,5.00586e-009,,0,0
4300,7.07935e-009,,0,0
4400,0.0137721,,0,0
4500,7.07935e-009,,0,0
4600,5.00586e-009,,0,0
4700,7.07935e-009,,0,0
4800,0.00391136,,0,0
4900,7.07935e-009,,0,0
5000,5.00586e-009,,0,0
5100,7.07935e-009,,0,0
5200,0.00400935,,0,0
5300,7.07935e-009,,0,0
5400,5.00586e-009,,0,0
5500,7.07935e-009,,0,0
5600,0.0126831,,0,0
5700,7.07935e-009,,0,0
5800,5.00586e-009,,0,0
5900,7.07935e-009,,0,0
6000,0.122218,,0,0
6100,7.07935e-009,,0,0
6200,5.00586e-009,,0,0
6300,7.07935e-009,,0,0
6400,0.0053814,,0,0
6500,7.07935e-009,,0,0
6600,5.00586e-009,,0,0
6700,7.07935e-009,,0,0
6800,0.00821198,,0,0
6900,7.07935e-009,,0,0
7000,5.00586e-009,,0,0
7100,7.07935e-009,,0,0
7200,0.00544371,,0,0
7300,7.07935e-009,,0,0
7400,5.00586e-009,,0,0
7500,7.07935e-009,,0,0
7600,0.00333457,,0,0
7700,7.07935e-009,,0,0
7800,5.00586e-009,,0,0
7900,7.07935e-009,,0,0
8000,0.152363,,0,0
8100,7.07935e-009,,0,0
8200,5.00586e-009,,0,0
8300,7.07935e-009,,0,0
8400,0.0108479,,0,0
8500,7.07935e-009,,0,0
8600,5.00586e-009,,0,0
8700,7.07935e-009,,0,0
8800,0.00122868,,0,0
8900,7.07935e-009,,0,0
9000,5.00586e-009,,0,0
9100,7.07935e-009,,0,0
9200,0.00738609,,0,0
9300,7.07935e-009,,0,0
9400,5.00586e-009,,0,0
9500,7.07935e-009,,0,0
9600,0.0102395,,0,0
9700,7.07935e-009,,0,0
9800,5.00586e-009,,0,0
9900,7.07935e-009,,0,0
10000,0.00312655,,0,0
10100,7.07935e-009,,0,0
10200,5.00586e-009,,0,0
10300,7.07935e-009,,0,0
10400,0.0125253,,0,0
10500,7.07935e-009,,0,0
10600,5.00586e-009,,0,0
10700,7.07935e-009,,0,0
10800,0.00751554,,0,0
10900,7.07935e-009,,0,0
11000,5.00586e-009,,0,0
11100,7.07935e-009,,0,0
11200,0.00078943,,0,0
11300,7.07935e-009,,0,0
11400,5.00586e-009,,0,0
11500,7.07935e-009,,0,0
11600,0.00956601,,0,0
11700,7.07935e-009,,0,0
11800,5.00586e-009,,0,0
11900,7.07935e-009,,0,0
12000,0.0999913,,0,0
12100,7.07935e-009,,0,0
12200,5.00586e-009,,0,0
12300,7.07935e-009,,0,0
12400,0.0032629,,0,0
12500,7.07935e-009,,0,0
12600,5.00586e-009,,0,0
12700,7.07935e-009,,0,0
12800,0.00597939,,0,0
12900,7.07935e-009,,0,0
13000,5.00586e-009,,0,0
13100,7.07935e-009,,0,0
13200,0.0078346,,0,0
13300,7.07935e-009,,0,0
13400,5.00586e-009,,0,0
13500,7.07935e-009,,0,0
13600,0.00402953,,0,0
13700,7.07935e-009,,0,0
13800,5.00586e-009,,0,0
13900,7.07935e-009,,0,0
14000,0.0560215,,0,0
14100,7.07935e-009,,0,0
14200,5.00586e-009,,0,0
14300,7.07935e-009,,0,0
14400,0.0151231,,0,0
14500,7.07935e-009,,0,0
14600,5.00586e-009,,0,0
14700,7.07935e-009,,0,0
14800,0.00382164,,0,0
14900,7.07935e-009,,0,0
15000,5.00586e-009,,0,0
15100,7.07935e-009,,0,0
15200,0.00411638,,0,0
15300,7.07935e-009,,0,0
15400,5.00586e-009,,0,0
15500,7.07935e-009,,0,0
15600,0.0117903,,0,0
15700,7.07935e-009,,0,0
15800,5.00586e-009,,0,0
15900,7.07935e-009,,0,0
16000,0.044282,,0,0
16100,7.07935e-009,,0,0
16200,5.00586e-009,,0,0
16300,7.07935e-009,,0,0
16400,0.00628746,,0,0
16500,7.07935e-009,,0,0
16600,5.00586e-009,,0,0
16700,7.07935e-009,,0,0
16800,0.00845306,,0,0
16900,7.07935e-009,,0,0
17000,5.00586e-009,,0,0
17100,7.07935e-009,,0,0
17200,0.00521596,,0,0
17300,7.07935e-009,,0,0
17400,5.00586e-009,,0,0
17500,7.07935e-009,,0,0
17600,0.00337691,,0,0
17700,7.07935e-009,,0,0
17800,5.00586e-009,,0,0
17900,7.07935e-009,,0,0
18000,0.068312,,0,0
18100,7.07935e-009,,0,0
18200,5.00586e-009,,0,0
18300,7.07935e-009,,0,0
18400,0.0117441,,0,0
18500,7.07935e-009,,0,0
18600,5.00586e-009,,0,0
18700,7.07935e-009,,0,0
18800,0.0014691,,0,0
18900,7.07935e-009,,0,0
19000,5.00586e-009,,0,0
19100,7.07935e-009,,0,0
19200,0.00735912,,0,0
19300,7.07935e-009,,0,0
19400,5.00586e-009,,0,0
19500,7.07935e-009,,0,0
19600,0.0093849,,0,0
19700,7.07935e-009,,0,0
19800,5.00586e-009,,0,0
19900,7.07935e-009,,0,0
20000,0.00313151,,0,0
20100,7.07935e-009,,0,0
20200,5.00586e-009,,0,0
20300,7.07935e-009,,0,0
20400,0.0140974,,0,0
20500,7.07935e-009,,0,0
20600,5.00586e-009,,0,0
20700,7.07935e-009,,0,0
20800,0.00762169,,0,0
20900,7.07935e-009,,0,0
21000,5.00586e-009,,0,0
21100,7.07935e-009,,0,0
21200,0.00058461,,0,0
21300,7.07935e-009,,0,0
21400,5.00586e-009,,0,0
21500,7.07935e-009,,0,0
21600,0.00910026,,0,0
21700,7.07935e-009,,0,0
21800,5.00586e-009,,0,0
21900,7.07935e-009,,0,0
22000,0.0541609,,0,0
22100,7.07935e-009,,0,0
22200,5.00586e-009,,0,0
22300,7.07935e-009,,0,0
22400,0.00323316,,0,0
22500,7.07935e-009,,0,0
22600,5.00586e-009,,0,0
22700,7.07935e-009,,0,0
22800,0.00629611,,0,0
22900,7.07935e-009,,0,0
23000,5.00586e-009,,0,0
23100,7.07935e-009,,0,0
23200,0.00769152,,0,0
23300,7.07935e-009,,0,0
23400,5.00586e-009,,0,0
23500,7.07935e-009,,0,0
23600,0.00350909,,0,0
23700,7.07935e-009,,0,0
23800,5.00586e-009,,0,0
23900,7.07935e-009,,0,0
24000,0.0337775,,0,0
24100,7.07935e-009,,0,0
24200,5.00586e-009,,0,0
24300,7.07935e-009,,0,0
24400,0.0168362,,0,0
24500,7.07935e-009,,0,0
24600,5.00586e-009,,0,0
24700,7.07935e-009,,0,0
24800,0.0037395,,0,0
24900,7.07935e-009,,0,0
25000,5.00586e-009,,0,0
25100,7.07935e-009,,0,0
25200,0.00423337,,0,0
25300,7.07935e-009,,0,0
25400,5.00586e-009,,0,0
25500,7.07935e-009,,0,0
25600,0.0110485,,0,0
25700,7.07935e-009,,0,0
25800,5.00586e-009,,0,0
25900,7.07935e-009,,0,0
26000,0.0263108,,0,0
26100,7.07935e-009,,0,0
26200,5.00586e-009,,0,0
26300,7.07935e-009,,0,0
26400,0.00742931,,0,0
26500,7.07935e-009,,0,0
26600,5.00586e-009,,0,0
26700,7.07935e-009,,0,0
26800,0.00873516,,0,0
26900,7.07935e-009,,0,0
27000,5.00586e-009,,0,0
27100,7.07935e-009,,0,0
27200,0.00501038,,0,0
27300,7.07935e-009,,0,0
27400,5.00586e-009,,0,0
27500,7.07935e-009,,0,0
27600,0.00342388,,0,0
27700,7.07935e-009,,0,0
27800,5.00586e-009,,0,0
27900,7.07935e-009,,0,0
28000,0.0443278,,0,0
28100,7.07935e-009,,0,0
28200,5.00586e-009,,0,0
28300,7.07935e-009,,0,0
28400,0.0129,,0,0
28500,7.07935e-009,,0,0
28600,5.00586e-009,,0,0
28700,7.07935e-009,,0,0
28800,0.00172823,,0,0
28900,7.07935e-009,,0,0
29000,5.00586e-009,,0,0
29100,7.07935e-009,,0,0
29200,0.00735584,,0,0
29300,7.07935e-009,,0,0
29400,5.00586e-009,,0,0
29500,7.07935e-009,,0,0
29600,0.00866424,,0,0
29700,7.07935e-009,,0,0
29800,5.00586e-009,,0,0
29900,7.07935e-009,,0,0
30000,0.00313979,,0,0
30100,7.07935e-009,,0,0
30200,5.00586e-009,,0,0
30300,7.07935e-009,,0,0
30400,0.0161149,,0,0
30500,7.07935e-009,,0,0
30600,5.00586e-009,,0,0
30700,7.07935e-009,,0,0
30800,0.00775905,,0,0
30900,7.07935e-009,,0,0
31000,5.00586e-009,,0,0
31100,7.07935e-009,,0,0
31200,0.000386253,,0,0
31300,7.07935e-009,,0,0
31400,5.00586e-009,,0,0
31500,7.07935e-009,,0,0
31600,0.00871805,,0,0
31700,7.07935e-009,,0,0
31800,5.00586e-009,,0,0
31900,7.07935e-009,,0,0
32000,0.0369973,,0,0
32100,7.07935e-009,,0,0
32200,5.00586e-009,,0,0
32300,7.07935e-009,,0,0
32400,0.00320727,,0,0
32500,7.07935e-009,,0,0
32600,5.00586e-009,,0,0
32700,7.07935e-009,,0,0
32800,0.00665296,,0,0
32900,7.07935e-009,,0,0
33000,5.00586e-009,,0,0
33100,7.07935e-009,,0,0
33200,0.00757557,,0,0
33300,7.07935e-009,,0,0
33400,5.00586e-009,,0,0
33500,7.07935e-009,,0,0
33600,0.00306077,,0,0
33700,7.07935e-009,,0,0
33800,5.00586e-009,,0,0
33900,7.07935e-009,,0,0
34000,0.0246384,,0,0
34100,7.07935e-009,,0,0
34200,5.00586e-009,,0,0
34300,7.07935e-009,,0,0
34400,0.0190699,,0,0
34500,7.07935e-009,,0,0
34600,5.00586e-009,,0,0
34700,7.07935e-009,,0,0
34800,0.00366433,,0,0
34900,7.07935e-009,,0,0
35000,5.00586e-009,,0,0
35100,7.07935e-009,,0,0
35200,0.00436133,,0,0
35300,7.07935e-009,,0,0
35400,5.00586e-009,,0,0
35500,7.07935e-009,,0,0
35600,0.0104255,,0,0
35700,7.07935e-009,,0,0
35800,5.00586e-009,,0,0
35900,7.07935e-009,,0,0
36000,0.0183314,,0,0
36100,7.07935e-009,,0,0
36200,5.00586e-009,,0,0
36300,7.07935e-009,,0,0
36400,0.00891544,,0,0
36500,7.07935e-009,,0,0
36600,5.00586e-009,,0,0
36700,7.07935e-009,,0,0
36800,0.00906442,,0,0
36900,7.07935e-009,,0,0
37000,5.00586e-009,,0,0
37100,7.07935e-009,,0,0
37200,0.00482424,,0,0
37300,7.07935e-009,,0,0
37400,5.00586e-009,,0,0
37500,7.07935e-009,,0,0
37600,0.00347578,,0,0
37700,7.07935e-009,,0,0
37800,5.00586e-009,,0,0
37900,7.07935e-009,,0,0
38000,0.0329902,,0,0
38100,7.07935e-009,,0,0
38200,5.00586e-009,,0,0
38300,7.07935e-009,,0,0
38400,0.0144355,,0,0
38500,7.07935e-009,,0,0
38600,5.00586e-009,,0,0
38700,7.07935e-009,,0,0
38800,0.00201062,,0,0
38900,7.07935e-009,,0,0
39000,5.00586e-009,,0,0
39100,7.07935e-009,,0,0
39200,0.00737571,,0,0
39300,7.07935e-009,,0,0
39400,5.00586e-009,,0,0
39500,7.07935e-009,,0,0
39600,0.00804914,,0,0
39700,7.07935e-009,,0,0
39800,5.00586e-009,,0,0
39900,7.07935e-009,,0,0
40000,0.00315144,,0,0
40100,7.07935e-009,,0,0
40200,5.00586e-009,,0,0
40300,7.07935e-009,,0,0
40400,0.0187934,,0,0
40500,7.07935e-009,,0,0
40600,5.00586e-009,,0,0
40700,7.07935e-009,,0,0
40800,0.00793146,,0,0
40900,7.07935e-009,,0,0
41000,5.00586e-009,,0,0
41100,7.07935e-009,,0,0
41200,0.000192093,,0,0
41300,7.07935e-009,,0,0
41400,5.00586e-009,,0,0
41500,7.07935e-009,,0,0
41600,0.00840323,,0,0
41700,7.07935e-009,,0,0
41800,5.00586e-009,,0,0
41900,7.07935e-009,,0,0
42000,0.0280237,,0,0
42100,7.07935e-009,,0,0
42200,5.00586e-009,,0,0
42300,7.07935e-009,,0,0
42400,0.00318509,,0,0
42500,7.07935e-009,,0,0
42600,5.00586e-009,,0,0
42700,7.07935e-009,,0,0
42800,0.00705738,,0,0
42900,7.07935e-009,,0,0
43000,5.00586e-009,,0,0
43100,7.07935e-009,,0,0
43200,0.00748502,,0,0
43300,7.07935e-009,,0,0
43400,5.00586e-009,,0,0
43500,7.07935e-009,,0,0
43600,0.00266892,,0,0
43700,7.07935e-009,,0,0
43800,5.00586e-009,,0,0
43900,7.07935e-009,,0,0
44000,0.0196711,,0,0
44100,7.07935e-009,,0,0
44200,5.00586e-009,,0,0
44300,7.07935e-009,,0,0
44400,0.0220926,,0,0
44500,7.07935e-009,,0,0
44600,5.00586e-009,,0,0
44700,7.07935e-009,,0,0
44800,0.00359562,,0,0
44900,7.07935e-009,,0,0
45000,5.00586e-009,,0,0
45100,7.07935e-009,,0,0
45200,0.0045015,,0,0
45300,7.07935e-009,,0,0
45400,5.00586e-009,,0,0
45500,7.07935e-009,,0,0
45600,0.00989798,,0,0
45700,7.07935e-009,,0,0
45800,5.00586e-009,,0,0
45900,7.07935e-009,,0,0
46000,0.0138259,,0,0
46100,7.07935e-009,,0,0
46200,5.00586e-009,,0,0
46300,7.07935e-009,,0,0
46400,0.0109318,,0,0
46500,7.07935e-009,,0,0
46600,5.00586e-009,,0,0
46700,7.07935e-009,,0,0
46800,0.00944867,,0,0
46900,7.07935e-009,,0,0
47000,5.00586e-009,,0,0
47100,7.07935e-009,,0,0
47200,0.00465525,,0,0
47300,7.07935e-009,,0,0
47400,5.00586e-009,,0,0
47500,7.07935e-009,,0,0
47600,0.00353291,,0,0
47700,7.07935e-009,,0,0
47800,5.00586e-009,,0,0
47900,7.07935e-009,,0,0
48000,0.0263961,,0,0
48100,7.07935e-009,,0,0
48200,5.00586e-009,,0,0
48300,7.07935e-009,,0,0
48400,0.0165596,,0,0
48500,7.07935e-009,,0,0
48600,5.00586e-009,,0,0
48700,7.07935e-009,,0,0
48800,0.00232185,,0,0
48900,7.07935e-009,,0,0
49000,5.00586e-009,,0,0
49100,7.07935e-009,,0,0
49200,0.00741866,,0,0
49300,7.07935e-009,,0,0
49400,5.00586e-009,,0,0
49500,7.07935e-009,,0,0
49600,0.00751876,,0,0
49700,7.07935e-009,,0,0
49800,5.00586e-009,,0,0
49900,7.07935e-009,,0,0
50000,0.00316651,,0,0
50100,7.07935e-009,,0,0
50200,5.00586e-009,,0,0
50300,7.07935e-009,,0,0
50400,0.0225146,,0,0
50500,7.07935e-009,,0,0
50600,5.00586e-009,,0,0
50700,7.07935e-009,,0,0
50800,0.00814397,,0,0
50900,7.07935e-009,,0,0
51000,5.00586e-009,,0,0
51100,7.07935e-009,,0,0
