<?xml version="1.0" encoding="utf-8"?>
<!-- Generator: Adobe Illustrator 19.0.0, SVG Export Plug-In . SVG Version: 6.00 Build 0)  -->
<svg version="1.1" id="Layer_1" xmlns="http://www.w3.org/2000/svg" xmlns:xlink="http://www.w3.org/1999/xlink" x="0px" y="0px"
	 viewBox="858.7949219 -33.6191406 1543.3222656 854.1572266"
	 style="enable-background:new 858.7949219 -33.6191406 1543.3222656 854.1572266;" xml:space="preserve">
<style type="text/css">
	
		.st0{fill:none;stroke:#1A1A1A;stroke-width:0.6667;stroke-linejoin:bevel;stroke-miterlimit:1;stroke-opacity:0.251;stroke-dasharray:1,3;}
	.st1{fill:none;stroke:#262626;stroke-width:0.6667;stroke-linejoin:round;stroke-miterlimit:10;stroke-opacity:0.149;}
	.st2{fill:none;stroke:#262626;stroke-width:0.6667;stroke-linecap:square;stroke-linejoin:round;stroke-miterlimit:10;}
	.st3{fill:#262626;}
	.st4{font-family:'ArialMT';}
	.st5{font-size:13px;}
	.st6{font-size:11px;}
	.st7{font-size:15px;}
	.st8{font-family:'Arial-BoldMT';}
	.st9{fill:none;stroke:#0072BD;stroke-width:0.6667;stroke-linejoin:round;stroke-miterlimit:10;}
</style>
<g>
	<g>
		<line class="st0" x1="967.9903564" y1="772" x2="967.9903564" y2="-14"/>
		<line class="st0" x1="1005.4223022" y1="772" x2="1005.4223022" y2="-14"/>
		<line class="st0" x1="1031.9807129" y1="772" x2="1031.9807129" y2="-14"/>
		<line class="st0" x1="1052.5810547" y1="772" x2="1052.5810547" y2="-14"/>
		<line class="st0" x1="1069.4127197" y1="772" x2="1069.4127197" y2="-14"/>
		<line class="st0" x1="1083.6436768" y1="772" x2="1083.6436768" y2="-14"/>
		<line class="st0" x1="1095.9710693" y1="772" x2="1095.9710693" y2="-14"/>
		<line class="st0" x1="1106.8447266" y1="772" x2="1106.8447266" y2="-14"/>
		<line class="st0" x1="1180.5617676" y1="772" x2="1180.5617676" y2="-14"/>
		<line class="st0" x1="1217.9937744" y1="772" x2="1217.9937744" y2="-14"/>
		<line class="st0" x1="1244.5522461" y1="772" x2="1244.5522461" y2="-14"/>
		<line class="st0" x1="1265.1525879" y1="772" x2="1265.1525879" y2="-14"/>
		<line class="st0" x1="1281.9841309" y1="772" x2="1281.9841309" y2="-14"/>
		<line class="st0" x1="1296.2150879" y1="772" x2="1296.2150879" y2="-14"/>
		<line class="st0" x1="1308.5424805" y1="772" x2="1308.5424805" y2="-14"/>
		<line class="st0" x1="1319.4160156" y1="772" x2="1319.4160156" y2="-14"/>
		<line class="st0" x1="1393.1331787" y1="772" x2="1393.1331787" y2="-14"/>
		<line class="st0" x1="1430.5651855" y1="772" x2="1430.5651855" y2="-14"/>
		<line class="st0" x1="1457.1235352" y1="772" x2="1457.1235352" y2="-14"/>
		<line class="st0" x1="1477.723877" y1="772" x2="1477.723877" y2="-14"/>
		<line class="st0" x1="1494.5556641" y1="772" x2="1494.5556641" y2="-14"/>
		<line class="st0" x1="1508.7866211" y1="772" x2="1508.7866211" y2="-14"/>
		<line class="st0" x1="1521.1140137" y1="772" x2="1521.1140137" y2="-14"/>
		<line class="st0" x1="1531.9875488" y1="772" x2="1531.9875488" y2="-14"/>
		<line class="st0" x1="1605.7047119" y1="772" x2="1605.7047119" y2="-14"/>
		<line class="st0" x1="1643.1367188" y1="772" x2="1643.1367188" y2="-14"/>
		<line class="st0" x1="1669.6950684" y1="772" x2="1669.6950684" y2="-14"/>
		<line class="st0" x1="1690.2952881" y1="772" x2="1690.2952881" y2="-14"/>
		<line class="st0" x1="1707.1270752" y1="772" x2="1707.1270752" y2="-14"/>
		<line class="st0" x1="1721.3580322" y1="772" x2="1721.3580322" y2="-14"/>
		<line class="st0" x1="1733.6854248" y1="772" x2="1733.6854248" y2="-14"/>
		<line class="st0" x1="1744.559082" y1="772" x2="1744.559082" y2="-14"/>
		<line class="st0" x1="1818.276123" y1="772" x2="1818.276123" y2="-14"/>
		<line class="st0" x1="1855.7081299" y1="772" x2="1855.7081299" y2="-14"/>
		<line class="st0" x1="1882.2664795" y1="772" x2="1882.2664795" y2="-14"/>
		<line class="st0" x1="1902.8668213" y1="772" x2="1902.8668213" y2="-14"/>
		<line class="st0" x1="1919.6984863" y1="772" x2="1919.6984863" y2="-14"/>
		<line class="st0" x1="1933.9294434" y1="772" x2="1933.9294434" y2="-14"/>
		<line class="st0" x1="1946.2568359" y1="772" x2="1946.2568359" y2="-14"/>
		<line class="st0" x1="1957.1304932" y1="772" x2="1957.1304932" y2="-14"/>
		<line class="st0" x1="2030.8475342" y1="772" x2="2030.8475342" y2="-14"/>
		<line class="st0" x1="2068.279541" y1="772" x2="2068.279541" y2="-14"/>
		<line class="st0" x1="2094.8378906" y1="772" x2="2094.8378906" y2="-14"/>
		<line class="st0" x1="2115.4382324" y1="772" x2="2115.4382324" y2="-14"/>
		<line class="st0" x1="2132.2700195" y1="772" x2="2132.2700195" y2="-14"/>
		<line class="st0" x1="2146.5009766" y1="772" x2="2146.5009766" y2="-14"/>
		<line class="st0" x1="2158.828125" y1="772" x2="2158.828125" y2="-14"/>
		<line class="st0" x1="2169.7019043" y1="772" x2="2169.7019043" y2="-14"/>
		<line class="st0" x1="2243.4189453" y1="772" x2="2243.4189453" y2="-14"/>
		<line class="st0" x1="2280.8510742" y1="772" x2="2280.8510742" y2="-14"/>
		<line class="st0" x1="2307.4091797" y1="772" x2="2307.4091797" y2="-14"/>
		<line class="st0" x1="2328.0097656" y1="772" x2="2328.0097656" y2="-14"/>
		<line class="st0" x1="2344.8413086" y1="772" x2="2344.8413086" y2="-14"/>
		<line class="st0" x1="2359.0722656" y1="772" x2="2359.0722656" y2="-14"/>
		<line class="st0" x1="2371.3996582" y1="772" x2="2371.3996582" y2="-14"/>
		<line class="st0" x1="2382.2734375" y1="772" x2="2382.2734375" y2="-14"/>
	</g>
	<g>
		<line class="st1" x1="904" y1="772" x2="904" y2="-14"/>
		<line class="st1" x1="1116.5714111" y1="772" x2="1116.5714111" y2="-14"/>
		<line class="st1" x1="1329.1428223" y1="772" x2="1329.1428223" y2="-14"/>
		<line class="st1" x1="1541.7143555" y1="772" x2="1541.7143555" y2="-14"/>
		<line class="st1" x1="1754.2857666" y1="772" x2="1754.2857666" y2="-14"/>
		<line class="st1" x1="1966.8571777" y1="772" x2="1966.8571777" y2="-14"/>
		<line class="st1" x1="2179.4287109" y1="772" x2="2179.4287109" y2="-14"/>
		<line class="st1" x1="2392" y1="772" x2="2392" y2="-14"/>
		<line class="st1" x1="2392" y1="772" x2="904" y2="772"/>
		<line class="st1" x1="2392" y1="641" x2="904" y2="641"/>
		<line class="st1" x1="2392" y1="510" x2="904" y2="510"/>
		<line class="st1" x1="2392" y1="379" x2="904" y2="379"/>
		<line class="st1" x1="2392" y1="248" x2="904" y2="248"/>
		<line class="st1" x1="2392" y1="117" x2="904" y2="117"/>
		<line class="st1" x1="2392" y1="-14" x2="904" y2="-14"/>
		<line class="st2" x1="904" y1="772" x2="2392" y2="772"/>
		<line class="st2" x1="904" y1="-14" x2="2392" y2="-14"/>
		<line class="st2" x1="904" y1="772" x2="904" y2="757.1199951"/>
		<line class="st2" x1="1116.5714111" y1="772" x2="1116.5714111" y2="757.1199951"/>
		<line class="st2" x1="1329.1428223" y1="772" x2="1329.1428223" y2="757.1199951"/>
		<line class="st2" x1="1541.7143555" y1="772" x2="1541.7143555" y2="757.1199951"/>
		<line class="st2" x1="1754.2857666" y1="772" x2="1754.2857666" y2="757.1199951"/>
		<line class="st2" x1="1966.8571777" y1="772" x2="1966.8571777" y2="757.1199951"/>
		<line class="st2" x1="2179.4287109" y1="772" x2="2179.4287109" y2="757.1199951"/>
		<line class="st2" x1="2392" y1="772" x2="2392" y2="757.1199951"/>
		<line class="st2" x1="904" y1="-14" x2="904" y2="0.8799973"/>
		<line class="st2" x1="1116.5714111" y1="-14" x2="1116.5714111" y2="0.8799973"/>
		<line class="st2" x1="1329.1428223" y1="-14" x2="1329.1428223" y2="0.8799973"/>
		<line class="st2" x1="1541.7143555" y1="-14" x2="1541.7143555" y2="0.8799973"/>
		<line class="st2" x1="1754.2857666" y1="-14" x2="1754.2857666" y2="0.8799973"/>
		<line class="st2" x1="1966.8571777" y1="-14" x2="1966.8571777" y2="0.8799973"/>
		<line class="st2" x1="2179.4287109" y1="-14" x2="2179.4287109" y2="0.8799973"/>
		<line class="st2" x1="2392" y1="-14" x2="2392" y2="0.8799973"/>
		<line class="st2" x1="967.9903564" y1="772" x2="967.9903564" y2="764.5599976"/>
		<line class="st2" x1="1005.4223022" y1="772" x2="1005.4223022" y2="764.5599976"/>
		<line class="st2" x1="1031.9807129" y1="772" x2="1031.9807129" y2="764.5599976"/>
		<line class="st2" x1="1052.5810547" y1="772" x2="1052.5810547" y2="764.5599976"/>
		<line class="st2" x1="1069.4127197" y1="772" x2="1069.4127197" y2="764.5599976"/>
		<line class="st2" x1="1083.6436768" y1="772" x2="1083.6436768" y2="764.5599976"/>
		<line class="st2" x1="1095.9710693" y1="772" x2="1095.9710693" y2="764.5599976"/>
		<line class="st2" x1="1106.8447266" y1="772" x2="1106.8447266" y2="764.5599976"/>
		<line class="st2" x1="1180.5617676" y1="772" x2="1180.5617676" y2="764.5599976"/>
		<line class="st2" x1="1217.9937744" y1="772" x2="1217.9937744" y2="764.5599976"/>
		<line class="st2" x1="1244.5522461" y1="772" x2="1244.5522461" y2="764.5599976"/>
		<line class="st2" x1="1265.1525879" y1="772" x2="1265.1525879" y2="764.5599976"/>
		<line class="st2" x1="1281.9841309" y1="772" x2="1281.9841309" y2="764.5599976"/>
		<line class="st2" x1="1296.2150879" y1="772" x2="1296.2150879" y2="764.5599976"/>
		<line class="st2" x1="1308.5424805" y1="772" x2="1308.5424805" y2="764.5599976"/>
		<line class="st2" x1="1319.4160156" y1="772" x2="1319.4160156" y2="764.5599976"/>
		<line class="st2" x1="1393.1331787" y1="772" x2="1393.1331787" y2="764.5599976"/>
		<line class="st2" x1="1430.5651855" y1="772" x2="1430.5651855" y2="764.5599976"/>
		<line class="st2" x1="1457.1235352" y1="772" x2="1457.1235352" y2="764.5599976"/>
		<line class="st2" x1="1477.723877" y1="772" x2="1477.723877" y2="764.5599976"/>
		<line class="st2" x1="1494.5556641" y1="772" x2="1494.5556641" y2="764.5599976"/>
		<line class="st2" x1="1508.7866211" y1="772" x2="1508.7866211" y2="764.5599976"/>
		<line class="st2" x1="1521.1140137" y1="772" x2="1521.1140137" y2="764.5599976"/>
		<line class="st2" x1="1531.9875488" y1="772" x2="1531.9875488" y2="764.5599976"/>
		<line class="st2" x1="1605.7047119" y1="772" x2="1605.7047119" y2="764.5599976"/>
		<line class="st2" x1="1643.1367188" y1="772" x2="1643.1367188" y2="764.5599976"/>
		<line class="st2" x1="1669.6950684" y1="772" x2="1669.6950684" y2="764.5599976"/>
		<line class="st2" x1="1690.2952881" y1="772" x2="1690.2952881" y2="764.5599976"/>
		<line class="st2" x1="1707.1270752" y1="772" x2="1707.1270752" y2="764.5599976"/>
		<line class="st2" x1="1721.3580322" y1="772" x2="1721.3580322" y2="764.5599976"/>
		<line class="st2" x1="1733.6854248" y1="772" x2="1733.6854248" y2="764.5599976"/>
		<line class="st2" x1="1744.559082" y1="772" x2="1744.559082" y2="764.5599976"/>
		<line class="st2" x1="1818.276123" y1="772" x2="1818.276123" y2="764.5599976"/>
		<line class="st2" x1="1855.7081299" y1="772" x2="1855.7081299" y2="764.5599976"/>
		<line class="st2" x1="1882.2664795" y1="772" x2="1882.2664795" y2="764.5599976"/>
		<line class="st2" x1="1902.8668213" y1="772" x2="1902.8668213" y2="764.5599976"/>
		<line class="st2" x1="1919.6984863" y1="772" x2="1919.6984863" y2="764.5599976"/>
		<line class="st2" x1="1933.9294434" y1="772" x2="1933.9294434" y2="764.5599976"/>
		<line class="st2" x1="1946.2568359" y1="772" x2="1946.2568359" y2="764.5599976"/>
		<line class="st2" x1="1957.1304932" y1="772" x2="1957.1304932" y2="764.5599976"/>
		<line class="st2" x1="2030.8475342" y1="772" x2="2030.8475342" y2="764.5599976"/>
		<line class="st2" x1="2068.279541" y1="772" x2="2068.279541" y2="764.5599976"/>
		<line class="st2" x1="2094.8378906" y1="772" x2="2094.8378906" y2="764.5599976"/>
		<line class="st2" x1="2115.4382324" y1="772" x2="2115.4382324" y2="764.5599976"/>
		<line class="st2" x1="2132.2700195" y1="772" x2="2132.2700195" y2="764.5599976"/>
		<line class="st2" x1="2146.5009766" y1="772" x2="2146.5009766" y2="764.5599976"/>
		<line class="st2" x1="2158.828125" y1="772" x2="2158.828125" y2="764.5599976"/>
		<line class="st2" x1="2169.7019043" y1="772" x2="2169.7019043" y2="764.5599976"/>
		<line class="st2" x1="2243.4189453" y1="772" x2="2243.4189453" y2="764.5599976"/>
		<line class="st2" x1="2280.8510742" y1="772" x2="2280.8510742" y2="764.5599976"/>
		<line class="st2" x1="2307.4091797" y1="772" x2="2307.4091797" y2="764.5599976"/>
		<line class="st2" x1="2328.0097656" y1="772" x2="2328.0097656" y2="764.5599976"/>
		<line class="st2" x1="2344.8413086" y1="772" x2="2344.8413086" y2="764.5599976"/>
		<line class="st2" x1="2359.0722656" y1="772" x2="2359.0722656" y2="764.5599976"/>
		<line class="st2" x1="2371.3996582" y1="772" x2="2371.3996582" y2="764.5599976"/>
		<line class="st2" x1="2382.2734375" y1="772" x2="2382.2734375" y2="764.5599976"/>
		<line class="st2" x1="967.9903564" y1="-14" x2="967.9903564" y2="-6.5599976"/>
		<line class="st2" x1="1005.4223022" y1="-14" x2="1005.4223022" y2="-6.5599976"/>
		<line class="st2" x1="1031.9807129" y1="-14" x2="1031.9807129" y2="-6.5599976"/>
		<line class="st2" x1="1052.5810547" y1="-14" x2="1052.5810547" y2="-6.5599976"/>
		<line class="st2" x1="1069.4127197" y1="-14" x2="1069.4127197" y2="-6.5599976"/>
		<line class="st2" x1="1083.6436768" y1="-14" x2="1083.6436768" y2="-6.5599976"/>
		<line class="st2" x1="1095.9710693" y1="-14" x2="1095.9710693" y2="-6.5599976"/>
		<line class="st2" x1="1106.8447266" y1="-14" x2="1106.8447266" y2="-6.5599976"/>
		<line class="st2" x1="1180.5617676" y1="-14" x2="1180.5617676" y2="-6.5599976"/>
		<line class="st2" x1="1217.9937744" y1="-14" x2="1217.9937744" y2="-6.5599976"/>
		<line class="st2" x1="1244.5522461" y1="-14" x2="1244.5522461" y2="-6.5599976"/>
		<line class="st2" x1="1265.1525879" y1="-14" x2="1265.1525879" y2="-6.5599976"/>
		<line class="st2" x1="1281.9841309" y1="-14" x2="1281.9841309" y2="-6.5599976"/>
		<line class="st2" x1="1296.2150879" y1="-14" x2="1296.2150879" y2="-6.5599976"/>
		<line class="st2" x1="1308.5424805" y1="-14" x2="1308.5424805" y2="-6.5599976"/>
		<line class="st2" x1="1319.4160156" y1="-14" x2="1319.4160156" y2="-6.5599976"/>
		<line class="st2" x1="1393.1331787" y1="-14" x2="1393.1331787" y2="-6.5599976"/>
		<line class="st2" x1="1430.5651855" y1="-14" x2="1430.5651855" y2="-6.5599976"/>
		<line class="st2" x1="1457.1235352" y1="-14" x2="1457.1235352" y2="-6.5599976"/>
		<line class="st2" x1="1477.723877" y1="-14" x2="1477.723877" y2="-6.5599976"/>
		<line class="st2" x1="1494.5556641" y1="-14" x2="1494.5556641" y2="-6.5599976"/>
		<line class="st2" x1="1508.7866211" y1="-14" x2="1508.7866211" y2="-6.5599976"/>
		<line class="st2" x1="1521.1140137" y1="-14" x2="1521.1140137" y2="-6.5599976"/>
		<line class="st2" x1="1531.9875488" y1="-14" x2="1531.9875488" y2="-6.5599976"/>
		<line class="st2" x1="1605.7047119" y1="-14" x2="1605.7047119" y2="-6.5599976"/>
		<line class="st2" x1="1643.1367188" y1="-14" x2="1643.1367188" y2="-6.5599976"/>
		<line class="st2" x1="1669.6950684" y1="-14" x2="1669.6950684" y2="-6.5599976"/>
		<line class="st2" x1="1690.2952881" y1="-14" x2="1690.2952881" y2="-6.5599976"/>
		<line class="st2" x1="1707.1270752" y1="-14" x2="1707.1270752" y2="-6.5599976"/>
		<line class="st2" x1="1721.3580322" y1="-14" x2="1721.3580322" y2="-6.5599976"/>
		<line class="st2" x1="1733.6854248" y1="-14" x2="1733.6854248" y2="-6.5599976"/>
		<line class="st2" x1="1744.559082" y1="-14" x2="1744.559082" y2="-6.5599976"/>
		<line class="st2" x1="1818.276123" y1="-14" x2="1818.276123" y2="-6.5599976"/>
		<line class="st2" x1="1855.7081299" y1="-14" x2="1855.7081299" y2="-6.5599976"/>
		<line class="st2" x1="1882.2664795" y1="-14" x2="1882.2664795" y2="-6.5599976"/>
		<line class="st2" x1="1902.8668213" y1="-14" x2="1902.8668213" y2="-6.5599976"/>
		<line class="st2" x1="1919.6984863" y1="-14" x2="1919.6984863" y2="-6.5599976"/>
		<line class="st2" x1="1933.9294434" y1="-14" x2="1933.9294434" y2="-6.5599976"/>
		<line class="st2" x1="1946.2568359" y1="-14" x2="1946.2568359" y2="-6.5599976"/>
		<line class="st2" x1="1957.1304932" y1="-14" x2="1957.1304932" y2="-6.5599976"/>
		<line class="st2" x1="2030.8475342" y1="-14" x2="2030.8475342" y2="-6.5599976"/>
		<line class="st2" x1="2068.279541" y1="-14" x2="2068.279541" y2="-6.5599976"/>
		<line class="st2" x1="2094.8378906" y1="-14" x2="2094.8378906" y2="-6.5599976"/>
		<line class="st2" x1="2115.4382324" y1="-14" x2="2115.4382324" y2="-6.5599976"/>
		<line class="st2" x1="2132.2700195" y1="-14" x2="2132.2700195" y2="-6.5599976"/>
		<line class="st2" x1="2146.5009766" y1="-14" x2="2146.5009766" y2="-6.5599976"/>
		<line class="st2" x1="2158.828125" y1="-14" x2="2158.828125" y2="-6.5599976"/>
		<line class="st2" x1="2169.7019043" y1="-14" x2="2169.7019043" y2="-6.5599976"/>
		<line class="st2" x1="2243.4189453" y1="-14" x2="2243.4189453" y2="-6.5599976"/>
		<line class="st2" x1="2280.8510742" y1="-14" x2="2280.8510742" y2="-6.5599976"/>
		<line class="st2" x1="2307.4091797" y1="-14" x2="2307.4091797" y2="-6.5599976"/>
		<line class="st2" x1="2328.0097656" y1="-14" x2="2328.0097656" y2="-6.5599976"/>
		<line class="st2" x1="2344.8413086" y1="-14" x2="2344.8413086" y2="-6.5599976"/>
		<line class="st2" x1="2359.0722656" y1="-14" x2="2359.0722656" y2="-6.5599976"/>
		<line class="st2" x1="2371.3996582" y1="-14" x2="2371.3996582" y2="-6.5599976"/>
		<line class="st2" x1="2382.2734375" y1="-14" x2="2382.2734375" y2="-6.5599976"/>
	</g>
	<g transform="translate(237,881)">
		<text transform="matrix(1 0 0 1 654 -86)" class="st3 st4 st5">10</text>
	</g>
	<g transform="translate(252,875)">
		<text transform="matrix(1 0 0 1 654 -86)" class="st3 st4 st6">-2</text>
	</g>
	<g transform="translate(450,881)">
		<text transform="matrix(1 0 0 1 654 -86)" class="st3 st4 st5">10</text>
	</g>
	<g transform="translate(465,875)">
		<text transform="matrix(1 0 0 1 654 -86)" class="st3 st4 st6">-1</text>
	</g>
	<g transform="translate(664,881)">
		<text transform="matrix(1 0 0 1 654 -86)" class="st3 st4 st5">10</text>
	</g>
	<g transform="translate(679,875)">
		<text transform="matrix(1 0 0 1 654 -86)" class="st3 st4 st6">0</text>
	</g>
	<g transform="translate(877,881)">
		<text transform="matrix(1 0 0 1 654 -86)" class="st3 st4 st5">10</text>
	</g>
	<g transform="translate(892,875)">
		<text transform="matrix(1 0 0 1 654 -86)" class="st3 st4 st6">1</text>
	</g>
	<g transform="translate(1089,881)">
		<text transform="matrix(1 0 0 1 654 -86)" class="st3 st4 st5">10</text>
	</g>
	<g transform="translate(1104,875)">
		<text transform="matrix(1 0 0 1 654 -86)" class="st3 st4 st6">2</text>
	</g>
	<g transform="translate(1302,881)">
		<text transform="matrix(1 0 0 1 654 -86)" class="st3 st4 st5">10</text>
	</g>
	<g transform="translate(1317,875)">
		<text transform="matrix(1 0 0 1 654 -86)" class="st3 st4 st6">3</text>
	</g>
	<g transform="translate(1514,881)">
		<text transform="matrix(1 0 0 1 654 -86)" class="st3 st4 st5">10</text>
	</g>
	<g transform="translate(1529,875)">
		<text transform="matrix(1 0 0 1 654 -86)" class="st3 st4 st6">4</text>
	</g>
	<g transform="translate(1727,881)">
		<text transform="matrix(1 0 0 1 654 -86)" class="st3 st4 st5">10</text>
	</g>
	<g transform="translate(1742,875)">
		<text transform="matrix(1 0 0 1 654 -86)" class="st3 st4 st6">5</text>
	</g>
	<g transform="translate(994.0007,885.6667)">
		<text transform="matrix(1 0 0 1 602 -70)" class="st3 st4 st7">Frequency (Hz)</text>
	</g>
	<g>
		<line class="st2" x1="904" y1="772" x2="904" y2="-14"/>
		<line class="st2" x1="2392" y1="772" x2="2392" y2="-14"/>
		<line class="st2" x1="904" y1="772" x2="918.8800049" y2="772"/>
		<line class="st2" x1="904" y1="641" x2="918.8800049" y2="641"/>
		<line class="st2" x1="904" y1="510" x2="918.8800049" y2="510"/>
		<line class="st2" x1="904" y1="379" x2="918.8800049" y2="379"/>
		<line class="st2" x1="904" y1="248" x2="918.8800049" y2="248"/>
		<line class="st2" x1="904" y1="117" x2="918.8800049" y2="117"/>
		<line class="st2" x1="904" y1="-14" x2="918.8800049" y2="-14"/>
		<line class="st2" x1="2392" y1="772" x2="2377.1201172" y2="772"/>
		<line class="st2" x1="2392" y1="641" x2="2377.1201172" y2="641"/>
		<line class="st2" x1="2392" y1="510" x2="2377.1201172" y2="510"/>
		<line class="st2" x1="2392" y1="379" x2="2377.1201172" y2="379"/>
		<line class="st2" x1="2392" y1="248" x2="2377.1201172" y2="248"/>
		<line class="st2" x1="2392" y1="117" x2="2377.1201172" y2="117"/>
		<line class="st2" x1="2392" y1="-14" x2="2377.1201172" y2="-14"/>
	</g>
	<g transform="translate(244.6667,858)">
		<text transform="matrix(1 0 0 1 646 -80.5)" class="st3 st4 st5">0</text>
	</g>
	<g transform="translate(244.6667,727)">
		<text transform="matrix(1 0 0 1 635 -80.5)" class="st3 st4 st5">0.5</text>
	</g>
	<g transform="translate(244.6667,596)">
		<text transform="matrix(1 0 0 1 646 -80.5)" class="st3 st4 st5">1</text>
	</g>
	<g transform="translate(244.6667,465)">
		<text transform="matrix(1 0 0 1 635 -80.5)" class="st3 st4 st5">1.5</text>
	</g>
	<g transform="translate(244.6667,334)">
		<text transform="matrix(1 0 0 1 646 -80.5)" class="st3 st4 st5">2</text>
	</g>
	<g transform="translate(244.6667,203)">
		<text transform="matrix(1 0 0 1 635 -80.5)" class="st3 st4 st5">2.5</text>
	</g>
	<g transform="translate(244.6667,72)">
		<text transform="matrix(1 0 0 1 646 -80.5)" class="st3 st4 st5">3</text>
	</g>
	<g transform="translate(221.6667,464.9996) rotate(-90)">
		<text transform="matrix(1 0 0 1 51.4996033 650.000061)" class="st3 st4 st7">Trivial unit</text>
	</g>
	<g transform="translate(250,69)">
		<text transform="matrix(1 0 0 1 654 -86)" class="st3 st4 st5">#</text>
	</g>
	<g transform="translate(261,69)">
		<text transform="matrix(1 0 0 1 654 -86)" class="st3 st4 st5">10</text>
	</g>
	<g transform="translate(276,63)">
		<text transform="matrix(1 0 0 1 654 -86)" class="st3 st4 st6">7</text>
	</g>
	<g transform="translate(994.001,69.25)">
		<text transform="matrix(1 0 0 1 569.5 -90)" class="st8 st7">Output signal spectrum</text>
	</g>
	<g>
		<path class="st9" d="M951.1586914,772h63.9904175h37.4319458h26.5584717h20.6002197h16.831665h14.230957h12.3275146h10.8735352
			h9.7266846h8.7989502h8.0327148h7.3894043h6.8415527h6.3693848h5.9580078h5.5969238h5.2767334h4.9914551h4.7352295h4.5041504
			h4.2947998h4.1036377h3.9291992h3.7685547h3.6208496h3.4841309h3.3572998h3.2397461h3.1297607h3.0270996h2.9309082h2.8408203
			h2.7558594h2.6762695h2.6005859h2.529541h2.4619141h2.3979492h2.3374023h2.279541h2.2246094h2.1723633h2.1223145h2.074707
			h2.0290527h1.9853516h1.9436035h1.9035645h1.8652344h1.8280029h1.7927246h1.7584229h1.7255859h1.6939697h1.6634521h1.6340332
			h1.6057129h1.5780029h1.5516357h1.526001h1.5010986h1.4771729h1.4539795h1.4311523h1.4095459h1.3883057h1.3676758h1.3476563
			h1.3283691h1.3095703h1.2911377h1.2734375h1.2561035h1.2391357h1.2226563h1.2069092h1.1912842h1.1760254h1.1611328h1.1469727
			h1.1325684h1.1191406h1.1057129h1.0924072h1.079834h1.0672607h1.0551758h1.0429688h1.0316162h1.0201416h1.0089111h0.9980469
			h0.9874268h0.9768066h0.9667969h0.956665h0.9468994h0.9372559h0.9277344h0.9187012h0.9094238h0.9007568h0.8919678h0.8834229h0.875
			h0.8669434h0.8587646h0.8508301h0.8432617h0.8354492h0.8278809h0.8205566h0.8134766h0.8062744h0.7991943h0.7926025h0.7855225
			h0.7791748h0.7724609h0.7662354h0.7597656h0.7536621h0.7474365h0.7415771h0.7355957h0.7298584h0.723999h0.7185059h0.7128906
			h0.7073975h0.7020264h0.6967773h0.6914063h0.6865234h0.6812744h0.6762695h0.6715088h0.6665039h0.6618652h0.6569824h0.6524658
			h0.6478271h0.6433105h0.638916h0.6345215h0.630127h0.6259766h0.621582h0.6175537h0.6134033h0.609375h0.6054688h0.6013184
			h0.5976563h0.5935059h0.5899658h0.5861816h0.5825195h0.5787354h0.5751953h0.5716553h0.5681152h0.5645752h0.5612793h0.5577393
			h0.5545654h0.5511475h0.5478516h0.5445557h0.5415039h0.5383301h0.5351563h0.5322266h0.5289307h0.526001h0.5231934h0.5200195
			h0.5172119h0.5142822h0.5114746h0.508667h0.5058594h0.5030518h0.5003662h0.4976807h0.4949951h0.4924316h0.489624h0.4873047
			h0.4846191h0.4820557h0.4796143h0.4770508h0.4746094h0.47229h0.4698486h0.4672852h0.46521h0.4626465h0.4605713h0.4580078
			h0.4559326h0.4537354h0.451416h0.4492188h0.4470215h0.4449463h0.442749h0.4406738h0.4384766h0.4367676h0.4343262h0.432373
			h0.4304199h0.4284668h0.4262695h0.4244385h0.4224854h0.4206543h0.4187012h0.416748h0.414917h0.4130859h0.4112549h0.4094238
			h0.4074707h0.4058838h0.4039307h0.4023438h0.4005127h0.3988037h0.3969727h0.3955078h0.3935547h0.3920898h0.3902588h0.3887939
			h0.387207h0.3852539h0.3837891h0.3824463h0.3806152h0.3792725h0.3775635h0.3759766h0.3745117h0.3731689h0.3713379h0.3699951
			h0.3685303h0.3671875h0.3656006h0.3641357h0.362793h0.3613281h0.3598633h0.3583984h0.3571777h0.355957h0.354248h0.3530273
			h0.3515625h0.3504639h0.348999h0.3479004h0.3463135h0.3450928h0.34375h0.3425293h0.3413086h0.3400879h0.3388672h0.3374023
			h0.3364258h0.3349609h0.3339844h0.3327637h0.3314209h0.3303223h0.3291016h0.3280029h0.3266602h0.3256836h0.3244629h0.3234863
			h0.3222656h0.3210449h0.3200684h0.3188477h0.317749h0.3167725h0.3155518h0.3145752h0.3134766h0.3122559h0.3115234h0.3103027
			h0.3093262h0.3081055h0.307251h0.3061523h0.3052979h0.3041992h0.3031006h0.3022461h0.3011475h0.300293h0.2993164h0.2980957
			h0.2973633h0.2963867h0.2954102h0.2944336h0.293457h0.2927246h0.291626h0.2908936h0.2897949h0.2889404h0.2879639h0.2872314
			h0.2862549h0.2854004h0.2844238h0.2836914h0.2827148h0.2819824h0.2810059h0.2801514h0.2792969h0.2784424h0.27771h0.2767334
			h0.276123h0.2751465h0.274292h0.2735596h0.2727051h0.2718506h0.2712402h0.2703857h0.2695313h0.2687988h0.2678223h0.2672119
			h0.2664795h0.265625h0.2648926h0.2641602h0.2634277h0.2626953h0.2618408h0.2612305h0.260376h0.2597656h0.2587891h0.2583008
			h0.2575684h0.2568359h0.2561035h0.2553711h0.2546387h0.2539063h0.2532959h0.2525635h0.2518311h0.2512207h0.2506104h0.2497559
			h0.2492676h0.248291h0.2480469h0.2470703h0.246582h0.2458496h0.2451172h0.2446289h0.2438965h0.2432861h0.2425537h0.2420654
			h0.241333h0.2407227h0.2401123h0.239502h0.2388916h0.2382813h0.2375488h0.2370605h0.2363281h0.2358398h0.2351074h0.2347412
			h0.2340088h0.2333984h0.2327881h0.2322998h0.2316895h0.230957h0.2305908h0.2298584h0.2294922h0.2287598h0.2281494h0.2276611
			h0.2271729h0.2265625h0.2259521h0.2254639h0.2249756h0.2242432h0.2237549h0.2233887h0.2226563h0.222168h0.2216797h0.2211914
			h0.2205811h0.2200928h0.2194824h0.2191162h0.2185059h0.2178955h0.2175293h0.217041h0.2163086h0.2158203h0.2155762h0.2150879
			h0.2143555h0.2139893h0.2133789h0.2130127h0.2124023h0.2121582h0.2113037h0.2110596h0.2105713h0.2099609h0.2095947h0.2091064
			h0.2086182h0.208252h0.2076416h0.2071533h0.2067871h0.2062988h0.2058105h0.2054443h0.2049561h0.2043457h0.2041016h0.2034912
			h0.2032471h0.2026367h0.2021484h0.2019043h0.2012939h0.2008057h0.2005615h0.2000732h0.1994629h0.1994629h0.1986084h0.1983643
			h0.197876h0.1973877h0.1972656h0.1964111h0.1962891h0.1958008h0.1954346h0.1948242h0.1945801h0.1940918h0.1938477h0.1933594
			h0.1928711h0.192627h0.1921387h0.1917725h0.1911621h0.19104h0.1905518h0.1900635h0.1899414h0.1893311h0.1888428h0.1887207
			h0.1881104h0.1878662h0.1875h0.1870117h0.1867676h0.1862793h0.1859131h0.1855469h0.1851807h0.1848145h0.1845703h0.184082
			h0.1835938h0.1833496h0.1831055h0.1826172h0.1821289h0.1820068h0.1815186h0.1812744h0.1807861h0.1804199h0.1801758h0.1798096
			h0.1795654h0.1789551h0.1787109h0.1783447h0.1781006h0.1777344h0.1773682h0.177002h0.1766357h0.1763916h0.1759033h0.1759033
			h0.175293h0.1749268h0.1748047h0.1743164h0.1740723h0.173584h0.1733398h0.1730957h0.1727295h0.1722412h0.1723633h0.1716309
			h0.1713867h0.1711426h0.1707764h0.1705322h0.170166h0.1699219h0.1694336h0.1691895h0.1689453h0.1687012h0.1682129h0.1680908
			h0.1676025h0.1674805h0.1671143h0.1668701h0.1665039h0.1661377h0.1658936h0.1655273h0.1652832h0.1650391h0.1647949h0.1643066
			h0.1640625h0.1638184h0.1635742h0.1633301h0.1629639h0.1627197h0.1623535h0.1619873h0.1617432h0.1616211h0.161377h0.1608887
			h0.1607666h0.1604004h0.1600342h0.1599121h0.1595459h0.1593018h0.1591797h0.1586914h0.1584473h0.1583252h0.1578369h0.1577148
			h0.1574707h0.1569824h0.1569824h0.1566162h0.15625h0.1561279h0.1557617h0.1555176h0.1553955h0.1550293h0.1546631h0.1546631
			h0.1541748h0.1540527h0.1535645h0.1535645h0.1531982h0.1529541h0.152832h0.1523438h0.1523438h0.1518555h0.1518555h0.1513672
			h0.1512451h0.151001h0.1506348h0.1505127h0.1502686h0.1500244h0.1496582h0.1495361h0.149292h0.1490479h0.1486816h0.1485596
			h0.1483154h0.1480713h0.1478271h0.147583h0.1473389h0.1472168h0.1468506h0.1467285h0.1463623h0.1462402h0.145874h0.1456299
			h0.1455078h0.1453857h0.1448975h0.1450195h0.1445313h0.1442871h0.144165h0.1439209h0.1436768h0.1434326h0.1433105h0.1429443
			h0.1427002h0.1427002h0.1422119h0.142334h0.1419678h0.1416016h0.1414795h0.1411133h0.1413574h0.1407471h0.1405029h0.1403809
			h0.1403809h0.1398926h0.1398926h0.1394043h0.1394043h0.1391602h0.138916h0.1386719h0.1385498h0.1383057h0.1379395h0.1380615
			h0.1376953h0.1373291h0.1374512h0.1369629h0.1369629h0.1365967h0.1365967h0.1362305h0.1359863h0.1359863h0.135498h0.135498
			h0.1352539h0.1352539h0.1347656h0.1346436h0.1345215h0.1341553h0.1340332h0.1340332h0.133667h0.1334229h0.1335449h0.1330566
			h0.1328125h0.1328125h0.1325684h0.1323242h0.1320801h0.1320801h0.1318359h0.1314697h0.1314697h0.1312256h0.1311035h0.1307373
			h0.1306152h0.1306152h0.130127h0.1303711h0.1298828h0.1297607h0.1295166h0.1293945h0.1291504h0.1291504h0.1287842h0.1286621
			h0.12854h0.1282959h0.1280518h0.1280518h0.1276855h0.1275635h0.1274414h0.1271973h0.1270752h0.1270752h0.1264648h0.126709
			h0.1263428h0.1262207h0.1259766h0.1258545h0.1257324h0.1254883h0.1254883h0.1252441h0.125h0.1247559h0.1246338h0.1245117
			h0.1243896h0.1241455h0.1239014h0.1239014h0.1236572h0.1235352h0.123291h0.1231689h0.1230469h0.1228027h0.1228027h0.1224365
			h0.1223145h0.1221924h0.1219482h0.1220703h0.121582h0.121582h0.12146h0.1212158h0.1210938h0.1208496h0.1208496h0.1204834
			h0.1204834h0.1203613h0.2399902h0.119873h0.1196289h0.1193848h0.1193848h0.1192627h0.1191406h0.1188965h0.1187744h0.1185303
			h0.1184082h0.1181641h0.1182861h0.1179199h0.1177979h0.1177979h0.1174316h0.1174316h0.2342529h0.1170654h0.1166992h0.1164551
			h0.1166992h0.1162109h0.1162109h0.1159668h0.1159668h0.1158447h0.1156006h0.1153564h0.1153564h0.1152344h0.2299805h0.1147461
			h0.114624h0.114502h0.1142578h0.1141357h0.1142578h0.1137695h0.1137695h0.1135254h0.2269287h0.1131592h0.1130371h0.112915
			h0.112793h0.1126709h0.1125488h0.1124268h0.1121826h0.1120605h0.223877h0.1115723h0.1116943h0.1114502h0.1113281h0.111084
			h0.111084h0.1108398h0.2214355h0.1103516h0.1105957h0.1101074h0.1099854h0.1099854h0.2197266h0.1094971h0.1094971h0.1092529
			h0.1092529h0.1090088h0.1088867h0.1087646h0.2172852h0.1083984h0.1083984h0.1081543h0.1079102h0.1079102h0.2155762h0.1075439
			h0.1072998h0.1072998h0.1070557h0.1071777h0.213623h0.1066895h0.1064453h0.1065674h0.1062012h0.1062012h0.2120361h0.1057129
			h0.1057129h0.1057129h0.1053467h0.1053467h0.2102051h0.1049805h0.1049805h0.1047363h0.2089844h0.1044922h0.104248h0.1040039
			h0.1040039h0.1040039h0.2073975h0.1036377h0.1033936h0.1032715h0.2062988h0.1030273h0.1029053h0.1026611h0.2052002h0.102417
			h0.1021729h0.1022949h0.1020508h0.1018066h0.2038574h0.1015625h0.1014404h0.1014404h0.2023926h0.1010742h0.1008301h0.1009521
			h0.2012939h0.1005859h0.1003418h0.1003418h0.2001953h0.1000977h0.0998535h0.0997314h0.1990967h0.0993652h0.0993652h0.0992432
			h0.1981201h0.098877h0.0986328h0.098877h0.1970215h0.0982666h0.0982666h0.0982666h0.1959229h0.0979004h0.1953125h0.0976563
			h0.0974121h0.09729h0.194458h0.0969238h0.0969238h0.0969238h0.1932373h0.0965576h0.0964355h0.0961914h0.1923828h0.0960693
			h0.1917725h0.0957031h0.0957031h0.095459h0.1906738h0.0952148h0.0950928h0.0950928h0.1896973h0.0947266h0.189209h0.0944824
			h0.0943604h0.0941162h0.1882324h0.0939941h0.1877441h0.0936279h0.0936279h0.0935059h0.1865234h0.0932617h0.1861572h0.0928955
			h0.0928955h0.0926514h0.1853027h0.0922852h0.1848145h0.092041h0.184082h0.0919189h0.0917969h0.0919189h0.1829834h0.0915527
			h0.1824951h0.0913086h0.1821289h0.0908203h0.0909424h0.0906982h0.1811523h0.0904541h0.180542h0.09021h0.1802979h0.0898438
			h0.0898438h0.0897217h0.1793213h0.0894775h0.178833h0.0891113h0.1782227h0.0891113h0.1776123h0.0887451h0.088623h0.088623
			h0.1767578h0.0883789h0.1762695h0.0881348h0.1757813h0.0878906h0.175293h0.0875244h0.1749268h0.0871582h0.0874023h0.0870361
			h0.1739502h0.0869141h0.173584h0.0866699h0.1729736h0.0863037h0.1726074h0.0863037h0.1719971h0.0859375h0.1716309h0.0856934
			h0.1710205h0.0855713h0.1705322h0.0852051h0.170166h0.085083h0.1695557h0.0848389h0.1691895h0.0844727h0.0844727h0.0842285
			h0.1685791h0.0841064h0.1679688h0.0839844h0.1674805h0.0837402h0.1669922h0.0834961h0.166626h0.0831299h0.1662598h0.0828857
			h0.1656494h0.0830078h0.1651611h0.0826416h0.1647949h0.0823975h0.24646h0.0820313h0.1638184h0.0817871h0.1633301h0.081665
			h0.1629639h0.0812988h0.1625977h0.0812988h0.1621094h0.0808105h0.1616211h0.0808105h0.1612549h0.0804443h0.1608887h0.0803223
			h0.1604004h0.0800781h0.1599121h0.0799561h0.2393799h0.0795898h0.1589355h0.0795898h0.1584473h0.0793457h0.1582031h0.0791016
			h0.1577148h0.0787354h0.1573486h0.0786133h0.2355957h0.0782471h0.1564941h0.0780029h0.15625h0.0778809h0.1555176h0.0778809
			h0.1552734h0.0773926h0.2324219h0.0772705h0.1544189h0.0771484h0.1539307h0.0769043h0.1535645h0.0767822h0.2296143h0.0765381
			h0.15271h0.0762939h0.1523438h0.0760498h0.1519775h0.0758057h0.227417h0.0755615h0.151123h0.0753174h0.1507568h0.0753174
			h0.2255859h0.0749512h0.1497803h0.0748291h0.1495361h0.074707h0.2236328h0.0743408h0.1486816h0.0742188h0.1484375h0.0739746
			h0.2219238h0.0737305h0.1474609h0.0736084h0.2205811h0.0734863h0.1467285h0.0731201h0.1463623h0.072998h0.21875h0.072998
			h0.1455078h0.0727539h0.2175293h0.0725098h0.1447754h0.0720215h0.2165527h0.0720215h0.1439209h0.0718994h0.215332h0.0715332
			h0.1433105h0.0712891h0.2141113h0.0712891h0.1424561h0.0710449h0.2130127h0.0708008h0.1416016h0.0708008h0.2116699h0.0705566
			h0.1408691h0.0703125h0.2106934h0.0700684h0.1401367h0.0700684h0.2094727h0.0698242h0.2088623h0.069458h0.1390381h0.069458
			h0.2077637h0.0693359h0.1379395h0.0692139h0.206665h0.0688477h0.2061768h0.0686035h0.1369629h0.0684814h0.2050781h0.0682373
			h0.2044678h0.0681152h0.1359863h0.0678711h0.2034912h0.067749h0.2027588h0.0675049h0.1348877h0.0672607h0.2019043h0.0671387
			h0.2011719h0.0670166h0.2005615h0.0666504h0.1335449h0.0666504h0.199707h0.0664063h0.1989746h0.0661621h0.1984863h0.06604
			h0.131958h0.065918h0.1975098h0.0657959h0.1968994h0.0655518h0.1964111h0.0651855h0.1958008h0.0653076h0.1951904h0.0649414
			h0.1298828h0.0649414h0.1942139h0.0646973h0.1937256h0.0644531h0.1932373h0.0643311h0.192627h0.064209h0.1921387h0.0639648
			h0.1915283h0.0638428h0.19104h0.0635986h0.1904297h0.0635986h0.1900635h0.0632324h0.1894531h0.0629883h0.1259766h0.0629883
			h0.1887207h0.0627441h0.1879883h0.0627441h0.1875h0.0625h0.1870117h0.0622559h0.1865234h0.0622559h0.2479248h0.0618896h0.1855469
			h0.0616455h0.1849365h0.0615234h0.1844482h0.0614014h0.184082h0.0611572h0.1834717h0.0610352h0.1831055h0.060791h0.1826172
			h0.0606689h0.1820068h0.0605469h0.1816406h0.0604248h0.1810303h0.0603027h0.2407227h0.0600586h0.1800537h0.0599365h0.1796875
			h0.0596924h0.1790771h0.0595703h0.1787109h0.0594482h0.2374268h0.0593262h0.1774902h0.0593262h0.177002h0.059082h0.1765137
			h0.0588379h0.1762695h0.0585938h0.234375h0.0583496h0.175415h0.0583496h0.1746826h0.0582275h0.2324219h0.0581055h0.1737061
			h0.0578613h0.1733398h0.0578613h0.2304688h0.057373h0.1724854h0.057373h0.1719971h0.0571289h0.2287598h0.0570068h0.1711426
			h0.0568848h0.1705322h0.0568848h0.2268066h0.0566406h0.1696777h0.0563965h0.2255859h0.0563965h0.1687012h0.0561523h0.2243652
			h0.0559082h0.1678467h0.0557861h0.2231445h0.0557861h0.1668701h0.055542h0.2220459h0.0552979h0.1658936h0.0554199h0.2207031
			h0.0549316h0.1651611h0.0550537h0.2194824h0.0548096h0.1641846h0.0548096h0.2182617h0.0545654h0.1633301h0.0544434h0.2171631
			h0.0541992h0.2166748h0.0539551h0.1621094h0.0539551h0.215332h0.0537109h0.2149658h0.0535889h0.1606445h0.0534668h0.2138672
			h0.0532227h0.2131348h0.0532227h0.1594238h0.0529785h0.2120361h0.0528564h0.2114258h0.0527344h0.2108154h0.0526123h0.1577148
			h0.0524902h0.1048584h0.1048584h0.0522461h0.2092285h0.052002h0.2087402h0.052002h0.1560059h0.0517578h0.2075195h0.0518799
			h0.2069092h0.0515137h0.2062988h0.0515137h0.2058105h0.0512695h0.2050781h0.0513916h0.2044678h0.0511475h0.1530762H1643.75
			h0.2036133h0.0509033h0.2030029h0.0505371h0.2025146h0.0505371h0.2019043h0.050415h0.201416h0.0501709h0.2008057h0.0501709
			h0.2001953h0.0499268h0.199707h0.0500488h0.1992188h0.0495605h0.1987305h0.0495605h0.1982422h0.0493164h0.1976318h0.0491943
			h0.1972656h0.0490723h0.2456055h0.0490723h0.1960449h0.0488281h0.1953125h0.0488281h0.1948242h0.048584h0.194458h0.0484619
			h0.1938477h0.0483398h0.1933594h0.0483398h0.2409668h0.0480957h0.1921387h0.0480957h0.1916504h0.0479736h0.1912842h0.0476074
			h0.1907959h0.0476074h0.237793h0.0474854h0.1894531h0.0474854h0.189209h0.0472412h0.2358398h0.0471191h0.1881104h0.0469971h0.1875
			h0.0469971h0.2337646h0.0466309h0.1867676h0.0465088h0.1861572h0.0466309h0.2319336h0.0462646h0.1851807h0.0461426h0.1845703
			h0.0461426h0.2302246h0.0458984h0.1835938h0.0458984h0.2288818h0.0457764h0.1826172h0.0456543h0.2276611h0.0455322h0.1816406
			h0.045166h0.2265625h0.045166h0.1806641h0.045166h0.2250977h0.045166h0.1794434h0.0449219h0.2241211h0.0446777h0.2233887
			h0.0446777h0.1782227h0.0444336h0.222168h0.0444336h0.1772461h0.0443115h0.2210693h0.0441895h0.2203369h0.0440674h0.2196045
			h0.0438232h0.1755371h0.0437012h0.2185059h0.0437012h0.2180176h0.043457h0.1739502h0.0435791h0.2167969h0.0432129h0.2163086
			h0.043335h0.2154541h0.0432129h0.2148438h0.0430908h0.1715088h0.0428467h0.2139893h0.0427246h0.2133789h0.0427246h0.2126465
			h0.0424805h0.2121582h0.0424805h0.2114258h0.0424805h0.2109375h0.0421143h0.2105713h0.0419922h0.2098389h0.0418701h0.2092285
			h0.0418701h0.2087402h0.041626h0.2081299h0.041626h0.2075195h0.0415039h0.2070313h0.0415039h0.2064209h0.0411377h0.2060547
			h0.0410156h0.2053223h0.0412598h0.2047119h0.0408936h0.2043457h0.0407715h0.2036133h0.0407715h0.203125h0.0407715h0.2026367
			h0.0405273h0.2424316h0.0404053h0.2015381h0.0401611h0.2010498h0.0401611h0.2003174h0.0401611h0.2398682h0.0400391h0.1993408
			h0.0397949h0.1988525h0.0395508h0.1984863h0.0395508h0.2373047h0.0395508h0.1972656h0.0393066h0.1967773h0.0393066h0.2353516
			h0.0390625h0.1958008h0.0390625h0.2341309h0.0389404h0.194458h0.0389404h0.1940918h0.0388184h0.2320557h0.0386963h0.1929932
			h0.0385742h0.2310791h0.0384521h0.1918945h0.0384521h0.2296143h0.0383301h0.2290039h0.038208h0.1903076h0.0380859h0.2277832
			h0.0379639h0.1893311h0.0379639h0.2265625h0.0377197h0.2258301h0.0375977h0.1879883h0.0374756h0.2247314h0.0375977h0.2241211
			h0.0373535h0.1862793h0.0371094h0.2230225h0.0372314h0.22229h0.0369873h0.1848145h0.0368652h0.2214355h0.0368652h0.220459
			h0.0366211h0.2199707h0.0366211h0.2194824h0.036377h0.2188721h0.036499h0.1816406h0.036377h0.2177734h0.0361328h0.217041
			h0.0361328h0.2164307h0.0360107h0.2158203h0.0361328h0.2150879h0.0358887h0.2147217h0.0357666h0.2141113h0.0355225h0.213623
			h0.0355225h0.2128906h0.0354004h0.2124023h0.0354004h0.2119141h0.0352783h0.2111816h0.0351563h0.2457275h0.0350342h0.2102051
			h0.0349121h0.2094727h0.0349121h0.2088623h0.03479h0.2084961h0.034668h0.2077637h0.0345459h0.2419434h0.0344238h0.206665
			h0.0344238h0.2061768h0.0343018h0.2055664h0.0343018h0.2391357h0.0341797h0.2044678h0.0340576h0.237793h0.0339355h0.2033691
			h0.0338135h0.2028809h0.0338135h0.2358398h0.0338135h0.2016602h0.0335693h0.2347412h0.0333252h0.2006836h0.0334473h0.1334229
			h0.0999756h0.0333252h0.1994629h0.0333252h0.2320557h0.0332031h0.1983643h0.0330811h0.230957h0.032959h0.1973877h0.0328369
			h0.2297363h0.0327148h0.229126h0.0325928h0.1958008h0.0325928h0.2277832h0.0324707h0.2272949h0.0323486h0.1942139h0.0323486
			h0.2260742h0.0321045h0.2254639h0.0321045h0.2247314h0.0321045h0.1920166h0.0321045h0.2235107h0.0318604h0.2230225h0.0318604
			h0.22229h0.0317383h0.2216797h0.0316162h0.2211914h0.0314941h0.2205811h0.0314941h0.2198486h0.0313721h0.2193604h0.03125h0.21875
			h0.03125h0.2180176h0.0311279h0.2175293h0.0311279h0.2169189h0.0310059h0.2163086h0.0308838h0.2158203h0.0307617h0.21521
			h0.0307617h0.2147217h0.0305176h0.2141113h0.0305176h0.2440186h0.0303955h0.2130127h0.0302734h0.2124023h0.0302734h0.211792
			h0.0301514h0.2414551h0.0300293h0.2106934h0.0300293h0.210083h0.0299072h0.2393799h0.0299072h0.2088623h0.0297852h0.2084961
			h0.0296631h0.2374268h0.0296631h0.2072754h0.029541h0.236084h0.029541h0.2061768h0.0292969h0.2349854h0.0292969h0.2050781
			h0.0291748h0.2336426h0.0290527h0.2039795h0.0290527h0.2324219h0.0290527h0.2316895h0.0289307h0.2022705h0.0288086h0.2304688
			h0.0289307h0.2297363h0.0288086h0.2004395h0.0286865h0.2286377h0.0285645h0.2280273h0.0284424h0.227417h0.0284424h0.2266846
			h0.0283203h0.197876h0.0281982h0.225708h0.0280762h0.2249756h0.0280762h0.2243652h0.0279541h0.2237549h0.0279541h0.2231445
			h0.027832h0.2225342h0.02771h0.2219238h0.02771h0.2213135h0.0275879h0.2208252h0.0275879h0.2200928h0.0274658h0.2196045h0.0273438
			h0.2189941h0.0273438h0.2456055h0.0272217h0.2177734h0.0270996h0.2171631h0.0270996h0.2166748h0.0269775h0.243042h0.0268555
			h0.2154541h0.0268555h0.2148438h0.0268555h0.2142334h0.0267334h0.2403564h0.0267334h0.2130127h0.0266113h0.2391357h0.0264893
			h0.2119141h0.0264893h0.2376709h0.0264893h0.2106934h0.0263672h0.2364502h0.0262451h0.2095947h0.0262451h0.2352295h0.026001
			h0.2084961h0.026001h0.2340088h0.026001h0.2073975h0.0258789h0.232666h0.0258789h0.2320557h0.0257568h0.2313232h0.0256348
			h0.2053223h0.0255127h0.2302246h0.0255127h0.2296143h0.0253906h0.2288818h0.0255127h0.2282715h0.0252686h0.2023926h0.0252686
			h0.2271729h0.0251465h0.2265625h0.0251465h0.2258301h0.0250244h0.2252197h0.0250244h0.2247314h0.0249023h0.223999h0.0249023
			h0.2233887h0.0247803h0.2229004h0.0246582h0.2469482h0.0246582h0.2216797h0.0245361h0.2209473h0.0245361h0.2203369h0.0245361
			h0.2198486h0.0244141h0.2435303h0.0244141h0.2186279h0.0241699h0.2181396h0.0240479h0.2416992h0.0241699h0.2167969h0.0240479
			h0.2163086h0.0240479h0.239624h0.0239258h0.21521h0.0238037h0.2382813h0.0239258h0.2138672h0.0238037h0.2370605h0.0236816
			h0.2127686h0.0235596h0.2358398h0.0235596h0.2352295h0.0233154h0.2111816h0.0233154h0.2338867h0.0234375h0.2332764h0.0231934
			h0.2094727h0.0231934h0.2320557h0.0230713h0.2314453h0.0230713h0.230835h0.0229492h0.2301025h0.0229492h0.2296143h0.0228271
			h0.2288818h0.0228271h0.2054443h0.0228271h0.2276611h0.0227051h0.2270508h0.0227051h0.2490234h0.022583h0.2258301h0.0224609
			h0.2252197h0.0224609h0.0673828h0.1572266h0.0224609h0.223877h0.0223389h0.2233887h0.0223389h0.2227783h0.0222168h0.2443848
			h0.0222168h0.2215576h0.0220947h0.2209473h0.0220947h0.2424316h0.0219727h0.2197266h0.0219727h0.2192383h0.0217285h0.2404785
			h0.0219727h0.2178955h0.0218506h0.2390137h0.0217285h0.2169189h0.0216064h0.237793h0.0216064h0.2156982h0.0214844h0.2366943
			h0.0213623h0.2359619h0.0213623h0.2139893h0.0213623h0.2346191h0.0213623h0.2338867h0.0213623h0.2332764h0.0212402h0.232666
			h0.0211182h0.2110596h0.0211182h0.0421143h0.1893311h0.0209961h0.230957h0.0209961h0.2302246h0.020874h0.2296143h0.020752
			h0.2290039h0.020874h0.2283936h0.020752h0.2277832h0.0206299h0.2271729h0.0205078h0.2266846h0.0205078h0.24646h0.0205078
			h0.2253418h0.0205078h0.2246094h0.0203857h0.2241211h0.0203857h0.2437744h0.0202637h0.2229004h0.0202637h0.22229h0.0200195
			h0.2419434h0.0201416h0.2210693h0.0200195h0.2406006h0.0198975h0.2199707h0.0198975h0.2392578h0.0198975h0.0596924h0.1589355
			h0.0198975h0.2380371h0.0197754h0.2371826h0.0197754h0.2169189h0.0197754h0.2359619h0.0196533h0.2353516h0.0195313h0.21521
			h0.0195313h0.2341309h0.0194092h0.2335205h0.0194092h0.2329102h0.0192871h0.2321777h0.0194092h0.2315674h0.019165h0.230957
			h0.0192871h0.2303467h0.019165h0.2296143h0.019165h0.2290039h0.019165h0.2283936h0.019043h0.2277832h0.019043h0.2462158h0.0187988
			h0.0944824h0.1322021h0.0187988h0.2259521h0.0189209h0.2253418h0.0186768h0.2436523h0.0186768h0.2241211h0.0186768h0.2421875
			h0.0185547h0.2230225h0.0185547h0.22229h0.0185547h0.2402344h0.0184326h0.239624h0.0183105h0.2205811h0.0184326h0.2382813
			h0.0183105h0.2193604h0.0181885h0.2370605h0.0181885h0.2363281h0.0181885h0.2357178h0.0181885h0.2349854h0.0180664h0.1802979
			h0.0361328h0.0180664h0.2337646h0.0179443h0.2331543h0.0179443h0.2325439h0.0179443h0.2319336h0.0178223h0.2313232h0.0177002
			h0.2307129h0.0177002H1741.5h0.0175781h0.2294922h0.0175781h0.2287598h0.0175781h0.2282715h0.0174561h0.2276611h0.0174561
			h0.2443848h0.0174561h0.2263184h0.017334h0.225708h0.0174561h0.2423096h0.017334h0.1900635h0.0345459h0.0172119h0.2410889
			h0.0172119h0.2233887h0.0170898h0.2398682h0.0170898h0.2391357h0.0170898h0.2214355h0.0170898h0.237793h0.0170898h0.2371826
			h0.0168457h0.2366943h0.0168457h0.2191162h0.0167236h0.2354736h0.0167236h0.2347412h0.0167236h0.2340088h0.0167236h0.2333984
			h0.0167236h0.2327881h0.0166016h0.1326904h0.0993652h0.0166016h0.2315674h0.0164795h0.2474365h0.0164795h0.2302246h0.0163574
			h0.2297363h0.0163574h0.229126h0.0162354h0.244751h0.0163574h0.2276611h0.0162354h0.2272949h0.0162354h0.2426758h0.0162354
			h0.2259521h0.0159912h0.2415771h0.0159912h0.2248535h0.0159912h0.2401123h0.0159912h0.0319824h0.2073975h0.0159912h0.2230225
			h0.0158691h0.2381592h0.0158691h0.2375488h0.0157471h0.2369385h0.0157471h0.2363281h0.0157471h0.2354736h0.0157471h0.2349854
			h0.015625h0.234375h0.015625h0.2336426h0.0155029h0.2331543h0.0155029h0.2324219h0.0155029h0.2318115h0.0153809h0.2312012
			h0.0155029h0.2304688h0.0153809h0.2452393h0.0153809h0.229248h0.0152588h0.2287598H1755.25h0.2432861h0.0151367h0.2275391
			h0.0151367h0.2419434h0.0151367h0.241333h0.0150146h0.225708h0.0150146h0.2399902h0.0150146h0.2393799h0.0148926h0.223877
			h0.0148926h0.2380371h0.0148926h0.2374268h0.0147705h0.2368164h0.0147705h0.2362061h0.0146484h0.2354736h0.0147705h0.2348633
			h0.0146484h0.2342529h0.0146484h0.2335205h0.0146484h0.2329102h0.0145264h0.2324219h0.0145264h0.1014404h0.1447754h0.0144043
			h0.2310791h0.0145264h0.2303467h0.0145264h0.2441406h0.0144043h0.229126h0.0144043h0.2427979h0.0142822h0.2280273h0.0141602
			h0.2415771h0.0142822h0.2266846h0.0141602h0.2402344h0.0141602h0.239624h0.0140381h0.0281982h0.2108154h0.0140381h0.2243652
			h0.0140381h0.2376709h0.013916h0.2370605h0.013916h0.2363281h0.013916h0.2358398h0.013916h0.2351074h0.0136719h0.2344971h0.013916
			h0.2475586h0.0137939h0.2331543h0.0136719h0.0822754h0.1503906h0.0136719h0.2319336h0.0136719h0.244873h0.0135498h0.2307129
			h0.0135498h0.2436523h0.0135498h0.2294922h0.0134277h0.2423096h0.0134277h0.2282715h0.0134277h0.2409668h0.0134277h0.2403564
			h0.0133057h0.0133057h0.2263184h0.0133057h0.2258301h0.0131836h0.2385254h0.0131836h0.237793h0.0130615h0.2371826h0.0131836
			h0.2364502h0.0130615h0.2358398h0.0131836h0.2352295h0.0129395h0.2476807h0.0129395h0.078125h0.1558838h0.0129395h0.2332764
			h0.0129395h0.2456055h0.0129395h0.2319336h0.0129395h0.2313232h0.0129395h0.2436523h0.0126953h0.2302246h0.0126953h0.2423096
			h0.0126953h0.2416992h0.0126953h0.0380859h0.1901855h0.0126953h0.2402344h0.0126953h0.239624h0.0126953h0.2390137h0.0125732
			h0.2382813h0.0125732h0.2376709h0.0125732h0.2370605h0.0124512h0.2364502h0.0123291h0.1862793h0.0495605h0.0124512h0.2352295
			h0.0123291h0.2344971h0.0123291h0.2462158h0.0123291h0.2332764h0.012207h0.244873h0.012207h0.2320557h0.012207h0.2435303h0.012207
			h0.2307129h0.012085h0.2423096h0.012085h0.2294922h0.012085h0.2409668h0.0119629h0.2403564h0.0119629h0.239624h0.0119629
			h0.2390137h0.0118408h0.2384033h0.0119629h0.2020264h0.0356445h0.0118408h0.2370605h0.0118408h0.2363281h0.0118408h0.2358398
			h0.0118408h0.2468262h0.0117188h0.234375h0.0117188h0.2338867h0.0117188h0.244873h0.0115967h0.1048584h0.1278076h0.0115967
			h0.2436523h0.0115967h0.2313232h0.0114746h0.2423096h0.0114746h0.2416992h0.0113525h0.2409668h0.0114746h0.2288818h0.0113525
			h0.1940918h0.0456543h0.0113525h0.2390137h0.0113525h0.2384033h0.0113525h0.2376709h0.0113525h0.248291h0.0112305h0.2365723
			h0.0111084h0.2358398h0.0112305h0.223877h0.0112305h0.0112305h0.2457275h0.0109863h0.2338867h0.0112305h0.2442627h0.0111084
			h0.2325439h0.0111084h0.243042h0.0111084h0.2423096h0.0109863h0.197876h0.0328369h0.0109863h0.2410889h0.0109863h0.2403564
			h0.0109863h0.2397461h0.0108643h0.2391357h0.0107422h0.2385254h0.0108643h0.237793h0.0107422h0.1186523h0.1185303h0.0108643
			h0.2471924h0.0107422h0.2359619h0.0106201h0.2353516h0.0106201h0.2453613h0.0106201h0.2340088h0.0106201h0.2438965h0.0106201
			h0.232666h0.0106201h0.2426758h0.010498h0.2419434h0.0106201h0.241333h0.010376h0.2407227h0.010376h0.2401123h0.010376h0.072876
			h0.1665039h0.010376h0.2387695h0.010376h0.2380371h0.010376h0.2374268h0.0102539h0.2368164h0.010376h0.2463379h0.0102539
			h0.1229248h0.1125488h0.010376h0.2449951h0.0102539h0.2342529h0.0101318h0.2437744h0.0101318h0.2330322h0.0101318h0.2424316
			h0.0100098h0.1209717h0.1209717h0.0100098h0.2410889h0.0100098h0.2406006h0.0100098h0.2398682h0.0098877h0.2391357h0.0100098
			h0.2385254h0.0100098h0.0892334h0.1485596h0.0100098h0.2471924h0.0097656h0.2366943h0.0097656h0.236084h0.0097656h0.2451172
			h0.0098877h0.2346191h0.0097656h0.0195313h0.2242432h0.0097656h0.2431641h0.0097656h0.2327881h0.0096436h0.2418213h0.0097656
			h0.2412109h0.0096436h0.1732178h0.0672607h0.0096436h0.2398682h0.0096436h0.2392578h0.0095215h0.2481689h0.0095215h0.237915
			h0.0095215h0.2373047h0.0095215h0.0378418h0.208252h0.0093994h0.236084h0.0095215h0.244751h0.0093994h0.2347412h0.0092773
			h0.2436523h0.0092773h0.1308594h0.1119385h0.0092773h0.2421875h0.0092773h0.2322998h0.0092773h0.2408447h0.0092773h0.2493896
			h0.0092773h0.1934814h0.0460205h0.0092773h0.2388916h0.0091553h0.2382813h0.0091553H1802.5h0.0091553h0.2369385h0.0091553
			h0.2363281h0.0090332h0.244873h0.0090332h0.2440186h0.0090332h0.2344971h0.0089111h0.2427979h0.0090332h0.2420654h0.0090332
			h0.0178223h0.2236328h0.0089111h0.2408447h0.0089111h0.2401123h0.0089111h0.239502h0.0089111h0.2476807h0.0087891h0.0089111
			h0.2293701h0.0087891h0.2375488h0.0087891h0.2457275h0.0087891h0.2363281h0.0087891h0.2443848h0.008667h0.2436523h0.0087891
			h0.243042h0.008667h0.2337646h0.008667h0.2416992h0.008667h0.206665h0.0344238h0.0085449h0.2490234h0.008667h0.2397461h0.0085449
			h0.2391357h0.0085449h0.2385254h0.0084229h0.1530762h0.0933838h0.0085449h0.2370605h0.0085449h0.2449951h0.0084229h0.2443848
			h0.0084229h0.2352295h0.0084229h0.0754395h0.1676025h0.0084229h0.2423096h0.0083008h0.2418213h0.0083008h0.2410889h0.0083008
			h0.2321777h0.0081787h0.0084229H1811.75h0.0083008h0.2390137h0.0083008h0.2385254h0.0081787h0.2460938h0.0081787h0.1308594
			h0.1062012h0.0081787h0.244751h0.0081787h0.2440186h0.0080566h0.2353516h0.0080566h0.2427979h0.0080566h0.0323486h0.2097168
			h0.0080566h0.241333h0.0080566h0.2487793h0.0080566h0.2401123h0.0080566h0.1436768h0.0957031h0.0079346h0.2468262h0.0079346
			h0.2381592h0.0079346h0.2453613h0.0079346h0.2369385h0.0078125h0.0158691h0.2282715h0.0079346h0.2434082h0.0078125h0.2427979
			h0.0078125h0.2421875h0.0078125h0.1246338h0.1168213h0.0076904h0.2409668h0.0076904h0.2401123h0.0078125h0.2471924h0.0076904
			h0.2313232h0.0076904h0.0075684h0.2459717h0.0076904h0.2376709h0.0075684h0.2446289h0.0076904h0.2438965h0.0075684h0.0684814
			h0.1748047h0.0075684h0.2426758h0.0074463h0.2419434h0.0075684h0.241333h0.0075684h0.1655273h0.0750732h0.0075684h0.2399902
			h0.0074463h0.2468262h0.0074463h0.2387695h0.0074463h0.2454834h0.0073242h0.0074463h0.2374268h0.0074463h0.2368164h0.0073242
			h0.2435303h0.0073242h0.2429199h0.0073242h0.1029053h0.1392822h0.0074463h0.2487793h0.0073242h0.2408447h0.0073242h0.2402344
			h0.0073242h0.1888428h0.0579834h0.0072021h0.2388916h0.0073242h0.2454834h0.0070801h0.237793h0.0072021h0.2441406h0.0072021
			h0.0357666h0.2077637h0.0072021h0.2427979h0.0070801h0.2421875h0.0070801h0.2416992h0.0070801h0.1417236h0.1062012h0.0070801
			h0.2403564h0.006958h0.2467041h0.006958h0.2390137h0.006958h0.2453613h0.006958h0.2446289h0.0070801h0.2369385h0.0070801
			h0.2431641h0.006958h0.2427979h0.0068359H1828.125h0.1243896h0.006958h0.2414551h0.0067139h0.2407227h0.006958h0.2469482
			h0.0068359h0.2393799h0.0068359h0.0136719h0.2319336h0.0067139h0.244873h0.0068359h0.2374268h0.0068359h0.2436523h0.0067139
			h0.182373h0.0606689h0.0067139h0.2489014h0.0067139h0.2416992h0.0067139h0.2409668h0.0065918h0.2470703h0.0065918h0.1265869
			h0.1131592h0.0067139h0.2456055h0.0065918h0.2449951h0.0065918h0.237793h0.0065918h0.2436523h0.0065918h0.1116943h0.1313477
			h0.0064697h0.2490234h0.0064697h0.2416992h0.0064697h0.2410889h0.0065918h0.2468262h0.0064697h0.1556396h0.0842285h0.0064697
			h0.2454834h0.0064697h0.244873h0.0064697h0.2441406h0.0064697h0.2435303h0.0064697h0.2429199h0.0063477h0.0319824h0.2102051
			h0.0064697h0.2415771h0.0063477h0.2473145h0.0063477h0.2402344h0.0063477h0.2459717h0.0062256h0.2453613h0.0062256h0.0314941
			h0.2131348h0.0062256h0.2440186h0.0062256h0.2432861h0.0062256h0.2426758h0.0062256h0.2419434h0.0062256h0.241333h0.0062256
			h0.2468262h0.0062256h0.2460938h0.0062256h0.2393799h0.0061035h0.244873h0.0059814h0.2442627h0.0061035h0.2435303h0.0061035
			h0.2427979h0.0061035h0.248291h0.0059814h0.2416992h0.0059814h0.1446533h0.1022949h0.0059814h0.2402344h0.0059814h0.2457275
			h0.0058594h0.2449951h0.0059814h0.2442627h0.0058594h0.2436523h0.0059814h0.2429199h0.0059814h0.2423096h0.0058594h0.2474365
			h0.0058594h0.2410889h0.0058594h0.2462158h0.0058594h0.2454834h0.0058594h0.244873h0.0057373h0.2442627h0.0058594h0.2435303
			h0.0057373h0.2429199h0.0057373h0.2421875h0.0058594h0.2473145h0.0057373h0.2409668h0.0056152h0.2460938h0.0056152h0.2453613
			h0.0057373h0.2446289h0.0056152h0.2440186h0.0057373h0.2432861h0.0056152h0.2427979h0.0056152h0.2476807h0.0056152h0.241333
			h0.0056152h0.2463379h0.0056152h0.0167236h0.2288818h0.0054932h0.2451172h0.0054932h0.2442627h0.0054932h0.2437744h0.0054932
			h0.243042h0.0054932h0.2424316h0.0054932h0.0219727h0.2252197h0.0053711H1849.75h0.0054932h0.2403564h0.0053711h0.2452393
			h0.0053711h0.0761719h0.168335h0.0054932h0.2438965h0.0053711h0.2486572h0.0053711h0.151001h0.0915527h0.0053711h0.2419434
			h0.005249h0.246582h0.0054932h0.1069336h0.138916h0.0053711h0.2452393h0.005249h0.2127686h0.0318604h0.0053711h0.2438965
			h0.0053711h0.2432861h0.005127h0.0053711h0.2425537h0.0053711h0.2419434h0.005249h0.24646h0.005249h0.1936035h0.0522461h0.005249
			h0.2399902h0.005249h0.109375h0.1352539H1854.5h0.2438965h0.005249h0.005127h0.2432861h0.005127h0.0982666h0.1444092h0.005127
			h0.1904297h0.0566406h0.005127h0.2463379h0.005249h0.005127H1856h0.0050049h0.0511475h0.1888428h0.005127h0.0968018h0.15271
			h0.005127h0.1168213h0.1268311h0.005127h0.126709h0.116333h0.005127h0.1263428h0.1210938h0.0050049h0.1159668h0.1258545h0.0050049
			h0.1005859h0.1455078h0.005127h0.0701904h0.175293h0.0050049h0.2397461h0.005127h0.0048828h0.1894531h0.0548096h0.0048828
			h0.1342773h0.1092529H1858.75h0.069458h0.1783447h0.0050049h0.1730957h0.0739746h0.0050049h0.09375h0.1477051h0.0048828h0.177124
			h0.0687256h0.0048828h0.2353516h0.0098877h0.0048828h0.1369629h0.1074219h0.0048828h0.1755371h0.0682373H1860.5h0.1994629
			h0.048584h0.0048828h0.2084961h0.0339355h0.0048828h0.2128906h0.0338135h0.0047607h0.2026367h0.043335h0.0047607h0.1877441
			h0.0577393h0.0047607h0.1584473h0.0861816h0.0047607h0.2297363h0.0144043h0.0046387h0.1813965h0.0667725h0.0047607h0.2237549
			h0.0189209h0.0047607h0.161499h0.0853271h0.0046387h0.1799316h0.0662842h0.0047607h0.184082h0.0612793h0.0047607h0.1835938
			h0.0611572h0.0046387h0.2441406h0.0046387h0.2202148h0.0233154h0.0046387h0.1868896h0.0606689h0.0046387h0.204834h0.0418701
			h0.0047607h0.213623h0.0324707h0.0046387h0.2131348H1865.25h0.0046387h0.1986084h0.0461426h0.0046387h0.2303467h0.0137939
			h0.0046387h0.1975098h0.0458984h0.0046387h0.2061768h0.0411377h0.0046387h0.2467041h0.0046387h0.2277832h0.0136719h0.0045166
			h0.2453613H1867h0.244873h0.0045166h0.0045166h0.2304688h0.0135498h0.0045166h0.2434082h0.0045166h0.2427979h0.0045166h0.0045166
			h0.2286377h0.0179443h0.0043945h0.2325439h0.0134277h0.0043945h0.2230225h0.0223389h0.0043945h0.2312012h0.0133057h0.0045166
			h0.2218018h0.0220947h0.0045166h0.2254639h0.0222168h0.0043945h0.2381592h0.0087891h0.0043945h0.2288818h0.0130615h0.0045166
			h0.2368164h0.0087891h0.0043945h0.2407227h0.0042725H1870.5h0.2443848h0.0043945h0.0043945h0.2305908h0.0130615h0.0042725
			h0.2387695h0.008667h0.0043945h0.2380371h0.0085449h0.0043945h0.2330322H1871.75h0.0042725h0.2366943h0.008667h0.0042725h0.244751
			h0.0042725h0.2440186h0.0042725h0.2434082h0.0042725h0.0042725h0.2384033h0.0042725h0.0042725h0.24646h0.0041504h0.2414551
			h0.0041504h0.0042725h0.2492676h0.0042725h0.2442627h0.0041504h0.2436523h0.0042725h0.2471924h0.0041504h0.246582h0.0041504
			h0.2458496h0.0041504h0.2452393h0.0041504h0.2445068h0.0041504h0.2480469h0.0041504h0.2431641h0.0041504h0.2467041h0.0040283
			h0.2460938h0.0040283h0.2453613h0.0041504h0.2486572h0.0041504h0.2438965h0.0041504h0.2474365h0.0040283h0.2467041h0.0040283
			h0.2460938h0.0040283h0.2454834h0.0039063h0.244873h0.0039063h0.1160889h0.0280762h0.1038818h0.0040283h0.2435303h0.0039063
			h0.2468262h0.0039063h0.2460938h0.0039063h0.2454834h0.0039063h0.244751h0.0039063h0.2480469h0.0039063h0.2474365h0.0039063
			h0.2426758H1880.75h0.25h0.0039063h0.2453613h0.0037842h0.244751h0.0039063h0.2479248h0.0039063h0.2432861h0.0037842h0.246582
			h0.0039063h0.2458496h0.0039063h0.2490234h0.0037842h0.2446289h0.0037842h0.2476807h0.0039063h0.2431641h0.0037842h0.2425537
			h0.0037842h0.0039063h0.2419434h0.0036621h0.0039063h0.2487793h0.0037842h0.2368164h0.0074463h0.0037842h0.2437744h0.0037842
			h0.0036621h0.2393799h0.0074463h0.0037842h0.2424316h0.0036621h0.0037842h0.2454834h0.00354h0.2449951h0.00354h0.2479248
			h0.0036621h0.2362061h0.0109863h0.0036621h0.24646h0.0037842h0.2385254h0.0072021h0.0037842h0.2268066h0.0183105h0.0036621
			h0.2371826h0.0109863h0.00354h0.2366943h0.0073242h0.00354h0.2359619h0.0108643h0.0036621h0.2208252h0.0252686h0.0036621h0.223877
			h0.0251465h0.0036621h0.2412109h0.00354h0.0036621h0.2191162h0.0285645h0.0036621h0.2399902h0.00354h0.00354h0.2106934h0.0357666
			h0.00354h0.2314453h0.0178223h0.00354h0.227417h0.0177002h0.00354h0.2443848h0.00354h0.00354h0.2297363h0.0140381h0.00354
			h0.2325439h0.0141602h0.003418h0.1933594h0.0526123h0.00354h0.2277832h0.0209961h0.00354h0.2166748h0.0279541h0.003418h0.2265625
			h0.020874h0.00354h0.1807861h0.06604h0.003418h0.2253418h0.020752h0.003418h0.2109375h0.034668h0.0032959h0.2138672h0.0344238
			h0.003418h0.2304688h0.0170898h0.003418h0.1716309h0.0753174h0.003418h0.2325439h0.0136719h0.003418h0.2047119h0.0408936
			h0.0032959h0.1939697h0.0509033H1893.75h0.2036133h0.0440674h0.003418h0.2368164h0.0101318h0.0032959h0.1351318h0.1112061
			h0.003418h0.215332h0.0301514H1894.75h0.1478271h0.1004639h0.003418h0.090332h0.1573486h0.0032959h0.0467529h0.2001953h0.003418
			h0.0266113h0.2196045h0.0032959h0.0333252h0.2124023h0.0032959h0.0761719h0.1719971h0.003418h0.168457h0.0758057h0.0032959
			h0.2469482h0.0032959h0.1118164h0.1345215h0.0032959h0.2487793h0.0032959h0.244873h0.0032959h0.0717773h0.1757813h0.0032959
			h0.2468262h0.0032959h0.2462158h0.0031738H1898.5h0.0031738h0.244873h0.0032959h0.2249756h0.0223389h0.0031738h0.2468262
			h0.0032959h0.2459717h0.0031738h0.2486572h0.0031738h0.244751h0.0031738h0.2471924h0.0032959h0.0031738h0.2432861h0.0032959
			h0.1639404h0.0819092h0.0031738h0.2484131h0.0031738h0.0187988h0.2288818h0.0031738h0.0876465h0.1594238h0.0030518h0.1311035
			h0.1153564h0.0030518h0.1556396h0.0900879h0.0031738h0.1644287h0.0837402h0.0030518h0.157959h0.0894775h0.0031738h0.138916
			h0.1079102h0.0030518h0.1108398h0.1352539h0.0031738h0.0767822h0.1687012h0.0030518h0.2357178h0.012207h0.0030518h0.1801758
			h0.0670166h0.0030518h0.1187744h0.1278076h0.0030518h0.2337646h0.012085h0.0030518h0.1605225h0.0877686h0.0030518h0.081543
			h0.1658936h0.0030518h0.1656494h0.0812988h0.0030518h0.2371826h0.0090332h0.0029297h0.1468506H1905.5h0.0029297h0.2001953
			h0.0447998h0.0029297h0.1013184h0.145874h0.0029297h0.1456299h0.1009521h0.0030518h0.1806641h0.0681152h0.0029297h0.2069092
			h0.0383301h0.0029297h0.2299805h0.0175781h0.0029297h0.2438965h0.0029297h0.0029297h0.1231689h0.1259766h0.0029297h0.1286621
			h0.1168213h0.0029297h0.1312256h0.1164551h0.0029297h0.1309814h0.1162109h0.0029297h0.2434082h0.0029297h0.0029297h0.2313232
			h0.017334h0.0028076h0.2105713h0.0345459h0.0029297h0.192749h0.0545654h0.0028076h0.1693115h0.0772705h0.0029297h0.1430664
			h0.1057129h0.0029297h0.2196045h0.0256348h0.0029297h0.1877441h0.0596924h0.0028076h0.1477051h0.0991211h0.0028076h0.2122803
			h0.0367432h0.0028076h0.1665039h0.0789795h0.0028076h0.2250977h0.022583h0.0028076h0.1740723h0.072876h0.0028076h0.2210693
			h0.0279541h0.0029297h0.1646729h0.0808105h0.0028076h0.2060547h0.041748h0.0026855h0.2387695h0.0084229h0.0026855h0.1773682
			h0.0690918h0.0028076h0.2070313h0.0413818h0.0028076h0.2313232h0.0164795h0.0028076h0.1593018h0.0878906h0.0025635h0.1781006
			h0.0684814h0.0026855h0.1940918h0.0545654h0.0026855h0.2043457h0.0407715h0.0026855h0.2174072h0.0299072h0.0026855h0.222168
			h0.0270996h0.0026855h0.2242432h0.0217285h0.0025635h0.2264404h0.0214844h0.0026855h0.2231445h0.0241699h0.0025635h0.2171631
			h0.0294189h0.0028076h0.2111816h0.0373535h0.0025635h0.2000732h0.0478516h0.0026855h0.1861572h0.0611572h0.0025635h0.1724854
			h0.0740967h0.0026855h0.232666h0.0131836h0.0026855h0.213623h0.0343018h0.0025635h0.1920166h0.0551758h0.0025635h0.241333
			h0.0078125h0.0026855h0.2119141h0.0339355h0.0025635h0.1853027h0.0626221h0.0025635h0.2263184h0.020752h0.0026855h0.1945801
			h0.0544434h0.0025635h0.2276611h0.0181885h0.0025635h0.19104h0.0567627h0.0025635h0.2211914h0.0257568h0.0025635h0.182251
			h0.0667725h0.0025635h0.2047119h0.0408936h0.0025635h0.2298584h0.0178223h0.0024414h0.1834717h0.0635986h0.0024414h0.2006836
			h0.0482178h0.0024414h0.215332h0.0328369h0.0024414h0.227417h0.0201416h0.0025635h0.2366943h0.0100098h0.0025635h0.2460938
			h0.0025635h0.1878662h0.0600586h0.0024414h0.1923828h0.0549316h0.0024414h0.1920166h0.0571289h0.0025635h0.1914063h0.0544434
			h0.0025635h0.1883545h0.0594482h0.0024414h0.2446289h0.0024414h0.0025635h0.2364502h0.0123291h0.0025635h0.2236328h0.0245361
			h0.0024414h0.2108154h0.0367432h0.0024414h0.1981201h0.0487061h0.0025635h0.2387695h0.0073242h0.0024414h0.2213135h0.0267334
			h0.0024414h0.2011719h0.0461426h0.0023193h0.2370605h0.0119629h0.0025635h0.2098389h0.0360107h0.0024414h0.2406006h0.0070801
			h0.0024414h0.2110596h0.0384521h0.0023193h0.2344971h0.0118408h0.0024414h0.2027588h0.0454102h0.0023193h0.2211914h0.0262451
			h0.0023193h0.239624h0.0072021h0.0023193h0.2011719h0.0472412h0.0024414h0.2124023h0.0352783h0.0024414h0.2235107h0.0235596
			h0.0024414h0.2299805h0.0187988h0.0023193h0.2340088h0.0140381h0.0023193h0.2381592h0.0092773h0.0023193h0.2375488h0.0092773
			h0.0023193h0.2391357h0.0092773h0.0023193h0.2338867h0.013916h0.0021973h0.2286377h0.0185547h0.0023193h0.2210693h0.0253906
			h0.0023193h0.2111816h0.0367432h0.0023193h0.2473145H1930.25h0.2331543h0.0158691h0.0023193h0.2141113h0.0341797h0.0023193
			h0.2407227h0.0068359h0.0023193h0.2198486h0.0270996h0.0023193h0.2440186h0.0045166h0.0023193h0.2186279h0.0291748h0.0021973
			h0.236084h0.0112305h0.0021973h0.2084961h0.0380859h0.0021973h0.2214355h0.0267334h0.0021973h0.2319336h0.015625h0.0021973
			h0.2401123h0.0089111h0.0021973h0.2438965h0.0043945h0.0023193h0.2475586h0.0021973h0.2073975h0.0396729h0.0021973h0.2485352
			h0.0021973h0.2434082h0.0043945h0.0021973h0.2363281h0.0108643h0.0021973h0.229126h0.017334H1934.75h0.2198486h0.0281982
			h0.0021973h0.2473145h0.0021973h0.0020752h0.2294922h0.017334h0.0020752h0.2137451h0.0344238h0.0021973h0.2325439h0.0148926
			h0.0021973h0.2490234h0.0020752h0.2248535h0.0213623h0.0021973h0.2369385H1936.75h0.0020752h0.2427979h0.0041504h0.0020752
			h0.2145996h0.0338135h0.0021973h0.2160645h0.0317383h0.0020752h0.2175293h0.029541h0.0020752h0.2169189h0.0316162h0.0021973
			h0.2478027h0.0020752h0.2408447h0.0063477h0.0020752h0.2340088h0.0146484h0.0020752h0.2229004h0.0249023h0.0021973h0.243042
			h0.0041504h0.0020752h0.2259521h0.0227051h0.0020752h0.2397461h0.0083008h0.0019531h0.2205811h0.0268555h0.0019531h0.2303467
			h0.0184326h0.0019531h0.2358398h0.0123291h0.0019531h0.2392578h0.0081787h0.0019531h0.2406006h0.0081787h0.0019531h0.2380371
			h0.0101318h0.0019531h0.2331543h0.0142822h0.0019531h0.2286377H1941.75h0.0019531h0.2178955h0.0281982h0.0020752h0.2373047
			h0.012085h0.0019531h0.2207031h0.026123h0.0019531h0.2340088h0.0140381h0.0020752h0.2432861h0.0061035h0.0019531h0.2208252
			h0.0258789h0.0019531h0.2242432h0.0238037h0.0019531h0.225708h0.0236816h0.0019531h0.2231445h0.0235596h0.0019531h0.2460938
			h0.0019531h0.0019531h0.2375488h0.0117188h0.0019531h0.2250977h0.0216064h0.0019531h0.2401123h0.0078125h0.0019531h0.2491455
			h0.0019531h0.229248h0.0194092h0.0018311h0.2324219h0.0155029h0.0019531h0.2336426h0.0135498h0.0019531h0.2330322h0.0153809
			h0.0019531h0.2266846h0.0211182h0.0019531h0.2432861h0.0056152h0.0019531h0.2312012h0.0152588h0.0019531h0.2438965h0.0056152
			h0.0019531h0.2470703h0.0018311h0.2293701h0.0187988h0.0019531h0.2287598h0.0187988h0.0019531h0.2487793h0.0019531h0.2424316
			h0.0056152h0.0018311h0.2325439h0.0148926h0.0019531h0.243042h0.0056152h0.0018311h0.2479248h0.0019531h0.2305908h0.0185547
			h0.0018311H1949.75h0.0018311h0.2440186h0.0037842h0.0018311h0.2380371h0.0090332h0.0019531h0.248291h0.0018311h0.2347412
			h0.0129395h0.0018311h0.237793h0.0109863h0.0018311h0.2371826h0.0109863h0.0018311h0.2329102h0.0162354h0.0019531h0.2431641
			h0.00354h0.0018311h0.2335205h0.0144043h0.0018311h0.2364502h0.0125732h0.0018311h0.2358398h0.0125732h0.0018311h0.2333984
			h0.0142822h0.0018311h0.2435303h0.005249h0.0018311h0.2338867h0.0142822h0.0018311h0.2368164h0.0106201h0.0018311h0.236084
			h0.0124512h0.0018311h0.2479248h0.0018311h0.2401123h0.0089111h0.001709h0.244873h0.00354h0.001709h0.2441406h0.00354h0.001709
			h0.2418213h0.006958h0.0018311h0.2340088h0.0140381h0.001709h0.2387695h0.008667h0.001709h0.2398682h0.008667h0.001709h0.2374268
			h0.010376h0.0018311h0.2436523h0.005127h0.001709h0.24646h0.0018311h0.001709h0.2441406h0.003418h0.001709h0.2399902h0.0085449
			h0.001709h0.2445068H1957.25h0.001709h0.2438965h0.0032959h0.001709h0.2398682h0.0084229h0.001709h0.2442627h0.0050049h0.001709
			h0.2435303h0.003418h0.001709h0.2412109h0.0084229h0.0015869h0.2440186h0.0032959h0.001709h0.2449951h0.0032959h0.0015869
			h0.2409668h0.0084229h0.001709h0.2435303h0.0032959H1959.5h0.2429199h0.0067139h0.0015869h0.2473145h0.001709h0.248291h0.0015869
			h0.2442627h0.0050049h0.0015869h0.2453613h0.0032959h0.0015869h0.243042h0.0047607h0.001709h0.2471924h0.001709h0.0015869
			h0.244873h0.0032959h0.001709h0.2393799h0.0080566h0.001709h0.2484131h0.0015869h0.243042h0.0064697h0.0015869h0.2406006
			h0.0064697H1962.5h0.244873h0.0047607h0.001709h0.2425537h0.0048828h0.0015869h0.2451172h0.0031738h0.0015869h0.2427979h0.0064697
			h0.0015869h0.2437744h0.0047607h0.0015869h0.2463379h0.0015869h0.0015869h0.2457275h0.0031738h0.0014648h0.2481689h0.0015869
			h0.2443848H1964.75h0.0015869h0.2420654h0.0062256h0.0015869h0.2446289h0.0030518h0.0015869h0.2486572h0.0014648h0.24646
			h0.0015869h0.0014648h0.2457275h0.0031738h0.0014648h0.2467041h0.0014648h0.0015869h0.2490234h0.0015869h0.2452393h0.0030518
			h0.0015869h0.243042h0.0046387h0.0014648h0.2485352h0.0014648h0.2479248h0.0014648h0.0015869h0.2457275h0.0030518h0.0014648
			h0.2451172h0.0029297h0.0015869h0.2442627h0.0045166h0.0015869h0.2436523h0.0045166h0.0015869h0.2475586h0.0014648h0.2469482
			h0.0014648H1969h0.2492676h0.0014648h0.2456055h0.0029297h0.0015869h0.2463379h0.0014648h0.0014648h0.2457275h0.0029297h0.0015869
			h0.2480469h0.0013428h0.0015869h0.2473145h0.0014648h0.2467041h0.0029297h0.0014648h0.2474365h0.0015869h0.2468262H1971.25
			h0.0013428h0.2462158h0.0014648h0.0014648h0.2484131h0.0014648h0.2491455h0.0014648h0.2485352h0.0014648h0.2449951h0.0029297
			h0.0013428h0.2471924h0.0014648h0.0013428h0.2493896h0.0014648h0.2487793h0.0014648h0.246582h0.0013428h0.0015869h0.2473145
			h0.0014648h0.0013428h0.2467041h0.0013428h0.0015869h0.2474365h0.0013428h0.0014648h0.2467041h0.0014648h0.0014648h0.2489014
			h0.0014648h0.2468262h0.0013428h0.0014648h0.2490234h0.0014648h0.248291h0.0013428h0.2491455h0.0013428h0.2469482h0.0014648
			h0.0014648h0.2476807H1976.25h0.0013428h0.2470703h0.0014648h0.0013428h0.2476807h0.0014648h0.2484131h0.0014648h0.2491455
			h0.0013428h0.2485352h0.0013428h0.2492676h0.0013428h0.2485352h0.0013428h0.24646h0.0014648h0.0013428h0.2485352h0.0013428
			h0.2492676h0.0013428h0.2485352h0.0013428H1979.25h0.0013428h0.2484131h0.0013428h0.2479248h0.0013428h0.2486572h0.0012207
			h0.2492676h0.0013428h0.2485352h0.0013428h0.2491455h0.0013428h0.2484131h0.0013428h0.2479248h0.0013428H1981.5h0.0013428
			h0.2478027h0.0013428h0.2484131h0.0013428h0.2490234h0.0013428h0.2484131h0.0012207h0.2490234h0.0013428h0.2484131h0.0012207
			h0.2490234h0.0012207h0.248291h0.0013428h0.2489014h0.0013428h0.2495117h0.0012207H1984.25h0.0013428h0.2481689h0.0012207
			h0.2487793h0.0012207h0.2481689h0.0012207h0.2486572H1985.25h0.2493896h0.0012207h0.2486572h0.0012207h0.2491455h0.0013428
			h0.2484131h0.0013428h0.2490234h0.0013428h0.248291h0.0012207h0.2490234h0.0013428h0.2481689h0.0012207h0.2489014h0.0012207
			h0.2493896h0.0013428H1988h0.0010986h0.2480469h0.0012207h0.2486572h0.0012207h0.2492676h0.0010986h0.2485352h0.0012207h0.2490234
			h0.0012207h0.248291h0.0012207h0.2489014h0.0012207h0.2493896h0.0012207h0.2487793h0.0010986h0.2480469h0.0013428h0.2497559
			h0.0010986h0.2479248h0.0012207h0.2496338h0.0010986h0.2489014h0.0012207h0.248291h0.0012207h0.2487793h0.0010986h0.2492676
			h0.0010986h0.2486572h0.0010986h0.2491455h0.0012207h0.248291h0.0012207h0.2489014h0.0010986h0.2493896h0.0010986h0.2486572
			h0.0012207h0.2491455h0.0012207h0.2485352h0.0009766l0.0480957-0.0172119L1994.4997559,772h0.0009766h0.2484131h0.0010986
			h0.2486572h0.0012207h0.2492676h0.0010986h0.100708h0.1478271h0.0010986h0.2490234h0.0010986h0.2495117h0.0010986h0.2487793
			h0.0010986H1996.5h0.0010986h0.2485352h0.0010986h0.2490234h0.0010986h0.248291h0.0010986h0.2487793h0.0010986h0.2491455
			h0.0010986h0.2485352H1998h0.2489014H1998.25h0.2493896h0.0009766h0.2487793h0.0009766h0.2491455h0.0010986h0.2495117h0.0010986
			h0.2487793h0.0010986h0.2481689h0.0010986h0.2496338h0.0010986h0.2489014h0.0010986h0.248291h0.0009766h0.2497559h0.0010986
			h0.2480469H2001h0.2495117h0.0010986h0.2487793h0.0009766h0.2491455h0.0010986h0.2485352h0.0010986h0.2487793h0.0010986h0.2492676
			h0.0009766H2002.75h0.0010986h0.2478027H2003h0.2492676h0.0010986h0.2486572H2003.5h0.2490234h0.0010986h0.2492676h0.0010986
			h0.2485352h0.0010986h0.2490234h0.0009766h0.2493896h0.0010986h0.2486572h0.0009766h0.2490234h0.0010986h0.2493896h0.0009766
			h0.2487793h0.0009766h0.2480469h0.0009766h0.0009766H2006.25h0.0009766h0.2486572h0.0009766h0.2490234h0.0010986h0.248291H2007
			h0.2496338h0.0009766h0.2481689h0.0009766h0.0009766H2007.75h0.0009766h0.2476807h0.0009766h0.0009766h0.2480469h0.0009766
			h0.0009766h0.2481689h0.0009766h0.0009766h0.2476807h0.0009766h0.0009766h0.2489014h0.0009766h0.2481689h0.0009766h0.0009766
			h0.2475586h0.0019531h0.0009766h0.2478027h0.0009766h0.0009766h0.2471924h0.0019531h0.0009766h0.2474365h0.0009766h0.0009766
			h0.2486572h0.0009766h0.0009766h0.2480469h0.0009766h0.0009766h0.2473145h0.0009766H2011h0.2496338h0.0009766h0.2468262h0.0019531
			h0.0009766h0.2473145h0.0018311h0.0009766h0.246582h0.0028076h0.0009766h0.2449951h0.0037842h0.0009766h0.2424316h0.0065918
			h0.0008545h0.2456055h0.0036621h0.0009766h0.244873h0.0037842h0.0009766h0.2376709h0.0112305h0.0008545h0.2473145h0.0018311
			h0.0009766h0.2484131h0.0009766h0.0008545h0.2312012h0.0175781h0.0009766h0.2351074h0.0137939H2014.25h0.2446289h0.0046387
			h0.0008545h0.1724854h0.0770264h0.0008545h0.0164795h0.2322998h0.0009766h0.2380371h0.0109863h0.0009766h0.2172852h0.0318604
			h0.0009766h0.220459h0.0289307h0.0009766h0.2315674h0.0172119h0.0009766h0.2471924h0.0018311h0.0008545h0.2358398h0.0134277
			h0.0009766h0.2485352h0.0009766h0.2425537h0.0070801h0.0008545h0.2446289h0.0043945h0.0009766h0.2438965h0.0053711h0.0008545
			h0.2415771h0.0070801h0.0008545h0.2469482h0.0026855h0.0009766h0.2419434h0.006958h0.0008545h0.244873h0.0043945h0.0008545
			h0.2467041h0.0018311h0.0008545h0.2487793h0.0008545h0.0008545h0.2437744h0.005249h0.0008545h0.246582h0.0025635h0.0008545
			h0.2492676h0.0009766h0.2468262h0.0018311h0.0007324h0.2454834h0.0042725h0.0009766h0.2446289h0.0043945h0.0007324h0.2458496
			h0.003418h0.0008545h0.2468262h0.001709h0.0008545h0.2462158h0.003418h0.0008545h0.2454834h0.003418h0.0008545h0.246582h0.0024414
			h0.0009766h0.2491455h0.0009766h0.2485352h0.0008545h0.0008545h0.2462158h0.0025635h0.0008545h0.2489014h0.0008545H2023h0.0008545
			h0.2476807h0.0007324h0.0008545h0.2485352h0.0009766h0.0007324h0.2470703H2023.75h0.0007324h0.24646h0.0025635h0.0007324
			h0.2491455h0.0007324h0.2492676h0.0008545h0.2485352h0.0007324h0.0008545h0.2486572h0.0008545h0.2487793h0.0008545h0.0008545
			h0.24646h0.0025635h0.0007324h0.2474365h0.001709h0.0008545h0.2491455h0.0008545h0.2478027h0.0015869h0.0007324h0.2471924
			h0.0015869h0.0008545h0.2496338h0.0007324h0.248291h0.0007324h0.0008545h0.2481689h0.0008545h0.0008545h0.2475586h0.0015869
			h0.0008545h0.2493896h0.0007324h0.2479248h0.0015869h0.0008545h0.2471924h0.0015869h0.0007324h0.2473145H2028.5h0.0007324
			h0.2490234h0.0008545h0.2475586h0.0015869h0.0007324h0.2484131h0.0008545h0.0007324h0.2485352h0.0008545h0.0007324h0.2487793
			h0.0007324h0.2487793h0.0008545h0.0007324h0.2473145h0.0015869h0.0007324h0.2490234H2030.5h0.0006104h0.2475586h0.0015869
			h0.0007324h0.2484131h0.0008545h0.0007324h0.2492676h0.0007324H2031.5h0.0006104h0.2471924h0.0015869h0.0007324h0.2480469
			h0.0014648h0.0008545h0.2480469h0.0007324h0.0008545h0.2489014h0.0007324h0.0008545h0.2481689h0.0007324h0.0008545h0.2491455
			h0.0006104h0.2492676h0.0007324h0.2478027h0.0014648h0.0007324h0.2479248h0.0013428h0.0008545h0.2486572h0.0007324h0.0007324
			h0.2495117h0.0006104h0.2481689h0.0007324h0.0007324h0.2496338h0.0007324h0.2489014h0.0007324h0.2490234h0.0007324h0.0007324
			h0.248291h0.0007324h0.0007324h0.2491455h0.0007324h0.2484131h0.0007324h0.0007324h0.2491455H2036.25h0.2492676H2036.5h0.2493896
			H2036.75h0.2480469h0.0014648h0.0006104h0.2493896h0.0007324h0.2495117h0.0007324H2037.75h0.0006104h0.2481689h0.0007324
			h0.0006104h0.2489014h0.0007324h0.0007324h0.2487793H2038.5h0.2490234h0.0006104h0.0007324h0.2490234h0.0007324h0.2481689
			h0.0014648h0.0007324h0.2481689h0.0007324h0.0007324h0.2490234h0.0007324h0.0007324h0.2490234h0.0007324h0.2484131h0.0006104
			h0.0007324h0.2484131h0.0013428h0.0007324h0.2490234h0.0007324h0.2478027h0.0013428h0.0007324h0.2478027h0.0013428h0.0007324
			h0.2491455h0.0006104h0.0007324h0.2485352h0.0006104h0.0007324h0.2485352h0.0007324h0.0006104h0.2485352h0.0006104h0.0007324
			h0.2491455h0.0007324h0.2492676H2042.75h0.0006104h0.2485352h0.0007324h0.0006104h0.2485352h0.0007324h0.0007324h0.2478027
			h0.0013428h0.0006104h0.2492676h0.0006104h0.2485352H2044h0.0007324h0.2484131h0.0007324h0.0006104h0.2478027h0.0013428h0.0007324
			h0.2491455h0.0007324h0.2484131H2045h0.0007324h0.2491455h0.0006104h0.2491455h0.0006104H2045.75h0.0006104h0.2478027h0.0013428
			h0.0006104h0.2490234h0.0007324h0.2490234h0.0006104h0.0006104h0.2484131h0.0006104H2046.75h0.2497559h0.0006104h0.2495117
			h0.0007324h0.248291h0.0006104h0.0006104h0.248291h0.0012207h0.0007324h0.2487793h0.0006104h0.0007324h0.2487793H2048.25
			h0.0004883h0.2480469h0.0007324H2048.5h0.2480469h0.0014648H2048.75h0.25h0.0004883H2049.25h0.0004883h0.2485352H2049.5h0.0004883
			h0.2485352h0.0004883h0.0007324h0.2478027h0.0014648H2050h0.2490234h0.0007324h0.0007324h0.2485352h0.0004883H2050.5h0.2485352
			h0.0009766h0.0007324h0.248291H2051h0.0004883h0.248291h0.0007324H2051.25h0.2475586h0.0019531H2051.5h0.2495117H2051.75h0.248291
			h0.0012207H2052h0.25h0.0004883h0.2480469h0.0012207h0.0007324h0.2478027h0.0012207H2052.75h0.2497559h0.0007324h0.2475586
			H2053.25h0.0004883h0.2485352h0.0004883h0.0007324h0.2487793h0.0004883h0.0007324h0.2487793h0.0004883h0.0007324h0.2492676
			H2054.25h0.25h0.0004883h0.2480469h0.0009766h0.0007324h0.2473145H2055h0.0004883h0.2473145h0.001709H2055.25h0.2490234h0.0004883
			h0.0007324h0.2487793h0.0004883h0.0007324h0.2475586h0.001709H2056h0.2487793H2056.25h0.0004883h0.2480469h0.0009766h0.0007324
			h0.2478027H2056.75h0.0004883h0.2470703H2057h0.0004883h0.246582H2057.25h0.0004883h0.246582H2057.5h0.0004883h0.2475586h0.001709
			h0.0004883h0.2458496h0.003418H2058h0.2495117h0.0007324h0.2473145h0.0021973h0.0004883h0.2478027h0.0014648h0.0007324h0.2470703
			h0.0021973H2059h0.244873H2059.25h0.0004883h0.2480469h0.0009766H2059.5h0.2456055h0.0039063h0.0007324h0.2426758h0.0065918
			h0.0007324h0.2419434h0.0073242H2060.25h0.2446289H2060.5h0.0004883h0.2412109h0.0078125H2060.75h0.2468262h0.0026855H2061
			h0.2490234h0.0004883H2061.25h0.246582H2061.5h0.0004883h0.1630859h0.0859375H2061.75h0.2106934h0.0388184h0.0007324h0.2275391
			h0.0219727h0.0004883h0.2438965h0.0053711H2062.5h0.2470703H2062.75h0.0004883h0.2436523H2063h0.0004883h0.2441406H2063.25
			h0.0004883h0.2456055H2063.5h0.0004883h0.2470703h0.0019531h0.0007324h0.2478027h0.001709h0.0007324h0.2475586h0.001709h0.0007324
			h0.246582h0.0024414H2064.5h0.2478027H2064.75h0.0004883h0.2490234H2065h0.2490234H2065.25h0.0004883h0.248291H2065.5h0.0004883
			h0.2485352h0.0004883H2065.75h0.2485352h0.0009766H2066h0.25h0.0004883h0.2475586h0.0014648H2066.5h0.2492676h0.0004883h0.0004883
			h0.248291h0.0012207h0.0004883h0.2487793h0.0004883H2067.25h0.2485352h0.0012207H2067.5h0.2485352h0.0009766h0.0007324h0.2492676
			H2068h0.2497559h0.0004883h0.2490234h0.0004883h0.0004883h0.2487793h0.0004883H2068.75h0.2495117H2069h0.0004883h0.2490234
			H2069.25h0.0004883h0.2485352h0.0007324h0.0004883H2069.75h0.0004883H2070h0.0004883h0.2492676h0.0007324h0.2490234H2070.5
			h0.0004883h0.2490234H2070.75h0.25h0.0004883h0.2490234H2071.25h0.0004883h0.2490234H2071.5h0.0004883h0.2492676h0.0004883
			h0.2492676H2072h0.0002441h0.2490234h0.0004883h0.0004883h0.2492676H2072.5h0.0004883h0.2490234H2072.75h0.25h0.0004883h0.2490234
			H2073.25h0.0004883H2073.5h0.0004883h0.2492676h0.0004883h0.2495117h0.0004883h0.2487793h0.0004883H2074.25h0.2497559h0.0004883
			h0.2492676h0.0007324H2075h0.0004883H2075.25h0.0004883h0.2487793h0.0004883h0.0004883H2075.75h0.0002441h0.2495117h0.0004883
			H2076.25h0.0004883h0.2492676h0.0004883h0.2492676H2076.75h0.2495117H2077h0.2497559h0.0007324h0.2492676h0.0007324h0.2490234
			h0.0007324h0.2495117h0.0004883h0.2492676H2078.25h0.2497559H2078.5h0.2495117H2078.75h0.2497559h0.0004883h0.2492676H2079.25
			h0.2497559h0.0004883h0.2495117h0.0004883H2080h0.0002441h0.2495117h0.0004883H2080.5h0.0004883H2080.75h0.0002441H2081h0.0004883
			H2081.25h0.0004883H2081.5h0.0004883H2081.75h0.0004883H2082h0.0004883H2082.25h0.0004883H2082.5h0.0004883h0.2492676h0.0004883
			h0.2495117h0.0004883H2083.25h0.0004883H2083.5h0.0004883h0.2492676h0.0004883h0.2492676H2084h0.2497559h0.0004883h0.2492676
			H2084.5h0.2497559H2084.75h0.25h0.0004883H2085.25h0.0004883h0.2492676H2085.5h0.2495117H2085.75h0.2495117H2086h0.25h0.0004883
			H2086.5h0.0004883h0.2492676H2086.75h0.2495117H2087h0.2495117H2087.25h0.25h0.0004883H2087.75h0.0004883h0.2490234H2088h0.25
			h0.0004883H2088.5h0.0004883h0.2490234H2088.75h0.25h0.0004883H2089.25h0.0004883h0.2492676H2089.5h0.2495117H2089.75h0.2495117
			H2090h0.25h0.0002441h0.2495117H2090.5h0.2497559H2090.75h0.25h0.0002441h0.2495117h0.0004883h0.2495117h0.0004883H2091.75
			h0.0004883h0.2492676h0.0004883h0.2492676H2092.25h0.2497559H2092.5h0.25h0.0004883H2093h0.0002441H2093.25h0.0004883H2093.5
			h0.0004883H2093.75h0.0002441h0.2495117h0.0004883h0.2495117h0.0004883H2094.5h0.0004883h0.2492676H2094.75h0.2495117H2095
			h0.2495117H2095.25h0.2497559h0.0004883H2095.75h0.0004883H2096h0.0002441H2096.25h0.0002441H2096.5h0.0004883h0.2492676H2096.75
			h0.25h0.0002441H2097.25h0.0002441H2097.5h0.0002441H2097.75h0.0002441h0.2492676H2098h0.25h0.0002441h0.2495117H2098.5h0.2497559
			H2098.75h0.2495117H2099h0.2497559H2099.25h0.25h0.0002441h0.2495117H2099.75h0.25h0.0002441H2100.25h0.0002441h0.2495117H2100.5
			h0.2497559H2100.75h0.25h0.0002441H2101.25h0.0002441h0.2495117H2101.5h0.25h0.0004883H2102h0.0002441h0.2492676H2102.25h0.25
			h0.0004883H2102.75h0.0002441H2103h0.0002441H2103.25h0.0002441H2103.5h0.0004883H2103.75h0.0004883h0.2492676H2104h0.25
			h0.0002441H2104.5h0.0004883h0.2492676H2104.75h0.25h0.0002441h0.2495117H2105.25h0.25h0.0002441h0.2495117H2105.75h0.25
			h0.0002441h0.2495117H2106.25h0.25h0.0004883h0.2492676H2106.75h0.2495117H2107h0.25h0.0002441h0.2495117H2107.5h0.25h0.0002441
			h0.2495117H2108h0.25h0.0002441h0.2492676H2108.5h0.2497559H2108.75h0.25h0.0002441h0.2492676H2109.25h0.2497559H2109.5h0.2497559
			H2109.75h0.25l0,0h0.25h0.0002441H2110.5h0.0002441h0.2492676h0.0002441H2110.75h0.2497559H2111h0.2495117H2111.25h0.0002441
			h0.2492676H2111.5l0,0h0.2497559H2111.75h0.0004883h0.2490234H2112l0,0h0.2495117H2112.25h0.0002441h0.2490234H2112.5h0.0002441
			H2112.75h0.0002441h0.2492676H2113l0,0h0.2495117h0.0002441H2113.25h0.25h0.0002441h0.2487793h0.0007324H2113.75h0.2490234H2114
			l0,0h0.2490234H2114.25l0,0h0.2495117h0.0002441H2114.5h0.2495117H2114.75h0.0004883h0.2490234H2115l0,0h0.2490234h0.0004883
			H2115.25h0.2495117H2115.5h0.2495117H2115.75h0.0004883h0.2480469H2116h0.0002441h0.2487793h0.0007324H2116.25h0.2485352H2116.5
			h0.0002441h0.2485352H2116.75h0.0002441h0.2473145H2117l0,0h0.2490234h0.0007324H2117.25h0.2480469H2117.5l0,0h0.2456055H2117.75
			h0.0002441h0.2458496H2118l0,0h0.2434082h0.0063477H2118.25h0.2424316H2118.5l0,0h0.2485352H2118.75l0,0h0.2299805h0.0197754H2119
			h0.2487793H2119.25h0.0002441h0.2463379h0.0029297H2119.5h0.2480469H2119.75h0.0002441h0.2468262h0.0026855H2120h0.2487793
			H2120.25h0.0002441h0.2492676H2120.5h0.0002441h0.2473145h0.0021973H2120.75h0.2490234H2121l0,0h0.2485352H2121.25h0.0002441
			h0.2490234h0.0004883H2121.5h0.2495117H2121.75l0,0h0.2490234H2122l0,0h0.2485352h0.0012207H2122.25h0.2485352h0.0012207H2122.5
			h0.2490234h0.0007324H2122.75h0.2487793H2123l0,0h0.2490234H2123.25h0.0002441h0.2490234h0.0004883H2123.5h0.2495117H2123.75l0,0
			h0.2495117h0.0002441H2124h0.2490234H2124.25h0.0002441H2124.5h0.0002441h0.2490234H2124.75l0,0h0.2495117H2125l0,0h0.2495117
			H2125.25l0,0h0.2495117H2125.5h0.0002441H2125.75l0,0h0.2495117H2126h0.0002441h0.2492676H2126.25h0.0002441h0.2495117H2126.5
			h0.2490234h0.0007324H2126.75h0.2495117H2127l0,0h0.2495117H2127.25l0,0h0.25h0.0002441h0.2495117H2127.75h0.0002441h0.2495117
			H2128h0.25l0,0h0.2495117H2128.5h0.0002441H2128.75l0,0h0.25h0.0002441h0.2492676H2129.25h0.0002441h0.2492676H2129.5h0.0002441
			h0.2492676H2129.75l0,0h0.2495117H2130l0,0h0.2497559H2130.25h0.2497559H2130.5h0.0002441h0.2492676h0.0002441H2130.75h0.2497559
			H2131h0.0002441h0.2495117H2131.25h0.25h0.0002441h0.2492676H2131.75l0,0h0.2497559H2132h0.0002441h0.2492676H2132.25l0,0
			h0.2495117H2132.5l0,0h0.2495117H2132.75h0.0002441H2133l0,0h0.25l0,0h0.2492676h0.0004883H2133.5h0.2495117H2133.75l0,0h0.25l0,0
			h0.2495117h0.0002441H2134.25h0.2495117H2134.5l0,0h0.25l0,0h0.25l0,0h0.25l0,0h0.2495117h0.0002441H2135.5h0.2497559H2135.75
			h0.2497559H2136h0.2497559H2136.25h0.2495117H2136.5h0.0002441H2136.75l0,0h0.25h0.0002441h0.2492676H2137.25l0,0h0.2495117
			h0.0002441H2137.5h0.25h0.0002441h0.2492676H2138h0.0002441H2138.25l0,0h0.2497559H2138.5h0.0002441H2138.75l0,0h0.2495117
			h0.0002441H2139h0.2495117H2139.25l0,0h0.25l0,0h0.2495117H2139.75l0,0h0.2497559H2140h0.0002441H2140.25l0,0h0.2495117H2140.5
			l0,0h0.2497559H2140.75h0.2497559H2141h0.0002441h0.2495117H2141.25l0,0h0.2495117h0.0002441H2141.5h0.2495117h0.0002441H2141.75
			h0.2495117h0.0002441H2142h0.2495117H2142.25l0,0h0.2497559H2142.5h0.2495117H2142.75l0,0h0.2497559H2143l0,0h0.2497559H2143.25
			h0.25h0.0002441H2143.75l0,0h0.2497559H2144l0,0h0.2495117h0.0002441H2144.25h0.2497559H2144.5h0.0002441H2144.75l0,0h0.2497559
			H2145l0,0h0.2497559H2145.25h0.2497559H2145.5h0.0002441h0.2495117H2145.75h0.25l0,0h0.2497559H2146.25l0,0h0.25h0.0002441
			H2146.75h0.0002441h0.2492676H2147h0.0002441h0.2495117H2147.25l0,0h0.2497559H2147.5h0.0002441h0.2492676H2147.75l0,0h0.25
			h0.0002441h0.2492676H2148.25l0,0h0.25h0.0002441h0.2492676H2148.75h0.0002441h0.2495117H2149l0,0h0.25l0,0h0.25l0,0h0.2497559
			H2149.75h0.0002441h0.2495117H2150h0.2495117h0.0002441H2150.25h0.2495117H2150.5l0,0h0.2497559H2150.75h0.0002441h0.2492676H2151
			l0,0h0.2497559H2151.25l0,0h0.25l0,0h0.25l0,0h0.2497559H2152l0,0h0.2497559H2152.25l0,0h0.25h0.0002441h0.2492676H2152.75l0,0
			h0.2495117H2153l0,0h0.25l0,0h0.25l0,0h0.25h0.0002441h0.2495117H2154l0,0h0.25l0,0h0.2495117H2154.5l0,0h0.2495117h0.0002441
			H2154.75h0.25l0,0h0.2495117H2155.25l0,0h0.2497559H2155.5l0,0h0.25l0,0h0.2495117H2156l0,0h0.25l0,0h0.2495117H2156.5l0,0
			h0.2495117H2156.75l0,0h0.25l0,0h0.25l0,0h0.2497559H2157.5l0,0h0.2497559H2157.75l0,0h0.2495117H2158l0,0h0.2495117H2158.25l0,0
			h0.2497559H2158.5h0.2497559H2158.75l0,0l0.078125-668.5565796L2159,772l0,0h0.2495117H2159.25l0,0h0.2497559H2159.5l0,0h0.25l0,0
			h0.2497559H2160l0,0h0.2497559H2160.25l0,0h0.25l0,0l0,0h0.25l0,0h0.2495117H2161l0,0h0.2497559H2161.25l0,0h0.2497559H2161.5l0,0
			h0.2497559H2161.75h0.0002441H2162l0,0h0.2497559H2162.25l0,0h0.2495117H2162.5l0,0h0.2495117H2162.75l0,0h0.25l0,0h0.2497559
			H2163.25l0,0h0.2495117H2163.5l0,0h0.2497559H2163.75l0,0h0.25l0,0h0.2495117H2164.25l0,0h0.2495117H2164.5l0,0h0.25l0,0
			h0.2497559H2165l0,0h0.2495117H2165.25l0,0h0.2497559H2165.5l0,0h0.2497559H2165.75l0,0h0.25l0,0h0.2497559H2166.25l0,0h0.25l0,0
			h0.2495117H2166.75l0,0h0.2495117H2167l0,0h0.2497559H2167.25l0,0h0.2497559H2167.5l0,0h0.25l0,0h0.2495117H2168l0,0h0.2495117
			H2168.25l0,0h0.25l0,0h0.25l0,0h0.2495117H2169l0,0h0.25l0,0h0.2495117H2169.5l0,0h0.25l0,0h0.2495117H2170l0,0h0.25l0,0
			h0.2497559H2170.5l0,0h0.2495117H2170.75l0,0h0.2495117H2171l0,0h0.25l0,0h0.25l0,0h0.2495117H2171.75l0,0h0.2495117H2172l0,0
			h0.2497559H2172.25l0,0h0.2497559H2172.5l0,0h0.25l0,0h0.25l0,0h0.2495117H2173.25l0,0h0.25l0,0h0.2497559H2173.75l0,0h0.2495117
			H2174l0,0h0.25l0,0h0.2497559H2174.5l0,0h0.25l0,0h0.25l0,0l0,0h0.2495117H2175.25l0,0h0.25l0,0h0.2495117H2175.75l0,0h0.2495117
			H2176l0,0h0.2497559H2176.25l0,0h0.2497559H2176.5l0,0h0.25l0,0h0.25l0,0h0.2495117H2177.25l0,0h0.2495117H2177.5l0,0h0.2495117
			H2177.75l0,0h0.2495117H2178l0,0h0.25l0,0h0.2497559H2178.5l0,0h0.2495117H2178.75l0,0h0.2495117H2179l0,0h0.2497559H2179.25l0,0
			h0.2495117H2179.5l0,0h0.25l0,0h0.2497559H2180l0,0h0.2495117H2180.25l0,0h0.2495117H2180.5l0,0h0.2497559H2180.75l0,0h0.2495117
			H2181l0,0h0.25l0,0h0.25l0,0l0,0h0.2495117H2181.75l0,0h0.25l0,0h0.2495117H2182.25l0,0h0.2495117H2182.5l0,0h0.2495117H2182.75
			l0,0h0.2495117H2183l0,0h0.2495117H2183.25l0,0h0.2495117H2183.5l0,0h0.2495117H2183.75l0,0h0.2495117H2184l0,0h0.2495117H2184.25
			l0,0h0.25l0,0h0.2495117H2184.75l0,0h0.2497559H2185l0,0h0.25l0,0l0,0h0.2495117H2185.5l0,0h0.2492676H2185.75l0,0h0.2497559H2186
			l0,0h0.2495117H2186.25l0,0h0.2497559H2186.5l0,0h0.2495117H2186.75l0,0h0.2497559H2187l0,0h0.2495117H2187.25l0,0h0.2495117
			H2187.5l0,0h0.25l0,0h0.25l0,0h0.2495117H2188.25l0,0h0.25l0,0h0.2495117H2188.75l0,0h0.2490234H2189l0,0h0.2490234H2189.25l0,0
			h0.2495117H2189.5l0,0h0.2495117H2189.75l0,0h0.25l0,0l0,0h0.2495117H2190.25l0,0h0.2497559H2190.5l0,0h0.2492676H2190.75l0,0
			h0.2492676H2191l0,0h0.2495117H2191.25l0,0h0.25l0,0h0.2490234H2191.75l0,0h0.2495117H2192l0,0h0.2495117H2192.25l0,0h0.2495117
			H2192.5l0,0h0.2495117H2192.75l0,0h0.2495117H2193l0,0h0.2495117H2193.25l0,0h0.2492676H2193.5l0,0h0.2495117H2193.75l0,0
			h0.2497559H2194l0,0h0.2495117H2194.25l0,0h0.2495117H2194.5l0,0h0.25l0,0h0.25l0,0h0.2490234H2195.25l0,0h0.2495117H2195.5l0,0
			h0.2495117H2195.75l0,0h0.2495117H2196l0,0h0.25l0,0l0,0l0.0102539-145.7894287L2196.4997559,772H2196.5l0,0h0.2497559H2196.75
			l0,0h0.2492676H2197l0,0h0.2497559H2197.25l0,0h0.25l0,0l0,0h0.2492676H2197.75l0,0h0.2497559H2198l0,0h0.2495117H2198.25l0,0
			h0.2497559H2198.5l0,0h0.2495117H2198.75l0,0h0.2490234H2199l0,0h0.2490234H2199.25l0,0h0.2495117H2199.5l0,0h0.25l0,0h0.25l0,0
			l0,0h0.25l0,0h0.2495117H2200.5l0,0h0.2497559H2200.75l0,0h0.2497559H2201l0,0h0.25l0,0l0,0h0.2492676H2201.5l0,0h0.2497559
			H2201.75l0,0h0.2495117H2202l0,0h0.2497559H2202.25l0,0h0.25l0,0h0.2495117H2202.75l0,0h0.2490234H2203l0,0h0.2490234H2203.25l0,0
			h0.2492676H2203.5l0,0h0.2495117H2203.75l0,0h0.2490234H2204l0,0h0.2497559H2204.25l0,0h0.2497559H2204.5l0,0h0.25l0,0l0,0
			h0.2490234H2205l0,0h0.2495117H2205.25l0,0h0.2495117H2205.5l0,0h0.2490234H2205.75l0,0h0.2490234H2206l0,0h0.2495117H2206.25l0,0
			h0.2497559H2206.5l0,0h0.2492676H2206.75l0,0h0.25l0,0l0,0h0.2495117H2207.25l0,0h0.2495117H2207.5l0,0h0.2497559H2207.75l0,0
			h0.25l0,0l0,0h0.2492676H2208.25l0,0h0.2497559H2208.5l0,0h0.2492676H2208.75l0,0h0.2490234H2209l0,0h0.25l0,0h0.25l0,0l0,0h0.25
			l0,0h0.2490234H2210l0,0h0.2492676H2210.25l0,0h0.2495117H2210.5l0,0h0.2490234H2210.75l0,0h0.2497559H2211l0,0h0.2492676H2211.25
			l0,0h0.2490234H2211.5l0,0h0.25l0,0l0,0h0.2495117H2212l0,0h0.2495117H2212.25l0,0h0.2495117H2212.5l0,0h0.2497559H2212.75l0,0
			h0.2497559H2213l0,0h0.25l0,0h0.2490234H2213.5l0,0h0.2492676H2213.75l0,0h0.2495117H2214l0,0h0.2490234H2214.25l0,0h0.2492676
			H2214.5l0,0h0.2497559H2214.75l0,0h0.2490234H2215l0,0h0.2495117H2215.25l0,0h0.2490234H2215.5l0,0h0.2495117H2215.75l0,0h0.25
			l0,0h0.2495117H2216.25l0,0h0.2487793H2216.5l0,0h0.2492676H2216.75l0,0h0.25l0,0h0.2492676H2217.25l0,0h0.2497559H2217.5l0,0
			h0.2490234H2217.75l0,0h0.2495117H2218l0,0h0.2487793H2218.25l0,0h0.2490234H2218.5l0,0h0.2495117H2218.75l0,0h0.25l0,0l0,0
			h0.2490234H2219.25l0,0h0.2492676H2219.5l0,0h0.2495117H2219.75l0,0h0.2495117H2220l0,0h0.2495117H2220.25l0,0h0.2495117H2220.5
			l0,0h0.2495117H2220.75l0,0h0.2490234H2221l0,0h0.2487793H2221.25l0,0h0.2495117H2221.5l0,0h0.2490234H2221.75l0,0h0.25l0,0l0,0
			h0.2490234H2222.25l0,0h0.2495117H2222.5l0,0h0.25l0,0h0.2487793H2223l0,0h0.2490234H2223.25l0,0h0.2487793H2223.5l0,0h0.25l0,0
			h0.2495117H2224l0,0h0.2490234H2224.25l0,0h0.2495117H2224.5l0,0h0.2487793H2224.75l0,0h0.2490234H2225l0,0h0.2495117H2225.25l0,0
			h0.2492676H2225.5l0,0h0.2490234H2225.75l0,0h0.2485352H2226l0,0h0.2495117H2226.25l0,0h0.2485352H2226.5l0,0h0.2490234H2226.75
			l0,0h0.2490234H2227l0,0h0.2490234H2227.25l0,0h0.2485352H2227.5l0,0h0.2495117H2227.75l0,0h0.2485352H2228l0,0h0.2490234H2228.25
			l0,0h0.2492676H2228.5l0,0h0.2490234H2228.75l0,0h0.2487793H2229l0,0h0.2495117H2229.25l0,0h0.2485352H2229.5l0,0h0.2487793
			H2229.75l0,0h0.2487793H2230l0,0h0.25l0,0h0.2492676H2230.5l0,0h0.25l0,0l0,0h0.2485352H2231l0,0l0.0915527-47.5637817
			L2231.25,772l0,0h0.2495117H2231.5l0,0h0.2485352H2231.75l0,0h0.2490234H2232l0,0h0.2490234H2232.25l0,0h0.2490234H2232.5l0,0
			h0.25l0,0h0.2487793H2233l0,0h0.2490234H2233.25l0,0h0.2487793H2233.5l0,0h0.2497559H2233.75l0,0h0.2487793H2234l0,0h0.2490234
			H2234.25l0,0h0.2485352H2234.5l0,0h0.2497559H2234.75l0,0h0.2485352H2235l0,0h0.2487793H2235.25l0,0h0.2485352H2235.5l0,0
			h0.2492676H2235.75l0,0h0.25l0,0l0,0h0.2497559H2236.25l0,0h0.2492676H2236.5l0,0h0.248291H2236.75l0,0h0.2485352H2237l0,0
			h0.2480469H2237.25l0,0h0.2492676H2237.5l0,0h0.2497559H2237.75l0,0h0.2497559H2238l0,0h0.2490234H2238.25l0,0h0.2497559H2238.5
			l0,0h0.25l0,0l0,0h0.2495117H2239l0,0h0.2480469H2239.25l0,0h0.2485352H2239.5l0,0h0.2480469H2239.75l0,0h0.2490234H2240l0,0
			h0.2492676H2240.25l0,0h0.2490234H2240.5l0,0h0.25l0,0l0,0h0.2480469H2241l0,0h0.25l0,0l0,0h0.2490234H2241.5l0,0h0.2490234
			H2241.75l0,0h0.2487793H2242l0,0h0.2495117H2242.25l0,0h0.25l0,0l0,0h0.2492676H2242.75l0,0h0.2480469H2243l0,0h0.2480469H2243.25
			l0,0h0.2495117H2243.5l0,0h0.2480469H2243.75l0,0h0.2478027H2244l0,0h0.2490234H2244.25l0,0h0.2495117H2244.5l0,0h0.2490234
			H2244.75l0,0h0.2478027H2245l0,0h0.2480469H2245.25l0,0h0.2495117H2245.5l0,0h0.2480469H2245.75l0,0h0.2478027H2246l0,0h0.2490234
			H2246.25l0,0h0.2492676H2246.5l0,0h0.2485352H2246.75l0,0h0.2495117H2247l0,0h0.2495117H2247.25l0,0h0.248291H2247.5l0,0
			h0.2485352H2247.75l0,0h0.2480469H2248l0,0h0.2485352H2248.25l0,0h0.2485352H2248.5l0,0h0.2495117H2248.75l0,0h0.2497559H2249l0,0
			h0.2490234H2249.25l0,0h0.2495117H2249.5l0,0h0.2490234H2249.75l0,0h0.25l0,0h0.25l0,0l0,0h0.2485352H2250.5l0,0h0.2490234
			H2250.75l0,0h0.2480469H2251l0,0h0.2485352H2251.25l0,0h0.2480469H2251.5l0,0h0.2485352H2251.75l0,0h0.2485352H2252l0,0h0.2495117
			H2252.25l0,0h0.2495117H2252.5l0,0h0.248291H2252.75l0,0h0.2485352H2253l0,0h0.2475586H2253.25l0,0h0.2480469H2253.5l0,0
			h0.2497559H2253.75l0,0h0.2475586H2254l0,0h0.2497559H2254.25l0,0h0.2478027H2254.5l0,0h0.2473145H2254.75l0,0h0.2485352H2255l0,0
			h0.2480469H2255.25l0,0h0.2490234H2255.5l0,0h0.2490234H2255.75l0,0h0.2475586H2256l0,0h0.2473145H2256.25l0,0h0.2487793H2256.5
			l0,0h0.2487793H2256.75l0,0h0.2473145H2257l0,0h0.2475586H2257.25l0,0h0.2490234H2257.5l0,0h0.2490234H2257.75l0,0h0.2475586H2258
			l0,0h0.2478027H2258.25l0,0h0.2495117H2258.5l0,0h0.2495117H2258.75l0,0h0.248291H2259l0,0h0.248291H2259.25l0,0h0.25l0,0l0,0
			h0.2470703H2259.75l0,0h0.2485352H2260l0,0h0.2485352H2260.25l0,0h0.25l0,0l0,0h0.25l0,0l0,0h0.2480469H2261l0,0h0.2478027
			H2261.25l0,0h0.2490234H2261.5l0,0h0.2485352H2261.75l0,0h0.25l0,0l0,0h0.2492676H2262.25l0,0h0.2468262H2262.5l0,0h0.2495117
			H2262.75l0,0h0.2468262H2263l0,0h0.2495117H2263.25l0,0h0.25l0,0l0,0h0.2485352H2263.75l0,0h0.2490234H2264l0,0h0.2473145H2264.25
			l0,0h0.2470703H2264.5l0,0h0.2490234H2264.75l0,0h0.2485352H2265l0,0h0.25l0,0h0.2492676H2265.5l0,0h0.246582H2265.75l0,0
			h0.2492676H2266l0,0h0.25l0,0l0,0h0.2485352H2266.5l0,0h0.2487793H2266.75l0,0h0.2468262H2267l0,0h0.246582H2267.25l0,0h0.2480469
			H2267.5l0,0h0.2473145H2267.75l0,0h0.248291H2268l0,0h0.2470703H2268.25l0,0h0.2475586H2268.5l0,0h0.25l0,0l0,0h0.2497559H2269
			l0,0h0.2475586H2269.25l0,0h0.2468262H2269.5l0,0h0.2480469H2269.75l0,0h0.2468262H2270l0,0h0.2473145H2270.25l0,0h0.2495117
			H2270.5l0,0h0.2495117H2270.75l0,0h0.2470703H2271l0,0h0.2460938H2271.25l0,0h0.2470703H2271.5l0,0h0.2456055H2271.75l0,0
			h0.2460938H2272l0,0h0.2480469H2272.25l0,0h0.2475586H2272.5l0,0h0.2490234H2272.75l0,0h0.2480469H2273l0,0h0.2485352H2273.25l0,0
			h0.246582H2273.5l0,0h0.2460938H2273.75l0,0h0.2480469H2274l0,0h0.2468262H2274.25l0,0h0.2475586H2274.5l0,0h0.2456055H2274.75
			l0,0h0.2456055H2275l0,0h0.2475586H2275.25l0,0h0.246582H2275.5l0,0h0.2473145H2275.75l0,0h0.2453613H2276l0,0h0.2451172H2276.25
			l0,0h0.2470703H2276.5l0,0h0.2460938H2276.75l0,0h0.2470703H2277l0,0h0.25l0,0l0,0h0.2497559H2277.5l0,0h0.246582H2277.75l0,0
			h0.2453613H2278l0,0h0.2460938H2278.25l0,0h0.2490234H2278.5l0,0h0.2487793H2278.75l0,0h0.2451172H2279l0,0h0.2490234H2279.25l0,0
			h0.2495117H2279.5l0,0h0.2470703H2279.75l0,0h0.2463379H2280l0,0h0.2475586H2280.25l0,0h0.2458496H2280.5l0,0h0.2460938H2280.75
			l0,0h0.2485352H2281l0,0h0.2475586H2281.25l0,0h0.2487793H2281.5l0,0h0.2463379H2281.75l0,0h0.2460938H2282l0,0h0.248291H2282.25
			l0,0h0.246582H2282.5l0,0h0.2475586H2282.75l0,0h0.2443848H2283l0,0h0.25l0,0l0,0h0.2451172H2283.5l0,0h0.2495117H2283.75l0,0
			h0.2495117H2284l0,0h0.2458496H2284.25l0,0h0.2446289H2284.5l0,0h0.2456055H2284.75l0,0h0.2492676H2285l0,0h0.2487793H2285.25l0,0
			h0.2441406H2285.5l0,0h0.2490234H2285.75l0,0h0.2495117H2286l0,0h0.2456055H2286.25l0,0h0.2441406H2286.5l0,0h0.2456055H2286.75
			l0,0h0.2426758H2287l0,0h0.25l0,0l0,0h0.2451172H2287.5l0,0h0.2429199H2287.75l0,0h0.2436523H2288l0,0h0.2473145H2288.25l0,0
			h0.2463379H2288.5l0,0h0.248291H2288.75l0,0h0.2453613H2289l0,0h0.2453613H2289.25l0,0h0.2485352H2289.5l0,0h0.246582H2289.75l0,0
			h0.2478027H2290l0,0h0.2438965H2290.25l0,0h0.2431641H2290.5l0,0h0.2456055H2290.75l0,0h0.2426758H2291l0,0h0.2431641H2291.25l0,0
			h0.2473145H2291.5l0,0h0.2456055H2291.75l0,0h0.2475586H2292l0,0h0.2438965H2292.25l0,0h0.2436523H2292.5l0,0h0.2475586H2292.75
			l0,0h0.2451172H2293l0,0h0.246582H2293.25l0,0h0.2416992H2293.5l0,0h0.2407227H2293.75l0,0h0.2441406H2294l0,0h0.2409668H2294.25
			l0,0h0.2419434H2294.5l0,0h0.2475586H2294.75l0,0h0.2460938H2295l0,0h0.2495117H2295.25l0,0h0.2458496H2295.5l0,0h0.246582
			H2295.75l0,0h0.2402344H2296l0,0h0.2387695H2296.25l0,0h0.2421875H2296.5l0,0h0.237793H2296.75l0,0h0.2387695H2297l0,0h0.2451172
			H2297.25l0,0h0.2436523H2297.5l0,0h0.2480469H2297.75l0,0h0.2438965H2298l0,0h0.2456055H2298.25l0,0h0.2385254H2298.5l0,0
			h0.2375488H2298.75l0,0h0.2431641H2299l0,0h0.239502H2299.25l0,0h0.2426758H2299.5l0,0h0.236084H2299.75l0,0h0.2365723H2300l0,0
			h0.2451172H2300.25l0,0h0.2431641H2300.5l0,0h0.2495117H2300.75l0,0h0.2446289H2301l0,0h0.2485352H2301.25l0,0h0.2404785H2301.5
			l0,0h0.2416992H2301.75l0,0h0.2294922H2302l0,0h0.2275391H2302.25l0,0h0.2368164H2302.5l0,0h0.2319336H2302.75l0,0h0.2397461H2303
			l0,0h0.2314453H2303.25l0,0h0.2368164H2303.5l0,0h0.2243652H2303.75l0,0h0.2270508H2304l0,0h0.2492676H2304.25l0,0h0.2050781
			H2304.5l0,0h0.229248H2304.75l0,0h0.2272949H2305l0,0h0.1948242H2305.25l0,0h0.25l0,0h0.2084961H2305.75l0,0h0.1953125H2306l0,0
			h0.2275391H2306.25l0,0h0.2104492H2306.5l0,0h0.1010742H2306.75l0,0h0.0217285H2307l0,0h0.0083008H2307.25l0,0h0.1591797"/>
	</g>
</g>
</svg>
