<?xml version="1.0"?>
<!DOCTYPE svg PUBLIC '-//W3C//DTD SVG 1.0//EN'
          'http://www.w3.org/TR/2001/REC-SVG-20010904/DTD/svg10.dtd'>
<svg xmlns:xlink="http://www.w3.org/1999/xlink" style="fill-opacity:1; color-rendering:auto; color-interpolation:auto; stroke:black; text-rendering:auto; stroke-linecap:square; stroke-miterlimit:10; stroke-opacity:1; shape-rendering:auto; fill:black; stroke-dasharray:none; font-weight:normal; stroke-width:1; font-family:'Dialog'; font-style:normal; stroke-linejoin:miter; font-size:12px; stroke-dashoffset:0; image-rendering:auto;" width="1680" height="974" xmlns="http://www.w3.org/2000/svg"
><!--Generated by the Batik Graphics2D SVG Generator--><defs id="genericDefs"
  /><g
  ><defs id="defs1"
    ><clipPath clipPathUnits="userSpaceOnUse" id="clipPath1"
      ><path d="M0 0 L1680 0 L1680 974 L0 974 L0 0 Z"
      /></clipPath
      ><font horiz-adv-x="75.0" id="font1"
      ><font-face ascent="100.53711" descent="21.972656" units-per-em="100" style="font-style:normal; font-family:Dialog; font-weight:normal;"
        /><missing-glyph horiz-adv-x="75.0" d="M12.5 0 L12.5 62.5 L62.5 62.5 L62.5 0 L12.5 0 ZM14.0625 1.5625 L60.9375 1.5625 L60.9375 60.9375 L14.0625 60.9375 L14.0625 1.5625 Z"
        /><glyph unicode="0" horiz-adv-x="55.615234" d="M4.1562 35.2969 Q4.1562 48 6.7656 55.7422 Q9.375 63.4844 14.5234 67.6797 Q19.6719 71.875 27.4844 71.875 Q33.25 71.875 37.5938 69.5547 Q41.9375 67.2344 44.7734 62.8672 Q47.6094 58.5 49.2188 52.2266 Q50.8281 45.9531 50.8281 35.2969 Q50.8281 22.7031 48.2422 14.9688 Q45.6562 7.2344 40.5078 3.0078 Q35.3594 -1.2188 27.4844 -1.2188 Q17.1406 -1.2188 11.2344 6.2031 Q4.1562 15.1406 4.1562 35.2969 ZM13.1875 35.2969 Q13.1875 17.6719 17.3125 11.8359 Q21.4375 6 27.4844 6 Q33.5469 6 37.6719 11.8594 Q41.7969 17.7188 41.7969 35.2969 Q41.7969 52.9844 37.6719 58.7891 Q33.5469 64.5938 27.3906 64.5938 Q21.3438 64.5938 17.7188 59.4688 Q13.1875 52.9375 13.1875 35.2969 Z"
        /><glyph unicode="1" horiz-adv-x="55.615234" d="M37.25 0 L28.4688 0 L28.4688 56 Q25.2969 52.9844 20.1406 49.9531 Q14.9844 46.9219 10.8906 45.4062 L10.8906 53.9062 Q18.2656 57.375 23.7812 62.3047 Q29.2969 67.2344 31.5938 71.875 L37.25 71.875 L37.25 0 Z"
        /><glyph unicode="2" horiz-adv-x="55.615234" d="M50.3438 8.4531 L50.3438 0 L3.0312 0 Q2.9375 3.1719 4.0469 6.1094 Q5.8594 10.9375 9.8359 15.625 Q13.8125 20.3125 21.3438 26.4688 Q33.0156 36.0312 37.1172 41.625 Q41.2188 47.2188 41.2188 52.2031 Q41.2188 57.4219 37.4766 61.0078 Q33.7344 64.5938 27.7344 64.5938 Q21.3906 64.5938 17.5781 60.7891 Q13.7656 56.9844 13.7188 50.25 L4.6875 51.1719 Q5.6094 61.2812 11.6641 66.5781 Q17.7188 71.875 27.9375 71.875 Q38.2344 71.875 44.2422 66.1641 Q50.25 60.4531 50.25 52 Q50.25 47.7031 48.4922 43.5547 Q46.7344 39.4062 42.6562 34.8125 Q38.5781 30.2188 29.1094 22.2188 Q21.1875 15.5781 18.9453 13.2109 Q16.7031 10.8438 15.2344 8.4531 L50.3438 8.4531 Z"
        /><glyph unicode="3" horiz-adv-x="55.615234" d="M4.2031 18.8906 L12.9844 20.0625 Q14.5 12.5938 18.1406 9.2969 Q21.7812 6 27 6 Q33.2031 6 37.4766 10.2969 Q41.75 14.5938 41.75 20.9531 Q41.75 27 37.7969 30.9297 Q33.8438 34.8594 27.7344 34.8594 Q25.25 34.8594 21.5312 33.8906 L22.5156 41.6094 Q23.3906 41.5 23.9219 41.5 Q29.5469 41.5 34.0391 44.4297 Q38.5312 47.3594 38.5312 53.4688 Q38.5312 58.2969 35.2578 61.4766 Q31.9844 64.6562 26.8125 64.6562 Q21.6875 64.6562 18.2656 61.4297 Q14.8438 58.2031 13.875 51.7656 L5.0781 53.3281 Q6.6875 62.1562 12.3984 67.0156 Q18.1094 71.875 26.6094 71.875 Q32.4688 71.875 37.3984 69.3594 Q42.3281 66.8438 44.9453 62.5 Q47.5625 58.1562 47.5625 53.2656 Q47.5625 48.6406 45.0703 44.8281 Q42.5781 41.0156 37.7031 38.7656 Q44.0469 37.3125 47.5625 32.6953 Q51.0781 28.0781 51.0781 21.1406 Q51.0781 11.7656 44.2422 5.25 Q37.4062 -1.2656 26.9531 -1.2656 Q17.5312 -1.2656 11.3047 4.3516 Q5.0781 9.9688 4.2031 18.8906 Z"
        /><glyph unicode="4" horiz-adv-x="55.615234" d="M32.3281 0 L32.3281 17.1406 L1.2656 17.1406 L1.2656 25.2031 L33.9375 71.5781 L41.1094 71.5781 L41.1094 25.2031 L50.7812 25.2031 L50.7812 17.1406 L41.1094 17.1406 L41.1094 0 L32.3281 0 ZM32.3281 25.2031 L32.3281 57.4688 L9.9062 25.2031 L32.3281 25.2031 Z"
        /><glyph unicode=")" horiz-adv-x="33.30078" d="M12.3594 -21.0469 L6.0625 -21.0469 Q20.6562 2.3906 20.6562 25.875 Q20.6562 35.0625 18.5625 44.0938 Q16.8906 51.4219 13.9219 58.1562 Q12.0156 62.5469 6.0625 72.7969 L12.3594 72.7969 Q21.5312 60.5469 25.9219 48.1875 Q29.6875 37.5469 29.6875 25.9219 Q29.6875 12.75 24.6328 0.4453 Q19.5781 -11.8594 12.3594 -21.0469 Z"
        /><glyph unicode="z" horiz-adv-x="50.0" d="M1.9531 0 L1.9531 7.125 L34.9688 45.0156 Q29.3438 44.7344 25.0469 44.7344 L3.9062 44.7344 L3.9062 51.8594 L46.2969 51.8594 L46.2969 46.0469 L18.2188 13.1406 L12.7969 7.125 Q18.7031 7.5625 23.875 7.5625 L47.8594 7.5625 L47.8594 0 L1.9531 0 Z"
        /><glyph unicode="H" horiz-adv-x="72.2168" d="M8.0156 0 L8.0156 71.5781 L17.4844 71.5781 L17.4844 42.1875 L54.6875 42.1875 L54.6875 71.5781 L64.1562 71.5781 L64.1562 0 L54.6875 0 L54.6875 33.7344 L17.4844 33.7344 L17.4844 0 L8.0156 0 Z"
        /><glyph unicode="(" horiz-adv-x="33.30078" d="M23.3906 -21.0469 Q16.1094 -11.8594 11.0859 0.4453 Q6.0625 12.75 6.0625 25.9219 Q6.0625 37.5469 9.8125 48.1875 Q14.2031 60.5469 23.3906 72.7969 L29.6875 72.7969 Q23.7812 62.6406 21.875 58.2969 Q18.8906 51.5625 17.1875 44.2344 Q15.0938 35.1094 15.0938 25.875 Q15.0938 2.3906 29.6875 -21.0469 L23.3906 -21.0469 Z"
        /><glyph unicode=" " horiz-adv-x="27.783203" d=""
        /><glyph unicode="y" horiz-adv-x="50.0" d="M6.2031 -19.9688 L5.2188 -11.7188 Q8.1094 -12.5 10.25 -12.5 Q13.1875 -12.5 14.9453 -11.5234 Q16.7031 -10.5469 17.8281 -8.7969 Q18.6562 -7.4688 20.5156 -2.25 Q20.75 -1.5156 21.2969 -0.0938 L1.6094 51.8594 L11.0781 51.8594 L21.875 21.8281 Q23.9688 16.1094 25.6406 9.8125 Q27.1562 15.875 29.25 21.625 L40.3281 51.8594 L49.125 51.8594 L29.3906 -0.875 Q26.2188 -9.4219 24.4688 -12.6406 Q22.125 -17 19.0938 -19.0234 Q16.0625 -21.0469 11.8594 -21.0469 Q9.3281 -21.0469 6.2031 -19.9688 Z"
        /><glyph unicode="c" horiz-adv-x="50.0" d="M40.4375 19 L49.0781 17.875 Q47.6562 8.9375 41.8203 3.8828 Q35.9844 -1.1719 27.4844 -1.1719 Q16.8438 -1.1719 10.375 5.7891 Q3.9062 12.75 3.9062 25.7344 Q3.9062 34.125 6.6875 40.4297 Q9.4688 46.7344 15.1562 49.8828 Q20.8438 53.0312 27.5469 53.0312 Q35.9844 53.0312 41.3594 48.7578 Q46.7344 44.4844 48.25 36.625 L39.7031 35.2969 Q38.4844 40.5312 35.3828 43.1641 Q32.2812 45.7969 27.875 45.7969 Q21.2344 45.7969 17.0859 41.0391 Q12.9375 36.2812 12.9375 25.9844 Q12.9375 15.5312 16.9453 10.7969 Q20.9531 6.0625 27.3906 6.0625 Q32.5625 6.0625 36.0312 9.2344 Q39.5 12.4062 40.4375 19 Z"
        /><glyph unicode="n" horiz-adv-x="55.615234" d="M6.5938 0 L6.5938 51.8594 L14.5 51.8594 L14.5 44.4844 Q20.2188 53.0312 31 53.0312 Q35.6875 53.0312 39.625 51.3438 Q43.5625 49.6562 45.5156 46.9219 Q47.4688 44.1875 48.25 40.4375 Q48.7344 37.9844 48.7344 31.8906 L48.7344 0 L39.9375 0 L39.9375 31.5469 Q39.9375 36.9219 38.9141 39.5781 Q37.8906 42.2344 35.2812 43.8203 Q32.6719 45.4062 29.1562 45.4062 Q23.5312 45.4062 19.4531 41.8438 Q15.375 38.2812 15.375 28.3281 L15.375 0 L6.5938 0 Z"
        /><glyph unicode="u" horiz-adv-x="55.615234" d="M40.5781 0 L40.5781 7.625 Q34.5156 -1.1719 24.125 -1.1719 Q19.5312 -1.1719 15.5547 0.5859 Q11.5781 2.3438 9.6484 5.0078 Q7.7188 7.6719 6.9375 11.5312 Q6.3906 14.1094 6.3906 19.7344 L6.3906 51.8594 L15.1875 51.8594 L15.1875 23.0938 Q15.1875 16.2188 15.7188 13.8125 Q16.5469 10.3594 19.2344 8.375 Q21.9219 6.3906 25.875 6.3906 Q29.8281 6.3906 33.2969 8.4219 Q36.7656 10.4531 38.2109 13.9453 Q39.6562 17.4375 39.6562 24.0781 L39.6562 51.8594 L48.4375 51.8594 L48.4375 0 L40.5781 0 Z"
        /><glyph unicode="q" horiz-adv-x="55.615234" d="M39.6562 -19.875 L39.6562 5.5156 Q37.5938 2.6406 33.9062 0.7344 Q30.2188 -1.1719 26.0781 -1.1719 Q16.8438 -1.1719 10.1797 6.2031 Q3.5156 13.5781 3.5156 26.4219 Q3.5156 34.2344 6.2266 40.4297 Q8.9375 46.625 14.0859 49.8281 Q19.2344 53.0312 25.3906 53.0312 Q35.0156 53.0312 40.5312 44.9219 L40.5312 51.8594 L48.4375 51.8594 L48.4375 -19.875 L39.6562 -19.875 ZM12.5469 26.0781 Q12.5469 16.0625 16.75 11.0625 Q20.9531 6.0625 26.8125 6.0625 Q32.4219 6.0625 36.4766 10.8203 Q40.5312 15.5781 40.5312 25.2969 Q40.5312 35.6406 36.2578 40.8672 Q31.9844 46.0938 26.2188 46.0938 Q20.5156 46.0938 16.5312 41.2344 Q12.5469 36.375 12.5469 26.0781 Z"
        /><glyph unicode="e" horiz-adv-x="55.615234" d="M42.0938 16.7031 L51.1719 15.5781 Q49.0312 7.625 43.2188 3.2266 Q37.4062 -1.1719 28.375 -1.1719 Q17 -1.1719 10.3281 5.8359 Q3.6562 12.8438 3.6562 25.4844 Q3.6562 38.5781 10.3984 45.8047 Q17.1406 53.0312 27.875 53.0312 Q38.2812 53.0312 44.875 45.9531 Q51.4688 38.875 51.4688 26.0312 Q51.4688 25.25 51.4219 23.6875 L12.75 23.6875 Q13.2344 15.1406 17.5781 10.6016 Q21.9219 6.0625 28.4219 6.0625 Q33.25 6.0625 36.6719 8.6016 Q40.0938 11.1406 42.0938 16.7031 ZM13.2344 30.9062 L42.1875 30.9062 Q41.6094 37.4531 38.875 40.7188 Q34.6719 45.7969 27.9844 45.7969 Q21.9219 45.7969 17.7969 41.75 Q13.6719 37.7031 13.2344 30.9062 Z"
        /><glyph unicode="r" horiz-adv-x="33.30078" d="M6.5 0 L6.5 51.8594 L14.4062 51.8594 L14.4062 44 Q17.4375 49.5156 20 51.2734 Q22.5625 53.0312 25.6406 53.0312 Q30.0781 53.0312 34.6719 50.2031 L31.6406 42.0469 Q28.4219 43.9531 25.2031 43.9531 Q22.3125 43.9531 20.0156 42.2188 Q17.7188 40.4844 16.75 37.4062 Q15.2812 32.7188 15.2812 27.1562 L15.2812 0 L6.5 0 Z"
        /><glyph unicode="F" horiz-adv-x="61.083984" d="M8.2031 0 L8.2031 71.5781 L56.5 71.5781 L56.5 63.1406 L17.6719 63.1406 L17.6719 40.9688 L51.2656 40.9688 L51.2656 32.5156 L17.6719 32.5156 L17.6719 0 L8.2031 0 Z"
        /><glyph unicode="9" horiz-adv-x="55.615234" d="M5.4688 16.5469 L13.9219 17.3281 Q14.9844 11.375 18.0156 8.6875 Q21.0469 6 25.7812 6 Q29.8281 6 32.8828 7.8594 Q35.9375 9.7188 37.8906 12.8203 Q39.8438 15.9219 41.1641 21.1953 Q42.4844 26.4688 42.4844 31.9375 Q42.4844 32.5156 42.4375 33.6875 Q39.7969 29.5 35.2344 26.8828 Q30.6719 24.2656 25.3438 24.2656 Q16.4531 24.2656 10.3047 30.7109 Q4.1562 37.1562 4.1562 47.7031 Q4.1562 58.5938 10.5781 65.2344 Q17 71.875 26.6562 71.875 Q33.6406 71.875 39.4297 68.1172 Q45.2188 64.3594 48.2188 57.3984 Q51.2188 50.4375 51.2188 37.25 Q51.2188 23.5312 48.2422 15.4062 Q45.2656 7.2812 39.3828 3.0312 Q33.5 -1.2188 25.5938 -1.2188 Q17.1875 -1.2188 11.8672 3.4453 Q6.5469 8.1094 5.4688 16.5469 ZM41.4531 48.1406 Q41.4531 55.7188 37.4297 60.1562 Q33.4062 64.5938 27.7344 64.5938 Q21.875 64.5938 17.5312 59.8125 Q13.1875 55.0312 13.1875 47.4062 Q13.1875 40.5781 17.3125 36.3047 Q21.4375 32.0312 27.4844 32.0312 Q33.5938 32.0312 37.5234 36.3047 Q41.4531 40.5781 41.4531 48.1406 Z"
        /><glyph unicode="-" horiz-adv-x="33.30078" d="M3.1719 21.4844 L3.1719 30.3281 L30.1719 30.3281 L30.1719 21.4844 L3.1719 21.4844 Z"
        /><glyph unicode="8" horiz-adv-x="55.615234" d="M17.6719 38.8125 Q12.2031 40.8281 9.5703 44.5391 Q6.9375 48.25 6.9375 53.4219 Q6.9375 61.2344 12.5547 66.5547 Q18.1719 71.875 27.4844 71.875 Q36.8594 71.875 42.5781 66.4297 Q48.2969 60.9844 48.2969 53.1719 Q48.2969 48.1875 45.6797 44.5078 Q43.0625 40.8281 37.75 38.8125 Q44.3438 36.6719 47.7812 31.8828 Q51.2188 27.0938 51.2188 20.4531 Q51.2188 11.2812 44.7266 5.0312 Q38.2344 -1.2188 27.6406 -1.2188 Q17.0469 -1.2188 10.5469 5.0547 Q4.0469 11.3281 4.0469 20.7031 Q4.0469 27.6875 7.5938 32.3984 Q11.1406 37.1094 17.6719 38.8125 ZM15.9219 53.7188 Q15.9219 48.6406 19.1953 45.4141 Q22.4688 42.1875 27.6875 42.1875 Q32.7656 42.1875 36.0156 45.3828 Q39.2656 48.5781 39.2656 53.2188 Q39.2656 58.0625 35.9141 61.3594 Q32.5625 64.6562 27.5938 64.6562 Q22.5625 64.6562 19.2422 61.4297 Q15.9219 58.2031 15.9219 53.7188 ZM13.0938 20.6562 Q13.0938 16.8906 14.875 13.375 Q16.6562 9.8594 20.1719 7.9297 Q23.6875 6 27.7344 6 Q34.0312 6 38.1328 10.0547 Q42.2344 14.1094 42.2344 20.3594 Q42.2344 26.7031 38.0156 30.8594 Q33.7969 35.0156 27.4375 35.0156 Q21.2344 35.0156 17.1641 30.9141 Q13.0938 26.8125 13.0938 20.6562 Z"
        /><glyph unicode="7" horiz-adv-x="55.615234" d="M4.7344 62.2031 L4.7344 70.6562 L51.0781 70.6562 L51.0781 63.8125 Q44.2344 56.5469 37.5234 44.4844 Q30.8125 32.4219 27.1562 19.6719 Q24.5156 10.6875 23.7812 0 L14.75 0 Q14.8906 8.4531 18.0625 20.4141 Q21.2344 32.375 27.1719 43.4844 Q33.1094 54.5938 39.7969 62.2031 L4.7344 62.2031 Z"
        /><glyph unicode="6" horiz-adv-x="55.615234" d="M49.75 54.0469 L41.0156 53.375 Q39.8438 58.5469 37.7031 60.8906 Q34.125 64.6562 28.9062 64.6562 Q24.7031 64.6562 21.5312 62.3125 Q17.3906 59.2812 14.9922 53.4688 Q12.5938 47.6562 12.5 36.9219 Q15.6719 41.75 20.2656 44.0938 Q24.8594 46.4375 29.8906 46.4375 Q38.6719 46.4375 44.8516 39.9688 Q51.0312 33.5 51.0312 23.25 Q51.0312 16.5 48.125 10.7188 Q45.2188 4.9375 40.1406 1.8594 Q35.0625 -1.2188 28.6094 -1.2188 Q17.625 -1.2188 10.6953 6.8594 Q3.7656 14.9375 3.7656 33.5 Q3.7656 54.25 11.4219 63.6719 Q18.1094 71.875 29.4375 71.875 Q37.8906 71.875 43.2891 67.1406 Q48.6875 62.4062 49.75 54.0469 ZM13.875 23.1875 Q13.875 18.6562 15.7969 14.5078 Q17.7188 10.3594 21.1875 8.1797 Q24.6562 6 28.4688 6 Q34.0312 6 38.0391 10.4922 Q42.0469 14.9844 42.0469 22.7031 Q42.0469 30.125 38.0859 34.3984 Q34.125 38.6719 28.125 38.6719 Q22.1719 38.6719 18.0234 34.3984 Q13.875 30.125 13.875 23.1875 Z"
        /><glyph unicode="5" horiz-adv-x="55.615234" d="M4.1562 18.75 L13.375 19.5312 Q14.4062 12.7969 18.1406 9.3984 Q21.875 6 27.1562 6 Q33.5 6 37.8906 10.7891 Q42.2812 15.5781 42.2812 23.4844 Q42.2812 31 38.0625 35.3516 Q33.8438 39.7031 27 39.7031 Q22.75 39.7031 19.3359 37.7734 Q15.9219 35.8438 13.9688 32.7656 L5.7188 33.8438 L12.6406 70.6094 L48.25 70.6094 L48.25 62.2031 L19.6719 62.2031 L15.8281 42.9688 Q22.2656 47.4688 29.3438 47.4688 Q38.7188 47.4688 45.1641 40.9688 Q51.6094 34.4688 51.6094 24.2656 Q51.6094 14.5469 45.9531 7.4688 Q39.0625 -1.2188 27.1562 -1.2188 Q17.3906 -1.2188 11.2109 4.25 Q5.0312 9.7188 4.1562 18.75 Z"
        /><glyph unicode="B" horiz-adv-x="66.69922" d="M7.3281 0 L7.3281 71.5781 L34.1875 71.5781 Q42.3906 71.5781 47.3438 69.4062 Q52.2969 67.2344 55.1016 62.7188 Q57.9062 58.2031 57.9062 53.2656 Q57.9062 48.6875 55.4219 44.6328 Q52.9375 40.5781 47.9062 38.0938 Q54.3906 36.1875 57.8828 31.5938 Q61.375 27 61.375 20.75 Q61.375 15.7188 59.25 11.3984 Q57.125 7.0781 54 4.7344 Q50.875 2.3906 46.1641 1.1953 Q41.4531 0 34.625 0 L7.3281 0 ZM16.7969 41.5 L32.2812 41.5 Q38.5781 41.5 41.3125 42.3281 Q44.9219 43.4062 46.75 45.8984 Q48.5781 48.3906 48.5781 52.1562 Q48.5781 55.7188 46.875 58.4297 Q45.1719 61.1406 41.9922 62.1406 Q38.8125 63.1406 31.1094 63.1406 L16.7969 63.1406 L16.7969 41.5 ZM16.7969 8.4531 L34.625 8.4531 Q39.2031 8.4531 41.0625 8.7969 Q44.3438 9.375 46.5391 10.7422 Q48.7344 12.1094 50.1484 14.7188 Q51.5625 17.3281 51.5625 20.75 Q51.5625 24.75 49.5156 27.7109 Q47.4688 30.6719 43.8281 31.8672 Q40.1875 33.0625 33.3438 33.0625 L16.7969 33.0625 L16.7969 8.4531 Z"
        /><glyph unicode="d" horiz-adv-x="55.615234" d="M40.2344 0 L40.2344 6.5469 Q35.2969 -1.1719 25.7344 -1.1719 Q19.5312 -1.1719 14.3281 2.25 Q9.125 5.6719 6.2734 11.7969 Q3.4219 17.9219 3.4219 25.875 Q3.4219 33.6406 6.0078 39.9688 Q8.5938 46.2969 13.7734 49.6641 Q18.9531 53.0312 25.3438 53.0312 Q30.0312 53.0312 33.6953 51.0547 Q37.3594 49.0781 39.6562 45.9062 L39.6562 71.5781 L48.3906 71.5781 L48.3906 0 L40.2344 0 ZM12.4531 25.875 Q12.4531 15.9219 16.6484 10.9922 Q20.8438 6.0625 26.5625 6.0625 Q32.3281 6.0625 36.3516 10.7734 Q40.375 15.4844 40.375 25.1406 Q40.375 35.7969 36.2734 40.7734 Q32.1719 45.75 26.1719 45.75 Q20.3125 45.75 16.3828 40.9688 Q12.4531 36.1875 12.4531 25.875 Z"
        /><glyph unicode="i" horiz-adv-x="22.216797" d="M6.6406 61.4688 L6.6406 71.5781 L15.4375 71.5781 L15.4375 61.4688 L6.6406 61.4688 ZM6.6406 0 L6.6406 51.8594 L15.4375 51.8594 L15.4375 0 L6.6406 0 Z"
        /><glyph unicode="a" horiz-adv-x="55.615234" d="M40.4375 6.3906 Q35.5469 2.25 31.0312 0.5391 Q26.5156 -1.1719 21.3438 -1.1719 Q12.7969 -1.1719 8.2031 3 Q3.6094 7.1719 3.6094 13.6719 Q3.6094 17.4844 5.3438 20.6328 Q7.0781 23.7812 9.8906 25.6875 Q12.7031 27.5938 16.2188 28.5625 Q18.7969 29.25 24.0312 29.8906 Q34.6719 31.1562 39.7031 32.9062 Q39.75 34.7188 39.75 35.2031 Q39.75 40.5781 37.25 42.7812 Q33.8906 45.75 27.25 45.75 Q21.0469 45.75 18.0938 43.5781 Q15.1406 41.4062 13.7188 35.8906 L5.125 37.0625 Q6.2969 42.5781 8.9844 45.9688 Q11.6719 49.3594 16.75 51.1953 Q21.8281 53.0312 28.5156 53.0312 Q35.1562 53.0312 39.3047 51.4688 Q43.4531 49.9062 45.4062 47.5391 Q47.3594 45.1719 48.1406 41.5469 Q48.5781 39.3125 48.5781 33.4531 L48.5781 21.7344 Q48.5781 9.4688 49.1406 6.2266 Q49.7031 2.9844 51.375 0 L42.1875 0 Q40.8281 2.7344 40.4375 6.3906 ZM39.7031 26.0312 Q34.9062 24.0781 25.3438 22.7031 Q19.9219 21.9219 17.6797 20.9453 Q15.4375 19.9688 14.2109 18.0938 Q12.9844 16.2188 12.9844 13.9219 Q12.9844 10.4062 15.6484 8.0625 Q18.3125 5.7188 23.4375 5.7188 Q28.5156 5.7188 32.4688 7.9375 Q36.4219 10.1562 38.2812 14.0156 Q39.7031 17 39.7031 22.7969 L39.7031 26.0312 Z"
        /><glyph unicode="G" horiz-adv-x="77.7832" d="M41.2188 28.0781 L41.2188 36.4688 L71.5312 36.5312 L71.5312 9.9688 Q64.5469 4.3906 57.125 1.5859 Q49.7031 -1.2188 41.8906 -1.2188 Q31.3438 -1.2188 22.7266 3.2969 Q14.1094 7.8125 9.7188 16.3594 Q5.3281 24.9062 5.3281 35.4531 Q5.3281 45.9062 9.6953 54.9609 Q14.0625 64.0156 22.2656 68.4062 Q30.4688 72.7969 41.1562 72.7969 Q48.9219 72.7969 55.1953 70.2891 Q61.4688 67.7812 65.0391 63.2891 Q68.6094 58.7969 70.4531 51.5625 L61.9219 49.2188 Q60.2969 54.6875 57.9062 57.8125 Q55.5156 60.9375 51.0703 62.8203 Q46.625 64.7031 41.2188 64.7031 Q34.7188 64.7031 29.9844 62.7266 Q25.25 60.75 22.3438 57.5234 Q19.4375 54.2969 17.8281 50.4375 Q15.0938 43.7969 15.0938 36.0312 Q15.0938 26.4688 18.3906 20.0234 Q21.6875 13.5781 27.9844 10.4531 Q34.2812 7.3281 41.3594 7.3281 Q47.5156 7.3281 53.375 9.6953 Q59.2344 12.0625 62.25 14.75 L62.25 28.0781 L41.2188 28.0781 Z"
        /><glyph unicode="." horiz-adv-x="27.783203" d="M9.0781 0 L9.0781 10.0156 L19.0938 10.0156 L19.0938 0 L9.0781 0 Z"
        /><glyph unicode=":" horiz-adv-x="27.783203" d="M9.0312 41.8438 L9.0312 51.8594 L19.0469 51.8594 L19.0469 41.8438 L9.0312 41.8438 ZM9.0312 0 L9.0312 10.0156 L19.0469 10.0156 L19.0469 0 L9.0312 0 Z"
        /><glyph unicode="X" horiz-adv-x="66.69922" d="M0.4375 0 L28.125 37.3125 L3.7188 71.5781 L14.9844 71.5781 L27.9844 53.2188 Q32.0312 47.5156 33.7344 44.4375 Q36.1406 48.3438 39.4062 52.5938 L53.8125 71.5781 L64.1094 71.5781 L38.9688 37.8438 L66.0625 0 L54.3438 0 L36.3281 25.5312 Q34.8125 27.7344 33.2031 30.3281 Q30.8125 26.4219 29.7812 24.9531 L11.8125 0 L0.4375 0 Z"
        /><glyph unicode="Y" horiz-adv-x="66.69922" d="M27.875 0 L27.875 30.3281 L0.2969 71.5781 L11.8125 71.5781 L25.9219 50 Q29.8281 43.9531 33.2031 37.8906 Q36.4219 43.5 41.0156 50.5312 L54.8906 71.5781 L65.9219 71.5781 L37.3594 30.3281 L37.3594 0 L27.875 0 Z"
      /></font
      ><font horiz-adv-x="75.0" id="font2"
      ><font-face ascent="100.53711" descent="21.972656" units-per-em="100" style="font-style:normal; font-family:Dialog; font-weight:bold;"
        /><missing-glyph horiz-adv-x="75.0" d="M12.5 0 L12.5 62.5 L62.5 62.5 L62.5 0 L12.5 0 ZM14.0625 1.5625 L60.9375 1.5625 L60.9375 60.9375 L14.0625 60.9375 L14.0625 1.5625 Z"
        /><glyph unicode="t" horiz-adv-x="33.30078" d="M30.9531 51.8594 L30.9531 40.9219 L21.5781 40.9219 L21.5781 20.0156 Q21.5781 13.6719 21.8516 12.625 Q22.125 11.5781 23.0781 10.8906 Q24.0312 10.2031 25.3906 10.2031 Q27.2969 10.2031 30.9062 11.5312 L32.0781 0.875 Q27.2969 -1.1719 21.2344 -1.1719 Q17.5312 -1.1719 14.5547 0.0703 Q11.5781 1.3125 10.1875 3.2969 Q8.7969 5.2812 8.25 8.6406 Q7.8125 11.0312 7.8125 18.3125 L7.8125 40.9219 L1.5156 40.9219 L1.5156 51.8594 L7.8125 51.8594 L7.8125 62.1562 L21.5781 70.1719 L21.5781 51.8594 L30.9531 51.8594 Z"
        /><glyph unicode="l" horiz-adv-x="27.783203" d="M7.1719 0 L7.1719 71.5781 L20.9062 71.5781 L20.9062 0 L7.1719 0 Z"
        /><glyph unicode="p" horiz-adv-x="61.083984" d="M6.7812 51.8594 L19.5781 51.8594 L19.5781 44.2344 Q22.0781 48.1406 26.3203 50.5859 Q30.5625 53.0312 35.75 53.0312 Q44.7812 53.0312 51.0781 45.9531 Q57.375 38.875 57.375 26.2188 Q57.375 13.2344 51.0234 6.0312 Q44.6719 -1.1719 35.6406 -1.1719 Q31.3438 -1.1719 27.8516 0.5391 Q24.3594 2.25 20.5156 6.3906 L20.5156 -19.7344 L6.7812 -19.7344 L6.7812 51.8594 ZM20.3594 26.8125 Q20.3594 18.0625 23.8281 13.8906 Q27.2969 9.7188 32.2812 9.7188 Q37.0625 9.7188 40.2344 13.5547 Q43.4062 17.3906 43.4062 26.125 Q43.4062 34.2812 40.1328 38.2344 Q36.8594 42.1875 32.0312 42.1875 Q27 42.1875 23.6797 38.3047 Q20.3594 34.4219 20.3594 26.8125 Z"
        /><glyph unicode=" " horiz-adv-x="27.783203" d=""
        /><glyph unicode="e" horiz-adv-x="55.615234" d="M37.2031 16.5 L50.875 14.2031 Q48.25 6.6875 42.5547 2.7578 Q36.8594 -1.1719 28.3281 -1.1719 Q14.7969 -1.1719 8.2969 7.6719 Q3.1719 14.75 3.1719 25.5312 Q3.1719 38.4219 9.9141 45.7266 Q16.6562 53.0312 26.9531 53.0312 Q38.5312 53.0312 45.2188 45.3906 Q51.9062 37.75 51.6094 21.9688 L17.2344 21.9688 Q17.3906 15.875 20.5625 12.4766 Q23.7344 9.0781 28.4688 9.0781 Q31.6875 9.0781 33.8828 10.8359 Q36.0781 12.5938 37.2031 16.5 ZM37.9844 30.375 Q37.8438 36.3281 34.9141 39.4297 Q31.9844 42.5312 27.7812 42.5312 Q23.2969 42.5312 20.3594 39.2656 Q17.4375 35.9844 17.4844 30.375 L37.9844 30.375 Z"
        /><glyph unicode="d" horiz-adv-x="61.083984" d="M54.7344 0 L42 0 L42 7.625 Q38.8125 3.1719 34.4922 1 Q30.1719 -1.1719 25.7812 -1.1719 Q16.8438 -1.1719 10.4766 6.0312 Q4.1094 13.2344 4.1094 26.125 Q4.1094 39.3125 10.3047 46.1719 Q16.5 53.0312 25.9844 53.0312 Q34.6719 53.0312 41.0156 45.7969 L41.0156 71.5781 L54.7344 71.5781 L54.7344 0 ZM18.1094 27.0469 Q18.1094 18.75 20.4062 15.0469 Q23.7344 9.6719 29.6875 9.6719 Q34.4219 9.6719 37.7422 13.6953 Q41.0625 17.7188 41.0625 25.7344 Q41.0625 34.6719 37.8438 38.6016 Q34.625 42.5312 29.5938 42.5312 Q24.7031 42.5312 21.4062 38.6484 Q18.1094 34.7656 18.1094 27.0469 Z"
        /><glyph unicode="o" horiz-adv-x="61.083984" d="M4 26.6562 Q4 33.5 7.375 39.8984 Q10.75 46.2969 16.9219 49.6641 Q23.0938 53.0312 30.7188 53.0312 Q42.4844 53.0312 50 45.3906 Q57.5156 37.75 57.5156 26.0781 Q57.5156 14.3125 49.9219 6.5703 Q42.3281 -1.1719 30.8125 -1.1719 Q23.6875 -1.1719 17.2188 2.0547 Q10.75 5.2812 7.375 11.5 Q4 17.7188 4 26.6562 ZM18.0625 25.9219 Q18.0625 18.2188 21.7266 14.1172 Q25.3906 10.0156 30.7656 10.0156 Q36.1406 10.0156 39.7734 14.1172 Q43.4062 18.2188 43.4062 26.0312 Q43.4062 33.6406 39.7734 37.7422 Q36.1406 41.8438 30.7656 41.8438 Q25.3906 41.8438 21.7266 37.7422 Q18.0625 33.6406 18.0625 25.9219 Z"
        /><glyph unicode="B" horiz-adv-x="72.2168" d="M7.3281 71.5781 L35.9375 71.5781 Q44.4375 71.5781 48.6094 70.875 Q52.7812 70.1719 56.0781 67.9219 Q59.375 65.6719 61.5703 61.9375 Q63.7656 58.2031 63.7656 53.5625 Q63.7656 48.5312 61.0547 44.3359 Q58.3438 40.1406 53.7188 38.0312 Q60.25 36.1406 63.7656 31.5469 Q67.2812 26.9531 67.2812 20.75 Q67.2812 15.875 65.0156 11.2578 Q62.75 6.6406 58.8203 3.8828 Q54.8906 1.125 49.125 0.4844 Q45.5156 0.0938 31.6875 0 L7.3281 0 L7.3281 71.5781 ZM21.7812 59.6719 L21.7812 43.1094 L31.25 43.1094 Q39.7031 43.1094 41.75 43.3594 Q45.4531 43.7969 47.5781 45.9219 Q49.7031 48.0469 49.7031 51.5156 Q49.7031 54.8281 47.875 56.9062 Q46.0469 58.9844 42.4375 59.4219 Q40.2812 59.6719 30.0781 59.6719 L21.7812 59.6719 ZM21.7812 31.2031 L21.7812 12.0625 L35.1562 12.0625 Q42.9688 12.0625 45.0625 12.5 Q48.2969 13.0938 50.3203 15.3594 Q52.3438 17.625 52.3438 21.4375 Q52.3438 24.6562 50.7812 26.9062 Q49.2188 29.1562 46.2656 30.1797 Q43.3125 31.2031 33.4531 31.2031 L21.7812 31.2031 Z"
      /></font
    ></defs
    ><g style="fill:white; stroke:white;"
    ><rect x="0" y="0" width="1680" style="clip-path:url(#clipPath1); stroke:none;" height="974"
    /></g
    ><g style="fill:white; text-rendering:optimizeSpeed; color-rendering:optimizeSpeed; image-rendering:optimizeSpeed; shape-rendering:crispEdges; color-interpolation:sRGB; stroke:white;"
    ><rect x="0" width="1680" height="974" y="0" style="stroke:none;"
      /><path d="M218 867 L1520 867 L1520 73 L218 73 Z" style="fill:black; stroke:none;"
    /></g
    ><g style="fill-opacity:0.502; color-rendering:optimizeQuality; color-interpolation:linearRGB; text-rendering:geometricPrecision; stroke:rgb(255,255,255); stroke-linecap:butt; stroke-miterlimit:1; stroke-opacity:0.502; fill:rgb(255,255,255); stroke-dasharray:1,3; stroke-width:0.6667; stroke-linejoin:bevel; image-rendering:optimizeQuality;"
    ><line y2="73" style="fill:none;" x1="413.9706" x2="413.9706" y1="867"
      /><line y2="73" style="fill:none;" x1="528.606" x2="528.606" y1="867"
      /><line y2="73" style="fill:none;" x1="609.9411" x2="609.9411" y1="867"
      /><line y2="73" style="fill:none;" x1="673.0295" x2="673.0295" y1="867"
      /><line y2="73" style="fill:none;" x1="724.5765" x2="724.5765" y1="867"
      /><line y2="73" style="fill:none;" x1="768.1588" x2="768.1588" y1="867"
      /><line y2="73" style="fill:none;" x1="805.9116" x2="805.9116" y1="867"
      /><line y2="73" style="fill:none;" x1="839.2119" x2="839.2119" y1="867"
      /><line y2="73" style="fill:none;" x1="1064.9706" x2="1064.9706" y1="867"
      /><line y2="73" style="fill:none;" x1="1179.606" x2="1179.606" y1="867"
      /><line y2="73" style="fill:none;" x1="1260.941" x2="1260.941" y1="867"
      /><line y2="73" style="fill:none;" x1="1324.0294" x2="1324.0294" y1="867"
      /><line y2="73" style="fill:none;" x1="1375.5765" x2="1375.5765" y1="867"
      /><line y2="73" style="fill:none;" x1="1419.1588" x2="1419.1588" y1="867"
      /><line y2="73" style="fill:none;" x1="1456.9116" x2="1456.9116" y1="867"
      /><line y2="73" style="fill:none;" x1="1490.2118" x2="1490.2118" y1="867"
      /><line y2="73" style="fill:none;" x1="218" x2="218" y1="867"
      /><line y2="73" style="fill:none;" x1="869" x2="869" y1="867"
      /><line y2="73" style="fill:none;" x1="1520" x2="1520" y1="867"
      /><line y2="867" style="fill:none;" x1="1520" x2="218" y1="867"
      /><line y2="787.6" style="fill:none;" x1="1520" x2="218" y1="787.6"
      /><line y2="708.2" style="fill:none;" x1="1520" x2="218" y1="708.2"
      /><line y2="628.8" style="fill:none;" x1="1520" x2="218" y1="628.8"
      /><line y2="549.4" style="fill:none;" x1="1520" x2="218" y1="549.4"
      /><line y2="470" style="fill:none;" x1="1520" x2="218" y1="470"
      /><line y2="390.6" style="fill:none;" x1="1520" x2="218" y1="390.6"
      /><line y2="311.2" style="fill:none;" x1="1520" x2="218" y1="311.2"
      /><line y2="231.8" style="fill:none;" x1="1520" x2="218" y1="231.8"
      /><line y2="152.4" style="fill:none;" x1="1520" x2="218" y1="152.4"
      /><line y2="73" style="fill:none;" x1="1520" x2="218" y1="73"
    /></g
    ><g style="text-rendering:geometricPrecision; stroke-width:0.6667; color-interpolation:linearRGB; color-rendering:optimizeQuality; stroke-linejoin:round; image-rendering:optimizeQuality;"
    ><line y2="867" style="fill:none;" x1="218" x2="1520" y1="867"
      /><line y2="872.208" style="fill:none;" x1="218" x2="218" y1="861.792"
      /><line y2="872.208" style="fill:none;" x1="869" x2="869" y1="861.792"
      /><line y2="872.208" style="fill:none;" x1="1520" x2="1520" y1="861.792"
      /><line y2="869.604" style="fill:none;" x1="413.9706" x2="413.9706" y1="864.396"
      /><line y2="869.604" style="fill:none;" x1="528.606" x2="528.606" y1="864.396"
      /><line y2="869.604" style="fill:none;" x1="609.9411" x2="609.9411" y1="864.396"
      /><line y2="869.604" style="fill:none;" x1="673.0295" x2="673.0295" y1="864.396"
      /><line y2="869.604" style="fill:none;" x1="724.5765" x2="724.5765" y1="864.396"
      /><line y2="869.604" style="fill:none;" x1="768.1588" x2="768.1588" y1="864.396"
      /><line y2="869.604" style="fill:none;" x1="805.9116" x2="805.9116" y1="864.396"
      /><line y2="869.604" style="fill:none;" x1="839.2119" x2="839.2119" y1="864.396"
      /><line y2="869.604" style="fill:none;" x1="1064.9706" x2="1064.9706" y1="864.396"
      /><line y2="869.604" style="fill:none;" x1="1179.606" x2="1179.606" y1="864.396"
      /><line y2="869.604" style="fill:none;" x1="1260.941" x2="1260.941" y1="864.396"
      /><line y2="869.604" style="fill:none;" x1="1324.0294" x2="1324.0294" y1="864.396"
      /><line y2="869.604" style="fill:none;" x1="1375.5765" x2="1375.5765" y1="864.396"
      /><line y2="869.604" style="fill:none;" x1="1419.1588" x2="1419.1588" y1="864.396"
      /><line y2="869.604" style="fill:none;" x1="1456.9116" x2="1456.9116" y1="864.396"
      /><line y2="869.604" style="fill:none;" x1="1490.2118" x2="1490.2118" y1="864.396"
    /></g
    ><g transform="translate(207,896)" style="text-rendering:geometricPrecision; font-size:13px; color-interpolation:linearRGB; color-rendering:optimizeQuality; image-rendering:optimizeQuality;"
    ><text x="0" xml:space="preserve" y="0" style="stroke:none;"
      >10</text
    ></g
    ><g transform="translate(222,890)" style="text-rendering:geometricPrecision; font-size:11px; color-interpolation:linearRGB; color-rendering:optimizeQuality; image-rendering:optimizeQuality;"
    ><text x="0" xml:space="preserve" y="0" style="stroke:none;"
      >2</text
    ></g
    ><g transform="translate(858,896)" style="text-rendering:geometricPrecision; font-size:13px; color-interpolation:linearRGB; color-rendering:optimizeQuality; image-rendering:optimizeQuality;"
    ><text x="0" xml:space="preserve" y="0" style="stroke:none;"
      >10</text
    ></g
    ><g transform="translate(873,890)" style="text-rendering:geometricPrecision; font-size:11px; color-interpolation:linearRGB; color-rendering:optimizeQuality; image-rendering:optimizeQuality;"
    ><text x="0" xml:space="preserve" y="0" style="stroke:none;"
      >3</text
    ></g
    ><g transform="translate(1509,896)" style="text-rendering:geometricPrecision; font-size:13px; color-interpolation:linearRGB; color-rendering:optimizeQuality; image-rendering:optimizeQuality;"
    ><text x="0" xml:space="preserve" y="0" style="stroke:none;"
      >10</text
    ></g
    ><g transform="translate(1524,890)" style="text-rendering:geometricPrecision; font-size:11px; color-interpolation:linearRGB; color-rendering:optimizeQuality; image-rendering:optimizeQuality;"
    ><text x="0" xml:space="preserve" y="0" style="stroke:none;"
      >4</text
    ></g
    ><g transform="translate(869.0006,899.8747)" style="text-rendering:geometricPrecision; font-size:15px; color-interpolation:linearRGB; color-rendering:optimizeQuality; image-rendering:optimizeQuality;"
    ><text x="-52" xml:space="preserve" y="16" style="stroke:none;"
      >Frequency (Hz)</text
    ></g
    ><g style="text-rendering:geometricPrecision; stroke-width:0.6667; color-interpolation:linearRGB; color-rendering:optimizeQuality; stroke-linejoin:round; image-rendering:optimizeQuality;"
    ><line y2="73" style="fill:none;" x1="218" x2="218" y1="867"
      /><line y2="867" style="fill:none;" x1="223.208" x2="212.792" y1="867"
      /><line y2="787.6" style="fill:none;" x1="223.208" x2="212.792" y1="787.6"
      /><line y2="708.2" style="fill:none;" x1="223.208" x2="212.792" y1="708.2"
      /><line y2="628.8" style="fill:none;" x1="223.208" x2="212.792" y1="628.8"
      /><line y2="549.4" style="fill:none;" x1="223.208" x2="212.792" y1="549.4"
      /><line y2="470" style="fill:none;" x1="223.208" x2="212.792" y1="470"
      /><line y2="390.6" style="fill:none;" x1="223.208" x2="212.792" y1="390.6"
      /><line y2="311.2" style="fill:none;" x1="223.208" x2="212.792" y1="311.2"
      /><line y2="231.8" style="fill:none;" x1="223.208" x2="212.792" y1="231.8"
      /><line y2="152.4" style="fill:none;" x1="223.208" x2="212.792" y1="152.4"
      /><line y2="73" style="fill:none;" x1="223.208" x2="212.792" y1="73"
    /></g
    ><g transform="translate(207.4587,867)" style="text-rendering:geometricPrecision; font-size:13px; color-interpolation:linearRGB; color-rendering:optimizeQuality; image-rendering:optimizeQuality;"
    ><text x="-19" xml:space="preserve" y="5.5" style="stroke:none;"
      >-90</text
    ></g
    ><g transform="translate(207.4587,787.6)" style="text-rendering:geometricPrecision; font-size:13px; color-interpolation:linearRGB; color-rendering:optimizeQuality; image-rendering:optimizeQuality;"
    ><text x="-19" xml:space="preserve" y="5.5" style="stroke:none;"
      >-80</text
    ></g
    ><g transform="translate(207.4587,708.2)" style="text-rendering:geometricPrecision; font-size:13px; color-interpolation:linearRGB; color-rendering:optimizeQuality; image-rendering:optimizeQuality;"
    ><text x="-19" xml:space="preserve" y="5.5" style="stroke:none;"
      >-70</text
    ></g
    ><g transform="translate(207.4587,628.8)" style="text-rendering:geometricPrecision; font-size:13px; color-interpolation:linearRGB; color-rendering:optimizeQuality; image-rendering:optimizeQuality;"
    ><text x="-19" xml:space="preserve" y="5.5" style="stroke:none;"
      >-60</text
    ></g
    ><g transform="translate(207.4587,549.4)" style="text-rendering:geometricPrecision; font-size:13px; color-interpolation:linearRGB; color-rendering:optimizeQuality; image-rendering:optimizeQuality;"
    ><text x="-19" xml:space="preserve" y="5.5" style="stroke:none;"
      >-50</text
    ></g
    ><g transform="translate(207.4587,470)" style="text-rendering:geometricPrecision; font-size:13px; color-interpolation:linearRGB; color-rendering:optimizeQuality; image-rendering:optimizeQuality;"
    ><text x="-19" xml:space="preserve" y="5.5" style="stroke:none;"
      >-40</text
    ></g
    ><g transform="translate(207.4587,390.6)" style="text-rendering:geometricPrecision; font-size:13px; color-interpolation:linearRGB; color-rendering:optimizeQuality; image-rendering:optimizeQuality;"
    ><text x="-19" xml:space="preserve" y="5.5" style="stroke:none;"
      >-30</text
    ></g
    ><g transform="translate(207.4587,311.2)" style="text-rendering:geometricPrecision; font-size:13px; color-interpolation:linearRGB; color-rendering:optimizeQuality; image-rendering:optimizeQuality;"
    ><text x="-19" xml:space="preserve" y="5.5" style="stroke:none;"
      >-20</text
    ></g
    ><g transform="translate(207.4587,231.8)" style="text-rendering:geometricPrecision; font-size:13px; color-interpolation:linearRGB; color-rendering:optimizeQuality; image-rendering:optimizeQuality;"
    ><text x="-19" xml:space="preserve" y="5.5" style="stroke:none;"
      >-10</text
    ></g
    ><g transform="translate(207.4587,152.4)" style="text-rendering:geometricPrecision; font-size:13px; color-interpolation:linearRGB; color-rendering:optimizeQuality; image-rendering:optimizeQuality;"
    ><text x="-8" xml:space="preserve" y="5.5" style="stroke:none;"
      >0</text
    ></g
    ><g transform="translate(207.4587,73)" style="text-rendering:geometricPrecision; font-size:13px; color-interpolation:linearRGB; color-rendering:optimizeQuality; image-rendering:optimizeQuality;"
    ><text x="-15" xml:space="preserve" y="5.5" style="stroke:none;"
      >10</text
    ></g
    ><g transform="translate(184.4587,469.9996) rotate(-90)" style="text-rendering:geometricPrecision; font-size:15px; color-interpolation:linearRGB; color-rendering:optimizeQuality; image-rendering:optimizeQuality;"
    ><text x="-32.5" xml:space="preserve" y="-4" style="stroke:none;"
      >Gain (dB)</text
    ></g
    ><g transform="translate(869.0009,70.25)" style="font-size:15px; text-rendering:geometricPrecision; color-rendering:optimizeQuality; image-rendering:optimizeQuality; color-interpolation:linearRGB; font-weight:bold;"
    ><text x="-35" xml:space="preserve" y="-4" style="stroke:none;"
      >Bode plot</text
    ></g
    ><g style="stroke-linecap:butt; fill:rgb(255,128,0); text-rendering:geometricPrecision; color-rendering:optimizeQuality; image-rendering:optimizeQuality; stroke-linejoin:round; color-interpolation:linearRGB; stroke:rgb(255,128,0); stroke-width:0.6667;"
    ><path d="M552.3694 867.0794 L552.6141 866.7668 L553.2653 865.9343 L553.9158 865.1008 L554.5673 864.2662 L555.2183 863.4305 L555.8694 862.5936 L556.5199 861.7557 L557.1706 860.9168 L557.8224 860.0767 L558.4727 859.2356 L559.124 858.3933 L559.7747 857.5499 L560.4263 856.7053 L561.0773 855.8597 L561.7277 855.0129 L562.3792 854.165 L563.0298 853.3159 L563.6808 852.4656 L564.3318 851.6143 L564.9831 850.7617 L565.6337 849.9079 L566.2852 849.0529 L566.936 848.1968 L567.587 847.3394 L568.2382 846.4808 L568.8887 845.621 L569.5401 844.7599 L570.1909 843.8978 L570.8417 843.0342 L571.4927 842.1694 L572.1439 841.3034 L572.7951 840.436 L573.4457 839.5676 L574.0971 838.6977 L574.7479 837.8266 L575.3987 836.9541 L576.0497 836.0804 L576.7007 835.2054 L577.3519 834.3289 L578.0031 833.4512 L578.6537 832.5721 L579.3051 831.6917 L579.9557 830.8099 L580.6073 829.9269 L581.2581 829.0423 L581.909 828.1563 L582.5599 827.269 L583.2109 826.3804 L583.862 825.4903 L584.5132 824.5986 L585.1643 823.7057 L585.8148 822.8113 L586.466 821.9154 L587.1173 821.0181 L587.7679 820.1193 L588.4192 819.2189 L589.0698 818.3172 L589.7212 817.4139 L590.3719 816.5092 L591.0233 815.6028 L591.674 814.6949 L592.3247 813.7855 L592.9761 812.8746 L593.6268 811.9621 L594.2783 811.0481 L594.929 810.1324 L595.5797 809.2152 L596.2311 808.2963 L596.8818 807.3759 L597.5332 806.4538 L598.1838 805.53 L598.8351 804.6046 L599.4857 803.6776 L600.137 802.7488 L600.7883 801.8185 L601.4387 800.8864 L602.0899 799.9526 L602.741 799.0171 L603.3921 798.0799 L604.0431 797.1409 L604.6941 796.2002 L605.345 795.2577 L605.9958 794.3134 L606.6473 793.3673 L607.298 792.4195 L607.9493 791.4698 L608.5999 790.5182 L609.2511 789.5649 L609.9022 788.6096 L610.5532 787.6526 L611.2042 786.6935 L611.855 785.7331 L612.5057 784.7699 L613.157 783.8056 L613.8083 782.8385 L614.4588 781.8702 L615.1098 780.8997 L615.7607 779.9272 L616.4122 778.9524 L617.0629 777.9762 L617.7142 776.9976 L618.3653 776.017 L619.0164 775.0347 L619.6672 774.0496 L620.318 773.0628 L620.9693 772.074 L621.6198 771.0834 L622.2708 770.0902 L622.9223 769.0948 L623.573 768.0975 L624.2242 767.0979 L624.8754 766.0965 L625.5262 765.0925 L626.177 764.0862 L626.8283 763.0779 L627.4788 762.0671 L628.1303 761.054 L628.7811 760.0388 L629.4323 759.0215 L630.0827 758.0015 L630.7343 756.9796 L631.3849 755.9547 L632.0361 754.928 L632.6871 753.8987 L633.3378 752.8669 L633.9891 751.8328 L634.6401 750.7961 L635.291 749.7568 L635.9422 748.7153 L636.5933 747.6711 L637.2441 746.6246 L637.8947 745.5754 L638.5458 744.5238 L639.1973 743.4695 L639.8478 742.4127 L640.4988 741.3528 L641.1503 740.2906 L641.8008 739.226 L642.4518 738.1584 L643.1031 737.0879 L643.7542 736.0151 L644.405 734.9391 L645.0563 733.8607 L645.7072 732.7792 L646.358 731.6952 L647.0091 730.6083 L647.6599 729.5183 L648.3111 728.4254 L648.962 727.3297 L649.6133 726.2313 L650.2643 725.1295 L650.915 724.025 L651.566 722.9174 L652.2169 721.8068 L652.8679 720.6929 L653.5188 719.5762 L654.1699 718.4565 L654.8207 717.3332 L655.4719 716.2072 L656.1228 715.0778 L656.774 713.9449 L657.4249 712.8092 L658.076 711.6699 L658.7269 710.5276 L659.3781 709.3818 L660.0288 708.2327 L660.6799 707.08 L661.3307 705.924 L661.9818 704.7646 L662.6331 703.6017 L663.2841 702.4354 L663.9348 701.2654 L664.5863 700.092 L665.2369 698.9148 L665.8877 697.734 L666.5388 696.5495 L667.1901 695.3615 L667.8411 694.1696 L668.4922 692.9739 L669.1431 691.7744 L669.7942 690.5712 L670.4449 689.3641 L671.0958 688.1531 L671.7469 686.938 L672.3978 685.7191 L673.0493 684.4962 L673.6999 683.2691 L674.3512 682.038 L675.0022 680.8028 L675.6528 679.5634 L676.3042 678.3198 L676.9551 677.0719 L677.6058 675.8198 L678.2571 674.5634 L678.908 673.3026 L679.5591 672.0373 L680.2098 670.7676 L680.8612 669.4934 L681.5122 668.2148 L682.1628 666.9315 L682.8141 665.6436 L683.465 664.351 L684.116 663.0538 L684.7672 661.7516 L685.4179 660.4448 L686.0687 659.1331 L686.7197 657.8165 L687.3708 656.4949 L688.0221 655.1683 L688.6729 653.8367 L689.3237 652.5 L689.9748 651.1581 L690.6259 649.811 L691.277 648.4586 L691.9278 647.1009 L692.5792 645.7378 L693.2301 644.3693 L693.8811 642.9954 L694.5322 641.6158 L695.1829 640.2307 L695.834 638.8399 L696.4848 637.4434 L697.1362 636.0411 L697.787 634.633 L698.438 633.2189 L699.089 631.7989 L699.7401 630.3729 L700.3912 628.9407 L701.0417 627.5026 L701.6929 626.058 L702.3441 624.6066 L702.9949 623.1496 L703.6461 621.686 L704.2969 620.2157 L704.9482 618.7391 L705.599 617.2555 L706.2498 615.7649 L706.9012 614.2678 L707.552 612.7638 L708.2029 611.2528 L708.8542 609.7349 L709.5051 608.2098 L710.1559 606.6772 L710.8072 605.1378 L711.4579 603.5903 L712.1088 602.0356 L712.76 600.4735 L713.4108 598.9036 L714.062 597.3257 L714.7131 595.7401 L715.3638 594.1466 L716.0149 592.5451 L716.666 590.9353 L717.317 589.3171 L717.968 587.6908 L718.6188 586.0555 L719.2702 584.412 L719.921 582.7598 L720.5721 581.0989 L721.2228 579.4289 L721.8739 577.7499 L722.525 576.0614 L723.1758 574.3641 L723.8272 572.657 L724.478 570.9406 L725.1291 569.2147 L725.7802 567.4786 L726.4312 565.7327 L727.082 563.9766 L727.7328 562.2105 L728.384 560.434 L729.035 558.6469 L729.686 556.8492 L730.3368 555.0407 L730.988 553.2212 L731.639 551.3906 L732.29 549.5486 L732.9408 547.6953 L733.592 545.8303 L734.243 543.9535 L734.8939 542.0647 L735.5451 540.1638 L736.1962 538.2504 L736.847 536.3246 L737.4978 534.386 L738.1489 532.4346 L738.7999 530.4701 L739.451 528.4921 L740.1022 526.5005 L740.7531 524.4951 L741.4042 522.4757 L742.0547 520.4423 L742.7061 518.3941 L743.3572 516.3314 L744.0081 514.2536 L744.6589 512.1605 L745.3099 510.0521 L745.9612 507.9278 L746.6118 505.7875 L747.2631 503.6309 L747.9138 501.4577 L748.5652 499.2675 L749.2159 497.0602 L749.8669 494.8352 L750.5181 492.5924 L751.1691 490.3314 L751.8198 488.0519 L752.4712 485.7534 L753.1219 483.4356 L753.7729 481.0983 L754.4241 478.7408 L755.075 476.3629 L755.7262 473.9641 L756.3771 471.544 L757.0281 469.1024 L757.679 466.6384 L758.33 464.1516 L758.9812 461.642 L759.6321 459.1085 L760.2828 456.5505 L760.9341 453.9682 L761.5851 451.3605 L762.2359 448.7271 L762.8868 446.0672 L763.5379 443.3803 L764.1891 440.6656 L764.84 437.9223 L765.4911 435.15 L766.1419 432.3479 L766.7932 429.5152 L767.4438 426.6514 L768.095 423.7553 L768.7459 420.8264 L769.3969 417.8633 L770.048 414.8657 L770.6992 411.8319 L771.3501 408.7617 L772.0011 405.6535 L772.6522 402.5067 L773.303 399.3197 L773.9539 396.0913 L774.6049 392.8206 L775.2559 389.5058 L775.907 386.1461 L776.5578 382.7394 L777.2091 379.2848 L777.86 375.7804 L778.511 372.2244 L779.162 368.615 L779.8132 364.9507 L780.464 361.2292 L781.1152 357.4482 L781.7661 353.606 L782.4169 349.7 L783.0679 345.7275 L783.7189 341.6862 L784.3699 337.573 L785.0209 333.3852 L785.672 329.1194 L786.3231 324.7724 L786.9742 320.3405 L787.6249 315.82 L788.276 311.2069 L788.9272 306.4965 L789.5779 301.6854 L790.2291 296.7674 L790.8801 291.738 L791.5309 286.592 L792.182 281.3237 L792.8331 275.9277 L793.4841 270.3973 L794.1348 264.7275 L794.7858 258.9123 L795.4368 252.9462 L796.0881 246.8248 L796.7391 240.5454 L797.39 234.1067 L798.0412 227.5111 L798.692 220.7663 L799.3431 213.8869 L799.9941 206.8978 L800.6451 199.838 L801.2961 192.7662 L801.947 185.7649 L802.5981 178.9457 L803.2489 172.4504 L803.8999 166.4466 L804.5508 161.1114 L805.2021 156.6056 L805.8529 153.0408 L806.504 150.4512 L807.155 148.7867 L807.8058 147.9217 L808.457 147.6913 L809.108 147.9184 L809.759 148.4413 L810.4102 149.1259 L811.0609 149.8671 L811.7119 150.5908 L812.3631 151.2449 L813.0142 151.7971 L813.6651 152.2278 L814.316 152.5285 L814.967 152.6986 L815.6179 152.7421 L816.2691 152.6673 L816.9201 152.4854 L817.5709 152.2099 L818.222 151.8553 L818.8729 151.4378 L819.524 150.9748 L820.175 150.4827 L820.826 149.9795 L821.4771 149.4812 L822.1279 149.0056 L822.7789 148.5671 L823.43 148.1787 L824.0809 147.8532 L824.7321 147.598 L825.3831 147.4213 L826.0342 147.3258 L826.6851 147.3123 L827.3361 147.3796 L827.987 147.5228 L828.6381 147.7351 L829.2889 148.0083 L829.9401 148.3326 L830.5909 148.6964 L831.2421 149.0897 L831.8931 149.4998 L832.5442 149.9163 L833.195 150.3286 L833.846 150.726 L834.4971 151.0999 L835.148 151.4418 L835.799 151.7452 L836.45 152.0032 L837.1008 152.2106 L837.7521 152.3649 L838.4031 152.4619 L839.0541 152.5004 L839.705 152.4794 L840.3558 152.3993 L841.0071 152.2615 L841.6581 152.0684 L842.3089 151.8238 L842.9601 151.5317 L843.611 151.1974 L844.2618 150.829 L844.9131 150.4332 L845.5641 150.0188 L846.2148 149.5957 L846.8659 149.1745 L847.517 148.7657 L848.1679 148.3814 L848.819 148.0316 L849.4699 147.7294 L850.1211 147.4829 L850.772 147.3027 L851.4229 147.1952 L852.0742 147.1671 L852.725 147.2195 L853.376 147.3546 L854.0269 147.5684 L854.678 147.8558 L855.3289 148.2092 L855.9801 148.618 L856.631 149.068 L857.2821 149.5467 L857.9329 150.0361 L858.584 150.521 L859.235 150.9836 L859.886 151.4065 L860.537 151.7725 L861.1879 152.0657 L861.8391 152.2698 L862.4899 152.3717 L863.141 152.3587 L863.7921 152.223 L864.443 151.9573 L865.0939 151.5617 L865.7449 151.0424 L866.3961 150.415 L867.047 149.7077 L867.6979 148.9675 L868.349 148.2612 L869 147.6855 L869.6523 147.3655 L870.3032 147.4579 L870.9526 148.1366 L871.6032 149.5739 L872.2551 151.9073 L872.9056 155.2112 L873.5574 159.474 L874.2076 164.6029 L874.8591 170.447 L875.5092 176.8307 L876.1605 183.5818 L876.813 190.5503 L877.4641 197.6168 L878.1136 204.6906 L878.7643 211.7077 L879.4164 218.6241 L880.067 225.4112 L880.7187 232.0521 L881.369 238.5374 L882.0204 244.8641 L882.6703 251.0317 L883.3215 257.0431 L883.9739 262.902 L884.6246 268.6145 L885.274 274.1853 L885.9272 279.6205 L886.5762 284.9258 L887.229 290.1077 L887.8777 295.1709 L888.5302 300.1215 L889.1812 304.9643 L889.8333 309.7046 L890.4838 314.3463 L891.1329 318.8942 L891.7858 323.3524 L892.4372 327.7246 L893.087 332.0147 L893.7379 336.2259 L894.39 340.3614 L895.0405 344.4243 L895.6921 348.4175 L896.3422 352.3436 L896.9933 356.2052 L897.643 360.0046 L898.2938 363.7442 L898.9456 367.426 L899.5959 371.052 L900.2472 374.6243 L900.8995 378.1447 L901.5504 381.6146 L902.1998 385.0359 L902.8527 388.4102 L903.504 391.7386 L904.1539 395.0229 L904.8048 398.2643 L905.4567 401.4642 L906.1071 404.6238 L906.7584 407.744 L907.4083 410.826 L908.0591 413.8711 L908.7109 416.8798 L909.3611 419.8539 L910.0125 422.7935 L910.6646 425.6998 L911.3154 428.5738 L911.967 431.4162 L912.6171 434.2279 L913.2681 437.0097 L913.9201 439.762 L914.5706 442.4855 L915.222 445.1813 L915.8719 447.8497 L916.5226 450.4917 L917.1743 453.1077 L917.8245 455.6978 L918.4755 458.2633 L919.1275 460.8046 L919.7779 463.3222 L920.4291 465.8164 L921.0789 468.2877 L921.732 470.7362 L922.3811 473.1632 L923.0334 475.5688 L923.6843 477.9534 L924.3359 480.3173 L924.9861 482.6612 L925.6371 484.9852 L926.2889 487.2899 L926.9391 489.5755 L927.5903 491.8425 L928.2399 494.0911 L928.8926 496.3218 L929.5438 498.5348 L930.1934 500.7306 L930.8439 502.9093 L931.4952 505.0713 L932.1472 507.2168 L932.7977 509.3462 L933.449 511.4597 L934.101 513.5578 L934.7516 515.6404 L935.4028 517.7082 L936.0526 519.7609 L936.7031 521.7992 L937.3543 523.8232 L938.0063 525.8331 L938.6567 527.8292 L939.3079 529.8114 L939.9598 531.7805 L940.6101 533.7362 L941.2612 535.6791 L941.9129 537.6089 L942.5632 539.5264 L943.2141 541.4313 L943.8657 543.324 L944.5158 545.2048 L945.1666 547.0736 L945.818 548.9307 L946.468 550.7764 L947.1207 552.6105 L947.772 554.4337 L948.4217 556.2459 L949.0721 558.0472 L949.723 559.8376 L950.3747 561.6177 L951.027 563.3872 L951.6777 565.1466 L952.3269 566.8958 L952.9789 568.6348 L953.6294 570.3642 L954.2805 572.0837 L954.9321 573.7939 L955.5823 575.4946 L956.233 577.1857 L956.8844 578.8679 L957.5363 580.5407 L958.1866 582.2049 L958.8376 583.8599 L959.4891 585.5063 L960.1392 587.1439 L960.7917 588.7734 L961.4428 590.3942 L962.0925 592.0066 L962.7446 593.6108 L963.3953 595.2071 L964.0466 596.7956 L964.6963 598.3759 L965.3484 599.9482 L965.9993 601.5131 L966.6505 603.0702 L967.3002 604.62 L967.9525 606.1622 L968.6032 607.697 L969.2545 609.2247 L969.9042 610.7451 L970.5564 612.2584 L971.2071 613.7647 L971.8583 615.2638 L972.5099 616.7562 L973.16 618.242 L973.8106 619.7212 L974.4617 621.1938 L975.1132 622.6595 L975.7632 624.119 L976.4155 625.5719 L977.0664 627.0184 L977.7177 628.4587 L978.3676 629.893 L979.0197 631.3211 L979.6703 632.7431 L980.3214 634.1592 L980.9728 635.5692 L981.6228 636.9734 L982.2731 638.3719 L982.9258 639.7646 L983.5751 641.1516 L984.2266 642.533 L984.8785 643.9088 L985.5289 645.2791 L986.1797 646.6439 L986.8309 648.0034 L987.4825 649.3575 L988.1325 650.7064 L988.7847 652.05 L989.4355 653.3884 L990.0865 654.7217 L990.7361 656.0499 L991.3879 657.3732 L992.0381 658.6915 L992.6906 660.0048 L993.3416 661.3133 L993.9928 662.6169 L994.6425 663.9158 L995.2944 665.21 L995.9448 666.4994 L996.5955 667.7842 L997.2465 669.0644 L997.8978 670.3401 L998.5494 671.6113 L999.1994 672.878 L999.8516 674.1402 L1000.5023 675.3981 L1001.1531 676.6517 L1001.8044 677.9009 L1002.4558 679.146 L1003.1058 680.3868 L1003.7578 681.6235 L1004.4083 682.8559 L1005.059 684.0843 L1005.71 685.3085 L1006.3612 686.5289 L1007.0127 687.7452 L1007.6627 688.9575 L1008.3146 690.1659 L1008.965 691.3705 L1009.6157 692.5712 L1010.2666 693.7681 L1010.9177 694.9612 L1011.569 696.1506 L1012.2206 697.3362 L1012.8706 698.5181 L1013.5225 699.6966 L1014.1729 700.8712 L1014.8235 702.0424 L1015.4743 703.2099 L1016.1254 704.374 L1016.7764 705.5345 L1017.4279 706.6917 L1018.0793 707.8454 L1018.7294 708.9957 L1019.3813 710.1425 L1020.0316 711.2861 L1020.6838 712.4265 L1021.3345 713.5634 L1021.9852 714.6971 L1022.6363 715.8276 L1023.2874 716.9548 L1023.9385 718.0789 L1024.5884 719.1999 L1025.2399 720.3178 L1025.8915 721.4325 L1026.5416 722.5443 L1027.1936 723.6529 L1027.8439 724.7584 L1028.4944 725.861 L1029.1466 726.9606 L1029.7974 728.0574 L1030.4481 729.1509 L1031.099 730.2419 L1031.7501 731.3298 L1032.4012 732.4149 L1033.0524 733.4972 L1033.7036 734.5766 L1034.3534 735.6534 L1035.0049 736.7275 L1035.6564 737.7984 L1036.3064 738.8669 L1036.958 739.9328 L1037.6096 740.9958 L1038.2599 742.0562 L1038.9116 743.114 L1039.562 744.1695 L1040.2123 745.222 L1040.8643 746.2719 L1041.5146 747.3195 L1042.1667 748.3642 L1042.8173 749.4067 L1043.4678 750.4467 L1044.1183 751.4843 L1044.7705 752.519 L1045.421 753.5518 L1046.0717 754.5819 L1046.7223 755.6094 L1047.3745 756.6349 L1048.0251 757.658 L1048.6758 758.6783 L1049.3264 759.6965 L1049.9786 760.7126 L1050.6293 761.7264 L1051.2799 762.7376 L1051.9305 763.7472 L1052.5826 764.7539 L1053.2332 765.7585 L1053.8837 766.7611 L1054.5343 767.7615 L1055.1863 768.7592 L1055.8367 769.7556 L1056.4886 770.7493 L1057.139 771.7406 L1057.7893 772.7302 L1058.441 773.7178 L1059.0913 774.7032 L1059.743 775.6866 L1060.3945 776.6678 L1061.0446 777.647 L1061.696 778.624 L1062.3474 779.5991 L1062.9973 780.5725 L1063.6486 781.5435 L1064.2997 782.513 L1064.9508 783.48 L1065.6017 784.4456 L1066.2526 785.4089 L1066.9034 786.3704 L1067.5555 787.3302 L1068.2062 788.2877 L1068.8567 789.2434 L1069.5084 790.1974 L1070.1587 791.1495 L1070.8103 792.0999 L1071.4603 793.0483 L1072.1117 793.9951 L1072.7629 794.9399 L1073.4141 795.8829 L1074.0649 796.8243 L1074.7158 797.7639 L1075.3666 798.7017 L1076.0184 799.6378 L1076.6688 800.5721 L1077.3206 801.5048 L1077.9707 802.4357 L1078.6221 803.365 L1079.2732 804.2926 L1079.9242 805.2186 L1080.5751 806.1428 L1081.2258 807.0655 L1081.8763 807.9865 L1082.5281 808.9059 L1083.1783 809.8236 L1083.8297 810.7399 L1084.481 811.6545 L1085.132 812.5675 L1085.7828 813.4789 L1086.4335 814.3888 L1087.0852 815.2972 L1087.7355 816.204 L1088.3868 817.1093 L1089.0381 818.0131 L1089.689 818.9154 L1090.3398 819.8162 L1090.9904 820.7155 L1091.642 821.6133 L1092.2935 822.5096 L1092.9434 823.4046 L1093.5944 824.298 L1094.2465 825.1901 L1094.897 826.0807 L1095.5487 826.9698 L1096.1987 827.8576 L1096.8499 828.7441 L1097.5007 829.629 L1098.1515 830.5126 L1098.8031 831.3949 L1099.4545 832.2757 L1100.1045 833.1552 L1100.7554 834.0334 L1101.4073 834.9103 L1102.0577 835.7857 L1102.7091 836.6599 L1103.3604 837.5328 L1104.0112 838.4044 L1104.6617 839.2747 L1105.3134 840.1436 L1105.9634 841.0114 L1106.6145 841.8778 L1107.2665 842.743 L1107.9169 843.6069 L1108.5682 844.4695 L1109.2194 845.331 L1109.8701 846.1912 L1110.5206 847.0502 L1111.1721 847.908 L1111.8232 848.7645 L1112.474 849.62 L1113.1245 850.4741 L1113.776 851.327 L1114.427 852.179 L1115.0779 853.0295 L1115.7295 853.879 L1116.3796 854.7274 L1117.0306 855.5746 L1117.6825 856.4205 L1118.3329 857.2654 L1118.9841 858.1092 L1119.635 858.9519 L1120.2855 859.7935 L1120.9369 860.6339 L1121.5879 861.4731 L1122.2386 862.3114 L1122.8901 863.1486 L1123.5413 863.9846 L1124.192 864.8196 L1124.8425 865.6536 L1125.4938 866.4863 L1125.9579 867.0794" style="fill:none; fill-rule:evenodd;"
    /></g
    ><g style="text-rendering:optimizeSpeed; shape-rendering:crispEdges; color-interpolation:sRGB; color-rendering:optimizeSpeed; image-rendering:optimizeSpeed;"
    ><path style="stroke:none;" d="M761.3 434.7 L761.3 424.3 L771.7 424.3 L771.7 434.7 Z"
    /></g
    ><g style="stroke-linecap:butt; fill:rgb(255,255,220); text-rendering:geometricPrecision; color-rendering:optimizeQuality; image-rendering:optimizeQuality; color-interpolation:linearRGB; stroke:rgb(255,255,220); stroke-width:1.3333;"
    ><path d="M761.3 434.7 L761.3 424.3 L771.7 424.3 L771.7 434.7 Z" style="fill:none; fill-rule:evenodd;"
    /></g
    ><g style="text-rendering:optimizeSpeed; shape-rendering:crispEdges; color-interpolation:sRGB; color-rendering:optimizeSpeed; image-rendering:optimizeSpeed;"
    ><path style="stroke:none;" d="M869.3 175.7 L869.3 165.3 L879.7 165.3 L879.7 175.7 Z"
    /></g
    ><g style="stroke-linecap:butt; fill:rgb(255,255,220); text-rendering:geometricPrecision; color-rendering:optimizeQuality; image-rendering:optimizeQuality; color-interpolation:linearRGB; stroke:rgb(255,255,220); stroke-width:1.3333;"
    ><path d="M869.3 175.7 L869.3 165.3 L879.7 165.3 L879.7 175.7 Z" style="fill:none; fill-rule:evenodd;"
    /></g
    ><g style="text-rendering:optimizeSpeed; shape-rendering:crispEdges; color-interpolation:sRGB; color-rendering:optimizeSpeed; image-rendering:optimizeSpeed;"
    ><path style="stroke:none;" d="M847.3 152.7 L847.3 142.3 L857.7 142.3 L857.7 152.7 Z"
    /></g
    ><g style="stroke-linecap:butt; fill:rgb(255,255,220); text-rendering:geometricPrecision; color-rendering:optimizeQuality; image-rendering:optimizeQuality; color-interpolation:linearRGB; stroke:rgb(255,255,220); stroke-width:1.3333;"
    ><path d="M847.3 152.7 L847.3 142.3 L857.7 142.3 L857.7 152.7 Z" style="fill:none; fill-rule:evenodd;"
    /></g
    ><g style="text-rendering:optimizeSpeed; shape-rendering:crispEdges; color-interpolation:sRGB; color-rendering:optimizeSpeed; image-rendering:optimizeSpeed;"
    ><path style="stroke:none;" d="M834.3 157.7 L834.3 147.3 L844.7 147.3 L844.7 157.7 Z"
    /></g
    ><g style="stroke-linecap:butt; fill:rgb(255,255,220); text-rendering:geometricPrecision; color-rendering:optimizeQuality; image-rendering:optimizeQuality; color-interpolation:linearRGB; stroke:rgb(255,255,220); stroke-width:1.3333;"
    ><path d="M834.3 157.7 L834.3 147.3 L844.7 147.3 L844.7 157.7 Z" style="fill:none; fill-rule:evenodd;"
    /></g
    ><g style="fill:rgb(255,255,238); text-rendering:optimizeSpeed; color-rendering:optimizeSpeed; image-rendering:optimizeSpeed; shape-rendering:crispEdges; color-interpolation:sRGB; stroke:rgb(255,255,238);"
    ><path style="stroke:none;" d="M773.4599 422.8486 L830.4599 422.8486 L830.4599 380.8486 L773.4599 380.8486 Z"
    /></g
    ><g style="stroke-linecap:butt; fill:rgb(204,204,204); text-rendering:geometricPrecision; color-rendering:optimizeQuality; image-rendering:optimizeQuality; color-interpolation:linearRGB; stroke:rgb(204,204,204); stroke-width:0.6667;"
    ><path d="M773.4599 422.8486 L830.4599 422.8486 L830.4599 380.8486 L773.4599 380.8486 Z" style="fill:none; fill-rule:evenodd;"
    /></g
    ><g transform="translate(777.4599,418.8486)" style="text-rendering:geometricPrecision; font-size:13px; color-interpolation:linearRGB; color-rendering:optimizeQuality; image-rendering:optimizeQuality;"
    ><text x="0" xml:space="preserve" y="-20" style="stroke:none;"
      >X: 696.6</text
    ></g
    ><g transform="translate(777.4599,418.8486)" style="text-rendering:geometricPrecision; font-size:13px; color-interpolation:linearRGB; color-rendering:optimizeQuality; image-rendering:optimizeQuality;"
    ><text x="0" xml:space="preserve" y="-3" style="stroke:none;"
      >Y: -34.9</text
    ></g
    ><g style="fill:rgb(255,255,238); text-rendering:optimizeSpeed; color-rendering:optimizeSpeed; image-rendering:optimizeSpeed; shape-rendering:crispEdges; color-interpolation:sRGB; stroke:rgb(255,255,238);"
    ><path style="stroke:none;" d="M881.5258 219.1137 L942.5258 219.1137 L942.5258 177.1137 L881.5258 177.1137 Z"
    /></g
    ><g style="stroke-linecap:butt; fill:rgb(204,204,204); text-rendering:geometricPrecision; color-rendering:optimizeQuality; image-rendering:optimizeQuality; color-interpolation:linearRGB; stroke:rgb(204,204,204); stroke-width:0.6667;"
    ><path d="M881.5258 219.1137 L942.5258 219.1137 L942.5258 177.1137 L881.5258 177.1137 Z" style="fill:none; fill-rule:evenodd;"
    /></g
    ><g transform="translate(885.5258,215.1137)" style="text-rendering:geometricPrecision; font-size:13px; color-interpolation:linearRGB; color-rendering:optimizeQuality; image-rendering:optimizeQuality;"
    ><text x="0" xml:space="preserve" y="-20" style="stroke:none;"
      >X: 1021</text
    ></g
    ><g transform="translate(885.5258,215.1137)" style="text-rendering:geometricPrecision; font-size:13px; color-interpolation:linearRGB; color-rendering:optimizeQuality; image-rendering:optimizeQuality;"
    ><text x="0" xml:space="preserve" y="-3" style="stroke:none;"
      >Y: -2.273</text
    ></g
    ><g style="fill:rgb(255,255,238); text-rendering:optimizeSpeed; color-rendering:optimizeSpeed; image-rendering:optimizeSpeed; shape-rendering:crispEdges; color-interpolation:sRGB; stroke:rgb(255,255,238);"
    ><path style="stroke:none;" d="M859.3917 140.5529 L923.3917 140.5529 L923.3917 98.5529 L859.3917 98.5529 Z"
    /></g
    ><g style="stroke-linecap:butt; fill:rgb(204,204,204); text-rendering:geometricPrecision; color-rendering:optimizeQuality; image-rendering:optimizeQuality; color-interpolation:linearRGB; stroke:rgb(204,204,204); stroke-width:0.6667;"
    ><path d="M859.3917 140.5529 L923.3917 140.5529 L923.3917 98.5529 L859.3917 98.5529 Z" style="fill:none; fill-rule:evenodd;"
    /></g
    ><g transform="translate(863.3917,136.5529)" style="text-rendering:geometricPrecision; font-size:13px; color-interpolation:linearRGB; color-rendering:optimizeQuality; image-rendering:optimizeQuality;"
    ><text x="0" xml:space="preserve" y="-20" style="stroke:none;"
      >X: 944.1</text
    ></g
    ><g transform="translate(863.3917,136.5529)" style="text-rendering:geometricPrecision; font-size:13px; color-interpolation:linearRGB; color-rendering:optimizeQuality; image-rendering:optimizeQuality;"
    ><text x="0" xml:space="preserve" y="-3" style="stroke:none;"
      >Y: 0.6525</text
    ></g
    ><g style="fill:rgb(255,255,238); text-rendering:optimizeSpeed; color-rendering:optimizeSpeed; image-rendering:optimizeSpeed; shape-rendering:crispEdges; color-interpolation:sRGB; stroke:rgb(255,255,238);"
    ><path style="stroke:none;" d="M776.0383 145.8128 L833.0383 145.8128 L833.0383 103.8128 L776.0383 103.8128 Z"
    /></g
    ><g style="stroke-linecap:butt; fill:rgb(204,204,204); text-rendering:geometricPrecision; color-rendering:optimizeQuality; image-rendering:optimizeQuality; color-interpolation:linearRGB; stroke:rgb(204,204,204); stroke-width:0.6667;"
    ><path d="M776.0383 145.8128 L833.0383 145.8128 L833.0383 103.8128 L776.0383 103.8128 Z" style="fill:none; fill-rule:evenodd;"
    /></g
    ><g transform="translate(780.0383,141.8128)" style="text-rendering:geometricPrecision; font-size:13px; color-interpolation:linearRGB; color-rendering:optimizeQuality; image-rendering:optimizeQuality;"
    ><text x="0" xml:space="preserve" y="-20" style="stroke:none;"
      >X: 901.6</text
    ></g
    ><g transform="translate(780.0383,141.8128)" style="text-rendering:geometricPrecision; font-size:13px; color-interpolation:linearRGB; color-rendering:optimizeQuality; image-rendering:optimizeQuality;"
    ><text x="0" xml:space="preserve" y="-3" style="stroke:none;"
      >Y: -0.01</text
    ></g
    ><g style="fill-opacity:0.3922; fill:rgb(0,0,0); text-rendering:optimizeSpeed; color-rendering:optimizeSpeed; image-rendering:optimizeSpeed; shape-rendering:crispEdges; color-interpolation:sRGB; stroke:rgb(0,0,0); stroke-opacity:0.3922;"
    ><path style="stroke:none;" d="M761.82 434.18 L761.82 424.82 L771.18 424.82 L771.18 434.18 Z"
    /></g
    ><g style="stroke-linecap:butt; fill-opacity:0.3922; fill:rgb(255,255,220); text-rendering:geometricPrecision; color-rendering:optimizeQuality; image-rendering:optimizeQuality; color-interpolation:linearRGB; stroke:rgb(255,255,220); stroke-width:1.3333; stroke-opacity:0.3922;"
    ><path d="M761.3 434.7 L761.3 424.3 L771.7 424.3 L771.7 434.7 Z" style="fill:none; fill-rule:evenodd;"
    /></g
    ><g style="fill-opacity:0.3922; fill:rgb(0,0,0); text-rendering:optimizeSpeed; color-rendering:optimizeSpeed; image-rendering:optimizeSpeed; shape-rendering:crispEdges; color-interpolation:sRGB; stroke:rgb(0,0,0); stroke-opacity:0.3922;"
    ><path style="stroke:none;" d="M869.82 175.18 L869.82 165.82 L879.18 165.82 L879.18 175.18 Z"
    /></g
    ><g style="stroke-linecap:butt; fill-opacity:0.3922; fill:rgb(255,255,220); text-rendering:geometricPrecision; color-rendering:optimizeQuality; image-rendering:optimizeQuality; color-interpolation:linearRGB; stroke:rgb(255,255,220); stroke-width:1.3333; stroke-opacity:0.3922;"
    ><path d="M869.3 175.7 L869.3 165.3 L879.7 165.3 L879.7 175.7 Z" style="fill:none; fill-rule:evenodd;"
    /></g
    ><g style="fill-opacity:0.3922; fill:rgb(0,0,0); text-rendering:optimizeSpeed; color-rendering:optimizeSpeed; image-rendering:optimizeSpeed; shape-rendering:crispEdges; color-interpolation:sRGB; stroke:rgb(0,0,0); stroke-opacity:0.3922;"
    ><path style="stroke:none;" d="M847.82 152.18 L847.82 142.82 L857.18 142.82 L857.18 152.18 Z"
    /></g
    ><g style="stroke-linecap:butt; fill-opacity:0.3922; fill:rgb(255,255,220); text-rendering:geometricPrecision; color-rendering:optimizeQuality; image-rendering:optimizeQuality; color-interpolation:linearRGB; stroke:rgb(255,255,220); stroke-width:1.3333; stroke-opacity:0.3922;"
    ><path d="M847.3 152.7 L847.3 142.3 L857.7 142.3 L857.7 152.7 Z" style="fill:none; fill-rule:evenodd;"
    /></g
    ><g style="fill-opacity:0.3922; fill:rgb(0,0,0); text-rendering:optimizeSpeed; color-rendering:optimizeSpeed; image-rendering:optimizeSpeed; shape-rendering:crispEdges; color-interpolation:sRGB; stroke:rgb(0,0,0); stroke-opacity:0.3922;"
    ><path style="stroke:none;" d="M834.82 157.18 L834.82 147.82 L844.18 147.82 L844.18 157.18 Z"
    /></g
    ><g style="stroke-linecap:butt; fill-opacity:0.3922; fill:rgb(255,255,220); text-rendering:geometricPrecision; color-rendering:optimizeQuality; image-rendering:optimizeQuality; color-interpolation:linearRGB; stroke:rgb(255,255,220); stroke-width:1.3333; stroke-opacity:0.3922;"
    ><path d="M834.3 157.7 L834.3 147.3 L844.7 147.3 L844.7 157.7 Z" style="fill:none; fill-rule:evenodd;"
    /></g
  ></g
></svg
>
