X--Trace 1::[Bode Result],Y--Trace 1::[Bode Result]
10,1.00029
10.0231,1.00029
10.0462,1.00029
10.0693,1.00029
10.0925,1.00029
10.1158,1.00029
10.1391,1.00029
10.1625,1.00029
10.1859,1.00029
10.2094,1.00029
10.2329,1.00029
10.2565,1.00029
10.2802,1.00029
10.3039,1.00029
10.3276,1.00029
10.3514,1.00029
10.3753,1.00029
10.3992,1.00029
10.4232,1.00029
10.4472,1.00029
10.4713,1.00029
10.4954,1.00029
10.5196,1.00029
10.5439,1.00029
10.5682,1.00029
10.5925,1.00029
10.617,1.00029
10.6414,1.00029
10.666,1.00029
10.6905,1.00029
10.7152,1.00029
10.7399,1.00029
10.7647,1.00029
10.7895,1.00029
10.8143,1.00029
10.8393,1.00029
10.8643,1.00029
10.8893,1.00029
10.9144,1.00029
10.9396,1.00029
10.9648,1.00029
10.9901,1.00029
11.0154,1.00029
11.0408,1.00029
11.0662,1.00029
11.0917,1.00029
11.1173,1.00029
11.1429,1.00029
11.1686,1.00029
11.1944,1.00029
11.2202,1.00029
11.246,1.00029
11.272,1.00029
11.298,1.00029
11.324,1.00029
11.3501,1.00029
11.3763,1.00029
11.4025,1.00029
11.4288,1.00029
11.4551,1.00029
11.4815,1.00029
11.508,1.00029
11.5345,1.00029
11.5611,1.00029
11.5878,1.00029
11.6145,1.00029
11.6413,1.00029
11.6681,1.00029
11.695,1.00029
11.722,1.00029
11.749,1.00029
11.7761,1.00029
11.8032,1.00029
11.8304,1.00029
11.8577,1.00029
11.885,1.00029
11.9124,1.00029
11.9399,1.00029
11.9674,1.00029
11.995,1.00029
12.0226,1.00029
12.0504,1.00029
12.0781,1.00029
12.106,1.00029
12.1339,1.00029
12.1619,1.00029
12.1899,1.00029
12.218,1.00029
12.2462,1.00029
12.2744,1.00029
12.3027,1.00029
12.331,1.00029
12.3595,1.00029
12.388,1.00029
12.4165,1.00029
12.4451,1.00029
12.4738,1.00029
12.5026,1.00029
12.5314,1.00029
12.5603,1.00029
12.5893,1.00029
12.6183,1.00029
12.6474,1.00029
12.6765,1.00029
12.7057,1.00029
12.735,1.00029
12.7644,1.00029
12.7938,1.00029
12.8233,1.00029
12.8529,1.00029
12.8825,1.00029
12.9122,1.00029
12.942,1.00029
12.9718,1.00029
13.0017,1.00029
13.0317,1.00029
13.0617,1.00029
13.0918,1.00029
13.122,1.00029
13.1522,1.00029
13.1826,1.00029
13.213,1.00029
13.2434,1.00029
13.2739,1.00029
13.3045,1.00029
13.3352,1.00029
13.366,1.00029
13.3968,1.00029
13.4276,1.00029
13.4586,1.00029
13.4896,1.00029
13.5207,1.00029
13.5519,1.00029
13.5831,1.00029
13.6144,1.00029
13.6458,1.00029
13.6773,1.00029
13.7088,1.00029
13.7404,1.00029
13.7721,1.00029
13.8038,1.00029
13.8357,1.00029
13.8676,1.00029
13.8995,1.00029
13.9316,1.00029
13.9637,1.00029
13.9959,1.00029
14.0281,1.00029
14.0605,1.00029
14.0929,1.00029
14.1254,1.00029
14.1579,1.00029
14.1906,1.00029
14.2233,1.00029
14.2561,1.00029
14.2889,1.00029
14.3219,1.00029
14.3549,1.00029
14.388,1.00029
14.4212,1.00029
14.4544,1.00029
14.4877,1.00029
14.5211,1.00029
14.5546,1.00029
14.5881,1.00029
14.6218,1.00029
14.6555,1.00029
14.6893,1.00029
14.7231,1.00029
14.7571,1.00029
14.7911,1.00029
14.8252,1.00029
14.8594,1.00029
14.8936,1.00029
14.9279,1.00029
14.9624,1.00029
14.9968,1.00029
15.0314,1.00029
15.0661,1.00029
15.1008,1.00029
15.1356,1.00029
15.1705,1.00029
15.2055,1.00029
15.2405,1.00029
15.2757,1.00029
15.3109,1.0003
15.3462,1.0003
15.3815,1.0003
15.417,1.0003
15.4525,1.0003
15.4882,1.0003
15.5239,1.0003
15.5597,1.0003
15.5955,1.0003
15.6315,1.0003
15.6675,1.0003
15.7036,1.0003
15.7398,1.0003
15.7761,1.0003
15.8125,1.0003
15.8489,1.0003
15.8855,1.0003
15.9221,1.0003
15.9588,1.0003
15.9956,1.0003
16.0325,1.0003
16.0694,1.0003
16.1065,1.0003
16.1436,1.0003
16.1808,1.0003
16.2181,1.0003
16.2555,1.0003
16.293,1.0003
16.3305,1.0003
16.3682,1.0003
16.4059,1.0003
16.4437,1.0003
16.4816,1.0003
16.5196,1.0003
16.5577,1.0003
16.5959,1.0003
16.6341,1.0003
16.6725,1.0003
16.7109,1.0003
16.7494,1.0003
16.788,1.0003
16.8267,1.0003
16.8655,1.0003
16.9044,1.0003
16.9434,1.0003
16.9824,1.0003
17.0216,1.0003
17.0608,1.0003
17.1002,1.0003
17.1396,1.0003
17.1791,1.0003
17.2187,1.0003
17.2584,1.0003
17.2982,1.0003
17.338,1.0003
17.378,1.0003
17.4181,1.0003
17.4582,1.0003
17.4985,1.0003
17.5388,1.0003
17.5792,1.0003
17.6198,1.0003
17.6604,1.0003
17.7011,1.0003
17.7419,1.0003
17.7828,1.0003
17.8238,1.0003
17.8649,1.0003
17.9061,1.0003
17.9473,1.0003
17.9887,1.0003
18.0302,1.0003
18.0717,1.0003
18.1134,1.0003
18.1552,1.0003
18.197,1.0003
18.239,1.0003
18.281,1.0003
18.3231,1.0003
18.3654,1.0003
18.4077,1.0003
18.4502,1.0003
18.4927,1.0003
18.5353,1.0003
18.578,1.0003
18.6209,1.0003
18.6638,1.0003
18.7068,1.0003
18.7499,1.0003
18.7932,1.0003
18.8365,1.0003
18.8799,1.0003
18.9234,1.0003
18.9671,1.0003
19.0108,1.0003
19.0546,1.0003
19.0985,1.0003
19.1426,1.0003
19.1867,1.0003
19.2309,1.0003
19.2752,1.0003
19.3197,1.0003
19.3642,1.0003
19.4089,1.0003
19.4536,1.0003
19.4984,1.0003
19.5434,1.0003
19.5884,1.0003
19.6336,1.0003
19.6789,1.0003
19.7242,1.0003
19.7697,1.0003
19.8153,1.0003
19.8609,1.0003
19.9067,1.0003
19.9526,1.0003
19.9986,1.0003
20.0447,1.0003
20.0909,1.0003
20.1372,1.0003
20.1837,1.0003
20.2302,1.0003
20.2768,1.0003
20.3236,1.0003
20.3704,1.0003
20.4174,1.0003
20.4644,1.0003
20.5116,1.0003
20.5589,1.0003
20.6063,1.0003
20.6538,1.0003
20.7014,1.0003
20.7491,1.0003
20.797,1.0003
20.8449,1.0003
20.893,1.0003
20.9411,1.0003
20.9894,1.0003
21.0378,1.0003
21.0863,1.0003
21.1349,1.0003
21.1836,1.0003
21.2324,1.0003
21.2814,1.0003
21.3304,1.0003
21.3796,1.0003
21.4289,1.0003
21.4783,1.0003
21.5278,1.0003
21.5774,1.0003
21.6272,1.0003
21.677,1.0003
21.727,1.0003
21.7771,1.0003
21.8273,1.0003
21.8776,1.0003
21.928,1.0003
21.9786,1.0003
22.0293,1.00031
22.08,1.00031
22.1309,1.00031
22.182,1.00031
22.2331,1.00031
22.2844,1.00031
22.3357,1.00031
22.3872,1.00031
22.4388,1.00031
22.4905,1.00031
22.5424,1.00031
22.5944,1.00031
22.6464,1.00031
22.6986,1.00031
22.751,1.00031
22.8034,1.00031
22.856,1.00031
22.9087,1.00031
22.9615,1.00031
23.0144,1.00031
23.0675,1.00031
23.1206,1.00031
23.1739,1.00031
23.2274,1.00031
23.2809,1.00031
23.3346,1.00031
23.3884,1.00031
23.4423,1.00031
23.4963,1.00031
23.5505,1.00031
23.6048,1.00031
23.6592,1.00031
23.7137,1.00031
23.7684,1.00031
23.8232,1.00031
23.8781,1.00031
23.9332,1.00031
23.9883,1.00031
24.0436,1.00031
24.0991,1.00031
24.1546,1.00031
24.2103,1.00031
24.2661,1.00031
24.322,1.00031
24.3781,1.00031
24.4343,1.00031
24.4906,1.00031
24.5471,1.00031
24.6037,1.00031
24.6604,1.00031
24.7172,1.00031
24.7742,1.00031
24.8313,1.00031
24.8886,1.00031
24.9459,1.00031
25.0035,1.00031
25.0611,1.00031
25.1189,1.00031
25.1768,1.00031
25.2348,1.00031
25.293,1.00031
25.3513,1.00031
25.4097,1.00031
25.4683,1.00031
25.527,1.00031
25.5859,1.00031
25.6448,1.00031
25.704,1.00031
25.7632,1.00031
25.8226,1.00031
25.8821,1.00031
25.9418,1.00031
26.0016,1.00031
26.0615,1.00031
26.1216,1.00031
26.1818,1.00031
26.2422,1.00031
26.3027,1.00031
26.3633,1.00031
26.4241,1.00031
26.485,1.00031
26.5461,1.00031
26.6073,1.00031
26.6686,1.00031
26.7301,1.00031
26.7917,1.00031
26.8534,1.00031
26.9153,1.00031
26.9774,1.00031
27.0396,1.00031
27.1019,1.00031
27.1644,1.00032
27.227,1.00032
27.2898,1.00032
27.3527,1.00032
27.4157,1.00032
27.4789,1.00032
27.5423,1.00032
27.6058,1.00032
27.6694,1.00032
27.7332,1.00032
27.7971,1.00032
27.8612,1.00032
27.9254,1.00032
27.9898,1.00032
28.0543,1.00032
28.119,1.00032
28.1838,1.00032
28.2488,1.00032
28.3139,1.00032
28.3792,1.00032
28.4446,1.00032
28.5102,1.00032
28.5759,1.00032
28.6418,1.00032
28.7078,1.00032
28.774,1.00032
28.8403,1.00032
28.9068,1.00032
28.9734,1.00032
29.0402,1.00032
29.1072,1.00032
29.1743,1.00032
29.2415,1.00032
29.3089,1.00032
29.3765,1.00032
29.4442,1.00032
29.5121,1.00032
29.5801,1.00032
29.6483,1.00032
29.7167,1.00032
29.7852,1.00032
29.8538,1.00032
29.9226,1.00032
29.9916,1.00032
30.0608,1.00032
30.1301,1.00032
30.1995,1.00032
30.2691,1.00032
30.3389,1.00032
30.4089,1.00032
30.4789,1.00032
30.5492,1.00032
30.6196,1.00032
30.6902,1.00032
30.761,1.00032
30.8319,1.00032
30.903,1.00032
30.9742,1.00032
31.0456,1.00032
31.1172,1.00032
31.1889,1.00032
31.2608,1.00032
31.3329,1.00032
31.4051,1.00032
31.4775,1.00033
31.55,1.00033
31.6228,1.00033
31.6957,1.00033
31.7687,1.00033
31.842,1.00033
31.9154,1.00033
31.989,1.00033
32.0627,1.00033
32.1366,1.00033
32.2107,1.00033
32.2849,1.00033
32.3594,1.00033
32.434,1.00033
32.5087,1.00033
32.5837,1.00033
32.6588,1.00033
32.7341,1.00033
32.8095,1.00033
32.8852,1.00033
32.961,1.00033
33.037,1.00033
33.1131,1.00033
33.1894,1.00033
33.266,1.00033
33.3426,1.00033
33.4195,1.00033
33.4965,1.00033
33.5738,1.00033
33.6512,1.00033
33.7287,1.00033
33.8065,1.00033
33.8844,1.00033
33.9625,1.00033
34.0408,1.00033
34.1193,1.00033
34.1979,1.00033
34.2768,1.00033
34.3558,1.00033
34.435,1.00033
34.5144,1.00033
34.5939,1.00033
34.6737,1.00033
34.7536,1.00033
34.8337,1.00033
34.914,1.00033
34.9945,1.00033
35.0752,1.00033
35.156,1.00033
35.2371,1.00034
35.3183,1.00034
35.3997,1.00034
35.4813,1.00034
35.5631,1.00034
35.6451,1.00034
35.7273,1.00034
35.8096,1.00034
35.8922,1.00034
35.9749,1.00034
36.0579,1.00034
36.141,1.00034
36.2243,1.00034
36.3078,1.00034
36.3915,1.00034
36.4754,1.00034
36.5595,1.00034
36.6438,1.00034
36.7282,1.00034
36.8129,1.00034
36.8978,1.00034
36.9828,1.00034
37.0681,1.00034
37.1535,1.00034
37.2392,1.00034
37.325,1.00034
37.4111,1.00034
37.4973,1.00034
37.5837,1.00034
37.6704,1.00034
37.7572,1.00034
37.8443,1.00034
37.9315,1.00034
38.0189,1.00034
38.1066,1.00034
38.1944,1.00034
38.2825,1.00034
38.3707,1.00034
38.4592,1.00034
38.5478,1.00034
38.6367,1.00035
38.7258,1.00035
38.815,1.00035
38.9045,1.00035
38.9942,1.00035
39.0841,1.00035
39.1742,1.00035
39.2645,1.00035
39.355,1.00035
39.4457,1.00035
39.5367,1.00035
39.6278,1.00035
39.7192,1.00035
39.8107,1.00035
39.9025,1.00035
39.9945,1.00035
40.0867,1.00035
40.1791,1.00035
40.2717,1.00035
40.3645,1.00035
40.4576,1.00035
40.5509,1.00035
40.6443,1.00035
40.738,1.00035
40.8319,1.00035
40.9261,1.00035
41.0204,1.00035
41.115,1.00035
41.2098,1.00035
41.3048,1.00035
41.4,1.00035
41.4954,1.00035
41.5911,1.00035
41.6869,1.00035
41.783,1.00036
41.8794,1.00036
41.9759,1.00036
42.0727,1.00036
42.1697,1.00036
42.2669,1.00036
42.3643,1.00036
42.462,1.00036
42.5598,1.00036
42.658,1.00036
42.7563,1.00036
42.8549,1.00036
42.9536,1.00036
43.0527,1.00036
43.1519,1.00036
43.2514,1.00036
43.3511,1.00036
43.451,1.00036
43.5512,1.00036
43.6516,1.00036
43.7522,1.00036
43.8531,1.00036
43.9542,1.00036
44.0555,1.00036
44.157,1.00036
44.2588,1.00036
44.3609,1.00036
44.4631,1.00036
44.5656,1.00036
44.6684,1.00037
44.7713,1.00037
44.8745,1.00037
44.978,1.00037
45.0817,1.00037
45.1856,1.00037
45.2898,1.00037
45.3942,1.00037
45.4988,1.00037
45.6037,1.00037
45.7088,1.00037
45.8142,1.00037
45.9198,1.00037
46.0257,1.00037
46.1318,1.00037
46.2381,1.00037
46.3447,1.00037
46.4515,1.00037
46.5586,1.00037
46.6659,1.00037
46.7735,1.00037
46.8813,1.00037
46.9894,1.00037
47.0977,1.00037
47.2063,1.00037
47.3151,1.00037
47.4242,1.00038
47.5335,1.00038
47.6431,1.00038
47.7529,1.00038
47.863,1.00038
47.9733,1.00038
48.0839,1.00038
48.1948,1.00038
48.3059,1.00038
48.4172,1.00038
48.5289,1.00038
48.6407,1.00038
48.7528,1.00038
48.8652,1.00038
48.9779,1.00038
49.0908,1.00038
49.204,1.00038
49.3174,1.00038
49.4311,1.00038
49.545,1.00038
49.6592,1.00038
49.7737,1.00038
49.8884,1.00038
50.0035,1.00039
50.1187,1.00039
50.2343,1.00039
50.3501,1.00039
50.4661,1.00039
50.5825,1.00039
50.6991,1.00039
50.8159,1.00039
50.9331,1.00039
51.0505,1.00039
51.1682,1.00039
51.2861,1.00039
51.4044,1.00039
51.5229,1.00039
51.6416,1.00039
51.7607,1.00039
51.88,1.00039
51.9996,1.00039
52.1195,1.00039
52.2396,1.00039
52.36,1.00039
52.4807,1.0004
52.6017,1.0004
52.723,1.0004
52.8445,1.0004
52.9663,1.0004
53.0884,1.0004
53.2108,1.0004
53.3335,1.0004
53.4564,1.0004
53.5797,1.0004
53.7032,1.0004
53.827,1.0004
53.9511,1.0004
54.0754,1.0004
54.2001,1.0004
54.325,1.0004
54.4503,1.0004
54.5758,1.0004
54.7016,1.0004
54.8277,1.00041
54.9541,1.00041
55.0808,1.00041
55.2077,1.00041
55.335,1.00041
55.4626,1.00041
55.5904,1.00041
55.7186,1.00041
55.847,1.00041
55.9758,1.00041
56.1048,1.00041
56.2341,1.00041
56.3638,1.00041
56.4937,1.00041
56.6239,1.00041
56.7545,1.00041
56.8853,1.00041
57.0164,1.00042
57.1479,1.00042
57.2796,1.00042
57.4116,1.00042
57.544,1.00042
57.6766,1.00042
57.8096,1.00042
57.9429,1.00042
58.0764,1.00042
58.2103,1.00042
58.3445,1.00042
58.479,1.00042
58.6138,1.00042
58.7489,1.00042
58.8844,1.00042
59.0201,1.00042
59.1562,1.00043
59.2925,1.00043
59.4292,1.00043
59.5662,1.00043
59.7035,1.00043
59.8412,1.00043
59.9791,1.00043
60.1174,1.00043
60.256,1.00043
60.3949,1.00043
60.5341,1.00043
60.6736,1.00043
60.8135,1.00043
60.9537,1.00043
61.0942,1.00043
61.235,1.00044
61.3762,1.00044
61.5177,1.00044
61.6595,1.00044
61.8016,1.00044
61.9441,1.00044
62.0869,1.00044
62.23,1.00044
62.3735,1.00044
62.5173,1.00044
62.6614,1.00044
62.8058,1.00044
62.9506,1.00044
63.0957,1.00044
63.2412,1.00045
63.387,1.00045
63.5331,1.00045
63.6796,1.00045
63.8263,1.00045
63.9735,1.00045
64.121,1.00045
64.2688,1.00045
64.4169,1.00045
64.5654,1.00045
64.7143,1.00045
64.8634,1.00045
65.013,1.00045
65.1628,1.00045
65.3131,1.00046
65.4636,1.00046
65.6145,1.00046
65.7658,1.00046
65.9174,1.00046
66.0693,1.00046
66.2217,1.00046
66.3743,1.00046
66.5273,1.00046
66.6807,1.00046
66.8344,1.00046
66.9885,1.00046
67.1429,1.00047
67.2977,1.00047
67.4528,1.00047
67.6083,1.00047
67.7642,1.00047
67.9204,1.00047
68.0769,1.00047
68.2339,1.00047
68.3912,1.00047
68.5488,1.00047
68.7068,1.00047
68.8652,1.00047
69.024,1.00048
69.1831,1.00048
69.3426,1.00048
69.5024,1.00048
69.6627,1.00048
69.8232,1.00048
69.9842,1.00048
70.1455,1.00048
70.3072,1.00048
70.4693,1.00048
70.6318,1.00048
70.7946,1.00049
70.9578,1.00049
71.1214,1.00049
71.2853,1.00049
71.4496,1.00049
71.6143,1.00049
71.7794,1.00049
71.9449,1.00049
72.1107,1.00049
72.277,1.00049
72.4436,1.00049
72.6106,1.0005
72.778,1.0005
72.9458,1.0005
73.1139,1.0005
73.2825,1.0005
73.4514,1.0005
73.6207,1.0005
73.7904,1.0005
73.9605,1.0005
74.131,1.0005
74.3019,1.00051
74.4732,1.00051
74.6449,1.00051
74.817,1.00051
74.9894,1.00051
75.1623,1.00051
75.3356,1.00051
75.5092,1.00051
75.6833,1.00051
75.8578,1.00052
76.0326,1.00052
76.2079,1.00052
76.3836,1.00052
76.5597,1.00052
76.7361,1.00052
76.913,1.00052
77.0903,1.00052
77.2681,1.00052
77.4462,1.00052
77.6247,1.00053
77.8037,1.00053
77.983,1.00053
78.1628,1.00053
78.343,1.00053
78.5236,1.00053
78.7046,1.00053
78.886,1.00053
79.0679,1.00053
79.2501,1.00054
79.4328,1.00054
79.6159,1.00054
79.7995,1.00054
79.9834,1.00054
80.1678,1.00054
80.3526,1.00054
80.5378,1.00054
80.7235,1.00055
80.9096,1.00055
81.0961,1.00055
81.2831,1.00055
81.4704,1.00055
81.6582,1.00055
81.8465,1.00055
82.0352,1.00055
82.2243,1.00056
82.4138,1.00056
82.6038,1.00056
82.7942,1.00056
82.9851,1.00056
83.1764,1.00056
83.3681,1.00056
83.5603,1.00056
83.7529,1.00057
83.946,1.00057
84.1395,1.00057
84.3335,1.00057
84.5279,1.00057
84.7227,1.00057
84.918,1.00057
85.1138,1.00057
85.31,1.00058
85.5067,1.00058
85.7038,1.00058
85.9014,1.00058
86.0994,1.00058
86.2979,1.00058
86.4968,1.00058
86.6962,1.00059
86.896,1.00059
87.0964,1.00059
87.2971,1.00059
87.4984,1.00059
87.7001,1.00059
87.9023,1.00059
88.1049,1.0006
88.308,1.0006
88.5116,1.0006
88.7156,1.0006
88.9201,1.0006
89.1251,1.0006
89.3305,1.0006
89.5365,1.00061
89.7429,1.00061
89.9498,1.00061
90.1571,1.00061
90.3649,1.00061
90.5733,1.00061
90.7821,1.00061
90.9913,1.00062
91.2011,1.00062
91.4113,1.00062
91.622,1.00062
91.8333,1.00062
92.045,1.00062
92.2571,1.00063
92.4698,1.00063
92.683,1.00063
92.8966,1.00063
93.1108,1.00063
93.3254,1.00063
93.5406,1.00063
93.7562,1.00064
93.9723,1.00064
94.189,1.00064
94.4061,1.00064
94.6237,1.00064
94.8418,1.00064
95.0605,1.00065
95.2796,1.00065
95.4993,1.00065
95.7194,1.00065
95.9401,1.00065
96.1612,1.00065
96.3829,1.00066
96.6051,1.00066
96.8278,1.00066
97.051,1.00066
97.2747,1.00066
97.499,1.00066
97.7237,1.00067
97.949,1.00067
98.1748,1.00067
98.4011,1.00067
98.6279,1.00067
98.8553,1.00068
99.0832,1.00068
99.3116,1.00068
99.5405,1.00068
99.77,1.00068
100,1.00068
100.231,1.00069
100.462,1.00069
100.693,1.00069
100.925,1.00069
101.158,1.00069
101.391,1.0007
101.625,1.0007
101.859,1.0007
102.094,1.0007
102.329,1.0007
102.565,1.00071
102.802,1.00071
103.039,1.00071
103.276,1.00071
103.514,1.00071
103.753,1.00072
103.992,1.00072
104.232,1.00072
104.472,1.00072
104.713,1.00072
104.954,1.00073
105.196,1.00073
105.439,1.00073
105.682,1.00073
105.925,1.00073
106.17,1.00074
106.414,1.00074
106.66,1.00074
106.905,1.00074
107.152,1.00074
107.399,1.00075
107.647,1.00075
107.895,1.00075
108.143,1.00075
108.393,1.00075
108.643,1.00076
108.893,1.00076
109.144,1.00076
109.396,1.00076
109.648,1.00077
109.901,1.00077
110.154,1.00077
110.408,1.00077
110.662,1.00077
110.917,1.00078
111.173,1.00078
111.429,1.00078
111.686,1.00078
111.944,1.00079
112.202,1.00079
112.46,1.00079
112.72,1.00079
112.98,1.0008
113.24,1.0008
113.501,1.0008
113.763,1.0008
114.025,1.0008
114.288,1.00081
114.551,1.00081
114.815,1.00081
115.08,1.00081
115.345,1.00082
115.611,1.00082
115.878,1.00082
116.145,1.00082
116.413,1.00083
116.681,1.00083
116.95,1.00083
117.22,1.00083
117.49,1.00084
117.761,1.00084
118.032,1.00084
118.304,1.00084
118.577,1.00085
118.85,1.00085
119.124,1.00085
119.399,1.00085
119.674,1.00086
119.95,1.00086
120.226,1.00086
120.504,1.00087
120.781,1.00087
121.06,1.00087
121.339,1.00087
121.619,1.00088
121.899,1.00088
122.18,1.00088
122.462,1.00088
122.744,1.00089
123.027,1.00089
123.31,1.00089
123.595,1.0009
123.88,1.0009
124.165,1.0009
124.451,1.0009
124.738,1.00091
125.026,1.00091
125.314,1.00091
125.603,1.00092
125.893,1.00092
126.183,1.00092
126.474,1.00092
126.765,1.00093
127.057,1.00093
127.35,1.00093
127.644,1.00094
127.938,1.00094
128.233,1.00094
128.529,1.00095
128.825,1.00095
129.122,1.00095
129.42,1.00095
129.718,1.00096
130.017,1.00096
130.317,1.00096
130.617,1.00097
130.918,1.00097
131.22,1.00097
131.522,1.00098
131.826,1.00098
132.13,1.00098
132.434,1.00099
132.739,1.00099
133.045,1.00099
133.352,1.001
133.66,1.001
133.968,1.001
134.276,1.00101
134.586,1.00101
134.896,1.00101
135.207,1.00102
135.519,1.00102
135.831,1.00102
136.144,1.00103
136.458,1.00103
136.773,1.00103
137.088,1.00104
137.404,1.00104
137.721,1.00104
138.038,1.00105
138.357,1.00105
138.676,1.00105
138.995,1.00106
139.316,1.00106
139.637,1.00106
139.959,1.00107
140.281,1.00107
140.605,1.00108
140.929,1.00108
141.254,1.00108
141.579,1.00109
141.906,1.00109
142.233,1.00109
142.561,1.0011
142.889,1.0011
143.219,1.00111
143.549,1.00111
143.88,1.00111
144.212,1.00112
144.544,1.00112
144.877,1.00112
145.211,1.00113
145.546,1.00113
145.881,1.00114
146.218,1.00114
146.555,1.00114
146.893,1.00115
147.231,1.00115
147.571,1.00116
147.911,1.00116
148.252,1.00116
148.594,1.00117
148.936,1.00117
149.279,1.00118
149.624,1.00118
149.968,1.00118
150.314,1.00119
150.661,1.00119
151.008,1.0012
151.356,1.0012
151.705,1.00121
152.055,1.00121
152.405,1.00121
152.757,1.00122
153.109,1.00122
153.462,1.00123
153.815,1.00123
154.17,1.00124
154.525,1.00124
154.882,1.00124
155.239,1.00125
155.597,1.00125
155.955,1.00126
156.315,1.00126
156.675,1.00127
157.036,1.00127
157.398,1.00128
157.761,1.00128
158.125,1.00129
158.489,1.00129
158.855,1.00129
159.221,1.0013
159.588,1.0013
159.956,1.00131
160.325,1.00131
160.694,1.00132
161.065,1.00132
161.436,1.00133
161.808,1.00133
162.181,1.00134
162.555,1.00134
162.93,1.00135
163.305,1.00135
163.682,1.00136
164.059,1.00136
164.437,1.00137
164.816,1.00137
165.196,1.00138
165.577,1.00138
165.959,1.00139
166.341,1.00139
166.725,1.0014
167.109,1.0014
167.494,1.00141
167.88,1.00141
168.267,1.00142
168.655,1.00142
169.044,1.00143
169.434,1.00143
169.824,1.00144
170.216,1.00145
170.608,1.00145
171.002,1.00146
171.396,1.00146
171.791,1.00147
172.187,1.00147
172.584,1.00148
172.982,1.00148
173.38,1.00149
173.78,1.00149
174.181,1.0015
174.582,1.00151
174.985,1.00151
175.388,1.00152
175.792,1.00152
176.198,1.00153
176.604,1.00153
177.011,1.00154
177.419,1.00155
177.828,1.00155
178.238,1.00156
178.649,1.00156
179.061,1.00157
179.473,1.00158
179.887,1.00158
180.302,1.00159
180.717,1.00159
181.134,1.0016
181.552,1.00161
181.97,1.00161
182.39,1.00162
182.81,1.00162
183.231,1.00163
183.654,1.00164
184.077,1.00164
184.502,1.00165
184.927,1.00166
185.353,1.00166
185.78,1.00167
186.209,1.00167
186.638,1.00168
187.068,1.00169
187.499,1.00169
187.932,1.0017
188.365,1.00171
188.799,1.00171
189.234,1.00172
189.671,1.00173
190.108,1.00173
190.546,1.00174
190.985,1.00175
191.426,1.00175
191.867,1.00176
192.309,1.00177
192.752,1.00177
193.197,1.00178
193.642,1.00179
194.089,1.0018
194.536,1.0018
194.984,1.00181
195.434,1.00182
195.884,1.00182
196.336,1.00183
196.789,1.00184
197.242,1.00185
197.697,1.00185
198.153,1.00186
198.609,1.00187
199.067,1.00187
199.526,1.00188
199.986,1.00189
200.447,1.0019
200.909,1.0019
201.372,1.00191
201.837,1.00192
202.302,1.00193
202.768,1.00193
203.236,1.00194
203.704,1.00195
204.174,1.00196
204.644,1.00197
205.116,1.00197
205.589,1.00198
206.063,1.00199
206.538,1.002
207.014,1.00201
207.491,1.00201
207.97,1.00202
208.449,1.00203
208.93,1.00204
209.411,1.00205
209.894,1.00205
210.378,1.00206
210.863,1.00207
211.349,1.00208
211.836,1.00209
212.324,1.0021
212.814,1.0021
213.304,1.00211
213.796,1.00212
214.289,1.00213
214.783,1.00214
215.278,1.00215
215.774,1.00215
216.272,1.00216
216.77,1.00217
217.27,1.00218
217.771,1.00219
218.273,1.0022
218.776,1.00221
219.28,1.00222
219.786,1.00223
220.293,1.00223
220.8,1.00224
221.309,1.00225
221.82,1.00226
222.331,1.00227
222.844,1.00228
223.357,1.00229
223.872,1.0023
224.388,1.00231
224.905,1.00232
225.424,1.00233
225.944,1.00234
226.464,1.00235
226.986,1.00236
227.51,1.00237
228.034,1.00238
228.56,1.00238
229.087,1.00239
229.615,1.0024
230.144,1.00241
230.675,1.00242
231.206,1.00243
231.739,1.00244
232.274,1.00245
232.809,1.00246
233.346,1.00247
233.884,1.00248
234.423,1.0025
234.963,1.00251
235.505,1.00252
236.048,1.00253
236.592,1.00254
237.137,1.00255
237.684,1.00256
238.232,1.00257
238.781,1.00258
239.332,1.00259
239.883,1.0026
240.436,1.00261
240.991,1.00262
241.546,1.00263
242.103,1.00264
242.661,1.00265
243.22,1.00267
243.781,1.00268
244.343,1.00269
244.906,1.0027
245.471,1.00271
246.037,1.00272
246.604,1.00273
247.172,1.00274
247.742,1.00276
248.313,1.00277
248.886,1.00278
249.459,1.00279
250.035,1.0028
250.611,1.00281
251.189,1.00283
251.768,1.00284
252.348,1.00285
252.93,1.00286
253.513,1.00287
254.097,1.00289
254.683,1.0029
255.27,1.00291
255.859,1.00292
256.448,1.00293
257.04,1.00295
257.632,1.00296
258.226,1.00297
258.821,1.00298
259.418,1.003
260.016,1.00301
260.615,1.00302
261.216,1.00304
261.818,1.00305
262.422,1.00306
263.027,1.00307
263.633,1.00309
264.241,1.0031
264.85,1.00311
265.461,1.00313
266.073,1.00314
266.686,1.00315
267.301,1.00317
267.917,1.00318
268.534,1.00319
269.153,1.00321
269.774,1.00322
270.396,1.00323
271.019,1.00325
271.644,1.00326
272.27,1.00328
272.898,1.00329
273.527,1.0033
274.157,1.00332
274.789,1.00333
275.423,1.00335
276.058,1.00336
276.694,1.00338
277.332,1.00339
277.971,1.0034
278.612,1.00342
279.254,1.00343
279.898,1.00345
280.543,1.00346
281.19,1.00348
281.838,1.00349
282.488,1.00351
283.139,1.00352
283.792,1.00354
284.446,1.00355
285.102,1.00357
285.759,1.00358
286.418,1.0036
287.078,1.00361
287.74,1.00363
288.403,1.00365
289.068,1.00366
289.734,1.00368
290.402,1.00369
291.072,1.00371
291.743,1.00373
292.415,1.00374
293.089,1.00376
293.765,1.00377
294.442,1.00379
295.121,1.00381
295.801,1.00382
296.483,1.00384
297.167,1.00386
297.852,1.00387
298.538,1.00389
299.226,1.00391
299.916,1.00392
300.608,1.00394
301.301,1.00396
301.995,1.00398
302.691,1.00399
303.389,1.00401
304.089,1.00403
304.789,1.00405
305.492,1.00406
306.196,1.00408
306.902,1.0041
307.61,1.00412
308.319,1.00413
309.03,1.00415
309.742,1.00417
310.456,1.00419
311.172,1.00421
311.889,1.00423
312.608,1.00424
313.329,1.00426
314.051,1.00428
314.775,1.0043
315.5,1.00432
316.228,1.00434
316.957,1.00436
317.687,1.00438
318.42,1.00439
319.154,1.00441
319.89,1.00443
320.627,1.00445
321.366,1.00447
322.107,1.00449
322.849,1.00451
323.594,1.00453
324.34,1.00455
325.087,1.00457
325.837,1.00459
326.588,1.00461
327.341,1.00463
328.095,1.00465
328.852,1.00467
329.61,1.00469
330.37,1.00472
331.131,1.00474
331.894,1.00476
332.66,1.00478
333.426,1.0048
334.195,1.00482
334.965,1.00484
335.738,1.00486
336.512,1.00488
337.287,1.00491
338.065,1.00493
338.844,1.00495
339.625,1.00497
340.408,1.00499
341.193,1.00502
341.979,1.00504
342.768,1.00506
343.558,1.00508
344.35,1.00511
345.144,1.00513
345.939,1.00515
346.737,1.00517
347.536,1.0052
348.337,1.00522
349.14,1.00524
349.945,1.00527
350.752,1.00529
351.56,1.00531
352.371,1.00534
353.183,1.00536
353.997,1.00539
354.813,1.00541
355.631,1.00543
356.451,1.00546
357.273,1.00548
358.096,1.00551
358.922,1.00553
359.749,1.00556
360.579,1.00558
361.41,1.00561
362.243,1.00563
363.078,1.00566
363.915,1.00568
364.754,1.00571
365.595,1.00573
366.438,1.00576
367.282,1.00578
368.129,1.00581
368.978,1.00584
369.828,1.00586
370.681,1.00589
371.535,1.00592
372.392,1.00594
373.25,1.00597
374.111,1.006
374.973,1.00602
375.837,1.00605
376.704,1.00608
377.572,1.0061
378.443,1.00613
379.315,1.00616
380.189,1.00619
381.066,1.00621
381.944,1.00624
382.825,1.00627
383.707,1.0063
384.592,1.00633
385.478,1.00636
386.367,1.00638
387.258,1.00641
388.15,1.00644
389.045,1.00647
389.942,1.0065
390.841,1.00653
391.742,1.00656
392.645,1.00659
393.55,1.00662
394.457,1.00665
395.367,1.00668
396.278,1.00671
397.192,1.00674
398.107,1.00677
399.025,1.0068
399.945,1.00683
400.867,1.00686
401.791,1.0069
402.717,1.00693
403.645,1.00696
404.576,1.00699
405.509,1.00702
406.443,1.00705
407.38,1.00709
408.319,1.00712
409.261,1.00715
410.204,1.00718
411.15,1.00722
412.098,1.00725
413.048,1.00728
414,1.00731
414.954,1.00735
415.911,1.00738
416.869,1.00741
417.83,1.00745
418.794,1.00748
419.759,1.00752
420.727,1.00755
421.697,1.00759
422.669,1.00762
423.643,1.00766
424.62,1.00769
425.598,1.00773
426.58,1.00776
427.563,1.0078
428.549,1.00783
429.536,1.00787
430.527,1.0079
431.519,1.00794
432.514,1.00798
433.511,1.00801
434.51,1.00805
435.512,1.00809
436.516,1.00812
437.522,1.00816
438.531,1.0082
439.542,1.00824
440.555,1.00827
441.57,1.00831
442.588,1.00835
443.609,1.00839
444.631,1.00843
445.656,1.00847
446.684,1.00851
447.713,1.00854
448.745,1.00858
449.78,1.00862
450.817,1.00866
451.856,1.0087
452.898,1.00874
453.942,1.00878
454.988,1.00882
456.037,1.00887
457.088,1.00891
458.142,1.00895
459.198,1.00899
460.257,1.00903
461.318,1.00907
462.381,1.00911
463.447,1.00916
464.515,1.0092
465.586,1.00924
466.659,1.00928
467.735,1.00933
468.813,1.00937
469.894,1.00941
470.977,1.00946
472.063,1.0095
473.151,1.00954
474.242,1.00959
475.335,1.00963
476.431,1.00968
477.529,1.00972
478.63,1.00977
479.733,1.00981
480.839,1.00986
481.948,1.00991
483.059,1.00995
484.172,1.01
485.289,1.01004
486.407,1.01009
487.528,1.01014
488.652,1.01018
489.779,1.01023
490.908,1.01028
492.04,1.01033
493.174,1.01038
494.311,1.01042
495.45,1.01047
496.592,1.01052
497.737,1.01057
498.884,1.01062
500.035,1.01067
501.187,1.01072
502.343,1.01077
503.501,1.01082
504.661,1.01087
505.825,1.01092
506.991,1.01097
508.159,1.01102
509.331,1.01108
510.505,1.01113
511.682,1.01118
512.861,1.01123
514.044,1.01128
515.229,1.01134
516.416,1.01139
517.607,1.01144
518.8,1.0115
519.996,1.01155
521.195,1.01161
522.396,1.01166
523.6,1.01171
524.807,1.01177
526.017,1.01182
527.23,1.01188
528.445,1.01194
529.663,1.01199
530.884,1.01205
532.108,1.01211
533.335,1.01216
534.564,1.01222
535.797,1.01228
537.032,1.01233
538.27,1.01239
539.511,1.01245
540.754,1.01251
542.001,1.01257
543.25,1.01263
544.503,1.01269
545.758,1.01275
547.016,1.01281
548.277,1.01287
549.541,1.01293
550.808,1.01299
552.077,1.01305
553.35,1.01311
554.626,1.01317
555.904,1.01324
557.186,1.0133
558.47,1.01336
559.758,1.01343
561.048,1.01349
562.341,1.01355
563.638,1.01362
564.937,1.01368
566.239,1.01375
567.545,1.01381
568.853,1.01388
570.164,1.01394
571.479,1.01401
572.796,1.01408
574.116,1.01414
575.44,1.01421
576.766,1.01428
578.096,1.01434
579.429,1.01441
580.764,1.01448
582.103,1.01455
583.445,1.01462
584.79,1.01469
586.138,1.01476
587.489,1.01483
588.844,1.0149
590.201,1.01497
591.562,1.01504
592.925,1.01511
594.292,1.01518
595.662,1.01526
597.035,1.01533
598.412,1.0154
599.791,1.01548
601.174,1.01555
602.56,1.01562
603.949,1.0157
605.341,1.01577
606.736,1.01585
608.135,1.01592
609.537,1.016
610.942,1.01608
612.35,1.01615
613.762,1.01623
615.177,1.01631
616.595,1.01639
618.016,1.01646
619.441,1.01654
620.869,1.01662
622.3,1.0167
623.735,1.01678
625.173,1.01686
626.614,1.01694
628.058,1.01702
629.506,1.01711
630.957,1.01719
632.412,1.01727
633.87,1.01735
635.331,1.01744
636.796,1.01752
638.263,1.0176
639.735,1.01769
641.21,1.01777
642.688,1.01786
644.169,1.01794
645.654,1.01803
647.143,1.01812
648.634,1.0182
650.13,1.01829
651.628,1.01838
653.131,1.01847
654.636,1.01856
656.145,1.01865
657.658,1.01874
659.174,1.01883
660.693,1.01892
662.217,1.01901
663.743,1.0191
665.273,1.01919
666.807,1.01928
668.344,1.01938
669.885,1.01947
671.429,1.01956
672.977,1.01966
674.528,1.01975
676.083,1.01985
677.642,1.01994
679.204,1.02004
680.769,1.02014
682.339,1.02023
683.912,1.02033
685.488,1.02043
687.068,1.02053
688.652,1.02063
690.24,1.02073
691.831,1.02083
693.426,1.02093
695.024,1.02103
696.627,1.02113
698.232,1.02123
699.842,1.02134
701.455,1.02144
703.072,1.02154
704.693,1.02165
706.318,1.02175
707.946,1.02186
709.578,1.02196
711.214,1.02207
712.853,1.02218
714.496,1.02228
716.143,1.02239
717.794,1.0225
719.449,1.02261
721.107,1.02272
722.77,1.02283
724.436,1.02294
726.106,1.02305
727.78,1.02316
729.458,1.02328
731.139,1.02339
732.825,1.0235
734.514,1.02362
736.207,1.02373
737.904,1.02385
739.605,1.02396
741.31,1.02408
743.019,1.02419
744.732,1.02431
746.449,1.02443
748.17,1.02455
749.894,1.02467
751.623,1.02479
753.356,1.02491
755.092,1.02503
756.833,1.02515
758.578,1.02527
760.326,1.0254
762.079,1.02552
763.836,1.02564
765.597,1.02577
767.361,1.02589
769.13,1.02602
770.903,1.02615
772.681,1.02627
774.462,1.0264
776.247,1.02653
778.037,1.02666
779.83,1.02679
781.628,1.02692
783.43,1.02705
785.236,1.02718
787.046,1.02731
788.86,1.02745
790.679,1.02758
792.501,1.02771
794.328,1.02785
796.159,1.02799
797.995,1.02812
799.834,1.02826
801.678,1.0284
803.526,1.02853
805.378,1.02867
807.235,1.02881
809.096,1.02895
810.961,1.02909
812.831,1.02924
814.704,1.02938
816.582,1.02952
818.465,1.02966
820.352,1.02981
822.243,1.02995
824.138,1.0301
826.038,1.03025
827.942,1.03039
829.851,1.03054
831.764,1.03069
833.681,1.03084
835.603,1.03099
837.529,1.03114
839.46,1.03129
841.395,1.03144
843.335,1.0316
845.279,1.03175
847.227,1.0319
849.18,1.03206
851.138,1.03221
853.1,1.03237
855.067,1.03253
857.038,1.03269
859.014,1.03284
860.994,1.033
862.979,1.03316
864.968,1.03332
866.962,1.03349
868.96,1.03365
870.964,1.03381
872.971,1.03398
874.984,1.03414
877.001,1.03431
879.023,1.03447
881.049,1.03464
883.08,1.03481
885.116,1.03497
887.156,1.03514
889.201,1.03531
891.251,1.03548
893.305,1.03566
895.365,1.03583
897.429,1.036
899.498,1.03617
901.571,1.03635
903.649,1.03652
905.733,1.0367
907.821,1.03688
909.913,1.03705
912.011,1.03723
914.113,1.03741
916.22,1.03759
918.333,1.03777
920.45,1.03795
922.571,1.03814
924.698,1.03832
926.83,1.0385
928.966,1.03869
931.108,1.03887
933.254,1.03906
935.406,1.03924
937.562,1.03943
939.723,1.03962
941.89,1.03981
944.061,1.04
946.237,1.04019
948.418,1.04038
950.605,1.04057
952.796,1.04077
954.993,1.04096
957.194,1.04115
959.401,1.04135
961.612,1.04154
963.829,1.04174
966.051,1.04194
968.278,1.04214
970.51,1.04234
972.747,1.04254
974.99,1.04274
977.237,1.04294
979.49,1.04314
981.748,1.04334
984.011,1.04354
986.279,1.04375
988.553,1.04395
990.832,1.04416
993.116,1.04436
995.405,1.04457
997.7,1.04478
1000,1.04499
1002.31,1.0452
1004.62,1.0454
1006.93,1.04561
1009.25,1.04583
1011.58,1.04604
1013.91,1.04625
1016.25,1.04646
1018.59,1.04668
1020.94,1.04689
1023.29,1.0471
1025.65,1.04732
1028.02,1.04754
1030.39,1.04775
1032.76,1.04797
1035.14,1.04819
1037.53,1.04841
1039.92,1.04862
1042.32,1.04884
1044.72,1.04906
1047.13,1.04928
1049.54,1.0495
1051.96,1.04973
1054.39,1.04995
1056.82,1.05017
1059.25,1.05039
1061.7,1.05062
1064.14,1.05084
1066.6,1.05106
1069.05,1.05129
1071.52,1.05151
1073.99,1.05174
1076.47,1.05196
1078.95,1.05219
1081.43,1.05242
1083.93,1.05264
1086.43,1.05287
1088.93,1.0531
1091.44,1.05333
1093.96,1.05355
1096.48,1.05378
1099.01,1.05401
1101.54,1.05424
1104.08,1.05447
1106.62,1.05469
1109.17,1.05492
1111.73,1.05515
1114.29,1.05538
1116.86,1.05561
1119.44,1.05584
1122.02,1.05607
1124.6,1.05629
1127.2,1.05652
1129.8,1.05675
1132.4,1.05698
1135.01,1.05721
1137.63,1.05743
1140.25,1.05766
1142.88,1.05789
1145.51,1.05812
1148.15,1.05834
1150.8,1.05857
1153.45,1.05879
1156.11,1.05902
1158.78,1.05924
1161.45,1.05947
1164.13,1.05969
1166.81,1.05991
1169.5,1.06014
1172.2,1.06036
1174.9,1.06058
1177.61,1.0608
1180.32,1.06102
1183.04,1.06124
1185.77,1.06145
1188.5,1.06167
1191.24,1.06188
1193.99,1.0621
1196.74,1.06231
1199.5,1.06252
1202.26,1.06273
1205.04,1.06294
1207.81,1.06315
1210.6,1.06335
1213.39,1.06356
1216.19,1.06376
1218.99,1.06396
1221.8,1.06416
1224.62,1.06436
1227.44,1.06455
1230.27,1.06475
1233.1,1.06494
1235.95,1.06513
1238.8,1.06532
1241.65,1.0655
1244.51,1.06568
1247.38,1.06586
1250.26,1.06604
1253.14,1.06621
1256.03,1.06639
1258.93,1.06656
1261.83,1.06672
1264.74,1.06689
1267.65,1.06705
1270.57,1.0672
1273.5,1.06736
1276.44,1.06751
1279.38,1.06765
1282.33,1.0678
1285.29,1.06794
1288.25,1.06807
1291.22,1.0682
1294.2,1.06833
1297.18,1.06846
1300.17,1.06857
1303.17,1.06869
1306.17,1.0688
1309.18,1.06891
1312.2,1.06901
1315.22,1.0691
1318.26,1.06919
1321.3,1.06928
1324.34,1.06936
1327.39,1.06943
1330.45,1.0695
1333.52,1.06956
1336.6,1.06962
1339.68,1.06967
1342.76,1.06972
1345.86,1.06976
1348.96,1.06979
1352.07,1.06981
1355.19,1.06983
1358.31,1.06984
1361.44,1.06985
1364.58,1.06984
1367.73,1.06983
1370.88,1.06981
1374.04,1.06979
1377.21,1.06975
1380.38,1.06971
1383.57,1.06966
1386.76,1.0696
1389.95,1.06953
1393.16,1.06945
1396.37,1.06936
1399.59,1.06927
1402.81,1.06916
1406.05,1.06905
1409.29,1.06892
1412.54,1.06879
1415.79,1.06864
1419.06,1.06848
1422.33,1.06832
1425.61,1.06814
1428.89,1.06795
1432.19,1.06775
1435.49,1.06754
1438.8,1.06731
1442.12,1.06708
1445.44,1.06683
1448.77,1.06657
1452.11,1.0663
1455.46,1.06601
1458.81,1.06571
1462.18,1.0654
1465.55,1.06508
1468.93,1.06474
1472.31,1.06439
1475.71,1.06403
1479.11,1.06365
1482.52,1.06326
1485.94,1.06285
1489.36,1.06243
1492.79,1.06199
1496.24,1.06154
1499.68,1.06108
1503.14,1.0606
1506.61,1.06011
1510.08,1.0596
1513.56,1.05907
1517.05,1.05853
1520.55,1.05798
1524.05,1.05741
1527.57,1.05682
1531.09,1.05622
1534.62,1.05561
1538.15,1.05498
1541.7,1.05433
1545.25,1.05367
1548.82,1.05299
1552.39,1.0523
1555.97,1.05159
1559.55,1.05087
1563.15,1.05014
1566.75,1.04938
1570.36,1.04862
1573.98,1.04784
1577.61,1.04705
1581.25,1.04624
1584.89,1.04542
1588.55,1.04459
1592.21,1.04375
1595.88,1.04289
1599.56,1.04203
1603.25,1.04115
1606.94,1.04026
1610.65,1.03936
1614.36,1.03846
1618.08,1.03754
1621.81,1.03662
1625.55,1.0357
1629.3,1.03476
1633.05,1.03382
1636.82,1.03288
1640.59,1.03194
1644.37,1.03099
1648.16,1.03005
1651.96,1.02911
1655.77,1.02817
1659.59,1.02723
1663.41,1.0263
1667.25,1.02538
1671.09,1.02446
1674.94,1.02356
1678.8,1.02267
1682.67,1.0218
1686.55,1.02094
1690.44,1.02011
1694.34,1.01929
1698.24,1.0185
1702.16,1.01774
1706.08,1.01701
1710.02,1.01632
1713.96,1.01565
1717.91,1.01503
1721.87,1.01446
1725.84,1.01393
1729.82,1.01345
1733.8,1.01302
1737.8,1.01266
1741.81,1.01235
1745.82,1.01212
1749.85,1.01196
1753.88,1.01187
1757.92,1.01187
1761.98,1.01195
1766.04,1.01213
1770.11,1.0124
1774.19,1.01278
1778.28,1.01327
1782.38,1.01388
1786.49,1.01461
1790.61,1.01546
1794.73,1.01645
1798.87,1.01759
1803.02,1.01886
1807.17,1.02029
1811.34,1.02188
1815.52,1.02364
1819.7,1.02555
1823.9,1.02765
1828.1,1.02991
1832.31,1.03235
1836.54,1.03497
1840.77,1.03776
1845.02,1.04073
1849.27,1.04385
1853.53,1.04712
1857.8,1.05053
1862.09,1.05405
1866.38,1.05765
1870.68,1.0613
1874.99,1.06496
1879.32,1.06855
1883.65,1.07202
1887.99,1.07528
1892.34,1.07822
1896.71,1.08072
1901.08,1.08264
1905.46,1.0838
1909.85,1.08403
1914.26,1.0831
1918.67,1.08078
1923.09,1.07681
1927.52,1.07094
1931.97,1.06288
1936.42,1.0524
1940.89,1.03926
1945.36,1.02327
1949.84,1.00432
1954.34,0.982356
1958.84,0.957431
1963.36,0.929683
1967.89,0.899348
1972.42,0.866746
1976.97,0.832266
1981.53,0.796343
1986.09,0.759433
1990.67,0.721988
1995.26,0.684441
1999.86,0.647181
2004.47,0.610548
2009.09,0.574827
2013.72,0.540243
2018.37,0.506968
2023.02,0.475122
2027.68,0.444782
2032.36,0.415989
2037.04,0.38875
2041.74,0.363052
2046.44,0.338861
2051.16,0.31613
2055.89,0.294804
2060.63,0.274818
2065.38,0.256108
2070.14,0.238604
2074.91,0.222239
2079.7,0.206946
2084.49,0.192659
2089.3,0.179315
2094.11,0.166856
2098.94,0.155222
2103.78,0.144362
2108.63,0.134223
2113.49,0.124759
2118.36,0.115925
2123.24,0.107679
2128.14,0.0999815
2133.04,0.0927974
2137.96,0.0860923
2142.89,0.0798347
2147.83,0.0739952
2152.78,0.0685465
2157.74,0.063463
2162.72,0.0587211
2167.7,0.0542987
2172.7,0.050175
2177.71,0.0463309
2182.73,0.0427485
2187.76,0.039411
2192.8,0.0363029
2197.86,0.0334095
2202.93,0.0307172
2208,0.0282132
2213.09,0.0258856
2218.2,0.0237233
2223.31,0.0217157
2228.44,0.0198531
2233.57,0.0181263
2238.72,0.0165266
2243.88,0.0150459
2249.05,0.0136767
2254.24,0.0124118
2259.44,0.0112445
2264.64,0.0101685
2269.86,0.00917772
2275.1,0.0082667
2280.34,0.00743014
2285.6,0.00666308
2290.87,0.00596085
2296.15,0.00531903
2301.44,0.00473349
2306.75,0.00420031
2312.06,0.00371581
2317.39,0.0032765
2322.74,0.0028791
2328.09,0.00252052
2333.46,0.00219786
2338.84,0.00190835
2344.23,0.00164941
2349.63,0.00141859
2355.05,0.00121361
2360.48,0.00103228
2365.92,0.000872582
2371.37,0.000732592
2376.84,0.000610512
2382.32,0.000504653
2387.81,0.00041343
2393.32,0.000335361
2398.83,0.000269059
2404.36,0.000213229
2409.91,0.000166667
2415.46,0.000128253
2421.03,9.69484e-005
2426.61,7.17965e-005
2432.2,5.19158e-005
2437.81,3.65e-005
2443.43,2.48147e-005
2449.06,1.61964e-005
2454.71,1.00496e-005
2460.37,5.84639e-006
2466.04,3.12422e-006
2471.72,1.48506e-006
2477.42,5.94328e-007
2483.13,1.79984e-007
2488.86,3.18647e-008
2494.59,1.16663e-009
2500.35,7.10261e-011
2506.11,1.14262e-009
2511.89,3.83865e-008
2517.68,2.06077e-007
2523.48,6.59705e-007
2529.3,1.61628e-006
2535.13,3.35489e-006
2540.97,6.2175e-006
2546.83,1.06098e-005
2552.7,1.70025e-005
2558.59,2.59322e-005
2564.48,3.80033e-005
2570.4,5.38893e-005
2576.32,7.4335e-005
2582.26,0.000100158
2588.21,0.000132251
2594.18,0.000171586
2600.16,0.000219214
2606.15,0.000276271
2612.16,0.000343977
2618.18,0.000423645
2624.22,0.000516681
2630.27,0.00062459
2636.33,0.000748979
2642.41,0.000891561
2648.5,0.00105416
2654.61,0.00123873
2660.73,0.00144733
2666.86,0.00168217
2673.01,0.00194558
2679.17,0.00224004
2685.34,0.00256819
2691.53,0.00293283
2697.74,0.00333692
2703.96,0.00378362
2710.19,0.00427626
2716.44,0.0048184
2722.7,0.00541379
2728.98,0.00606643
2735.27,0.00678056
2741.57,0.00756067
2747.89,0.00841154
2754.23,0.00933825
2760.58,0.0103462
2766.94,0.0114411
2773.32,0.012629
2779.71,0.0139164
2786.12,0.0153103
2792.54,0.0168179
2798.98,0.0184471
2805.43,0.0202061
2811.9,0.022104
2818.38,0.02415
2824.88,0.0263544
2831.39,0.0287279
2837.92,0.0312821
2844.46,0.0340292
2851.02,0.0369825
2857.59,0.040156
2864.18,0.0435649
2870.78,0.0472253
2877.4,0.0511545
2884.03,0.0553712
2890.68,0.0598952
2897.34,0.0647481
2904.02,0.0699527
2910.72,0.0755338
2917.43,0.0815178
2924.15,0.0879333
2930.89,0.0948107
2937.65,0.102183
2944.42,0.110085
2951.21,0.118555
2958.01,0.127634
2964.83,0.137364
2971.67,0.147793
2978.52,0.158969
2985.38,0.170945
2992.26,0.183776
2999.16,0.197523
3006.08,0.212245
3013.01,0.228007
3019.95,0.244876
3026.91,0.262918
3033.89,0.282202
3040.89,0.302794
3047.89,0.324757
3054.92,0.348149
3061.96,0.373018
3069.02,0.399402
3076.1,0.427319
3083.19,0.456766
3090.3,0.487711
3097.42,0.520084
3104.56,0.553778
3111.72,0.588631
3118.89,0.624431
3126.08,0.660909
3133.29,0.697738
3140.51,0.734539
3147.75,0.770894
3155,0.806356
3162.28,0.840474
3169.57,0.872814
3176.87,0.902984
3184.2,0.930657
3191.54,0.955585
3198.9,0.977618
3206.27,0.996697
3213.66,1.01285
3221.07,1.0262
3228.49,1.03691
3235.94,1.04521
3243.4,1.05133
3250.87,1.05556
3258.37,1.05814
3265.88,1.05932
3273.41,1.05935
3280.95,1.05843
3288.52,1.05676
3296.1,1.0545
3303.7,1.0518
3311.31,1.04877
3318.94,1.04553
3326.6,1.04216
3334.26,1.03873
3341.95,1.03529
3349.65,1.0319
3357.38,1.02858
3365.12,1.02538
3372.87,1.0223
3380.65,1.01937
3388.44,1.0166
3396.25,1.01399
3404.08,1.01155
3411.93,1.00929
3419.79,1.00719
3427.68,1.00527
3435.58,1.00352
3443.5,1.00193
3451.44,1.0005
3459.39,0.999228
3467.37,0.998105
3475.36,0.997125
3483.37,0.996283
3491.4,0.995573
3499.45,0.994989
3507.52,0.994525
3515.6,0.994174
3523.71,0.993931
3531.83,0.99379
3539.97,0.993746
3548.13,0.993793
3556.31,0.993925
3564.51,0.994137
3572.73,0.994425
3580.96,0.994784
3589.22,0.995208
3597.49,0.995694
3605.79,0.996238
3614.1,0.996835
3622.43,0.997481
3630.78,0.998172
3639.15,0.998906
3647.54,0.999679
3655.95,1.00049
3664.38,1.00133
3672.82,1.0022
3681.29,1.00309
3689.78,1.00401
3698.28,1.00495
3706.81,1.00591
3715.35,1.00689
3723.92,1.00788
3732.5,1.00888
3741.11,1.0099
3749.73,1.01092
3758.37,1.01194
3767.04,1.01298
3775.72,1.01401
3784.43,1.01505
3793.15,1.01609
3801.89,1.01713
3810.66,1.01817
3819.44,1.0192
3828.25,1.02023
3837.07,1.02125
3845.92,1.02227
3854.78,1.02328
3863.67,1.02428
3872.58,1.02527
3881.5,1.02626
3890.45,1.02723
3899.42,1.02819
3908.41,1.02914
3917.42,1.03008
3926.45,1.031
3935.5,1.03192
3944.57,1.03282
3953.67,1.0337
3962.78,1.03457
3971.92,1.03543
3981.07,1.03627
3990.25,1.0371
3999.45,1.03791
4008.67,1.03871
4017.91,1.03949
4027.17,1.04026
4036.45,1.04101
4045.76,1.04174
4055.09,1.04246
4064.43,1.04316
4073.8,1.04385
4083.19,1.04452
4092.61,1.04517
4102.04,1.04581
4111.5,1.04643
4120.98,1.04704
4130.48,1.04763
4140,1.0482
4149.54,1.04876
4159.11,1.0493
4168.69,1.04983
4178.3,1.05035
4187.94,1.05084
4197.59,1.05133
4207.27,1.05179
4216.97,1.05225
4226.69,1.05268
4236.43,1.05311
4246.2,1.05352
4255.98,1.05391
4265.8,1.05429
4275.63,1.05466
4285.49,1.05502
4295.36,1.05536
4305.27,1.05568
4315.19,1.056
4325.14,1.0563
4335.11,1.05659
4345.1,1.05686
4355.12,1.05713
4365.16,1.05738
4375.22,1.05762
4385.31,1.05785
4395.42,1.05807
4405.55,1.05827
4415.7,1.05847
4425.88,1.05865
4436.09,1.05882
4446.31,1.05899
4456.56,1.05914
4466.84,1.05928
4477.13,1.05942
4487.45,1.05954
4497.8,1.05965
4508.17,1.05976
4518.56,1.05985
4528.98,1.05994
4539.42,1.06002
4549.88,1.06009
4560.37,1.06015
4570.88,1.0602
4581.42,1.06024
4591.98,1.06028
4602.57,1.06031
4613.18,1.06033
4623.81,1.06035
4634.47,1.06035
4645.15,1.06035
4655.86,1.06035
4666.59,1.06033
4677.35,1.06032
4688.13,1.06029
4698.94,1.06026
4709.77,1.06022
4720.63,1.06018
4731.51,1.06013
4742.42,1.06007
4753.35,1.06001
4764.31,1.05994
4775.29,1.05987
4786.3,1.0598
4797.33,1.05972
4808.39,1.05963
4819.48,1.05954
4830.59,1.05944
4841.72,1.05934
4852.89,1.05924
4864.07,1.05913
4875.28,1.05902
4886.52,1.0589
4897.79,1.05878
4909.08,1.05866
4920.4,1.05853
4931.74,1.0584
4943.11,1.05827
4954.5,1.05813
4965.92,1.05799
4977.37,1.05785
4988.84,1.0577
5000.35,1.05755
5011.87,1.0574
5023.43,1.05725
5035.01,1.05709
5046.61,1.05693
5058.25,1.05677
5069.91,1.0566
5081.59,1.05643
5093.31,1.05626
5105.05,1.05609
5116.82,1.05592
5128.61,1.05574
5140.44,1.05557
5152.29,1.05539
5164.16,1.05521
5176.07,1.05502
5188,1.05484
5199.96,1.05465
5211.95,1.05446
5223.96,1.05427
5236,1.05408
5248.07,1.05389
5260.17,1.0537
5272.3,1.0535
5284.45,1.05331
5296.63,1.05311
5308.84,1.05291
5321.08,1.05271
5333.35,1.05251
5345.64,1.05231
5357.97,1.05211
5370.32,1.05191
5382.7,1.05171
5395.11,1.0515
5407.54,1.0513
5420.01,1.05109
5432.5,1.05089
5445.03,1.05068
5457.58,1.05047
5470.16,1.05027
5482.77,1.05006
5495.41,1.04985
5508.08,1.04964
5520.77,1.04943
5533.5,1.04922
5546.26,1.04901
5559.04,1.0488
5571.86,1.04859
5584.7,1.04838
5597.58,1.04817
5610.48,1.04796
5623.41,1.04775
5636.38,1.04754
5649.37,1.04733
5662.39,1.04711
5675.45,1.0469
5688.53,1.04669
5701.64,1.04648
5714.79,1.04627
5727.96,1.04606
5741.16,1.04585
5754.4,1.04564
5767.66,1.04543
5780.96,1.04522
5794.29,1.04501
5807.64,1.0448
5821.03,1.04459
5834.45,1.04438
5847.9,1.04417
5861.38,1.04396
5874.89,1.04375
5888.44,1.04354
5902.01,1.04334
5915.62,1.04313
5929.25,1.04292
5942.92,1.04271
5956.62,1.04251
5970.35,1.0423
5984.12,1.0421
5997.91,1.04189
6011.74,1.04169
6025.6,1.04148
6039.49,1.04128
6053.41,1.04107
6067.36,1.04087
6081.35,1.04067
6095.37,1.04047
6109.42,1.04026
6123.5,1.04006
6137.62,1.03986
6151.77,1.03966
6165.95,1.03946
6180.16,1.03927
6194.41,1.03907
6208.69,1.03887
6223,1.03867
6237.35,1.03848
6251.73,1.03828
6266.14,1.03808
6280.58,1.03789
6295.06,1.0377
6309.57,1.0375
6324.12,1.03731
6338.7,1.03712
6353.31,1.03693
6367.96,1.03673
6382.63,1.03654
6397.35,1.03635
6412.1,1.03617
6426.88,1.03598
6441.69,1.03579
6456.54,1.0356
6471.43,1.03542
6486.34,1.03523
6501.3,1.03505
6516.28,1.03486
6531.31,1.03468
6546.36,1.03449
6561.45,1.03431
6576.58,1.03413
6591.74,1.03395
6606.93,1.03377
6622.17,1.03359
6637.43,1.03341
6652.73,1.03323
6668.07,1.03306
6683.44,1.03288
6698.85,1.0327
6714.29,1.03253
6729.77,1.03235
6745.28,1.03218
6760.83,1.032
6776.42,1.03183
6792.04,1.03166
6807.69,1.03149
6823.39,1.03132
6839.12,1.03115
6854.88,1.03098
6870.68,1.03081
6886.52,1.03064
6902.4,1.03048
6918.31,1.03031
6934.26,1.03015
6950.24,1.02998
6966.27,1.02982
6982.32,1.02965
6998.42,1.02949
7014.55,1.02933
7030.72,1.02917
7046.93,1.02901
7063.18,1.02885
7079.46,1.02869
7095.78,1.02853
7112.14,1.02837
7128.53,1.02821
7144.96,1.02806
7161.43,1.0279
7177.94,1.02775
7194.49,1.02759
7211.07,1.02744
7227.7,1.02729
7244.36,1.02713
7261.06,1.02698
7277.8,1.02683
7294.58,1.02668
7311.39,1.02653
7328.25,1.02638
7345.14,1.02623
7362.07,1.02609
7379.04,1.02594
7396.05,1.02579
7413.1,1.02565
7430.19,1.0255
7447.32,1.02536
7464.49,1.02522
7481.7,1.02507
7498.94,1.02493
7516.23,1.02479
7533.56,1.02465
7550.92,1.02451
7568.33,1.02437
7585.78,1.02423
7603.26,1.02409
7620.79,1.02395
7638.36,1.02382
7655.97,1.02368
7673.61,1.02355
7691.3,1.02341
7709.03,1.02328
7726.81,1.02314
7744.62,1.02301
7762.47,1.02288
7780.37,1.02275
7798.3,1.02261
7816.28,1.02248
7834.3,1.02235
7852.36,1.02222
7870.46,1.0221
7888.6,1.02197
7906.79,1.02184
7925.01,1.02171
7943.28,1.02159
7961.59,1.02146
7979.95,1.02134
7998.34,1.02121
8016.78,1.02109
8035.26,1.02097
8053.78,1.02084
8072.35,1.02072
8090.96,1.0206
8109.61,1.02048
8128.31,1.02036
8147.04,1.02024
8165.82,1.02012
8184.65,1.02
8203.52,1.01988
8222.43,1.01977
8241.38,1.01965
8260.38,1.01953
8279.42,1.01942
8298.51,1.0193
8317.64,1.01919
8336.81,1.01907
8356.03,1.01896
8375.29,1.01885
8394.6,1.01874
8413.95,1.01862
8433.35,1.01851
8452.79,1.0184
8472.27,1.01829
8491.8,1.01818
8511.38,1.01807
8531,1.01797
8550.67,1.01786
8570.38,1.01775
8590.14,1.01764
8609.94,1.01754
8629.79,1.01743
8649.68,1.01733
8669.62,1.01722
8689.6,1.01712
8709.64,1.01701
8729.71,1.01691
8749.84,1.01681
8770.01,1.01671
8790.23,1.0166
8810.49,1.0165
8830.8,1.0164
8851.16,1.0163
8871.56,1.0162
8892.01,1.0161
8912.51,1.016
8933.05,1.01591
8953.65,1.01581
8974.29,1.01571
8994.98,1.01561
9015.71,1.01552
9036.49,1.01542
9057.33,1.01533
9078.21,1.01523
9099.13,1.01514
9120.11,1.01504
9141.13,1.01495
9162.2,1.01486
9183.33,1.01477
9204.5,1.01467
9225.71,1.01458
9246.98,1.01449
9268.3,1.0144
9289.66,1.01431
9311.08,1.01422
9332.54,1.01413
9354.06,1.01404
9375.62,1.01395
9397.23,1.01387
9418.9,1.01378
9440.61,1.01369
9462.37,1.0136
9484.18,1.01352
9506.05,1.01343
9527.96,1.01335
9549.93,1.01326
9571.94,1.01318
9594.01,1.01309
9616.12,1.01301
9638.29,1.01293
9660.51,1.01284
9682.78,1.01276
9705.1,1.01268
9727.47,1.0126
9749.9,1.01252
9772.37,1.01244
9794.9,1.01235
9817.48,1.01227
9840.11,1.01219
9862.79,1.01212
9885.53,1.01204
9908.32,1.01196
9931.16,1.01188
9954.05,1.0118
9977,1.01173
10000,1.01165
10023.1,1.01157
10046.2,1.0115
10069.3,1.01142
10092.5,1.01134
10115.8,1.01127
10139.1,1.0112
10162.5,1.01112
10185.9,1.01105
10209.4,1.01097
10232.9,1.0109
10256.5,1.01083
10280.2,1.01076
10303.9,1.01068
10327.6,1.01061
10351.4,1.01054
10375.3,1.01047
10399.2,1.0104
10423.2,1.01033
10447.2,1.01026
10471.3,1.01019
10495.4,1.01012
10519.6,1.01005
10543.9,1.00998
10568.2,1.00991
10592.5,1.00985
10617,1.00978
10641.4,1.00971
10666,1.00964
10690.5,1.00958
10715.2,1.00951
10739.9,1.00945
10764.7,1.00938
10789.5,1.00932
10814.3,1.00925
10839.3,1.00919
10864.3,1.00912
10889.3,1.00906
10914.4,1.00899
10939.6,1.00893
10964.8,1.00887
10990.1,1.0088
11015.4,1.00874
11040.8,1.00868
11066.2,1.00862
11091.7,1.00856
11117.3,1.0085
11142.9,1.00844
11168.6,1.00837
11194.4,1.00831
11220.2,1.00825
11246,1.0082
11272,1.00814
11298,1.00808
11324,1.00802
11350.1,1.00796
11376.3,1.0079
11402.5,1.00784
11428.8,1.00779
11455.1,1.00773
11481.5,1.00767
11508,1.00761
11534.5,1.00756
11561.1,1.0075
11587.8,1.00745
11614.5,1.00739
11641.3,1.00734
11668.1,1.00728
11695,1.00723
11722,1.00717
11749,1.00712
11776.1,1.00706
11803.2,1.00701
11830.4,1.00696
11857.7,1.0069
11885,1.00685
11912.4,1.0068
11939.9,1.00674
11967.4,1.00669
11995,1.00664
12022.6,1.00659
12050.4,1.00654
12078.1,1.00649
12106,1.00644
12133.9,1.00638
12161.9,1.00633
12189.9,1.00628
12218,1.00623
12246.2,1.00618
12274.4,1.00614
12302.7,1.00609
12331,1.00604
12359.5,1.00599
12388,1.00594
12416.5,1.00589
12445.1,1.00584
12473.8,1.0058
12502.6,1.00575
12531.4,1.0057
12560.3,1.00565
12589.3,1.00561
12618.3,1.00556
12647.4,1.00551
12676.5,1.00547
12705.7,1.00542
12735,1.00538
12764.4,1.00533
12793.8,1.00529
12823.3,1.00524
12852.9,1.0052
12882.5,1.00515
12912.2,1.00511
12942,1.00506
12971.8,1.00502
13001.7,1.00498
13031.7,1.00493
13061.7,1.00489
13091.8,1.00485
13122,1.0048
13152.2,1.00476
13182.6,1.00472
13213,1.00468
13243.4,1.00463
13273.9,1.00459
13304.5,1.00455
13335.2,1.00451
13366,1.00447
13396.8,1.00443
13427.6,1.00439
13458.6,1.00435
13489.6,1.00431
13520.7,1.00427
13551.9,1.00423
13583.1,1.00419
13614.4,1.00415
13645.8,1.00411
13677.3,1.00407
13708.8,1.00403
13740.4,1.00399
13772.1,1.00395
13803.8,1.00391
13835.7,1.00388
13867.6,1.00384
13899.5,1.0038
13931.6,1.00376
13963.7,1.00372
13995.9,1.00369
14028.1,1.00365
14060.5,1.00361
14092.9,1.00358
14125.4,1.00354
14157.9,1.0035
14190.6,1.00347
14223.3,1.00343
14256.1,1.00339
14288.9,1.00336
14321.9,1.00332
14354.9,1.00329
14388,1.00325
14421.2,1.00322
14454.4,1.00318
14487.7,1.00315
14521.1,1.00311
14554.6,1.00308
14588.1,1.00305
14621.8,1.00301
14655.5,1.00298
14689.3,1.00294
14723.1,1.00291
14757.1,1.00288
14791.1,1.00284
14825.2,1.00281
14859.4,1.00278
14893.6,1.00275
14927.9,1.00271
14962.4,1.00268
14996.8,1.00265
15031.4,1.00262
15066.1,1.00258
15100.8,1.00255
15135.6,1.00252
15170.5,1.00249
15205.5,1.00246
15240.5,1.00243
15275.7,1.0024
15310.9,1.00236
15346.2,1.00233
15381.5,1.0023
15417,1.00227
15452.5,1.00224
15488.2,1.00221
15523.9,1.00218
15559.7,1.00215
15595.5,1.00212
15631.5,1.00209
15667.5,1.00206
15703.6,1.00204
15739.8,1.00201
15776.1,1.00198
15812.5,1.00195
15848.9,1.00192
15885.5,1.00189
15922.1,1.00186
15958.8,1.00183
15995.6,1.00181
16032.5,1.00178
16069.4,1.00175
16106.5,1.00172
16143.6,1.0017
16180.8,1.00167
16218.1,1.00164
16255.5,1.00161
16293,1.00159
16330.5,1.00156
16368.2,1.00153
16405.9,1.00151
16443.7,1.00148
16481.6,1.00145
16519.6,1.00143
16557.7,1.0014
16595.9,1.00137
16634.1,1.00135
16672.5,1.00132
16710.9,1.0013
16749.4,1.00127
16788,1.00125
16826.7,1.00122
16865.5,1.0012
16904.4,1.00117
16943.4,1.00115
16982.4,1.00112
17021.6,1.0011
17060.8,1.00107
17100.2,1.00105
17139.6,1.00102
17179.1,1.001
17218.7,1.00097
17258.4,1.00095
17298.2,1.00093
17338,1.0009
17378,1.00088
17418.1,1.00086
17458.2,1.00083
17498.5,1.00081
17538.8,1.00079
17579.2,1.00076
17619.8,1.00074
17660.4,1.00072
17701.1,1.00069
17741.9,1.00067
17782.8,1.00065
17823.8,1.00063
17864.9,1.00061
17906.1,1.00058
17947.3,1.00056
17988.7,1.00054
18030.2,1.00052
18071.7,1.0005
18113.4,1.00047
18155.2,1.00045
18197,1.00043
18239,1.00041
18281,1.00039
18323.1,1.00037
18365.4,1.00035
18407.7,1.00032
18450.2,1.0003
18492.7,1.00028
18535.3,1.00026
18578,1.00024
18620.9,1.00022
18663.8,1.0002
18706.8,1.00018
18749.9,1.00016
18793.2,1.00014
18836.5,1.00012
18879.9,1.0001
18923.4,1.00008
18967.1,1.00006
19010.8,1.00004
19054.6,1.00002
19098.5,1
19142.6,0.999984
19186.7,0.999965
19230.9,0.999946
19275.2,0.999927
19319.7,0.999908
19364.2,0.999889
19408.9,0.999871
19453.6,0.999852
19498.4,0.999833
19543.4,0.999815
19588.4,0.999797
19633.6,0.999778
19678.9,0.99976
19724.2,0.999742
19769.7,0.999724
19815.3,0.999706
19860.9,0.999688
19906.7,0.999671
19952.6,0.999653
19998.6,0.999635
