<?xml version="1.0"?>
<!DOCTYPE svg PUBLIC '-//W3C//DTD SVG 1.0//EN'
          'http://www.w3.org/TR/2001/REC-SVG-20010904/DTD/svg10.dtd'>
<svg xmlns:xlink="http://www.w3.org/1999/xlink" style="fill-opacity:1; color-rendering:auto; color-interpolation:auto; stroke:black; text-rendering:auto; stroke-linecap:square; stroke-miterlimit:10; stroke-opacity:1; shape-rendering:auto; fill:black; stroke-dasharray:none; font-weight:normal; stroke-width:1; font-family:'Dialog'; font-style:normal; stroke-linejoin:miter; font-size:12px; stroke-dashoffset:0; image-rendering:auto;" width="1920" height="964" xmlns="http://www.w3.org/2000/svg"
><!--Generated by the Batik Graphics2D SVG Generator--><defs id="genericDefs"
  /><g
  ><defs id="defs1"
    ><clipPath clipPathUnits="userSpaceOnUse" id="clipPath1"
      ><path d="M0 0 L1920 0 L1920 964 L0 964 L0 0 Z"
      /></clipPath
      ><font horiz-adv-x="75.0" id="font1"
      ><font-face ascent="100.53711" descent="21.972656" units-per-em="100" style="font-style:normal; font-family:Dialog; font-weight:normal;"
        /><missing-glyph horiz-adv-x="75.0" d="M12.5 0 L12.5 62.5 L62.5 62.5 L62.5 0 L12.5 0 ZM14.0625 1.5625 L60.9375 1.5625 L60.9375 60.9375 L14.0625 60.9375 L14.0625 1.5625 Z"
        /><glyph unicode="0" horiz-adv-x="55.615234" d="M4.1562 35.2969 Q4.1562 48 6.7656 55.7422 Q9.375 63.4844 14.5234 67.6797 Q19.6719 71.875 27.4844 71.875 Q33.25 71.875 37.5938 69.5547 Q41.9375 67.2344 44.7734 62.8672 Q47.6094 58.5 49.2188 52.2266 Q50.8281 45.9531 50.8281 35.2969 Q50.8281 22.7031 48.2422 14.9688 Q45.6562 7.2344 40.5078 3.0078 Q35.3594 -1.2188 27.4844 -1.2188 Q17.1406 -1.2188 11.2344 6.2031 Q4.1562 15.1406 4.1562 35.2969 ZM13.1875 35.2969 Q13.1875 17.6719 17.3125 11.8359 Q21.4375 6 27.4844 6 Q33.5469 6 37.6719 11.8594 Q41.7969 17.7188 41.7969 35.2969 Q41.7969 52.9844 37.6719 58.7891 Q33.5469 64.5938 27.3906 64.5938 Q21.3438 64.5938 17.7188 59.4688 Q13.1875 52.9375 13.1875 35.2969 Z"
        /><glyph unicode="1" horiz-adv-x="55.615234" d="M37.25 0 L28.4688 0 L28.4688 56 Q25.2969 52.9844 20.1406 49.9531 Q14.9844 46.9219 10.8906 45.4062 L10.8906 53.9062 Q18.2656 57.375 23.7812 62.3047 Q29.2969 67.2344 31.5938 71.875 L37.25 71.875 L37.25 0 Z"
        /><glyph unicode="2" horiz-adv-x="55.615234" d="M50.3438 8.4531 L50.3438 0 L3.0312 0 Q2.9375 3.1719 4.0469 6.1094 Q5.8594 10.9375 9.8359 15.625 Q13.8125 20.3125 21.3438 26.4688 Q33.0156 36.0312 37.1172 41.625 Q41.2188 47.2188 41.2188 52.2031 Q41.2188 57.4219 37.4766 61.0078 Q33.7344 64.5938 27.7344 64.5938 Q21.3906 64.5938 17.5781 60.7891 Q13.7656 56.9844 13.7188 50.25 L4.6875 51.1719 Q5.6094 61.2812 11.6641 66.5781 Q17.7188 71.875 27.9375 71.875 Q38.2344 71.875 44.2422 66.1641 Q50.25 60.4531 50.25 52 Q50.25 47.7031 48.4922 43.5547 Q46.7344 39.4062 42.6562 34.8125 Q38.5781 30.2188 29.1094 22.2188 Q21.1875 15.5781 18.9453 13.2109 Q16.7031 10.8438 15.2344 8.4531 L50.3438 8.4531 Z"
        /><glyph unicode="3" horiz-adv-x="55.615234" d="M4.2031 18.8906 L12.9844 20.0625 Q14.5 12.5938 18.1406 9.2969 Q21.7812 6 27 6 Q33.2031 6 37.4766 10.2969 Q41.75 14.5938 41.75 20.9531 Q41.75 27 37.7969 30.9297 Q33.8438 34.8594 27.7344 34.8594 Q25.25 34.8594 21.5312 33.8906 L22.5156 41.6094 Q23.3906 41.5 23.9219 41.5 Q29.5469 41.5 34.0391 44.4297 Q38.5312 47.3594 38.5312 53.4688 Q38.5312 58.2969 35.2578 61.4766 Q31.9844 64.6562 26.8125 64.6562 Q21.6875 64.6562 18.2656 61.4297 Q14.8438 58.2031 13.875 51.7656 L5.0781 53.3281 Q6.6875 62.1562 12.3984 67.0156 Q18.1094 71.875 26.6094 71.875 Q32.4688 71.875 37.3984 69.3594 Q42.3281 66.8438 44.9453 62.5 Q47.5625 58.1562 47.5625 53.2656 Q47.5625 48.6406 45.0703 44.8281 Q42.5781 41.0156 37.7031 38.7656 Q44.0469 37.3125 47.5625 32.6953 Q51.0781 28.0781 51.0781 21.1406 Q51.0781 11.7656 44.2422 5.25 Q37.4062 -1.2656 26.9531 -1.2656 Q17.5312 -1.2656 11.3047 4.3516 Q5.0781 9.9688 4.2031 18.8906 Z"
        /><glyph unicode="4" horiz-adv-x="55.615234" d="M32.3281 0 L32.3281 17.1406 L1.2656 17.1406 L1.2656 25.2031 L33.9375 71.5781 L41.1094 71.5781 L41.1094 25.2031 L50.7812 25.2031 L50.7812 17.1406 L41.1094 17.1406 L41.1094 0 L32.3281 0 ZM32.3281 25.2031 L32.3281 57.4688 L9.9062 25.2031 L32.3281 25.2031 Z"
        /><glyph unicode="5" horiz-adv-x="55.615234" d="M4.1562 18.75 L13.375 19.5312 Q14.4062 12.7969 18.1406 9.3984 Q21.875 6 27.1562 6 Q33.5 6 37.8906 10.7891 Q42.2812 15.5781 42.2812 23.4844 Q42.2812 31 38.0625 35.3516 Q33.8438 39.7031 27 39.7031 Q22.75 39.7031 19.3359 37.7734 Q15.9219 35.8438 13.9688 32.7656 L5.7188 33.8438 L12.6406 70.6094 L48.25 70.6094 L48.25 62.2031 L19.6719 62.2031 L15.8281 42.9688 Q22.2656 47.4688 29.3438 47.4688 Q38.7188 47.4688 45.1641 40.9688 Q51.6094 34.4688 51.6094 24.2656 Q51.6094 14.5469 45.9531 7.4688 Q39.0625 -1.2188 27.1562 -1.2188 Q17.3906 -1.2188 11.2109 4.25 Q5.0312 9.7188 4.1562 18.75 Z"
        /><glyph unicode="6" horiz-adv-x="55.615234" d="M49.75 54.0469 L41.0156 53.375 Q39.8438 58.5469 37.7031 60.8906 Q34.125 64.6562 28.9062 64.6562 Q24.7031 64.6562 21.5312 62.3125 Q17.3906 59.2812 14.9922 53.4688 Q12.5938 47.6562 12.5 36.9219 Q15.6719 41.75 20.2656 44.0938 Q24.8594 46.4375 29.8906 46.4375 Q38.6719 46.4375 44.8516 39.9688 Q51.0312 33.5 51.0312 23.25 Q51.0312 16.5 48.125 10.7188 Q45.2188 4.9375 40.1406 1.8594 Q35.0625 -1.2188 28.6094 -1.2188 Q17.625 -1.2188 10.6953 6.8594 Q3.7656 14.9375 3.7656 33.5 Q3.7656 54.25 11.4219 63.6719 Q18.1094 71.875 29.4375 71.875 Q37.8906 71.875 43.2891 67.1406 Q48.6875 62.4062 49.75 54.0469 ZM13.875 23.1875 Q13.875 18.6562 15.7969 14.5078 Q17.7188 10.3594 21.1875 8.1797 Q24.6562 6 28.4688 6 Q34.0312 6 38.0391 10.4922 Q42.0469 14.9844 42.0469 22.7031 Q42.0469 30.125 38.0859 34.3984 Q34.125 38.6719 28.125 38.6719 Q22.1719 38.6719 18.0234 34.3984 Q13.875 30.125 13.875 23.1875 Z"
        /><glyph unicode="7" horiz-adv-x="55.615234" d="M4.7344 62.2031 L4.7344 70.6562 L51.0781 70.6562 L51.0781 63.8125 Q44.2344 56.5469 37.5234 44.4844 Q30.8125 32.4219 27.1562 19.6719 Q24.5156 10.6875 23.7812 0 L14.75 0 Q14.8906 8.4531 18.0625 20.4141 Q21.2344 32.375 27.1719 43.4844 Q33.1094 54.5938 39.7969 62.2031 L4.7344 62.2031 Z"
        /><glyph unicode=")" horiz-adv-x="33.30078" d="M12.3594 -21.0469 L6.0625 -21.0469 Q20.6562 2.3906 20.6562 25.875 Q20.6562 35.0625 18.5625 44.0938 Q16.8906 51.4219 13.9219 58.1562 Q12.0156 62.5469 6.0625 72.7969 L12.3594 72.7969 Q21.5312 60.5469 25.9219 48.1875 Q29.6875 37.5469 29.6875 25.9219 Q29.6875 12.75 24.6328 0.4453 Q19.5781 -11.8594 12.3594 -21.0469 Z"
        /><glyph unicode="s" horiz-adv-x="50.0" d="M3.0781 15.4844 L11.7656 16.8438 Q12.5 11.625 15.8438 8.8438 Q19.1875 6.0625 25.2031 6.0625 Q31.25 6.0625 34.1797 8.5234 Q37.1094 10.9844 37.1094 14.3125 Q37.1094 17.2812 34.5156 19 Q32.7188 20.1719 25.5312 21.9688 Q15.875 24.4219 12.1406 26.2031 Q8.4062 27.9844 6.4766 31.1328 Q4.5469 34.2812 4.5469 38.0938 Q4.5469 41.5469 6.1328 44.5078 Q7.7188 47.4688 10.4531 49.4219 Q12.5 50.9219 16.0391 51.9766 Q19.5781 53.0312 23.6406 53.0312 Q29.7344 53.0312 34.3516 51.2734 Q38.9688 49.5156 41.1641 46.5078 Q43.3594 43.5 44.1875 38.4844 L35.5938 37.3125 Q35.0156 41.3125 32.2031 43.5547 Q29.3906 45.7969 24.2656 45.7969 Q18.2188 45.7969 15.625 43.7969 Q13.0312 41.7969 13.0312 39.1094 Q13.0312 37.4062 14.1094 36.0312 Q15.1875 34.625 17.4844 33.6875 Q18.7969 33.2031 25.25 31.4531 Q34.5781 28.9531 38.2578 27.3672 Q41.9375 25.7812 44.0391 22.7578 Q46.1406 19.7344 46.1406 15.2344 Q46.1406 10.8438 43.5781 6.9609 Q41.0156 3.0781 36.1797 0.9531 Q31.3438 -1.1719 25.25 -1.1719 Q15.1406 -1.1719 9.8438 3.0312 Q4.5469 7.2344 3.0781 15.4844 Z"
        /><glyph unicode="(" horiz-adv-x="33.30078" d="M23.3906 -21.0469 Q16.1094 -11.8594 11.0859 0.4453 Q6.0625 12.75 6.0625 25.9219 Q6.0625 37.5469 9.8125 48.1875 Q14.2031 60.5469 23.3906 72.7969 L29.6875 72.7969 Q23.7812 62.6406 21.875 58.2969 Q18.8906 51.5625 17.1875 44.2344 Q15.0938 35.1094 15.0938 25.875 Q15.0938 2.3906 29.6875 -21.0469 L23.3906 -21.0469 Z"
        /><glyph unicode=" " horiz-adv-x="27.783203" d=""
        /><glyph unicode="e" horiz-adv-x="55.615234" d="M42.0938 16.7031 L51.1719 15.5781 Q49.0312 7.625 43.2188 3.2266 Q37.4062 -1.1719 28.375 -1.1719 Q17 -1.1719 10.3281 5.8359 Q3.6562 12.8438 3.6562 25.4844 Q3.6562 38.5781 10.3984 45.8047 Q17.1406 53.0312 27.875 53.0312 Q38.2812 53.0312 44.875 45.9531 Q51.4688 38.875 51.4688 26.0312 Q51.4688 25.25 51.4219 23.6875 L12.75 23.6875 Q13.2344 15.1406 17.5781 10.6016 Q21.9219 6.0625 28.4219 6.0625 Q33.25 6.0625 36.6719 8.6016 Q40.0938 11.1406 42.0938 16.7031 ZM13.2344 30.9062 L42.1875 30.9062 Q41.6094 37.4531 38.875 40.7188 Q34.6719 45.7969 27.9844 45.7969 Q21.9219 45.7969 17.7969 41.75 Q13.6719 37.7031 13.2344 30.9062 Z"
        /><glyph unicode="m" horiz-adv-x="83.30078" d="M6.5938 0 L6.5938 51.8594 L14.4531 51.8594 L14.4531 44.5781 Q16.8906 48.3906 20.9453 50.7109 Q25 53.0312 30.1719 53.0312 Q35.9375 53.0312 39.625 50.6406 Q43.3125 48.25 44.8281 43.9531 Q50.9844 53.0312 60.8438 53.0312 Q68.5625 53.0312 72.7109 48.7578 Q76.8594 44.4844 76.8594 35.5938 L76.8594 0 L68.1094 0 L68.1094 32.6719 Q68.1094 37.9375 67.2578 40.2578 Q66.4062 42.5781 64.1641 43.9922 Q61.9219 45.4062 58.8906 45.4062 Q53.4219 45.4062 49.8047 41.7734 Q46.1875 38.1406 46.1875 30.125 L46.1875 0 L37.4062 0 L37.4062 33.6875 Q37.4062 39.5469 35.2578 42.4766 Q33.1094 45.4062 28.2188 45.4062 Q24.5156 45.4062 21.3672 43.4531 Q18.2188 41.5 16.7969 37.7422 Q15.375 33.9844 15.375 26.9062 L15.375 0 L6.5938 0 Z"
        /><glyph unicode="i" horiz-adv-x="22.216797" d="M6.6406 61.4688 L6.6406 71.5781 L15.4375 71.5781 L15.4375 61.4688 L6.6406 61.4688 ZM6.6406 0 L6.6406 51.8594 L15.4375 51.8594 L15.4375 0 L6.6406 0 Z"
        /><glyph unicode="T" horiz-adv-x="61.083984" d="M25.9219 0 L25.9219 63.1406 L2.3438 63.1406 L2.3438 71.5781 L59.0781 71.5781 L59.0781 63.1406 L35.4062 63.1406 L35.4062 0 L25.9219 0 Z"
        /><glyph unicode="-" horiz-adv-x="33.30078" d="M3.1719 21.4844 L3.1719 30.3281 L30.1719 30.3281 L30.1719 21.4844 L3.1719 21.4844 Z"
        /><glyph unicode="g" horiz-adv-x="55.615234" d="M4.9844 -4.2969 L13.5312 -5.5625 Q14.0625 -9.5156 16.5 -11.3281 Q19.7812 -13.7656 25.4375 -13.7656 Q31.5469 -13.7656 34.8672 -11.3281 Q38.1875 -8.8906 39.3594 -4.5 Q40.0469 -1.8125 39.9844 6.7812 Q34.2344 0 25.6406 0 Q14.9375 0 9.0781 7.7188 Q3.2188 15.4375 3.2188 26.2188 Q3.2188 33.6406 5.9062 39.9141 Q8.5938 46.1875 13.6953 49.6094 Q18.7969 53.0312 25.6875 53.0312 Q34.8594 53.0312 40.8281 45.6094 L40.8281 51.8594 L48.9219 51.8594 L48.9219 7.0312 Q48.9219 -5.0781 46.4609 -10.1328 Q44 -15.1875 38.6484 -18.1172 Q33.2969 -21.0469 25.4844 -21.0469 Q16.2188 -21.0469 10.5 -16.875 Q4.7812 -12.7031 4.9844 -4.2969 ZM12.25 26.8594 Q12.25 16.6562 16.3047 11.9688 Q20.3594 7.2812 26.4688 7.2812 Q32.5156 7.2812 36.6172 11.9453 Q40.7188 16.6094 40.7188 26.5625 Q40.7188 36.0781 36.5 40.9141 Q32.2812 45.75 26.3125 45.75 Q20.4531 45.75 16.3516 40.9922 Q12.25 36.2344 12.25 26.8594 Z"
        /><glyph unicode="a" horiz-adv-x="55.615234" d="M40.4375 6.3906 Q35.5469 2.25 31.0312 0.5391 Q26.5156 -1.1719 21.3438 -1.1719 Q12.7969 -1.1719 8.2031 3 Q3.6094 7.1719 3.6094 13.6719 Q3.6094 17.4844 5.3438 20.6328 Q7.0781 23.7812 9.8906 25.6875 Q12.7031 27.5938 16.2188 28.5625 Q18.7969 29.25 24.0312 29.8906 Q34.6719 31.1562 39.7031 32.9062 Q39.75 34.7188 39.75 35.2031 Q39.75 40.5781 37.25 42.7812 Q33.8906 45.75 27.25 45.75 Q21.0469 45.75 18.0938 43.5781 Q15.1406 41.4062 13.7188 35.8906 L5.125 37.0625 Q6.2969 42.5781 8.9844 45.9688 Q11.6719 49.3594 16.75 51.1953 Q21.8281 53.0312 28.5156 53.0312 Q35.1562 53.0312 39.3047 51.4688 Q43.4531 49.9062 45.4062 47.5391 Q47.3594 45.1719 48.1406 41.5469 Q48.5781 39.3125 48.5781 33.4531 L48.5781 21.7344 Q48.5781 9.4688 49.1406 6.2266 Q49.7031 2.9844 51.375 0 L42.1875 0 Q40.8281 2.7344 40.4375 6.3906 ZM39.7031 26.0312 Q34.9062 24.0781 25.3438 22.7031 Q19.9219 21.9219 17.6797 20.9453 Q15.4375 19.9688 14.2109 18.0938 Q12.9844 16.2188 12.9844 13.9219 Q12.9844 10.4062 15.6484 8.0625 Q18.3125 5.7188 23.4375 5.7188 Q28.5156 5.7188 32.4688 7.9375 Q36.4219 10.1562 38.2812 14.0156 Q39.7031 17 39.7031 22.7969 L39.7031 26.0312 Z"
        /><glyph unicode="t" horiz-adv-x="27.783203" d="M25.7812 7.8594 L27.0469 0.0938 Q23.3438 -0.6875 20.4062 -0.6875 Q15.625 -0.6875 12.9922 0.8281 Q10.3594 2.3438 9.2812 4.8125 Q8.2031 7.2812 8.2031 15.1875 L8.2031 45.0156 L1.7656 45.0156 L1.7656 51.8594 L8.2031 51.8594 L8.2031 64.7031 L16.9375 69.9688 L16.9375 51.8594 L25.7812 51.8594 L25.7812 45.0156 L16.9375 45.0156 L16.9375 14.7031 Q16.9375 10.9375 17.4062 9.8672 Q17.875 8.7969 18.9219 8.1562 Q19.9688 7.5156 21.9219 7.5156 Q23.3906 7.5156 25.7812 7.8594 Z"
        /><glyph unicode="l" horiz-adv-x="22.216797" d="M6.3906 0 L6.3906 71.5781 L15.1875 71.5781 L15.1875 0 L6.3906 0 Z"
        /><glyph unicode="o" horiz-adv-x="55.615234" d="M3.3281 25.9219 Q3.3281 40.3281 11.3281 47.2656 Q18.0156 53.0312 27.6406 53.0312 Q38.3281 53.0312 45.1172 46.0234 Q51.9062 39.0156 51.9062 26.6562 Q51.9062 16.6562 48.9062 10.9141 Q45.9062 5.1719 40.1641 2 Q34.4219 -1.1719 27.6406 -1.1719 Q16.75 -1.1719 10.0391 5.8125 Q3.3281 12.7969 3.3281 25.9219 ZM12.3594 25.9219 Q12.3594 15.9688 16.7031 11.0156 Q21.0469 6.0625 27.6406 6.0625 Q34.1875 6.0625 38.5312 11.0391 Q42.875 16.0156 42.875 26.2188 Q42.875 35.8438 38.5 40.7969 Q34.125 45.75 27.6406 45.75 Q21.0469 45.75 16.7031 40.8203 Q12.3594 35.8906 12.3594 25.9219 Z"
        /><glyph unicode="V" horiz-adv-x="66.69922" d="M28.1719 0 L0.4375 71.5781 L10.6875 71.5781 L29.2969 19.5781 Q31.5469 13.3281 33.0625 7.8594 Q34.7188 13.7188 36.9219 19.5781 L56.25 71.5781 L65.9219 71.5781 L37.8906 0 L28.1719 0 Z"
      /></font
      ><font horiz-adv-x="75.0" id="font2"
      ><font-face ascent="65.42969" descent="22.558594" units-per-em="100" style="font-style:normal; font-family:mwb_cmsy10; font-weight:normal;"
        /><missing-glyph horiz-adv-x="75.0" d="M12.5 0 L12.5 62.5 L62.5 62.5 L62.5 0 L12.5 0 ZM60.8906 1.6094 L60.8906 60.8906 L14.1094 60.8906 L14.1094 1.6094 L60.8906 1.6094 Z"
        /><glyph unicode="#" horiz-adv-x="77.68555" d="M14.7031 2.875 Q14.7031 3.6562 15.1875 4.2969 L35.9844 25 L15.1875 45.7969 Q14.7031 46.2969 14.7031 47.125 Q14.7031 47.8594 15.2891 48.4922 Q15.875 49.125 16.7031 49.125 Q17.3906 49.125 18.2188 48.4844 L38.9219 27.7812 L59.5156 48.4844 Q60.3594 49.125 60.9844 49.125 Q61.8125 49.125 62.3984 48.5391 Q62.9844 47.9531 62.9844 47.125 Q62.9844 46.2969 62.5 45.7969 L41.7031 25 L62.5 4.2969 Q62.9844 3.6562 62.9844 2.875 Q62.9844 2.0469 62.3984 1.4609 Q61.8125 0.875 60.9844 0.875 Q60.25 0.875 59.5156 1.6094 L38.9219 22.2188 L18.2188 1.6094 Q17.4844 0.875 16.7031 0.875 Q15.875 0.875 15.2891 1.5156 Q14.7031 2.1562 14.7031 2.875 Z"
      /></font
      ><font horiz-adv-x="75.0" id="font3"
      ><font-face ascent="100.53711" descent="21.972656" units-per-em="100" style="font-style:normal; font-family:Dialog; font-weight:bold;"
        /><missing-glyph horiz-adv-x="75.0" d="M12.5 0 L12.5 62.5 L62.5 62.5 L62.5 0 L12.5 0 ZM14.0625 1.5625 L60.9375 1.5625 L60.9375 60.9375 L14.0625 60.9375 L14.0625 1.5625 Z"
        /><glyph unicode="a" horiz-adv-x="55.615234" d="M17.4375 36.0312 L4.9844 38.2812 Q7.0781 45.7969 12.2031 49.4141 Q17.3281 53.0312 27.4375 53.0312 Q36.625 53.0312 41.1172 50.8594 Q45.6094 48.6875 47.4375 45.3438 Q49.2656 42 49.2656 33.0625 L49.125 17.0469 Q49.125 10.2031 49.7812 6.9609 Q50.4375 3.7188 52.25 0 L38.6719 0 Q38.1406 1.375 37.3594 4.0469 Q37.0156 5.2812 36.8594 5.6719 Q33.3438 2.25 29.3438 0.5391 Q25.3438 -1.1719 20.7969 -1.1719 Q12.7969 -1.1719 8.1797 3.1719 Q3.5625 7.5156 3.5625 14.1562 Q3.5625 18.5625 5.6641 22 Q7.7656 25.4375 11.5469 27.2734 Q15.3281 29.1094 22.4688 30.4688 Q32.0781 32.2812 35.7969 33.8438 L35.7969 35.2031 Q35.7969 39.1562 33.8438 40.8438 Q31.8906 42.5312 26.4688 42.5312 Q22.7969 42.5312 20.75 41.0938 Q18.7031 39.6562 17.4375 36.0312 ZM35.7969 24.9062 Q33.1562 24.0312 27.4453 22.8047 Q21.7344 21.5781 19.9688 20.4062 Q17.2812 18.5 17.2812 15.5781 Q17.2812 12.7031 19.4297 10.6016 Q21.5781 8.5 24.9062 8.5 Q28.6094 8.5 31.9844 10.9375 Q34.4688 12.7969 35.25 15.4844 Q35.7969 17.2344 35.7969 22.1719 L35.7969 24.9062 Z"
        /><glyph unicode="g" horiz-adv-x="61.083984" d="M5.9062 -3.4219 L21.5781 -5.3281 Q21.9688 -8.0625 23.3906 -9.0781 Q25.3438 -10.5469 29.5469 -10.5469 Q34.9062 -10.5469 37.5938 -8.9375 Q39.4062 -7.8594 40.3281 -5.4688 Q40.9688 -3.7656 40.9688 0.8281 L40.9688 8.4062 Q34.8125 0 25.4375 0 Q14.9844 0 8.8906 8.8438 Q4.1094 15.8281 4.1094 26.2188 Q4.1094 39.2656 10.3828 46.1484 Q16.6562 53.0312 25.9844 53.0312 Q35.5938 53.0312 41.8438 44.5781 L41.8438 51.8594 L54.6875 51.8594 L54.6875 5.3281 Q54.6875 -3.8594 53.1719 -8.3984 Q51.6562 -12.9375 48.9219 -15.5234 Q46.1875 -18.1094 41.625 -19.5781 Q37.0625 -21.0469 30.0781 -21.0469 Q16.8906 -21.0469 11.375 -16.5312 Q5.8594 -12.0156 5.8594 -5.0781 Q5.8594 -4.3906 5.9062 -3.4219 ZM18.1719 27 Q18.1719 18.75 21.3672 14.9141 Q24.5625 11.0781 29.25 11.0781 Q34.2812 11.0781 37.75 15.0156 Q41.2188 18.9531 41.2188 26.6562 Q41.2188 34.7188 37.8984 38.625 Q34.5781 42.5312 29.5 42.5312 Q24.5625 42.5312 21.3672 38.6953 Q18.1719 34.8594 18.1719 27 Z"
        /><glyph unicode="u" horiz-adv-x="61.083984" d="M41.3125 0 L41.3125 7.7656 Q38.4844 3.6094 33.8672 1.2188 Q29.25 -1.1719 24.125 -1.1719 Q18.8906 -1.1719 14.7422 1.125 Q10.5938 3.4219 8.7422 7.5703 Q6.8906 11.7188 6.8906 19.0469 L6.8906 51.8594 L20.6094 51.8594 L20.6094 28.0312 Q20.6094 17.0938 21.3672 14.625 Q22.125 12.1562 24.125 10.7188 Q26.125 9.2812 29.2031 9.2812 Q32.7188 9.2812 35.5 11.2109 Q38.2812 13.1406 39.3047 15.9922 Q40.3281 18.8438 40.3281 29.9844 L40.3281 51.8594 L54.0469 51.8594 L54.0469 0 L41.3125 0 Z"
        /><glyph unicode="n" horiz-adv-x="61.083984" d="M54.3438 0 L40.625 0 L40.625 26.4688 Q40.625 34.8594 39.75 37.3281 Q38.875 39.7969 36.8906 41.1641 Q34.9062 42.5312 32.125 42.5312 Q28.5625 42.5312 25.7344 40.5781 Q22.9062 38.625 21.8516 35.3984 Q20.7969 32.1719 20.7969 23.4844 L20.7969 0 L7.0781 0 L7.0781 51.8594 L19.8281 51.8594 L19.8281 44.2344 Q26.6094 53.0312 36.9219 53.0312 Q41.4531 53.0312 45.2109 51.3906 Q48.9688 49.75 50.8984 47.2109 Q52.8281 44.6719 53.5859 41.4531 Q54.3438 38.2344 54.3438 32.2344 L54.3438 0 Z"
        /><glyph unicode="o" horiz-adv-x="61.083984" d="M4 26.6562 Q4 33.5 7.375 39.8984 Q10.75 46.2969 16.9219 49.6641 Q23.0938 53.0312 30.7188 53.0312 Q42.4844 53.0312 50 45.3906 Q57.5156 37.75 57.5156 26.0781 Q57.5156 14.3125 49.9219 6.5703 Q42.3281 -1.1719 30.8125 -1.1719 Q23.6875 -1.1719 17.2188 2.0547 Q10.75 5.2812 7.375 11.5 Q4 17.7188 4 26.6562 ZM18.0625 25.9219 Q18.0625 18.2188 21.7266 14.1172 Q25.3906 10.0156 30.7656 10.0156 Q36.1406 10.0156 39.7734 14.1172 Q43.4062 18.2188 43.4062 26.0312 Q43.4062 33.6406 39.7734 37.7422 Q36.1406 41.8438 30.7656 41.8438 Q25.3906 41.8438 21.7266 37.7422 Q18.0625 33.6406 18.0625 25.9219 Z"
        /><glyph unicode="p" horiz-adv-x="61.083984" d="M6.7812 51.8594 L19.5781 51.8594 L19.5781 44.2344 Q22.0781 48.1406 26.3203 50.5859 Q30.5625 53.0312 35.75 53.0312 Q44.7812 53.0312 51.0781 45.9531 Q57.375 38.875 57.375 26.2188 Q57.375 13.2344 51.0234 6.0312 Q44.6719 -1.1719 35.6406 -1.1719 Q31.3438 -1.1719 27.8516 0.5391 Q24.3594 2.25 20.5156 6.3906 L20.5156 -19.7344 L6.7812 -19.7344 L6.7812 51.8594 ZM20.3594 26.8125 Q20.3594 18.0625 23.8281 13.8906 Q27.2969 9.7188 32.2812 9.7188 Q37.0625 9.7188 40.2344 13.5547 Q43.4062 17.3906 43.4062 26.125 Q43.4062 34.2812 40.1328 38.2344 Q36.8594 42.1875 32.0312 42.1875 Q27 42.1875 23.6797 38.3047 Q20.3594 34.4219 20.3594 26.8125 Z"
        /><glyph unicode="s" horiz-adv-x="55.615234" d="M2.3438 14.7969 L16.1094 16.8906 Q17 12.8906 19.6797 10.8125 Q22.3594 8.7344 27.2031 8.7344 Q32.5156 8.7344 35.2031 10.6875 Q37.0156 12.0625 37.0156 14.3594 Q37.0156 15.9219 36.0312 16.9375 Q35.0156 17.9219 31.4531 18.75 Q14.8438 22.4062 10.4062 25.4375 Q4.25 29.6406 4.25 37.1094 Q4.25 43.8438 9.5703 48.4375 Q14.8906 53.0312 26.0781 53.0312 Q36.7188 53.0312 41.8984 49.5625 Q47.0781 46.0938 49.0312 39.3125 L36.0781 36.9219 Q35.25 39.9375 32.9297 41.5547 Q30.6094 43.1719 26.3125 43.1719 Q20.9062 43.1719 18.5625 41.6562 Q17 40.5781 17 38.875 Q17 37.4062 18.3594 36.375 Q20.2188 35.0156 31.1797 32.5234 Q42.1406 30.0312 46.4844 26.4219 Q50.7812 22.75 50.7812 16.2188 Q50.7812 9.0781 44.8281 3.9531 Q38.875 -1.1719 27.2031 -1.1719 Q16.6094 -1.1719 10.4297 3.125 Q4.25 7.4219 2.3438 14.7969 Z"
        /><glyph unicode=" " horiz-adv-x="27.783203" d=""
        /><glyph unicode="r" horiz-adv-x="38.916016" d="M20.3125 0 L6.5938 0 L6.5938 51.8594 L19.3438 51.8594 L19.3438 44.4844 Q22.6094 49.7031 25.2188 51.3672 Q27.8281 53.0312 31.1562 53.0312 Q35.8438 53.0312 40.1875 50.4375 L35.9375 38.4844 Q32.4688 40.7188 29.5 40.7188 Q26.6094 40.7188 24.6094 39.1328 Q22.6094 37.5469 21.4609 33.3984 Q20.3125 29.25 20.3125 16.0156 L20.3125 0 Z"
        /><glyph unicode="e" horiz-adv-x="55.615234" d="M37.2031 16.5 L50.875 14.2031 Q48.25 6.6875 42.5547 2.7578 Q36.8594 -1.1719 28.3281 -1.1719 Q14.7969 -1.1719 8.2969 7.6719 Q3.1719 14.75 3.1719 25.5312 Q3.1719 38.4219 9.9141 45.7266 Q16.6562 53.0312 26.9531 53.0312 Q38.5312 53.0312 45.2188 45.3906 Q51.9062 37.75 51.6094 21.9688 L17.2344 21.9688 Q17.3906 15.875 20.5625 12.4766 Q23.7344 9.0781 28.4688 9.0781 Q31.6875 9.0781 33.8828 10.8359 Q36.0781 12.5938 37.2031 16.5 ZM37.9844 30.375 Q37.8438 36.3281 34.9141 39.4297 Q31.9844 42.5312 27.7812 42.5312 Q23.2969 42.5312 20.3594 39.2656 Q17.4375 35.9844 17.4844 30.375 L37.9844 30.375 Z"
        /><glyph unicode="t" horiz-adv-x="33.30078" d="M30.9531 51.8594 L30.9531 40.9219 L21.5781 40.9219 L21.5781 20.0156 Q21.5781 13.6719 21.8516 12.625 Q22.125 11.5781 23.0781 10.8906 Q24.0312 10.2031 25.3906 10.2031 Q27.2969 10.2031 30.9062 11.5312 L32.0781 0.875 Q27.2969 -1.1719 21.2344 -1.1719 Q17.5312 -1.1719 14.5547 0.0703 Q11.5781 1.3125 10.1875 3.2969 Q8.7969 5.2812 8.25 8.6406 Q7.8125 11.0312 7.8125 18.3125 L7.8125 40.9219 L1.5156 40.9219 L1.5156 51.8594 L7.8125 51.8594 L7.8125 62.1562 L21.5781 70.1719 L21.5781 51.8594 L30.9531 51.8594 Z"
        /><glyph unicode="l" horiz-adv-x="27.783203" d="M7.1719 0 L7.1719 71.5781 L20.9062 71.5781 L20.9062 0 L7.1719 0 Z"
        /><glyph unicode="i" horiz-adv-x="27.783203" d="M7.1719 58.8906 L7.1719 71.5781 L20.9062 71.5781 L20.9062 58.8906 L7.1719 58.8906 ZM7.1719 0 L7.1719 51.8594 L20.9062 51.8594 L20.9062 0 L7.1719 0 Z"
        /><glyph unicode="F" horiz-adv-x="61.083984" d="M7.375 0 L7.375 71.5781 L56.4531 71.5781 L56.4531 59.4688 L21.8281 59.4688 L21.8281 42.5312 L51.7031 42.5312 L51.7031 30.4219 L21.8281 30.4219 L21.8281 0 L7.375 0 Z"
      /></font
    ></defs
    ><g style="fill:white; stroke:white;"
    ><rect x="0" y="0" width="1920" style="clip-path:url(#clipPath1); stroke:none;" height="964"
    /></g
    ><g style="fill:white; text-rendering:optimizeSpeed; color-rendering:optimizeSpeed; image-rendering:optimizeSpeed; shape-rendering:crispEdges; color-interpolation:sRGB; stroke:white;"
    ><rect x="0" width="1920" height="964" y="0" style="stroke:none;"
      /><path style="stroke:none;" d="M250 858 L1738 858 L1738 72 L250 72 Z"
    /></g
    ><g style="stroke-linecap:butt; fill-opacity:0.149; fill:rgb(38,38,38); text-rendering:geometricPrecision; color-rendering:optimizeQuality; image-rendering:optimizeQuality; stroke-linejoin:round; color-interpolation:linearRGB; stroke:rgb(38,38,38); stroke-width:0.6667; stroke-opacity:0.149;"
    ><line y2="72" style="fill:none;" x1="250" x2="250" y1="858"
      /><line y2="72" style="fill:none;" x1="462.5714" x2="462.5714" y1="858"
      /><line y2="72" style="fill:none;" x1="675.1429" x2="675.1429" y1="858"
      /><line y2="72" style="fill:none;" x1="887.7143" x2="887.7143" y1="858"
      /><line y2="72" style="fill:none;" x1="1100.2858" x2="1100.2858" y1="858"
      /><line y2="72" style="fill:none;" x1="1312.8572" x2="1312.8572" y1="858"
      /><line y2="72" style="fill:none;" x1="1525.4286" x2="1525.4286" y1="858"
      /><line y2="72" style="fill:none;" x1="1738" x2="1738" y1="858"
      /><line y2="858" style="fill:none;" x1="1738" x2="250" y1="858"
      /><line y2="759.75" style="fill:none;" x1="1738" x2="250" y1="759.75"
      /><line y2="661.5" style="fill:none;" x1="1738" x2="250" y1="661.5"
      /><line y2="563.25" style="fill:none;" x1="1738" x2="250" y1="563.25"
      /><line y2="465" style="fill:none;" x1="1738" x2="250" y1="465"
      /><line y2="366.75" style="fill:none;" x1="1738" x2="250" y1="366.75"
      /><line y2="268.5" style="fill:none;" x1="1738" x2="250" y1="268.5"
      /><line y2="170.25" style="fill:none;" x1="1738" x2="250" y1="170.25"
      /><line y2="72" style="fill:none;" x1="1738" x2="250" y1="72"
      /><line x1="250" x2="1738" y1="858" style="stroke-linecap:square; fill-opacity:1; fill:none; stroke-opacity:1;" y2="858"
      /><line x1="250" x2="1738" y1="72" style="stroke-linecap:square; fill-opacity:1; fill:none; stroke-opacity:1;" y2="72"
      /><line x1="250" x2="250" y1="858" style="stroke-linecap:square; fill-opacity:1; fill:none; stroke-opacity:1;" y2="843.12"
      /><line x1="462.5714" x2="462.5714" y1="858" style="stroke-linecap:square; fill-opacity:1; fill:none; stroke-opacity:1;" y2="843.12"
      /><line x1="675.1429" x2="675.1429" y1="858" style="stroke-linecap:square; fill-opacity:1; fill:none; stroke-opacity:1;" y2="843.12"
      /><line x1="887.7143" x2="887.7143" y1="858" style="stroke-linecap:square; fill-opacity:1; fill:none; stroke-opacity:1;" y2="843.12"
      /><line x1="1100.2858" x2="1100.2858" y1="858" style="stroke-linecap:square; fill-opacity:1; fill:none; stroke-opacity:1;" y2="843.12"
      /><line x1="1312.8572" x2="1312.8572" y1="858" style="stroke-linecap:square; fill-opacity:1; fill:none; stroke-opacity:1;" y2="843.12"
      /><line x1="1525.4286" x2="1525.4286" y1="858" style="stroke-linecap:square; fill-opacity:1; fill:none; stroke-opacity:1;" y2="843.12"
      /><line x1="1738" x2="1738" y1="858" style="stroke-linecap:square; fill-opacity:1; fill:none; stroke-opacity:1;" y2="843.12"
      /><line x1="250" x2="250" y1="72" style="stroke-linecap:square; fill-opacity:1; fill:none; stroke-opacity:1;" y2="86.88"
      /><line x1="462.5714" x2="462.5714" y1="72" style="stroke-linecap:square; fill-opacity:1; fill:none; stroke-opacity:1;" y2="86.88"
      /><line x1="675.1429" x2="675.1429" y1="72" style="stroke-linecap:square; fill-opacity:1; fill:none; stroke-opacity:1;" y2="86.88"
      /><line x1="887.7143" x2="887.7143" y1="72" style="stroke-linecap:square; fill-opacity:1; fill:none; stroke-opacity:1;" y2="86.88"
      /><line x1="1100.2858" x2="1100.2858" y1="72" style="stroke-linecap:square; fill-opacity:1; fill:none; stroke-opacity:1;" y2="86.88"
      /><line x1="1312.8572" x2="1312.8572" y1="72" style="stroke-linecap:square; fill-opacity:1; fill:none; stroke-opacity:1;" y2="86.88"
      /><line x1="1525.4286" x2="1525.4286" y1="72" style="stroke-linecap:square; fill-opacity:1; fill:none; stroke-opacity:1;" y2="86.88"
      /><line x1="1738" x2="1738" y1="72" style="stroke-linecap:square; fill-opacity:1; fill:none; stroke-opacity:1;" y2="86.88"
    /></g
    ><g transform="translate(250,863.3333)" style="font-size:13px; fill:rgb(38,38,38); text-rendering:geometricPrecision; color-rendering:optimizeQuality; image-rendering:optimizeQuality; color-interpolation:linearRGB; stroke:rgb(38,38,38);"
    ><text x="-4" xml:space="preserve" y="14" style="stroke:none;"
      >0</text
    ></g
    ><g transform="translate(462.5714,863.3333)" style="font-size:13px; fill:rgb(38,38,38); text-rendering:geometricPrecision; color-rendering:optimizeQuality; image-rendering:optimizeQuality; color-interpolation:linearRGB; stroke:rgb(38,38,38);"
    ><text x="-4" xml:space="preserve" y="14" style="stroke:none;"
      >1</text
    ></g
    ><g transform="translate(675.1429,863.3333)" style="font-size:13px; fill:rgb(38,38,38); text-rendering:geometricPrecision; color-rendering:optimizeQuality; image-rendering:optimizeQuality; color-interpolation:linearRGB; stroke:rgb(38,38,38);"
    ><text x="-4" xml:space="preserve" y="14" style="stroke:none;"
      >2</text
    ></g
    ><g transform="translate(887.7143,863.3333)" style="font-size:13px; fill:rgb(38,38,38); text-rendering:geometricPrecision; color-rendering:optimizeQuality; image-rendering:optimizeQuality; color-interpolation:linearRGB; stroke:rgb(38,38,38);"
    ><text x="-4" xml:space="preserve" y="14" style="stroke:none;"
      >3</text
    ></g
    ><g transform="translate(1100.2858,863.3333)" style="font-size:13px; fill:rgb(38,38,38); text-rendering:geometricPrecision; color-rendering:optimizeQuality; image-rendering:optimizeQuality; color-interpolation:linearRGB; stroke:rgb(38,38,38);"
    ><text x="-4" xml:space="preserve" y="14" style="stroke:none;"
      >4</text
    ></g
    ><g transform="translate(1312.8572,863.3333)" style="font-size:13px; fill:rgb(38,38,38); text-rendering:geometricPrecision; color-rendering:optimizeQuality; image-rendering:optimizeQuality; color-interpolation:linearRGB; stroke:rgb(38,38,38);"
    ><text x="-4" xml:space="preserve" y="14" style="stroke:none;"
      >5</text
    ></g
    ><g transform="translate(1525.4286,863.3333)" style="font-size:13px; fill:rgb(38,38,38); text-rendering:geometricPrecision; color-rendering:optimizeQuality; image-rendering:optimizeQuality; color-interpolation:linearRGB; stroke:rgb(38,38,38);"
    ><text x="-4" xml:space="preserve" y="14" style="stroke:none;"
      >6</text
    ></g
    ><g transform="translate(1738,863.3333)" style="font-size:13px; fill:rgb(38,38,38); text-rendering:geometricPrecision; color-rendering:optimizeQuality; image-rendering:optimizeQuality; color-interpolation:linearRGB; stroke:rgb(38,38,38);"
    ><text x="-4" xml:space="preserve" y="14" style="stroke:none;"
      >7</text
    ></g
    ><g transform="translate(994.0007,881.6666)" style="font-size:15px; fill:rgb(38,38,38); text-rendering:geometricPrecision; color-rendering:optimizeQuality; image-rendering:optimizeQuality; color-interpolation:linearRGB; stroke:rgb(38,38,38);"
    ><text x="-27.5" xml:space="preserve" y="16" style="stroke:none;"
      >Time (s)</text
    ></g
    ><g transform="translate(1702,900)" style="font-size:13px; fill:rgb(38,38,38); text-rendering:geometricPrecision; color-rendering:optimizeQuality; image-rendering:optimizeQuality; font-family:'mwb_cmsy10'; color-interpolation:linearRGB; stroke:rgb(38,38,38);"
    ><text x="0" xml:space="preserve" y="0" style="stroke:none;"
      >#</text
    ></g
    ><g transform="translate(1713,900)" style="font-size:13px; fill:rgb(38,38,38); text-rendering:geometricPrecision; color-rendering:optimizeQuality; image-rendering:optimizeQuality; color-interpolation:linearRGB; stroke:rgb(38,38,38);"
    ><text x="0" xml:space="preserve" y="0" style="stroke:none;"
      >10</text
    ></g
    ><g transform="translate(1728,894)" style="font-size:11px; fill:rgb(38,38,38); text-rendering:geometricPrecision; color-rendering:optimizeQuality; image-rendering:optimizeQuality; color-interpolation:linearRGB; stroke:rgb(38,38,38);"
    ><text x="0" xml:space="preserve" y="0" style="stroke:none;"
      >-3</text
    ></g
    ><g style="fill:rgb(38,38,38); text-rendering:geometricPrecision; color-rendering:optimizeQuality; image-rendering:optimizeQuality; stroke-linejoin:round; color-interpolation:linearRGB; stroke:rgb(38,38,38); stroke-width:0.6667;"
    ><line y2="72" style="fill:none;" x1="250" x2="250" y1="858"
      /><line y2="72" style="fill:none;" x1="1738" x2="1738" y1="858"
      /><line y2="858" style="fill:none;" x1="250" x2="264.88" y1="858"
      /><line y2="759.75" style="fill:none;" x1="250" x2="264.88" y1="759.75"
      /><line y2="661.5" style="fill:none;" x1="250" x2="264.88" y1="661.5"
      /><line y2="563.25" style="fill:none;" x1="250" x2="264.88" y1="563.25"
      /><line y2="465" style="fill:none;" x1="250" x2="264.88" y1="465"
      /><line y2="366.75" style="fill:none;" x1="250" x2="264.88" y1="366.75"
      /><line y2="268.5" style="fill:none;" x1="250" x2="264.88" y1="268.5"
      /><line y2="170.25" style="fill:none;" x1="250" x2="264.88" y1="170.25"
      /><line y2="72" style="fill:none;" x1="250" x2="264.88" y1="72"
      /><line y2="858" style="fill:none;" x1="1738" x2="1723.12" y1="858"
      /><line y2="759.75" style="fill:none;" x1="1738" x2="1723.12" y1="759.75"
      /><line y2="661.5" style="fill:none;" x1="1738" x2="1723.12" y1="661.5"
      /><line y2="563.25" style="fill:none;" x1="1738" x2="1723.12" y1="563.25"
      /><line y2="465" style="fill:none;" x1="1738" x2="1723.12" y1="465"
      /><line y2="366.75" style="fill:none;" x1="1738" x2="1723.12" y1="366.75"
      /><line y2="268.5" style="fill:none;" x1="1738" x2="1723.12" y1="268.5"
      /><line y2="170.25" style="fill:none;" x1="1738" x2="1723.12" y1="170.25"
      /><line y2="72" style="fill:none;" x1="1738" x2="1723.12" y1="72"
    /></g
    ><g transform="translate(244.6667,858)" style="font-size:13px; fill:rgb(38,38,38); text-rendering:geometricPrecision; color-rendering:optimizeQuality; image-rendering:optimizeQuality; color-interpolation:linearRGB; stroke:rgb(38,38,38);"
    ><text x="-12" xml:space="preserve" y="5.5" style="stroke:none;"
      >-4</text
    ></g
    ><g transform="translate(244.6667,759.75)" style="font-size:13px; fill:rgb(38,38,38); text-rendering:geometricPrecision; color-rendering:optimizeQuality; image-rendering:optimizeQuality; color-interpolation:linearRGB; stroke:rgb(38,38,38);"
    ><text x="-12" xml:space="preserve" y="5.5" style="stroke:none;"
      >-3</text
    ></g
    ><g transform="translate(244.6667,661.5)" style="font-size:13px; fill:rgb(38,38,38); text-rendering:geometricPrecision; color-rendering:optimizeQuality; image-rendering:optimizeQuality; color-interpolation:linearRGB; stroke:rgb(38,38,38);"
    ><text x="-12" xml:space="preserve" y="5.5" style="stroke:none;"
      >-2</text
    ></g
    ><g transform="translate(244.6667,563.25)" style="font-size:13px; fill:rgb(38,38,38); text-rendering:geometricPrecision; color-rendering:optimizeQuality; image-rendering:optimizeQuality; color-interpolation:linearRGB; stroke:rgb(38,38,38);"
    ><text x="-12" xml:space="preserve" y="5.5" style="stroke:none;"
      >-1</text
    ></g
    ><g transform="translate(244.6667,465)" style="font-size:13px; fill:rgb(38,38,38); text-rendering:geometricPrecision; color-rendering:optimizeQuality; image-rendering:optimizeQuality; color-interpolation:linearRGB; stroke:rgb(38,38,38);"
    ><text x="-8" xml:space="preserve" y="5.5" style="stroke:none;"
      >0</text
    ></g
    ><g transform="translate(244.6667,366.75)" style="font-size:13px; fill:rgb(38,38,38); text-rendering:geometricPrecision; color-rendering:optimizeQuality; image-rendering:optimizeQuality; color-interpolation:linearRGB; stroke:rgb(38,38,38);"
    ><text x="-8" xml:space="preserve" y="5.5" style="stroke:none;"
      >1</text
    ></g
    ><g transform="translate(244.6667,268.5)" style="font-size:13px; fill:rgb(38,38,38); text-rendering:geometricPrecision; color-rendering:optimizeQuality; image-rendering:optimizeQuality; color-interpolation:linearRGB; stroke:rgb(38,38,38);"
    ><text x="-8" xml:space="preserve" y="5.5" style="stroke:none;"
      >2</text
    ></g
    ><g transform="translate(244.6667,170.25)" style="font-size:13px; fill:rgb(38,38,38); text-rendering:geometricPrecision; color-rendering:optimizeQuality; image-rendering:optimizeQuality; color-interpolation:linearRGB; stroke:rgb(38,38,38);"
    ><text x="-8" xml:space="preserve" y="5.5" style="stroke:none;"
      >3</text
    ></g
    ><g transform="translate(244.6667,72)" style="font-size:13px; fill:rgb(38,38,38); text-rendering:geometricPrecision; color-rendering:optimizeQuality; image-rendering:optimizeQuality; color-interpolation:linearRGB; stroke:rgb(38,38,38);"
    ><text x="-8" xml:space="preserve" y="5.5" style="stroke:none;"
      >4</text
    ></g
    ><g transform="translate(228.6667,464.9996) rotate(-90)" style="font-size:15px; fill:rgb(38,38,38); text-rendering:geometricPrecision; color-rendering:optimizeQuality; image-rendering:optimizeQuality; color-interpolation:linearRGB; stroke:rgb(38,38,38);"
    ><text x="-38" xml:space="preserve" y="-4" style="stroke:none;"
      >Voltage (V)</text
    ></g
    ><g transform="translate(994.001,69.25)" style="font-size:15px; text-rendering:geometricPrecision; color-rendering:optimizeQuality; image-rendering:optimizeQuality; color-interpolation:linearRGB; font-weight:bold;"
    ><text x="-107.5" xml:space="preserve" y="-4" style="stroke:none;"
      >Filter response to input signal</text
    ></g
    ><g style="stroke-linecap:butt; fill:rgb(0,114,189); text-rendering:geometricPrecision; color-rendering:optimizeQuality; image-rendering:optimizeQuality; stroke-linejoin:round; color-interpolation:linearRGB; stroke:rgb(0,114,189); stroke-width:0.6667;"
    ><path d="M250 81.825 L252.6572 130.1893 L255.3143 253.0872 L257.9714 395.1101 L260.6286 495.3736 L263.2857 517.4867 L265.9429 466.4037 L268.6 383.7986 L271.2571 324.8565 L273.9143 328.9518 L276.5714 399.5598 L279.2286 503.5503 L281.8857 589.6045 L284.5428 615.5038 L287.2 569.7027 L289.8571 476.1049 L292.5143 380.2197 L295.1714 324.8118 L297.8286 328.4228 L300.4857 378.0559 L303.1429 439.1996 L305.8 476.8081 L308.4572 475.1043 L311.1143 445.1829 L313.7714 416.5923 L316.4286 418.2427 L319.0857 459.9676 L321.7429 525.5554 L324.4 581.393 L327.0571 595.8404 L329.7143 558.1793 L332.3714 486.0321 L335.0286 416.5652 L337.6857 386.0068 L340.3429 408.8642 L343 468.775 L345.6571 526.7278 L348.3143 542.7483 L350.9714 499.3833 L353.6286 413.8129 L356.2857 331.2088 L358.9429 302.0349 L361.6 354.9376 L364.2571 479.7508 L366.9143 630.209 L369.5714 745.6957 L372.2286 781.1674 L374.8857 729.7772 L377.5429 626.2446 L380.2 528.9446 L382.8571 489.8209 L385.5143 527.6771 L388.1714 618.7157 L390.8286 709.225 L393.4857 743.7656 L396.1429 694.1667 L398.8 574.3188 L401.4572 433.2663 L404.1143 330.4628 L406.7714 306.2248 L409.4286 362.6462 L412.0857 464.442 L414.7429 558.5832 L417.4 601.8541 L420.0571 581.7211 L422.7143 519.9769 L425.3714 458.1413 L428.0286 433.3304 L430.6857 458.0357 L433.3429 514.5813 L436 566.6132 L438.6571 580.554 L441.3143 544.6979 L443.9714 475.3244 L446.6286 406.7607 L449.2857 371.4388 L451.9429 381.5396 L454.6 422.7523 L457.2571 463.6415 L459.9143 475.1182 L462.5714 448.6364 L465.2286 402.3415 L467.8857 371.1852 L470.5428 386.2304 L473.2 454.8079 L475.8571 553.1522 L478.5143 636.4894 L481.1714 661.8621 L483.8286 611.5789 L486.4857 504.2881 L489.1429 386.9718 L491.8 311.3726 L494.4572 307.0044 L497.1143 365.1736 L499.7714 442.9512 L502.4286 485.5675 L505.0857 455.7893 L507.7429 354.831 L510.4 223.5112 L513.0571 122.5966 L515.7143 102.227 L518.3714 176.1709 L521.0286 314.2909 L523.6857 457.1862 L526.3428 545.4867 L529 548.7203 L531.6571 479.0322 L534.3143 383.0489 L536.9714 316.5942 L539.6286 315.7282 L542.2857 379.1597 L544.9429 470.7488 L547.6 540.0784 L550.2571 549.6745 L552.9143 494.3465 L555.5714 402.7731 L558.2286 321.2173 L560.8857 288.7505 L563.5428 317.5373 L566.2 388.4755 L568.8571 463.7788 L571.5143 508.8088 L574.1714 510.6931 L576.8286 483.5096 L579.4857 457.6747 L582.1429 460.1658 L584.8 497.2956 L587.4572 550.135 L590.1143 585.3183 L592.7714 575.0439 L595.4286 514.6631 L598.0857 427.424 L600.7429 353.1165 L603.4 326.553 L606.0571 357.8508 L608.7143 425.8792 L611.3715 489.1675 L614.0286 508.8613 L616.6857 471.3134 L619.3428 397.5995 L622 334.0087 L624.6572 327.8501 L627.3143 401.1659 L629.9714 536.5844 L632.6285 683.4922 L635.2857 782.0502 L637.9429 792.966 L640.6 717.5591 L643.2571 597.434 L645.9143 493.6106 L648.5714 455.7116 L651.2286 497.0869 L653.8857 588.7305 L656.5428 675.0716 L659.2 703.3316 L661.8571 651.1365 L664.5143 538.1059 L667.1714 415.6289 L669.8286 340.4465 L672.4857 345.9705 L675.1429 426.1586 L677.8 539.892 L680.4572 632.9298 L683.1143 665.4594 L685.7714 630.7613 L688.4286 555.7189 L691.0857 483.8498 L693.7429 450.7765 L696.4 465.662 L699.0571 508.337 L701.7143 542.903 L704.3715 539.5255 L707.0286 491.8965 L709.6857 420.6494 L712.3428 361.1654 L715 343.058 L717.6572 373.2366 L720.3143 432.2734 L722.9714 486.1118 L725.6285 506.3286 L728.2857 487.1747 L730.9429 449.3384 L733.6 427.8732 L736.2571 450.8476 L738.9143 520.851 L741.5714 610.3071 L744.2286 674.0931 L746.8857 673.2781 L749.5428 597.237 L752.2 471.7167 L754.8571 347.6716 L757.5143 276.0328 L760.1714 281.4553 L762.8286 349.1011 L765.4857 431.941 L768.1429 475.2668 L770.8 445.8245 L773.4572 350.2313 L776.1143 232.7141 L778.7714 152.9646 L781.4286 155.3936 L784.0857 245.7159 L786.7429 387.1032 L789.4 518.0045 L792.0572 582.4841 L794.7143 557.4771 L797.3715 463.0799 L800.0286 350.9338 L802.6857 277.1481 L805.3428 274.0627 L808 335.3867 L810.6571 421.888 L813.3143 483.876 L815.9714 488.0597 L818.6286 434.4997 L821.2857 355.12 L823.9429 295.345 L826.6 289.3573 L829.2571 342.4891 L831.9143 429.8947 L834.5714 511.4831 L837.2286 554.2272 L839.8857 549.2504 L842.5428 514.4326 L845.2 481.6689 L847.8572 476.6054 L850.5143 502.7872 L853.1714 539.4572 L855.8286 554.295 L858.4857 523.704 L861.1429 448.7712 L863.8 357.2945 L866.4572 290.1074 L869.1143 278.9447 L871.7714 328.213 L874.4285 411.2641 L877.0858 483.9538 L879.7429 508.6188 L882.4 475.4892 L885.0571 409.466 L887.7143 357.8422 L890.3715 364.8965 L893.0286 446.7279 L895.6857 580.0706 L898.3428 711.7415 L901 784.4858 L903.6571 766.0819 L906.3143 666.4799 L908.9714 533.7275 L911.6286 430.4138 L914.2857 402.5818 L916.9429 457.0905 L919.6 559.0826 L922.2571 650.7652 L924.9143 681.6461 L927.5714 634.4921 L930.2286 533.6597 L932.8857 431.7762 L935.5429 382.0649 L938.2 410.9283 L940.8572 504.9621 L943.5143 618.721 L946.1714 698.577 L948.8286 709.7624 L951.4857 652.4661 L954.1428 559.1171 L956.8 475.2192 L959.4572 434.7188 L962.1143 443.3266 L964.7714 478.3391 L967.4286 504.1735 L970.0858 494.2394 L972.7429 446.6036 L975.4 384.7825 L978.0571 343.6022 L980.7143 348.5404 L983.3714 400.5595 L986.0286 475.1938 L988.6857 536.4425 L991.3428 557.4929 L994 536.2859 L996.6572 496.7446 L999.3143 474.5874 L1001.9714 495.5321 L1004.6286 558.3301 L1007.2857 632.746 L1009.9429 674.4595 L1012.6 649.3237 L1015.2571 553.792 L1017.9142 419.8593 L1020.5714 300.9317 L1023.2286 245.3739 L1025.8857 271.4772 L1028.5428 357.3216 L1031.2 451.4352 L1033.8572 499.1882 L1036.5143 471.3489 L1039.1714 379.7847 L1041.8286 271.8128 L1044.4857 205.8399 L1047.1428 220.8093 L1049.7999 315.3518 L1052.4572 447.5727 L1055.1143 555.6876 L1057.7715 588.874 L1060.4286 532.4452 L1063.0857 414.5114 L1065.7428 291.0152 L1068.4 217.2461 L1071.0571 220.751 L1073.7142 289.4602 L1076.3715 380.5587 L1079.0286 444.6593 L1081.6858 452.0329 L1084.3428 407.0539 L1087 343.7733 L1089.6571 305.8234 L1092.3143 322.1015 L1094.9714 391.5063 L1097.6285 484.5967 L1100.2858 560.5598 L1102.9429 589.558 L1105.6 567.9225 L1108.2571 518.0389 L1110.9143 473.5824 L1113.5714 458.9987 L1116.2286 475.2181 L1118.8856 499.8429 L1121.5428 501.6352 L1124.2001 460.825 L1126.8572 383.2626 L1129.5143 299.7875 L1132.1714 250.5426 L1134.8286 262.6736 L1137.4857 333.9752 L1140.1428 432.1495 L1142.7999 510.8808 L1145.4572 534.5001 L1148.1143 497.8718 L1150.7715 430.2555 L1153.4286 380.327 L1156.0857 389.8113 L1158.7429 469.6883 L1161.4 592.0341 L1164.0571 702.5315 L1166.7142 747.718 L1169.3715 702.9703 L1172.0286 586.4645 L1174.6857 451.4297 L1177.3428 360.2905 L1180 353.8244 L1182.6572 431.1859 L1185.3143 551.0722 L1187.9714 653.3442 L1190.6285 689.8148 L1193.2858 648.2654 L1195.9429 557.4453 L1198.6 470.8543 L1201.2571 438.1614 L1203.9143 479.3607 L1206.5714 574.9971 L1209.2285 677.0804 L1211.8857 734.3847 L1214.5428 718.4964 L1217.2001 637.0411 L1219.8572 527.7428 L1222.5143 437.3298 L1225.1714 397.17 L1227.8286 408.7525 L1230.4857 446.2608 L1233.1428 473.8893 L1235.7999 467.5695 L1238.4572 428.7242 L1241.1144 382.5405 L1243.7714 362.1959 L1246.4286 388.4356 L1249.0857 456.4296 L1251.7429 537.5781 L1254.4 595.3201 L1257.0571 605.912 L1259.7142 572.1649 L1262.3715 521.9921 L1265.0286 492.202 L1267.6857 506.4874 L1270.3429 560.1792 L1273 620.8999 L1275.6572 645.5318 L1278.3143 604.6684 L1280.9714 501.1015 L1283.6285 371.629 L1286.2858 270.2492 L1288.9429 240.9713 L1291.6 294.4785 L1294.2571 401.3286 L1296.9143 505.9077 L1299.5715 554.3846 L1302.2285 522.291 L1304.8857 427.2454 L1307.5428 319.92 L1310.2001 257.705 L1312.8572 274.6637 L1315.5143 363.4237 L1318.1714 478.4935 L1320.8286 559.3342 L1323.4857 561.2328 L1326.1428 478.0183 L1328.8 345.0137 L1331.4572 220.9827 L1334.1144 158.7077 L1336.7714 179.5176 L1339.4286 264.6625 L1342.0857 367.3362 L1344.7429 438.2943 L1347.4 451.1726 L1350.0571 414.2992 L1352.7142 363.438 L1355.3715 340.2571 L1358.0286 368.7467 L1360.6857 442.429 L1363.3429 528.8583 L1366 588.2403 L1368.6572 595.3653 L1371.3142 552.583 L1373.9714 486.9046 L1376.6285 433.3984 L1379.2858 414.7231 L1381.9429 428.6487 L1384.6 450.6831 L1387.2572 450.1685 L1389.9143 410.3934 L1392.5714 340.8241 L1395.2285 273.9214 L1397.8857 247.7731 L1400.5428 284.0422 L1403.2001 373.7945 L1405.8571 479.7847 L1408.5143 554.7988 L1411.1714 566.5857 L1413.8286 515.8244 L1416.4857 436.8841 L1419.1428 380.2281 L1421.8 385.345 L1424.4572 458.5801 L1427.1143 568.0659 L1429.7714 659.0999 L1432.4286 682.4172 L1435.0857 620.6967 L1437.7429 499.2041 L1440.3999 374.5657 L1443.0571 307.0726 L1445.7144 330.6253 L1448.3715 435.8039 L1451.0286 574.8078 L1453.6857 685.6777 L1456.3429 723.2402 L1459 680.8483 L1461.6571 591.9483 L1464.3142 511.1237 L1466.9714 484.9135 L1469.6285 527.7836 L1472.2858 615.5689 L1474.9429 699.2606 L1477.6 731.2923 L1480.2572 690.1735 L1482.9143 590.6537 L1485.5714 474.6818 L1488.2285 388.7525 L1490.8857 360.2427 L1493.5428 385.3519 L1496.2 434.4787 L1498.8571 471.1568 L1501.5143 473.4091 L1504.1715 445.4697 L1506.8286 413.628 L1509.4857 409.0889 L1512.1428 448.0828 L1514.8 520.8944 L1517.4572 596.2742 L1520.1143 638.8117 L1522.7714 629.3292 L1525.4286 576.4575 L1528.0857 512.4126 L1530.7429 474.9326 L1533.4 485.3463 L1536.0571 535.2856 L1538.7144 590.0537 L1541.3715 607.4893 L1544.0286 562.3416 L1546.6857 462.6411 L1549.3429 348.4386 L1552 272.6561 L1554.6571 273.6377 L1557.3142 353.9183 L1559.9714 476.9114 L1562.6287 583.9766 L1565.2858 623.5104 L1567.9429 577.0933 L1570.6 468.9532 L1573.2572 353.5545 L1575.9143 287.5348" style="fill:none; fill-rule:evenodd;"
      /><path d="M250 81.825 L252.6572 220.5916 L255.3143 398.8994 L257.9714 550.2123 L260.6286 620.8181 L263.2857 595.1439 L265.9429 501.7849 L268.6 397.4601 L271.2571 337.5153 L273.9143 348.3754 L276.5714 415.9893 L279.2286 495.6626 L281.8857 537.3994 L284.5428 512.9639 L287.2 430.4178 L289.8571 328.9561 L292.5143 257.5111 L295.1714 249.07 L297.8286 304.4857 L300.4857 393.9638 L303.1429 474.6008 L305.8 513.749 L308.4572 505.2344 L311.1143 469.89 L313.7714 440.8759 L316.4286 442.755 L319.0857 476.5648 L321.7429 519.4451 L324.4 538.8831 L327.0571 513.1753 L329.7143 446.0524 L332.3714 366.6513 L335.0286 314.3628 L337.6857 316.8342 L340.3429 373.6093 L343 455.0699 L345.6571 517.9515 L348.3143 529.3268 L350.9714 485.8493 L353.6286 417.1855 L356.2857 370.9674 L358.9429 386.7729 L361.6 473.0254 L364.2571 599.6603 L366.9143 711.2994 L369.5714 754.7369 L372.2286 706.6208 L374.8857 586.6744 L377.5429 449.0878 L380.2 356.0668 L382.8571 346.9707 L385.5143 418.9564 L388.1714 529.1736 L390.8286 617.3817 L393.4857 637.2336 L396.1429 580.0057 L398.8 478.5782 L401.4572 389.8397 L404.1143 364.9193 L406.7714 422.8329 L409.4286 541.0832 L412.0857 667.6732 L414.7429 747.7631 L417.4 750.782 L420.0571 684.0098 L422.7143 586.2004 L425.3714 505.5146 L428.0286 474.1216 L430.6857 493.0597 L433.3429 534.8635 L436 561.5642 L438.6571 547.4081 L441.3143 493.4775 L443.9714 426.3439 L446.6286 382.0489 L449.2857 384.9261 L451.9429 433.4908 L454.6 501.4105 L457.2571 552.8654 L459.9143 563.3527 L462.5714 533.8455 L465.2286 489.9731 L467.8857 466.452 L470.5428 485.5496 L473.2 542.0538 L475.8571 603.8641 L478.5143 628.6603 L481.1714 587.9142 L483.8286 484.9342 L486.4857 356.3835 L489.1429 255.4662 L491.8 225.0608 L494.4572 274.9574 L497.1143 375.6775 L499.7714 472.8186 L502.4286 514.9411 L505.0857 480.5521 L507.7429 389.8559 L510.4 294.7152 L513.0571 251.6893 L515.7143 292.0394 L518.3714 404.3889 L521.0286 539.2659 L523.6857 633.3875 L526.3428 641.2487 L529 557.7692 L531.6571 420.4417 L534.3143 290.1085 L536.9714 220.533 L539.6286 232.5416 L542.2857 305.8057 L544.9429 391.8771 L547.6 440.9564 L550.2571 427.9661 L552.9143 364.3573 L555.5714 290.0607 L558.2286 250.6833 L560.8857 272.6865 L563.5428 349.8741 L566.2 447.9415 L568.8571 523.8489 L571.5143 548.8753 L574.1714 522.6285 L576.8286 470.7337 L579.4857 428.2202 L582.1429 418.5558 L584.8 440.4574 L587.4572 469.9147 L590.1143 476.0085 L592.7714 441.135 L595.4286 373.6441 L598.0857 305.1743 L600.7429 273.7239 L603.4 301.8147 L606.0571 382.2523 L608.7143 480.0711 L611.3715 550.3386 L614.0286 562.4747 L616.6857 517.6913 L619.3428 449.4717 L622 406.0709 L624.6572 423.9475 L627.3143 506.3975 L629.9714 619.3481 L632.6285 707.3613 L635.2857 722.0443 L637.9429 648.1239 L640.6 513.2372 L643.2571 375.7729 L645.9143 296.5621 L648.5714 308.8152 L651.2286 401.8159 L653.8857 526.8524 L656.5428 622.3438 L659.2 645.154 L661.8571 591.9341 L664.5143 499.6251 L667.1714 425.1842 L669.8286 415.3812 L672.4857 482.4864 L675.1429 598.3124 L677.8 709.2547 L680.4572 763.9832 L683.1143 739.0779 L685.7714 649.424 L688.4286 538.5991 L691.0857 455.153 L693.7429 427.8781 L696.4 453.1419 L699.0571 500.342 L701.7143 531.5182 L704.3715 523.6373 L707.0286 481.0737 L709.6857 431.7113 L712.3428 409.4669 L715 433.6185 L717.6572 496.9228 L720.3143 569.3143 L722.9714 614.9925 L725.6285 613.0015 L728.2857 569.3573 L730.9429 513.5399 L733.6 481.0956 L736.2571 492.1626 L738.9143 538.3448 L741.5714 585.9379 L744.2286 594.4039 L746.8857 540.2173 L749.5428 432.7198 L752.2 312.5186 L754.8571 232.3025 L757.5143 229.7013 L760.1714 306.6114 L762.8286 426.4715 L765.4857 531.6748 L768.1429 572.5486 L770.8 532.8912 L773.4572 438.5104 L776.1143 343.9278 L778.7714 303.8679 L781.4286 344.2765 L784.0857 448.0406 L786.7429 563.0193 L789.4 628.3737 L792.0572 605.6238 L794.7143 498.3963 L797.3715 350.7512 L800.0286 225.1372 L802.6857 171.5406 L805.3428 203.7464 L808 294.6259 L810.6571 392.2258 L813.3143 447.609 L815.9714 439.5803 L818.6286 383.5873 L821.2857 320.8684 L823.9429 294.4985 L826.6 325.6786 L829.2571 402.9573 L831.9143 489.6263 L834.5714 544.5053 L837.2286 544.2348 L839.8857 494.8015 L842.5428 426.3881 L845.2 375.0822 L847.8572 362.2261 L850.5143 383.233 L853.1714 412.0664 L855.8286 418.5032 L858.4857 387.9312 L861.1429 331.9281 L863.8 283.1077 L866.4572 276.7618 L869.1143 329.5856 L871.7714 427.8124 L874.4285 532.1359 L877.0858 597.4958 L879.7429 597.2823 L882.4 538.5826 L885.0571 459.5508 L887.7143 409.5625 L890.3715 422.3635 L893.0286 496.6619 L895.6857 595.0723 L898.3428 662.7153 L901 656.1776 L903.6571 567.6614 L906.3143 431.2833 L908.9714 307.6337 L911.6286 254.1228 L914.2857 296.2562 L916.9429 414.7195 L919.6 555.052 L922.2571 654.9895 L924.9143 675.3923 L927.5714 618.8839 L930.2286 526.8173 L932.8857 456.5215 L935.5429 450.9693 L938.2 516.7177 L940.8572 621.3387 L943.5143 711.1569 L946.1714 739.4996 L948.8286 690.4581 L951.4857 585.9601 L954.1428 473.1109 L956.8 399.2405 L959.4572 388.2884 L962.1143 430.8871 L964.7714 492.6604 L967.4286 535.2576 L970.0858 537.9695 L972.7429 507.9673 L975.4 473.9666 L978.0571 467.5722 L980.7143 503.3964 L983.3714 569.5125 L986.0286 633.7234 L988.6857 661.991 L991.3428 638.3499 L994 574.6942 L996.6572 504.534 L999.3143 463.9676 L1001.9714 470.5732 L1004.6286 512.4109 L1007.2857 553.9038 L1009.9429 555.9317 L1012.6 499.2589 L1015.2571 398.0623 L1017.9142 295.3269 L1020.5714 241.6583 L1023.2286 268.3416 L1025.8857 369.1214 L1028.5428 501.0118 L1031.2 604.5286 L1033.8572 633.3036 L1036.5143 577.7244 L1039.1714 470.0212 L1041.8286 367.7708 L1044.4857 324.1124 L1047.1428 360.0789 L1049.7999 453.4993 L1052.4572 550.3624 L1055.1143 592.8172 L1057.7715 549.2967 L1060.4286 431.1604 L1063.0857 287.3205 L1065.7428 179.8 L1068.4 153.0071 L1071.0571 212.5529 L1073.7142 324.1925 L1076.3715 432.8017 L1079.0286 490.9318 L1081.6858 481.8516 L1084.3428 425.402 L1087 364.4489 L1089.6571 340.0376 L1092.3143 369.0171 L1094.9714 436.0131 L1097.6285 503.4246 L1100.2858 533.2045 L1102.9429 507.9925 L1105.6 439.9646 L1108.2571 362.9445 L1110.9143 312.7698 L1113.5714 307.3514 L1116.2286 337.7649 L1118.8856 375.2285 L1121.5428 389.6564 L1124.2001 368.8259 L1126.8572 326.8147 L1129.5143 296.4868 L1132.1714 310.0073 L1134.8286 378.4452 L1137.4857 482.4306 L1140.1428 579.918 L1142.7999 627.5659 L1145.4572 604.3445 L1148.1143 524.2292 L1150.7715 430.3669 L1153.4286 373.0721 L1156.0857 383.0234 L1158.7429 454.0912 L1161.4 545.4881 L1164.0571 602.7766 L1166.7142 587.061 L1169.3715 496.9759 L1172.0286 371.5102 L1174.6857 271.6071 L1177.3428 249.6762 L1180 322.6881 L1182.6572 462.8791 L1185.3143 611.046 L1187.9714 705.6979 L1190.6285 713.1089 L1193.2858 642.9074 L1195.9429 541.4432 L1198.6 466.7572 L1201.2571 458.4284 L1203.9143 517.9637 L1206.5714 609.566 L1209.2285 680.2651 L1211.8857 688.3242 L1214.5428 624.8364 L1217.2001 517.4661 L1219.8572 415.0448 L1222.5143 361.8663 L1225.1714 375.6403 L1227.8286 440.5616 L1230.4857 518.4004 L1233.1428 570.6976 L1235.7999 579.424 L1238.4572 554.8297 L1241.1144 526.7401 L1243.7714 524.9408 L1246.4286 560.2921 L1249.0857 617.5467 L1251.7429 663.9675 L1254.4 668.7008 L1257.0571 621.6205 L1259.7142 540.5572 L1262.3715 462.3815 L1265.0286 422.65 L1267.6857 435.2442 L1270.3429 483.7686 L1273 530.1235 L1275.6572 536.0488 L1278.3143 485.8972 L1280.9714 397.7237 L1283.6285 315.8027 L1286.2858 287.7798 L1288.9429 338.3333 L1291.6 453.661 L1294.2571 585.7751 L1296.9143 675.1952 L1299.5715 680.674 L1302.2285 600.4803 L1304.8857 473.8356 L1307.5428 361.3339 L1310.2001 314.2196 L1312.8572 348.3744 L1315.5143 436.5535 L1318.1714 522.9587 L1320.8286 552.5889 L1323.4857 500.1104 L1326.1428 383.2803 L1328.8 254.0739 L1331.4572 172.3051 L1334.1144 175.5483 L1336.7714 260.8676 L1339.4286 387.4445 L1342.0857 498.1591 L1344.7429 548.4147 L1347.4 527.1065 L1350.0571 459.2706 L1352.7142 389.9407 L1355.3715 358.6584 L1358.0286 378.6358 L1360.6857 431.4836 L1363.3429 479.5754 L1366 488.4618 L1368.6572 446.5414 L1371.3142 371.1638 L1373.9714 298.2194 L1376.6285 261.5756 L1379.2858 274.2718 L1381.9429 322.1383 L1384.6 373.2678 L1387.2572 397.6528 L1389.9143 385.4769 L1392.5714 353.2888 L1395.2285 334.2172 L1397.8857 357.5997 L1400.5428 429.6974 L1403.2001 526.9274 L1405.8571 606.2532 L1408.5143 627.7318 L1411.1714 577.0657 L1413.8286 475.4549 L1416.4857 370.5715 L1419.1428 312.6901 L1421.8 328.3455 L1424.4572 405.7188 L1427.1143 500.0761 L1429.7714 557.0109 L1432.4286 541.5792 L1435.0857 457.9243 L1437.7429 348.6726 L1440.3999 273.8957 L1443.0571 280.2494 L1445.7144 376.2678 L1448.3715 526.7864 L1451.0286 669.607 L1453.6857 745.9607 L1456.3429 729.157 L1459 636.7935 L1461.6571 520.511 L1464.3142 438.9434 L1466.9714 428.0932 L1469.6285 484.4 L1472.2858 568.8217 L1474.9429 629.1043 L1477.6 628.0175 L1480.2572 562.5931 L1482.9143 464.6209 L1485.5714 382.8585 L1488.2285 357.0626 L1490.8857 397.9105 L1493.5428 483.1956 L1496.2 571.5488 L1498.8571 625.4442 L1501.5143 630.5474 L1504.1715 600.993 L1506.8286 568.3578 L1509.4857 561.2778 L1512.1428 587.7342 L1514.8 630.2346 L1517.4572 656.5582 L1520.1143 639.7141 L1522.7714 575.4004 L1525.4286 486.5743 L1528.0857 412.0469 L1530.7429 385.1992 L1533.4 414.7953 L1536.0571 479.044 L1538.7144 536.8713 L1541.3715 550.7039 L1544.0286 508.323 L1546.6857 431.3759 L1549.3429 365.1104 L1552 354.1528 L1554.6571 417.0918 L1557.3142 533.8175 L1559.9714 653.1504 L1562.6287 717.5676 L1565.2858 692.5081 L1567.9429 584.8928 L1570.6 440.8025 L1573.2572 323.0401 L1575.9143 279.8923" style="fill:none; fill-rule:evenodd; stroke:rgb(217,83,25);"
    /></g
  ></g
></svg
>
