<?xml version="1.0" encoding="utf-8"?>
<!-- Generator: Adobe Illustrator 19.0.0, SVG Export Plug-In . SVG Version: 6.00 Build 0)  -->
<svg version="1.1" id="Layer_1" xmlns="http://www.w3.org/2000/svg" xmlns:xlink="http://www.w3.org/1999/xlink" x="0px" y="0px"
	 viewBox="862.8 -33.6 1539.3 854.2" style="enable-background:new 862.8 -33.6 1539.3 854.2;" xml:space="preserve">
<style type="text/css">
	
		.st0{fill:none;stroke:#1A1A1A;stroke-width:0.6667;stroke-linejoin:bevel;stroke-miterlimit:1;stroke-opacity:0.251;stroke-dasharray:1,3;}
	.st1{fill:none;stroke:#262626;stroke-width:0.6667;stroke-linejoin:round;stroke-miterlimit:10;stroke-opacity:0.149;}
	.st2{fill:none;stroke:#262626;stroke-width:0.6667;stroke-linecap:square;stroke-linejoin:round;stroke-miterlimit:10;}
	.st3{fill:#262626;}
	.st4{font-family:'ArialMT';}
	.st5{font-size:13px;}
	.st6{font-size:11px;}
	.st7{font-size:15px;}
	.st8{font-family:'Arial-BoldMT';}
	.st9{fill:none;stroke:#0072BD;stroke-width:0.6667;stroke-linejoin:round;stroke-miterlimit:10;}
</style>
<g>
	<g>
		<line class="st0" x1="968" y1="772" x2="968" y2="-14"/>
		<line class="st0" x1="1005.4" y1="772" x2="1005.4" y2="-14"/>
		<line class="st0" x1="1032" y1="772" x2="1032" y2="-14"/>
		<line class="st0" x1="1052.6" y1="772" x2="1052.6" y2="-14"/>
		<line class="st0" x1="1069.4" y1="772" x2="1069.4" y2="-14"/>
		<line class="st0" x1="1083.6" y1="772" x2="1083.6" y2="-14"/>
		<line class="st0" x1="1096" y1="772" x2="1096" y2="-14"/>
		<line class="st0" x1="1106.8" y1="772" x2="1106.8" y2="-14"/>
		<line class="st0" x1="1180.6" y1="772" x2="1180.6" y2="-14"/>
		<line class="st0" x1="1218" y1="772" x2="1218" y2="-14"/>
		<line class="st0" x1="1244.6" y1="772" x2="1244.6" y2="-14"/>
		<line class="st0" x1="1265.2" y1="772" x2="1265.2" y2="-14"/>
		<line class="st0" x1="1282" y1="772" x2="1282" y2="-14"/>
		<line class="st0" x1="1296.2" y1="772" x2="1296.2" y2="-14"/>
		<line class="st0" x1="1308.5" y1="772" x2="1308.5" y2="-14"/>
		<line class="st0" x1="1319.4" y1="772" x2="1319.4" y2="-14"/>
		<line class="st0" x1="1393.1" y1="772" x2="1393.1" y2="-14"/>
		<line class="st0" x1="1430.6" y1="772" x2="1430.6" y2="-14"/>
		<line class="st0" x1="1457.1" y1="772" x2="1457.1" y2="-14"/>
		<line class="st0" x1="1477.7" y1="772" x2="1477.7" y2="-14"/>
		<line class="st0" x1="1494.6" y1="772" x2="1494.6" y2="-14"/>
		<line class="st0" x1="1508.8" y1="772" x2="1508.8" y2="-14"/>
		<line class="st0" x1="1521.1" y1="772" x2="1521.1" y2="-14"/>
		<line class="st0" x1="1532" y1="772" x2="1532" y2="-14"/>
		<line class="st0" x1="1605.7" y1="772" x2="1605.7" y2="-14"/>
		<line class="st0" x1="1643.1" y1="772" x2="1643.1" y2="-14"/>
		<line class="st0" x1="1669.7" y1="772" x2="1669.7" y2="-14"/>
		<line class="st0" x1="1690.3" y1="772" x2="1690.3" y2="-14"/>
		<line class="st0" x1="1707.1" y1="772" x2="1707.1" y2="-14"/>
		<line class="st0" x1="1721.4" y1="772" x2="1721.4" y2="-14"/>
		<line class="st0" x1="1733.7" y1="772" x2="1733.7" y2="-14"/>
		<line class="st0" x1="1744.6" y1="772" x2="1744.6" y2="-14"/>
		<line class="st0" x1="1818.3" y1="772" x2="1818.3" y2="-14"/>
		<line class="st0" x1="1855.7" y1="772" x2="1855.7" y2="-14"/>
		<line class="st0" x1="1882.3" y1="772" x2="1882.3" y2="-14"/>
		<line class="st0" x1="1902.9" y1="772" x2="1902.9" y2="-14"/>
		<line class="st0" x1="1919.7" y1="772" x2="1919.7" y2="-14"/>
		<line class="st0" x1="1933.9" y1="772" x2="1933.9" y2="-14"/>
		<line class="st0" x1="1946.3" y1="772" x2="1946.3" y2="-14"/>
		<line class="st0" x1="1957.1" y1="772" x2="1957.1" y2="-14"/>
		<line class="st0" x1="2030.8" y1="772" x2="2030.8" y2="-14"/>
		<line class="st0" x1="2068.3" y1="772" x2="2068.3" y2="-14"/>
		<line class="st0" x1="2094.8" y1="772" x2="2094.8" y2="-14"/>
		<line class="st0" x1="2115.4" y1="772" x2="2115.4" y2="-14"/>
		<line class="st0" x1="2132.3" y1="772" x2="2132.3" y2="-14"/>
		<line class="st0" x1="2146.5" y1="772" x2="2146.5" y2="-14"/>
		<line class="st0" x1="2158.8" y1="772" x2="2158.8" y2="-14"/>
		<line class="st0" x1="2169.7" y1="772" x2="2169.7" y2="-14"/>
		<line class="st0" x1="2243.4" y1="772" x2="2243.4" y2="-14"/>
		<line class="st0" x1="2280.9" y1="772" x2="2280.9" y2="-14"/>
		<line class="st0" x1="2307.4" y1="772" x2="2307.4" y2="-14"/>
		<line class="st0" x1="2328" y1="772" x2="2328" y2="-14"/>
		<line class="st0" x1="2344.8" y1="772" x2="2344.8" y2="-14"/>
		<line class="st0" x1="2359.1" y1="772" x2="2359.1" y2="-14"/>
		<line class="st0" x1="2371.4" y1="772" x2="2371.4" y2="-14"/>
		<line class="st0" x1="2382.3" y1="772" x2="2382.3" y2="-14"/>
	</g>
	<g>
		<line class="st1" x1="904" y1="772" x2="904" y2="-14"/>
		<line class="st1" x1="1116.6" y1="772" x2="1116.6" y2="-14"/>
		<line class="st1" x1="1329.1" y1="772" x2="1329.1" y2="-14"/>
		<line class="st1" x1="1541.7" y1="772" x2="1541.7" y2="-14"/>
		<line class="st1" x1="1754.3" y1="772" x2="1754.3" y2="-14"/>
		<line class="st1" x1="1966.9" y1="772" x2="1966.9" y2="-14"/>
		<line class="st1" x1="2179.4" y1="772" x2="2179.4" y2="-14"/>
		<line class="st1" x1="2392" y1="772" x2="2392" y2="-14"/>
		<line class="st1" x1="2392" y1="772" x2="904" y2="772"/>
		<line class="st1" x1="2392" y1="659.7" x2="904" y2="659.7"/>
		<line class="st1" x1="2392" y1="547.4" x2="904" y2="547.4"/>
		<line class="st1" x1="2392" y1="435.1" x2="904" y2="435.1"/>
		<line class="st1" x1="2392" y1="322.9" x2="904" y2="322.9"/>
		<line class="st1" x1="2392" y1="210.6" x2="904" y2="210.6"/>
		<line class="st1" x1="2392" y1="98.3" x2="904" y2="98.3"/>
		<line class="st1" x1="2392" y1="-14" x2="904" y2="-14"/>
		<line class="st2" x1="904" y1="772" x2="2392" y2="772"/>
		<line class="st2" x1="904" y1="-14" x2="2392" y2="-14"/>
		<line class="st2" x1="904" y1="772" x2="904" y2="757.1"/>
		<line class="st2" x1="1116.6" y1="772" x2="1116.6" y2="757.1"/>
		<line class="st2" x1="1329.1" y1="772" x2="1329.1" y2="757.1"/>
		<line class="st2" x1="1541.7" y1="772" x2="1541.7" y2="757.1"/>
		<line class="st2" x1="1754.3" y1="772" x2="1754.3" y2="757.1"/>
		<line class="st2" x1="1966.9" y1="772" x2="1966.9" y2="757.1"/>
		<line class="st2" x1="2179.4" y1="772" x2="2179.4" y2="757.1"/>
		<line class="st2" x1="2392" y1="772" x2="2392" y2="757.1"/>
		<line class="st2" x1="904" y1="-14" x2="904" y2="0.9"/>
		<line class="st2" x1="1116.6" y1="-14" x2="1116.6" y2="0.9"/>
		<line class="st2" x1="1329.1" y1="-14" x2="1329.1" y2="0.9"/>
		<line class="st2" x1="1541.7" y1="-14" x2="1541.7" y2="0.9"/>
		<line class="st2" x1="1754.3" y1="-14" x2="1754.3" y2="0.9"/>
		<line class="st2" x1="1966.9" y1="-14" x2="1966.9" y2="0.9"/>
		<line class="st2" x1="2179.4" y1="-14" x2="2179.4" y2="0.9"/>
		<line class="st2" x1="2392" y1="-14" x2="2392" y2="0.9"/>
		<line class="st2" x1="968" y1="772" x2="968" y2="764.6"/>
		<line class="st2" x1="1005.4" y1="772" x2="1005.4" y2="764.6"/>
		<line class="st2" x1="1032" y1="772" x2="1032" y2="764.6"/>
		<line class="st2" x1="1052.6" y1="772" x2="1052.6" y2="764.6"/>
		<line class="st2" x1="1069.4" y1="772" x2="1069.4" y2="764.6"/>
		<line class="st2" x1="1083.6" y1="772" x2="1083.6" y2="764.6"/>
		<line class="st2" x1="1096" y1="772" x2="1096" y2="764.6"/>
		<line class="st2" x1="1106.8" y1="772" x2="1106.8" y2="764.6"/>
		<line class="st2" x1="1180.6" y1="772" x2="1180.6" y2="764.6"/>
		<line class="st2" x1="1218" y1="772" x2="1218" y2="764.6"/>
		<line class="st2" x1="1244.6" y1="772" x2="1244.6" y2="764.6"/>
		<line class="st2" x1="1265.2" y1="772" x2="1265.2" y2="764.6"/>
		<line class="st2" x1="1282" y1="772" x2="1282" y2="764.6"/>
		<line class="st2" x1="1296.2" y1="772" x2="1296.2" y2="764.6"/>
		<line class="st2" x1="1308.5" y1="772" x2="1308.5" y2="764.6"/>
		<line class="st2" x1="1319.4" y1="772" x2="1319.4" y2="764.6"/>
		<line class="st2" x1="1393.1" y1="772" x2="1393.1" y2="764.6"/>
		<line class="st2" x1="1430.6" y1="772" x2="1430.6" y2="764.6"/>
		<line class="st2" x1="1457.1" y1="772" x2="1457.1" y2="764.6"/>
		<line class="st2" x1="1477.7" y1="772" x2="1477.7" y2="764.6"/>
		<line class="st2" x1="1494.6" y1="772" x2="1494.6" y2="764.6"/>
		<line class="st2" x1="1508.8" y1="772" x2="1508.8" y2="764.6"/>
		<line class="st2" x1="1521.1" y1="772" x2="1521.1" y2="764.6"/>
		<line class="st2" x1="1532" y1="772" x2="1532" y2="764.6"/>
		<line class="st2" x1="1605.7" y1="772" x2="1605.7" y2="764.6"/>
		<line class="st2" x1="1643.1" y1="772" x2="1643.1" y2="764.6"/>
		<line class="st2" x1="1669.7" y1="772" x2="1669.7" y2="764.6"/>
		<line class="st2" x1="1690.3" y1="772" x2="1690.3" y2="764.6"/>
		<line class="st2" x1="1707.1" y1="772" x2="1707.1" y2="764.6"/>
		<line class="st2" x1="1721.4" y1="772" x2="1721.4" y2="764.6"/>
		<line class="st2" x1="1733.7" y1="772" x2="1733.7" y2="764.6"/>
		<line class="st2" x1="1744.6" y1="772" x2="1744.6" y2="764.6"/>
		<line class="st2" x1="1818.3" y1="772" x2="1818.3" y2="764.6"/>
		<line class="st2" x1="1855.7" y1="772" x2="1855.7" y2="764.6"/>
		<line class="st2" x1="1882.3" y1="772" x2="1882.3" y2="764.6"/>
		<line class="st2" x1="1902.9" y1="772" x2="1902.9" y2="764.6"/>
		<line class="st2" x1="1919.7" y1="772" x2="1919.7" y2="764.6"/>
		<line class="st2" x1="1933.9" y1="772" x2="1933.9" y2="764.6"/>
		<line class="st2" x1="1946.3" y1="772" x2="1946.3" y2="764.6"/>
		<line class="st2" x1="1957.1" y1="772" x2="1957.1" y2="764.6"/>
		<line class="st2" x1="2030.8" y1="772" x2="2030.8" y2="764.6"/>
		<line class="st2" x1="2068.3" y1="772" x2="2068.3" y2="764.6"/>
		<line class="st2" x1="2094.8" y1="772" x2="2094.8" y2="764.6"/>
		<line class="st2" x1="2115.4" y1="772" x2="2115.4" y2="764.6"/>
		<line class="st2" x1="2132.3" y1="772" x2="2132.3" y2="764.6"/>
		<line class="st2" x1="2146.5" y1="772" x2="2146.5" y2="764.6"/>
		<line class="st2" x1="2158.8" y1="772" x2="2158.8" y2="764.6"/>
		<line class="st2" x1="2169.7" y1="772" x2="2169.7" y2="764.6"/>
		<line class="st2" x1="2243.4" y1="772" x2="2243.4" y2="764.6"/>
		<line class="st2" x1="2280.9" y1="772" x2="2280.9" y2="764.6"/>
		<line class="st2" x1="2307.4" y1="772" x2="2307.4" y2="764.6"/>
		<line class="st2" x1="2328" y1="772" x2="2328" y2="764.6"/>
		<line class="st2" x1="2344.8" y1="772" x2="2344.8" y2="764.6"/>
		<line class="st2" x1="2359.1" y1="772" x2="2359.1" y2="764.6"/>
		<line class="st2" x1="2371.4" y1="772" x2="2371.4" y2="764.6"/>
		<line class="st2" x1="2382.3" y1="772" x2="2382.3" y2="764.6"/>
		<line class="st2" x1="968" y1="-14" x2="968" y2="-6.6"/>
		<line class="st2" x1="1005.4" y1="-14" x2="1005.4" y2="-6.6"/>
		<line class="st2" x1="1032" y1="-14" x2="1032" y2="-6.6"/>
		<line class="st2" x1="1052.6" y1="-14" x2="1052.6" y2="-6.6"/>
		<line class="st2" x1="1069.4" y1="-14" x2="1069.4" y2="-6.6"/>
		<line class="st2" x1="1083.6" y1="-14" x2="1083.6" y2="-6.6"/>
		<line class="st2" x1="1096" y1="-14" x2="1096" y2="-6.6"/>
		<line class="st2" x1="1106.8" y1="-14" x2="1106.8" y2="-6.6"/>
		<line class="st2" x1="1180.6" y1="-14" x2="1180.6" y2="-6.6"/>
		<line class="st2" x1="1218" y1="-14" x2="1218" y2="-6.6"/>
		<line class="st2" x1="1244.6" y1="-14" x2="1244.6" y2="-6.6"/>
		<line class="st2" x1="1265.2" y1="-14" x2="1265.2" y2="-6.6"/>
		<line class="st2" x1="1282" y1="-14" x2="1282" y2="-6.6"/>
		<line class="st2" x1="1296.2" y1="-14" x2="1296.2" y2="-6.6"/>
		<line class="st2" x1="1308.5" y1="-14" x2="1308.5" y2="-6.6"/>
		<line class="st2" x1="1319.4" y1="-14" x2="1319.4" y2="-6.6"/>
		<line class="st2" x1="1393.1" y1="-14" x2="1393.1" y2="-6.6"/>
		<line class="st2" x1="1430.6" y1="-14" x2="1430.6" y2="-6.6"/>
		<line class="st2" x1="1457.1" y1="-14" x2="1457.1" y2="-6.6"/>
		<line class="st2" x1="1477.7" y1="-14" x2="1477.7" y2="-6.6"/>
		<line class="st2" x1="1494.6" y1="-14" x2="1494.6" y2="-6.6"/>
		<line class="st2" x1="1508.8" y1="-14" x2="1508.8" y2="-6.6"/>
		<line class="st2" x1="1521.1" y1="-14" x2="1521.1" y2="-6.6"/>
		<line class="st2" x1="1532" y1="-14" x2="1532" y2="-6.6"/>
		<line class="st2" x1="1605.7" y1="-14" x2="1605.7" y2="-6.6"/>
		<line class="st2" x1="1643.1" y1="-14" x2="1643.1" y2="-6.6"/>
		<line class="st2" x1="1669.7" y1="-14" x2="1669.7" y2="-6.6"/>
		<line class="st2" x1="1690.3" y1="-14" x2="1690.3" y2="-6.6"/>
		<line class="st2" x1="1707.1" y1="-14" x2="1707.1" y2="-6.6"/>
		<line class="st2" x1="1721.4" y1="-14" x2="1721.4" y2="-6.6"/>
		<line class="st2" x1="1733.7" y1="-14" x2="1733.7" y2="-6.6"/>
		<line class="st2" x1="1744.6" y1="-14" x2="1744.6" y2="-6.6"/>
		<line class="st2" x1="1818.3" y1="-14" x2="1818.3" y2="-6.6"/>
		<line class="st2" x1="1855.7" y1="-14" x2="1855.7" y2="-6.6"/>
		<line class="st2" x1="1882.3" y1="-14" x2="1882.3" y2="-6.6"/>
		<line class="st2" x1="1902.9" y1="-14" x2="1902.9" y2="-6.6"/>
		<line class="st2" x1="1919.7" y1="-14" x2="1919.7" y2="-6.6"/>
		<line class="st2" x1="1933.9" y1="-14" x2="1933.9" y2="-6.6"/>
		<line class="st2" x1="1946.3" y1="-14" x2="1946.3" y2="-6.6"/>
		<line class="st2" x1="1957.1" y1="-14" x2="1957.1" y2="-6.6"/>
		<line class="st2" x1="2030.8" y1="-14" x2="2030.8" y2="-6.6"/>
		<line class="st2" x1="2068.3" y1="-14" x2="2068.3" y2="-6.6"/>
		<line class="st2" x1="2094.8" y1="-14" x2="2094.8" y2="-6.6"/>
		<line class="st2" x1="2115.4" y1="-14" x2="2115.4" y2="-6.6"/>
		<line class="st2" x1="2132.3" y1="-14" x2="2132.3" y2="-6.6"/>
		<line class="st2" x1="2146.5" y1="-14" x2="2146.5" y2="-6.6"/>
		<line class="st2" x1="2158.8" y1="-14" x2="2158.8" y2="-6.6"/>
		<line class="st2" x1="2169.7" y1="-14" x2="2169.7" y2="-6.6"/>
		<line class="st2" x1="2243.4" y1="-14" x2="2243.4" y2="-6.6"/>
		<line class="st2" x1="2280.9" y1="-14" x2="2280.9" y2="-6.6"/>
		<line class="st2" x1="2307.4" y1="-14" x2="2307.4" y2="-6.6"/>
		<line class="st2" x1="2328" y1="-14" x2="2328" y2="-6.6"/>
		<line class="st2" x1="2344.8" y1="-14" x2="2344.8" y2="-6.6"/>
		<line class="st2" x1="2359.1" y1="-14" x2="2359.1" y2="-6.6"/>
		<line class="st2" x1="2371.4" y1="-14" x2="2371.4" y2="-6.6"/>
		<line class="st2" x1="2382.3" y1="-14" x2="2382.3" y2="-6.6"/>
	</g>
	<g transform="translate(237,881)">
		<text transform="matrix(1 0 0 1 654 -86)" class="st3 st4 st5">10</text>
	</g>
	<g transform="translate(252,875)">
		<text transform="matrix(1 0 0 1 654 -86)" class="st3 st4 st6">-2</text>
	</g>
	<g transform="translate(450,881)">
		<text transform="matrix(1 0 0 1 654 -86)" class="st3 st4 st5">10</text>
	</g>
	<g transform="translate(465,875)">
		<text transform="matrix(1 0 0 1 654 -86)" class="st3 st4 st6">-1</text>
	</g>
	<g transform="translate(664,881)">
		<text transform="matrix(1 0 0 1 654 -86)" class="st3 st4 st5">10</text>
	</g>
	<g transform="translate(679,875)">
		<text transform="matrix(1 0 0 1 654 -86)" class="st3 st4 st6">0</text>
	</g>
	<g transform="translate(877,881)">
		<text transform="matrix(1 0 0 1 654 -86)" class="st3 st4 st5">10</text>
	</g>
	<g transform="translate(892,875)">
		<text transform="matrix(1 0 0 1 654 -86)" class="st3 st4 st6">1</text>
	</g>
	<g transform="translate(1089,881)">
		<text transform="matrix(1 0 0 1 654 -86)" class="st3 st4 st5">10</text>
	</g>
	<g transform="translate(1104,875)">
		<text transform="matrix(1 0 0 1 654 -86)" class="st3 st4 st6">2</text>
	</g>
	<g transform="translate(1302,881)">
		<text transform="matrix(1 0 0 1 654 -86)" class="st3 st4 st5">10</text>
	</g>
	<g transform="translate(1317,875)">
		<text transform="matrix(1 0 0 1 654 -86)" class="st3 st4 st6">3</text>
	</g>
	<g transform="translate(1514,881)">
		<text transform="matrix(1 0 0 1 654 -86)" class="st3 st4 st5">10</text>
	</g>
	<g transform="translate(1529,875)">
		<text transform="matrix(1 0 0 1 654 -86)" class="st3 st4 st6">4</text>
	</g>
	<g transform="translate(1727,881)">
		<text transform="matrix(1 0 0 1 654 -86)" class="st3 st4 st5">10</text>
	</g>
	<g transform="translate(1742,875)">
		<text transform="matrix(1 0 0 1 654 -86)" class="st3 st4 st6">5</text>
	</g>
	<g transform="translate(994.0007,885.6667)">
		<text transform="matrix(1 0 0 1 602 -70)" class="st3 st4 st7">Frequency (Hz)</text>
	</g>
	<g>
		<line class="st2" x1="904" y1="772" x2="904" y2="-14"/>
		<line class="st2" x1="2392" y1="772" x2="2392" y2="-14"/>
		<line class="st2" x1="904" y1="772" x2="918.9" y2="772"/>
		<line class="st2" x1="904" y1="659.7" x2="918.9" y2="659.7"/>
		<line class="st2" x1="904" y1="547.4" x2="918.9" y2="547.4"/>
		<line class="st2" x1="904" y1="435.1" x2="918.9" y2="435.1"/>
		<line class="st2" x1="904" y1="322.9" x2="918.9" y2="322.9"/>
		<line class="st2" x1="904" y1="210.6" x2="918.9" y2="210.6"/>
		<line class="st2" x1="904" y1="98.3" x2="918.9" y2="98.3"/>
		<line class="st2" x1="904" y1="-14" x2="918.9" y2="-14"/>
		<line class="st2" x1="2392" y1="772" x2="2377.1" y2="772"/>
		<line class="st2" x1="2392" y1="659.7" x2="2377.1" y2="659.7"/>
		<line class="st2" x1="2392" y1="547.4" x2="2377.1" y2="547.4"/>
		<line class="st2" x1="2392" y1="435.1" x2="2377.1" y2="435.1"/>
		<line class="st2" x1="2392" y1="322.9" x2="2377.1" y2="322.9"/>
		<line class="st2" x1="2392" y1="210.6" x2="2377.1" y2="210.6"/>
		<line class="st2" x1="2392" y1="98.3" x2="2377.1" y2="98.3"/>
		<line class="st2" x1="2392" y1="-14" x2="2377.1" y2="-14"/>
	</g>
	<g transform="translate(244.6667,858)">
		<text transform="matrix(1 0 0 1 646 -80.5)" class="st3 st4 st5">0</text>
	</g>
	<g transform="translate(244.6667,745.7143)">
		<text transform="matrix(1 0 0 1 646 -80.5)" class="st3 st4 st5">2</text>
	</g>
	<g transform="translate(244.6667,633.4286)">
		<text transform="matrix(1 0 0 1 646 -80.5)" class="st3 st4 st5">4</text>
	</g>
	<g transform="translate(244.6667,521.1429)">
		<text transform="matrix(1 0 0 1 646 -80.5)" class="st3 st4 st5">6</text>
	</g>
	<g transform="translate(244.6667,408.8571)">
		<text transform="matrix(1 0 0 1 646 -80.5)" class="st3 st4 st5">8</text>
	</g>
	<g transform="translate(244.6667,296.5714)">
		<text transform="matrix(1 0 0 1 639 -80.5)" class="st3 st4 st5">10</text>
	</g>
	<g transform="translate(244.6667,184.2857)">
		<text transform="matrix(1 0 0 1 639 -80.5)" class="st3 st4 st5">12</text>
	</g>
	<g transform="translate(244.6667,72)">
		<text transform="matrix(1 0 0 1 639 -80.5)" class="st3 st4 st5">14</text>
	</g>
	<g transform="translate(225.6667,464.9996) rotate(-90)">
		<text transform="matrix(1 0 0 1 51.4996 650.0001)" class="st3 st4 st7">Trivial unit</text>
	</g>
	<g transform="translate(250,69)">
		<text transform="matrix(1 0 0 1 654 -86)" class="st3 st4 st5">#</text>
	</g>
	<g transform="translate(261,69)">
		<text transform="matrix(1 0 0 1 654 -86)" class="st3 st4 st5">10</text>
	</g>
	<g transform="translate(276,63)">
		<text transform="matrix(1 0 0 1 654 -86)" class="st3 st4 st6">5</text>
	</g>
	<g transform="translate(994.001,69.25)">
		<text transform="matrix(1 0 0 1 569.5 -90)" class="st8 st7">Output signal spectrum</text>
	</g>
	<g>
		<path class="st9" d="M951.2,772h64h37.4h26.6h20.6h16.8h14.2h12.3h10.9h9.7h8.8h8h7.4h6.8h6.4h6h5.6h5.3h5h4.7h4.5h4.3h4.1h3.9
			h3.8h3.6h3.5h3.4h3.2h3.1h3h2.9h2.8h2.8h2.7h2.6h2.5h2.5h2.4h2.3h2.3h2.2h2.2h2.1h2.1h2h2h1.9h1.9h1.9h1.8h1.8h1.8h1.7h1.7h1.7
			h1.6h1.6h1.6h1.6h1.5h1.5h1.5h1.5h1.4h1.4h1.4h1.4h1.3h1.3h1.3h1.3h1.3h1.3h1.2h1.2h1.2h1.2h1.2h1.2h1.1h1.1h1.1h1.1h1.1h1.1h1.1
			h1.1h1h1h1h1h1h1h1h1h1h0.9h0.9h0.9h0.9h0.9h0.9h0.9h0.9h0.9h0.9h0.9h0.9h0.8h0.8h0.8h0.8h0.8h0.8h0.8h0.8h0.8h0.8h0.8h0.8h0.8
			h0.8h0.7h0.7h0.7h0.7h0.7h0.7h0.7h0.7h0.7h0.7h0.7h0.7h0.7h0.7h0.7h0.7h0.7h0.7h0.7h0.6h0.6h0.6h0.6h0.6h0.6h0.6h0.6h0.6h0.6h0.6
			h0.6h0.6h0.6h0.6h0.6h0.6h0.6h0.6h0.6h0.6h0.6h0.6h0.6h0.6h0.6h0.5h0.5h0.5h0.5h0.5h0.5h0.5h0.5h0.5h0.5h0.5h0.5h0.5h0.5h0.5h0.5
			h0.5h0.5h0.5h0.5h0.5h0.5h0.5h0.5h0.5h0.5h0.5h0.5h0.5h0.5h0.5h0.5h0.5h0.5h0.5h0.5h0.5h0.4h0.4h0.4h0.4h0.4h0.4h0.4h0.4h0.4h0.4
			h0.4h0.4h0.4h0.4h0.4h0.4h0.4h0.4h0.4h0.4h0.4h0.4h0.4h0.4h0.4h0.4h0.4h0.4h0.4h0.4h0.4h0.4h0.4h0.4h0.4h0.4h0.4h0.4h0.4h0.4h0.4
			h0.4h0.4h0.4h0.4h0.4h0.4h0.4h0.4h0.4h0.4h0.4h0.4h0.4h0.4h0.4h0.4h0.4h0.4h0.3h0.3h0.3h0.3h0.3h0.3h0.3h0.3h0.3h0.3h0.3h0.3h0.3
			h0.3h0.3h0.3h0.3h0.3h0.3h0.3h0.3h0.3h0.3h0.3h0.3h0.3h0.3h0.3h0.3h0.3h0.3h0.3h0.3h0.3h0.3h0.3h0.3h0.3h0.3h0.3h0.3h0.3h0.3h0.3
			h0.3h0.3h0.3h0.3h0.3h0.3h0.3h0.3h0.3h0.3h0.3h0.3h0.3h0.3h0.3h0.3h0.3h0.3h0.3h0.3h0.3h0.3h0.3h0.3h0.3h0.3h0.3h0.3h0.3h0.3h0.3
			h0.3h0.3h0.3h0.3h0.3h0.3h0.3h0.3h0.3h0.3h0.3h0.3h0.3h0.3h0.3h0.3h0.3h0.3h0.3h0.3h0.3h0.3h0.3h0.3h0.3h0.3h0.3h0.3h0.3h0.3h0.2
			h0.2h0.2h0.2h0.2h0.2h0.2h0.2h0.2h0.2h0.2h0.2h0.2h0.2h0.2h0.2h0.2h0.2h0.2h0.2h0.2h0.2h0.2h0.2h0.2h0.2h0.2h0.2h0.2h0.2h0.2h0.2
			h0.2h0.2h0.2h0.2h0.2h0.2h0.2h0.2h0.2h0.2h0.2h0.2h0.2h0.2h0.2h0.2h0.2h0.2h0.2h0.2h0.2h0.2h0.2h0.2h0.2h0.2h0.2h0.2h0.2h0.2h0.2
			h0.2h0.2h0.2h0.2h0.2h0.2h0.2h0.2h0.2h0.2h0.2h0.2h0.2h0.2h0.2h0.2h0.2h0.2h0.2h0.2h0.2h0.2h0.2h0.2h0.2h0.2h0.2h0.2h0.2h0.2h0.2
			h0.2h0.2h0.2h0.2h0.2h0.2h0.2h0.2h0.2h0.2h0.2h0.2h0.2h0.2h0.2h0.2h0.2h0.2h0.2h0.2h0.2h0.2h0.2h0.2h0.2h0.2h0.2h0.2h0.2h0.2h0.2
			h0.2h0.2h0.2h0.2h0.2h0.2h0.2h0.2h0.2h0.2h0.2h0.2h0.2h0.2h0.2h0.2h0.2h0.2h0.2h0.2h0.2h0.2h0.2h0.2h0.2h0.2h0.2h0.2h0.2h0.2h0.2
			h0.2h0.2h0.2h0.2h0.2h0.2h0.2h0.2h0.2h0.2h0.2h0.2h0.2h0.2h0.2h0.2h0.2h0.2h0.2h0.2h0.2h0.2h0.2h0.2h0.2h0.2h0.2h0.2h0.2h0.2h0.2
			h0.2h0.2h0.2h0.2h0.2h0.2h0.2h0.2h0.2h0.2h0.2h0.2h0.2h0.2h0.2h0.2h0.2h0.2h0.2h0.2h0.2h0.2h0.2h0.2h0.2h0.2h0.2h0.2h0.2h0.2h0.2
			h0.2h0.2h0.2h0.2h0.2h0.2h0.2h0.2h0.2h0.2h0.2h0.2h0.2h0.2h0.2h0.2h0.2h0.2h0.2h0.2h0.2h0.2h0.2h0.2h0.2h0.2h0.2h0.2h0.2h0.1h0.1
			h0.1h0.1h0.1h0.1h0.1h0.1h0.1h0.1h0.1h0.1h0.1h0.1h0.1h0.1h0.1h0.1h0.1h0.1h0.1h0.1h0.1h0.1h0.1h0.1h0.1h0.1h0.1h0.1h0.1h0.1h0.1
			h0.1h0.1h0.1h0.1h0.1h0.1h0.1h0.1h0.1h0.1h0.1h0.1h0.1h0.1h0.1h0.1h0.1h0.1h0.1h0.1h0.1h0.1h0.1h0.1h0.1h0.1h0.1h0.1h0.1h0.1h0.1
			h0.1h0.1h0.1h0.1h0.1h0.1h0.1h0.1h0.1h0.1h0.1h0.1h0.1h0.1h0.1h0.1h0.1h0.1h0.1h0.1h0.1h0.1h0.1h0.1h0.1h0.1h0.1h0.1h0.1h0.1h0.1
			h0.1h0.1h0.1h0.1h0.1h0.1h0.1h0.1h0.1h0.1h0.1h0.1h0.1h0.1h0.1h0.1h0.1h0.1h0.1h0.1h0.1h0.1h0.1h0.1h0.1h0.1h0.1h0.1h0.1h0.1h0.1
			h0.1h0.1h0.1h0.1h0.1h0.1h0.1h0.1h0.1h0.1h0.1h0.1h0.1h0.1h0.1h0.1h0.1h0.1h0.1h0.1h0.1h0.1h0.1h0.1h0.1h0.1h0.2h0.1h0.1h0.1h0.1
			h0.1h0.1h0.1h0.1h0.1h0.1h0.1h0.1h0.1h0.1h0.1h0.1h0.1h0.2h0.1h0.1h0.1h0.1h0.1h0.1h0.1h0.1h0.1h0.1h0.1h0.1h0.1h0.2h0.1h0.1h0.1
			h0.1h0.1h0.1h0.1h0.1h0.1h0.2h0.1h0.1h0.1h0.1h0.1h0.1h0.1h0.1h0.1h0.2h0.1h0.1h0.1h0.1h0.1h0.1h0.1h0.2h0.1h0.1h0.1h0.1h0.1h0.2
			h0.1h0.1h0.1h0.1h0.1h0.1h0.1h0.2h0.1h0.1h0.1h0.1h0.1h0.2h0.1h0.1h0.1h0.1h0.1h0.2h0.1h0.1h0.1h0.1h0.1h0.2h0.1h0.1h0.1h0.1h0.1
			h0.2h0.1h0.1h0.1h0.2h0.1h0.1h0.1h0.1h0.1h0.2h0.1h0.1h0.1h0.2h0.1h0.1h0.1h0.2h0.1h0.1h0.1h0.1h0.1h0.2h0.1h0.1h0.1h0.2h0.1h0.1
			h0.1h0.2h0.1h0.1h0.1h0.2h0.1h0.1h0.1h0.2h0.1h0.1h0.1h0.2h0.1h0.1h0.1h0.2h0.1h0.1h0.1h0.2h0.1h0.2h0.1h0.1h0.1h0.2h0.1h0.1h0.1
			h0.2h0.1h0.1h0.1h0.2h0.1h0.2h0.1h0.1h0.1h0.2h0.1h0.1h0.1h0.2h0.1h0.2h0.1h0.1h0.1h0.2h0.1h0.2h0.1h0.1h0.1h0.2h0.1h0.2h0.1h0.1
			h0.1h0.2h0.1h0.2h0.1h0.2h0.1h0.1h0.1h0.2h0.1h0.2h0.1h0.2h0.1h0.1h0.1h0.2h0.1h0.2h0.1h0.2h0.1h0.1h0.1h0.2h0.1h0.2h0.1h0.2h0.1
			h0.2h0.1h0.1h0.1h0.2h0.1h0.2h0.1h0.2h0.1h0.2h0.1h0.2h0.1h0.1h0.1h0.2h0.1h0.2h0.1h0.2h0.1h0.2h0.1h0.2h0.1h0.2h0.1h0.2h0.1h0.2
			h0.1h0.2h0.1h0.2h0.1h0.2h0.1h0.1h0.1h0.2h0.1h0.2h0.1h0.2h0.1h0.2h0.1h0.2h0.1h0.2h0.1h0.2h0.1h0.2h0.1h0.2h0.1h0.2h0.1h0.2h0.1
			h0.2h0.1h0.2h0.1h0.2h0.1h0.2h0.1h0.2h0.1h0.2h0.1h0.2h0.1h0.2h0.1h0.2h0.1h0.2h0.1h0.2h0.1h0.2h0.1h0.2h0.1h0.2h0.1h0.2h0.1h0.2
			h0.1h0.2h0.1h0.2h0.1h0.2h0.1h0.2h0.1h0.2h0.1h0.2h0.1h0.2h0.1h0.2h0.1h0.2h0.1h0.2h0.1h0.2h0.1h0.2h0.1h0.2h0.1h0.2h0.1h0.2h0.1
			h0.2h0.1h0.1h0.1h0.1h0.1h0.2h0.1h0.1h0.1h0.1h0.1h0.2h0.1h0.1h0.1h0.2h0.1h0.1h0.1h0.1h0.1h0.2h0.1h0.1h0.1h0.2h0.1h0.1h0.1h0.2
			h0.1h0.1h0.1h0.2h0.1h0.1h0.1h0.2h0.1h0.1h0.1h0.2h0.1h0.1h0.1h0.2h0.1h0.1h0.1h0.2h0.1h0.1h0.1h0.2h0.1h0.2h0.1h0.1h0.1h0.2h0.1
			h0.1h0.1h0.2h0.1h0.2h0.1h0.1h0.1h0.2h0.1h0.2h0.1h0.1h0.1h0.2h0.1h0.2h0.1h0.1h0.1h0.2h0.1h0.2h0.1h0.2h0.1h0.1h0.1h0.2h0.1h0.2
			h0.1h0.2h0.1h0.1h0.1h0.2h0.1h0.2h0.1h0.2h0.1h0.2h0.1h0.2h0.1h0.1h0.1h0.2h0.1h0.2h0.1h0.2h0.1h0.2h0.1h0.2h0.1h0.2h0.1h0.2h0.1
			h0.2h0.1h0.2h0.1h0.2h0.1h0.1h0.1h0.2h0.1h0.2h0.1h0.2h0.1h0.2h0.1h0.2h0.1h0.2h0.1h0.2h0.1h0.2h0.1h0.2h0.1h0.2h0.1h0.2h0.1h0.2
			h0.1h0.2h0.1h0.2h0.1h0.2h0.1h0.2h0.1h0.2h0.1h0.2h0.1h0.2h0.1h0.2h0.1h0.2h0.1h0.2h0.1h0.2h0.1h0.2h0.1h0.2h0.1h0.2h0.1h0.2h0.1
			h0.2h0.1h0.2h0.1h0.2h0.1h0.2h0.1h0.2h0.1h0.2h0.1h0.2h0.1h0.2h0.1h0.2h0.1h0.2h0.1h0.2h0.1h0.2h0.1h0.2h0.1h0.2h0.1h0.2h0.1h0.2
			h0.1h0.2h0.1h0.2h0.1h0.2h0.1h0.2h0.1h0.2h0.1h0.2h0.1h0.2h0.1h0.2h0.1h0.2h0.1h0.2h0.1h0.2h0.1h0.2h0.1h0.2h0.1h0.2h0.1h0.2h0.1
			h0.2h0.1h0.2h0.1h0.2h0.1h0.2h0.1h0.2h0.1h0.2h0.1h0.2h0.1h0.2h0.1h0.2h0.1h0.2h0.1h0.2h0.1h0.2h0.1h0.2h0.1h0.2h0.1h0.2h0.1h0.2
			h0.1h0.2h0.1h0.2h0.1h0.2h0.1h0.2h0.1h0.2h0.1h0.2h0.1h0.2h0.1h0.2h0.1h0.2h0.1h0.2h0.1h0.2h0h0.2h0.1h0.2h0h0.2h0h0.2h0h0.2h0
			h0.2h0h0.2h0h0.2h0h0.2h0h0.2h0h0.2h0h0.2h0h0.2h0h0.2h0h0.2h0h0.2h0h0.2h0h0.2h0h0.2h0h0.2h0h0.2h0h0.2h0h0.2h0h0.2h0h0.2h0h0.2
			h0h0.2h0h0.2h0h0.2h0h0.2h0h0.2h0h0.2h0h0.2h0h0.2h0h0.2h0h0.2h0h0.2h0h0.2h0h0.2h0h0.2h0h0.2h0h0.2h0h0.2h0h0.2h0h0.2h0h0.2h0
			h0.2h0h0.2h0h0.2h0h0.2h0h0.2h0h0.2h0h0.2h0h0.2h0h0.2h0h0.2h0h0.2h0h0.2h0h0.2h0h0.2h0h0.2h0h0.2h0h0.2h0h0.2h0h0.2h0h0.2h0h0.2
			h0h0.2h0h0.2h0h0.2h0h0.2h0h0.2h0h0.2h0h0.2h0h0.2h0h0.2h0h0.2h0h0.2h0h0.2h0h0.2h0h0.2h0h0.2h0h0.2h0h0.2h0h0.2h0h0.2h0h0.2h0
			h0.2h0h0.2h0h0.2h0h0.2h0h0.2h0h0.2h0h0.2h0h0.2h0h0.2h0h0.2h0h0.2h0h0.2h0h0.2h0h0.2h0h0.2h0h0.2h0h0.2h0h0.2h0h0.2h0h0.2h0h0.2
			h0h0.2h0h0.2h0h0.2h0h0.2h0h0.2h0h0.2h0h0.2h0h0.2h0h0.2h0h0.2h0h0.2h0h0.2h0h0.2h0h0.2h0h0.2h0h0.2h0h0.2h0h0.2h0h0.2h0h0.2h0
			h0.2h0h0.2h0h0.2h0h0.2h0h0.2h0h0.2h0h0.2h0h0.2h0h0.2h0h0.2h0h0.2h0h0.2h0h0.2h0h0.2h0h0.2h0h0.2h0h0.2h0h0.2h0h0.2h0h0.2h0h0.2
			h0h0.2h0h0.2h0h0.2h0h0.2h0h0.2h0h0.2h0h0.2h0h0.2h0h0.2h0h0.2h0h0.2h0h0.2h0h0.2h0h0.2h0h0.2h0h0.2h0h0.2h0h0.2h0h0.2h0h0.2h0
			h0.2h0h0.2h0h0.2h0h0.2h0h0.2h0h0.2h0h0.2h0h0.2h0h0.2h0h0.2h0h0.2h0h0.2h0h0.2h0h0.2h0h0.2h0h0.2h0h0.2h0h0.2h0h0.2h0h0.2h0h0.2
			h0h0.2h0h0.2h0h0.2h0h0.2h0h0.2h0h0.2h0h0.2h0h0.2h0h0.2h0h0.2h0h0.2h0h0.2h0h0.2h0h0.2h0h0.2h0h0.2h0h0.2h0h0.2h0h0.2h0h0.2h0
			h0.2h0h0.2h0h0.2h0h0.2h0h0.2h0h0.2h0h0.2h0h0.2h0h0.2h0h0.2h0h0.2h0h0.2h0h0.2h0h0.2h0h0.2h0h0.2h0h0.2h0h0.2h0h0.2h0h0.2h0h0.2
			h0h0.2h0h0.2h0h0.2h0h0.2h0h0.2h0h0.2h0h0.2h0h0.2h0h0.2h0h0.2h0h0.2h0h0.2h0h0.2h0h0.2h0h0.2h0h0.2h0h0.2h0h0.2h0h0.2h0h0.2h0
			h0.2h0h0.2h0h0.2h0h0.2h0h0.2h0h0.2h0h0.2h0h0.2h0h0.2h0h0.2h0h0.2h0h0.2h0h0.2h0h0.2h0h0.2h0h0.2h0h0.2h0h0.2h0h0.2h0h0.2h0h0.2
			h0h0.2h0h0.2h0h0.2h0h0.2h0h0.2h0h0.2h0h0.2h0h0.2h0h0.2h0h0.2h0h0.2h0h0.2h0h0.2h0h0.2h0h0.2h0h0.2h0h0.2h0h0.2h0h0.2h0h0.2h0
			h0.2h0h0.2h0h0.2h0h0.2h0h0.2h0h0.2h0h0.2h0h0.2h0h0.2h0h0.2h0h0.2h0h0.2h0h0.2h0h0.2h0h0.2h0h0.2h0h0.2h0h0.2h0h0.2h0h0.2h0h0.2
			h0h0.2h0h0.2h0h0.2h0h0.2h0h0.2h0h0.2h0h0.2h0h0.2h0h0.2h0h0.2h0h0.2h0h0.2h0h0.2h0h0.2h0h0.2h0h0.2h0h0.2h0h0.2h0h0.2h0h0.2h0
			h0.2h0h0.2h0h0.2h0h0.2h0h0.2h0h0.2h0h0.2h0h0.2h0h0.2h0h0.2h0h0.2h0h0.2h0h0.2h0h0.2h0h0.2h0h0.2h0h0.2h0h0.2h0h0.2h0h0.2h0h0.2
			h0h0.2h0h0.2h0h0.2h0h0.2h0h0.2h0h0.2h0h0.2h0h0.2h0h0.2h0h0.2h0h0.2h0h0.2h0h0.2h0h0.2h0h0.2h0h0.2h0h0.2h0h0.2h0h0.2h0h0.2h0
			h0.2h0h0.2h0h0.2h0h0.2h0h0.2h0h0.2h0h0.2h0h0.2h0h0.2h0h0.2h0h0.2h0h0.2h0h0.2h0h0.2h0h0.2h0h0.2h0h0.2h0h0.2h0h0.2h0h0.2h0h0.2
			h0h0.2h0h0.2h0h0.2h0h0.2h0h0.2h0h0.2h0h0.2h0h0.2h0h0.2h0h0.2h0h0.2h0h0.2h0h0.2h0h0.2h0h0.2h0h0.2h0h0.2h0h0.2h0h0.2h0h0.2h0
			h0.2h0h0.2h0h0.2h0h0.2h0h0.2h0h0.2h0h0.2h0h0.2h0h0.2h0h0.2h0h0.2h0h0.2h0h0.2h0h0.2h0h0.2h0h0.2h0h0.2h0h0.2h0h0.2h0h0.2h0h0.2
			h0h0.2h0h0.2h0h0.2h0h0.2h0h0.2h0h0.2h0h0.2h0h0.2h0h0.2h0h0.2h0h0.2h0h0.2h0h0.2h0h0.2h0h0.2h0h0.2h0h0.2h0h0.2h0h0.2h0h0.2h0
			h0.2h0h0.2h0h0.2h0h0.2h0h0.2h0h0.2h0h0.2h0h0.2h0h0.2h0h0.2h0h0.2h0h0.2h0h0.2h0h0.2h0h0.2h0h0.2h0h0.2h0h0.2h0h0.2h0h0.2h0h0.2
			h0h0.2h0h0.2h0h0.2h0h0.2h0h0.2h0h0.2h0h0.2h0h0.2h0h0.2h0h0.2h0h0.2h0h0.2h0h0.2h0h0.2h0h0.2h0h0.2h0h0.2h0h0.2h0h0.2h0h0.2h0
			h0.2h0h0.2h0h0.2h0h0.2h0h0.2h0h0.2h0h0.2h0h0.2h0h0.2h0h0.2h0h0.2h0h0.2h0h0.2h0h0.2h0h0.2h0h0.2h0h0.2h0h0.2h0h0.2h0h0.2h0h0.2
			h0h0.2h0h0.2h0h0.2h0h0.2h0h0.2h0h0.2h0h0.2h0h0.2h0h0.2h0h0.2h0h0.2h0h0.2h0h0.2h0h0.2h0h0.2h0h0.2h0h0.2h0h0.2h0h0.2h0h0.2h0
			h0.2h0h0.2h0h0.2h0h0.2h0h0.2h0h0.2h0h0.2h0h0.2h0h0.2h0h0.2h0h0.2h0h0.2h0h0.2h0h0.2h0h0.2h0h0.2h0h0.2h0h0.2h0h0.2h0h0.2h0h0.2
			h0h0.2h0h0.2h0h0.2h0h0.2h0h0.2h0h0.2h0h0.2h0h0.2h0h0.2h0h0.2h0h0.2h0h0.2h0h0.2h0h0.2h0h0.2h0h0.2h0h0.2h0h0.2h0h0.2h0h0.2h0
			h0.2h0h0.2h0h0.2h0h0.2h0h0.2h0h0.2h0h0.2h0h0.2h0h0.2h0h0.2h0h0.2h0h0.2h0h0.2h0h0.2h0h0.2h0h0.2h0h0.2h0h0.2h0h0.2h0h0.2h0h0.2
			h0h0.2h0h0.2h0h0.2h0h0.2h0h0.2h0h0.2h0h0.2h0h0.2h0h0.2h0h0.2h0h0.2h0h0.2h0h0.2h0h0.2h0h0.2h0h0.2h0h0.2h0h0.2h0h0.2h0h0.2h0
			h0.2h0h0.2h0h0.2h0h0.2h0h0.2h0h0.2h0h0.2h0h0.2h0h0.2h0h0.2h0h0.2h0h0.2h0h0.2h0h0.2h0h0.2h0h0.2h0h0.2h0h0.2h0h0.2h0h0.2h0h0.2
			h0h0.2h0h0.2h0h0.2h0h0.2h0h0.2h0h0.2h0h0.2h0h0.2h0h0.2h0h0.2h0h0.2h0h0.2h0h0.2h0h0.2h0h0.2h0h0.2h0h0.2h0h0.2h0h0.2h0h0.2h0
			h0.2h0h0.2h0h0.2h0h0.2h0h0.2h0h0.2h0h0.2h0h0.2h0h0.2h0h0.2h0h0.2h0h0.2h0h0.2h0h0.2h0h0.2h0h0.2h0h0.2h0h0.2h0h0.2h0h0.2h0h0.2
			h0h0.2h0h0.2h0h0.2h0h0.2h0h0.2h0h0.2h0h0.2h0h0.2h0h0.2h0h0.2h0h0.2h0h0.2h0h0.2h0h0.2h0h0.2h0h0.2h0h0.2h0h0.2h0h0.2h0h0.2h0
			h0.2h0h0.2h0h0.2h0h0.2h0h0.2h0h0.2h0h0.2h0h0.2h0h0.2h0h0.2h0h0.2h0h0.2h0h0.2h0h0.2h0h0.2h0h0.2h0h0.2h0h0.2h0h0.2h0h0.2h0h0.2
			h0h0.2h0h0.2h0h0.2h0h0.2h0h0.2h0h0.2h0h0.2h0h0.2h0h0.2h0h0.2h0h0.2h0h0.2h0h0.2h0h0.2h0h0.2h0h0.2h0h0.2h0h0.2h0h0.2h0h0.2h0
			h0.2h0h0.2h0h0.2h0h0.2h0h0.2h0h0.2h0h0.2h0h0.2h0h0.2h0h0.2h0h0.2h0h0.2h0h0.2h0h0.2h0h0.2h0h0.2h0h0.2h0h0.2h0h0.2h0h0.2h0h0.2
			h0h0.2h0h0.2h0h0.2h0h0.2h0h0.2h0h0.2h0h0.2h0h0.2h0h0.2h0h0.2h0h0.2h0h0.2h0h0.2h0h0.2h0h0.2h0h0.2h0h0.2h0h0.2h0h0.2h0h0.2h0
			h0.2h0h0.2h0h0.2h0h0.2h0h0.2h0h0.2h0h0.2h0h0.2h0h0.2h0h0.2h0h0.2h0h0.2h0h0.2h0h0.2h0h0.2h0h0.2h0h0.2h0h0.2h0h0.2h0h0.2h0h0.2
			h0h0.2h0h0.2h0h0.2h0h0.2h0h0.2h0h0.2h0h0.2h0h0.2h0h0.1h0h0.2h0h0.2h0h0.1h0.1h0h0.2h0h0.2h0h0.2h0h0.2h0h0.2h0h0.2h0h0.2h0h0.2
			h0h0.2h0h0.2h0h0.2h0h0.2h0h0.2h0h0.2h0h0.2h0h0.2h0h0.2h0h0.2h0h0.2h0h0.2h0h0.2h0h0.2h0h0.2h0h0.2h0h0.2h0h0.2h0h0.2h0h0.2h0
			h0.2h0h0.2h0h0.2h0h0.2h0h0.2h0h0.2h0h0.2h0h0.2h0h0.2h0h0.2h0h0.2h0h0.2h0h0.2h0h0.2h0h0.2h0h0.2h0h0.2h0h0.2h0h0.2h0h0.2h0h0.2
			h0h0.2h0h0.2h0h0.2h0h0.2h0h0.2h0h0.2h0h0.2h0h0.2h0h0.2h0h0.2h0h0.2h0h0.2h0h0.2h0h0.2h0h0.2h0h0.2h0h0.2h0h0.2h0h0.2h0h0.2h0
			h0.2h0h0.2h0h0.2h0h0.2h0h0.2h0h0.2h0h0.2h0h0.2h0h0.2h0h0.2h0h0.2h0h0.2h0h0.2h0h0.2h0h0.2h0h0.2h0h0.2h0h0.2h0h0.2h0h0.2h0h0.2
			h0h0.2h0h0.2h0h0.2h0h0.2h0h0.2h0h0.2h0h0.2h0h0.2h0h0.2h0h0.2h0h0.2h0h0.2h0h0.2h0h0.2h0h0.2h0h0.2h0h0.2h0h0.2h0h0.2h0h0.2h0
			h0.2h0h0.2h0h0.2h0h0.2h0h0.2h0h0.2h0h0.2h0h0.2h0h0.2h0h0.2h0h0.2h0h0.2h0h0.2h0h0.2h0h0.2h0h0.3h0h0.2h0h0.2h0h0.2h0h0.2h0h0.2
			h0h0.2h0h0.2h0h0.2h0h0.2h0h0.2h0h0.2h0h0.2h0h0.2h0h0.2h0h0.2h0h0.2h0h0.2h0h0.2h0h0.2h0h0.2h0h0.2h0h0.2h0h0.2h0h0.2h0h0.2h0
			h0.2h0h0.2h0h0.2h0h0.2h0h0.2h0h0.2h0h0.2h0h0.2h0h0.2h0h0.2h0h0.2h0h0.2h0h0.2h0h0.2h0h0.2h0h0.2h0h0.2h0h0.2h0h0.2h0h0.2h0h0.2
			h0h0.2h0h0.2h0h0.2h0h0.2h0h0.2h0h0.2h0h0.2h0h0.2h0h0.2h0h0.2h0h0.2h0h0.2h0h0.2h0h0.2h0h0.2h0h0.2h0h0.2h0h0.2h0h0.2h0h0.2h0
			h0.2h0h0.2h0h0.2h0h0.2h0h0.2h0h0.2h0h0.2h0h0.2h0h0.2h0h0.2h0h0.2h0h0.2h0h0.2h0h0.2h0h0.2h0h0.2h0h0.2h0h0.2h0h0.2h0h0.2h0h0.2
			h0h0.2h0h0.2h0h0.2h0h0.2h0h0.2h0h0.2h0h0.2h0h0.2h0h0.2h0h0.2h0h0.2h0h0.2h0h0.2h0h0.2h0h0.2h0h0.2h0h0.2h0h0.2h0h0.2h0h0.2h0
			h0.2h0h0.2h0h0.2h0h0.2h0h0.2h0h0.2h0h0.2h0h0.2h0h0.2h0h0.2h0h0.2h0h0.2h0h0.2h0h0.2h0h0.2h0h0.2h0h0.2h0h0.2h0h0.2h0h0.2h0h0.2
			h0h0.2h0h0.2h0h0.2h0h0.2h0h0.2h0h0.2h0h0.2h0h0.2h0h0.2h0h0.2h0h0.2h0h0.2h0h0.2h0h0.2h0h0.2h0h0.2h0h0.2h0h0.2h0h0.2h0h0.2h0
			h0.2h0h0.2h0h0.2h0h0.2h0h0.2h0h0.2h0h0.2h0h0.2h0h0.2h0h0.2h0h0.2h0h0.2h0h0.2h0h0.2h0h0.2h0h0.2h0h0.2h0h0.2h0h0.2h0h0.2h0h0.2
			h0h0.2h0h0.2h0h0.2h0h0.2h0h0.2h0h0.2h0h0.2h0h0.2h0h0.2h0h0.2h0h0.2h0h0.2h0h0.2h0h0.2h0h0.2h0h0.2h0h0.2h0h0.2h0h0.2h0h0.2h0
			h0.2h0h0.2h0h0.2h0h0.2h0h0.2h0h0.2h0h0.2h0h0.2h0h0.2h0h0.2h0h0.2h0h0.2h0h0.2h0h0.2h0h0.2h0h0.2h0h0.2h0h0.2h0h0.2h0h0.2h0h0.2
			h0h0.2h0h0.2h0h0.2h0h0.2h0h0.2h0h0.2h0h0.2h0h0.2h0h0.2h0h0.2h0h0.2h0h0.2h0h0.2h0h0.2h0h0.2h0h0.2h0h0.2h0h0.2h0h0.2h0h0.2h0
			h0.2h0h0.2h0h0.2h0h0.2h0h0.2h0h0.2h0h0.2h0h0.2h0h0.2h0h0.2h0h0.2h0h0.2h0h0.2h0h0.2h0h0.2h0h0.2h0h0.2h0h0.2h0h0.2h0h0.2h0h0.2
			h0h0.2h0h0.2h0h0.2h0h0.2h0h0.2h0h0.2h0h0.2h0h0.2h0h0.2h0h0.2h0h0.2h0h0.2h0h0h0.2h0h0.2h0h0.2h0h0.2h0h0.2h0h0.2h0h0.2h0h0.2h0
			h0.2h0.1h0h0.2h0h0.2h0h0.2h0h0.2h0h0.2h0h0.2h0h0.2h0h0.2h0h0.2h0h0.2h0h0.2h0l0.1-760.7L1952,772h0h0.2h0h0.2h0h0h0.2h0h0.2h0
			h0.2h0h0.2h0h0.2h0h0.2h0h0.2h0h0.2h0h0.2h0h0.2h0h0.2h0h0.2h0h0.2h0h0.2h0h0.2h0h0.2h0h0.2h0h0.2h0h0.2h0h0.2h0h0.2h0h0.2h0h0.2
			h0h0.2h0h0.2h0h0.2h0h0.2h0h0.2h0h0.2h0h0.2h0h0.2h0h0.2h0h0.2h0h0.2h0h0.2h0h0.2h0h0.2h0h0.2h0h0.2h0h0.2h0h0.2h0h0.2h0h0.2h0
			h0.2h0h0.2h0h0.2h0h0.2h0h0.2h0h0.2h0h0.2h0h0.2h0h0.2h0h0.2h0h0.2h0h0.2h0h0.2h0h0.2h0h0.2h0h0.2h0h0.2h0h0.2h0h0.2h0h0.2h0h0.2
			h0h0.2h0h0.2h0h0.2h0h0h0.2h0h0.2h0h0.2h0h0.2h0h0.2h0h0.2h0h0.2h0h0.2h0h0.2h0h0.2h0h0.2h0h0.2h0h0.2h0h0.2h0h0.1h0.1h0h0.2h0
			h0.2h0h0.2h0h0.2h0h0.2h0h0.2h0h0.2h0h0.2h0h0.2h0h0.2h0h0.2h0h0.2h0h0.2h0h0.2h0h0.2h0h0.2h0h0.2h0h0.2h0h0.2h0h0.2h0h0.2h0h0.2
			h0h0.2h0h0.2h0h0.2h0h0.2h0h0.2h0h0.2h0h0.2h0h0.2h0h0.2h0h0.2h0h0.2h0h0.2h0h0.2h0h0.2h0h0.2h0h0.2h0h0.2h0h0.2h0h0.2h0h0.2h0
			h0.2h0h0.2h0h0.2h0h0.2h0h0.2h0h0.2h0h0.2h0h0.2h0h0.2h0h0.2h0h0.2h0h0.2h0h0.2h0h0.2h0h0.2h0h0.2h0h0.2h0h0.2h0h0.2h0h0.2h0h0.2
			h0h0.2h0h0.2h0h0.2h0h0.2h0h0.2h0h0.2h0h0.2h0h0.2h0h0.2h0h0.2h0h0.2h0h0.2h0h0.2h0h0.2h0h0.2h0h0.2h0h0.2h0h0.2h0h0.2h0h0.2h0
			h0.2h0h0.2h0h0.2h0h0.2h0h0.2h0h0.2h0h0.2h0h0.2h0h0.2h0h0.2h0h0.2h0h0.2h0h0.2h0h0.2h0h0.2h0h0.2h0h0.2h0h0.2h0h0.2h0h0.2h0h0.2
			h0h0.2h0h0.2h0h0.2h0h0.2h0h0.2h0h0.2h0h0.2h0h0.2h0h0.2h0h0.2h0h0.2h0h0.2h0l0.2,0l0,0h0h0.2h0h0.2h0h0.2h0h0.2h0h0.2h0h0.2h0
			h0.2h0h0.2h0h0.2h0h0.2h0h0.2h0h0.2h0h0.2h0h0.2h0h0.2h0h0.2h0h0.2h0h0.2h0h0.2h0h0.2h0h0.2h0h0.2h0h0.2h0h0.2h0h0.2h0h0.2h0h0.2
			h0h0.2h0h0.2h0h0.2h0h0.2h0h0.2h0h0.2h0h0.2h0h0.2h0h0.2h0h0.2h0h0.2h0h0.2h0h0.2h0h0.2h0h0.2h0h0.2h0h0.2h0h0.2h0h0.2h0h0.2h0
			h0.2h0h0.2h0h0.2h0h0.2h0h0.2h0h0.2h0h0.2h0h0.2h0h0.2h0h0.2h0h0.2h0h0.2h0h0.2h0h0.2h0h0.2h0h0.2h0h0.2h0h0.2h0h0.2h0h0.2h0h0.2
			h0h0.2h0h0.2h0h0.2h0h0.2h0h0.2h0h0.2h0h0.2h0h0.2h0h0.2h0h0.2h0h0.2h0h0.2h0h0.2h0h0.2h0h0.2h0h0.2h0h0.2h0h0.2h0h0.2h0h0.2h0
			h0.2h0h0.2h0h0.2h0h0.2h0h0.2h0h0.2h0h0.2h0h0.2h0h0.2h0h0.2h0h0.2h0h0.2h0h0.2h0h0.2h0h0.2h0h0.2h0h0.2h0h0.2h0h0.2h0h0.2h0h0.2
			h0h0.2h0h0.2h0h0.2h0h0.2h0h0.2h0h0.2h0h0.2h0h0.2h0h0.2h0h0.2h0h0.2h0h0.2h0h0.2h0h0.2h0h0.2h0h0.2h0h0.2h0h0.2h0h0.2h0h0.2h0
			h0.2h0h0.2h0h0.2h0h0.2h0h0.2h0h0.2h0h0.2h0h0.2h0h0.2h0h0.2h0h0.2h0h0.2h0h0.2h0h0.2h0h0.2h0h0.2h0h0.2h0h0.2h0h0.2h0h0.2h0h0.2
			h0h0.2h0h0.2h0h0.2h0h0.2h0h0.2h0h0.2h0h0.2h0h0.2h0h0.2h0h0.2h0h0.2h0h0.2h0h0.2h0h0.2h0h0.2h0h0.2h0h0.2h0h0.2h0h0.2h0h0.2h0
			h0.2h0h0.2h0h0.2h0h0.2h0h0.2h0h0.2h0h0.2h0h0.2h0h0.2h0h0.2h0h0.2h0h0.2h0h0.2h0h0.2h0h0.2h0h0.2h0h0.3h0h0.2h0h0.2h0h0.2h0h0.2
			h0h0.2h0h0.2h0h0.2h0h0.2h0h0.2h0h0.2h0h0.2h0h0.2h0h0.3h0h0.2h0h0.2h0h0.2h0h0.2h0h0.2h0h0.2h0h0.2h0h0.2h0h0.3h0h0.2h0h0.2h0
			h0.2h0h0.2h0h0.2h0h0.2h0h0h0.3h0h0.2h0h0.2h0h0h0.2h0h0.2h0h0.2h0h0.2h0h0.2h0h0h0.2h0h0h0.2h0h0h0.2h0h0.2h0h0.3h0h0.2h0h0.2h0
			h0.2h0h0.2h0h0h0.3h0h0.2h0h0.2h0h0.2h0h0.2h0h0h0.2h0h0h0.2h0h0.2h0h0h0.2h0h0.3h0h0.2h0h0h0.2h0h0.2h0h0.2h0h0.2h0h0.2h0h0.2h0
			h0.2h0h0h0.2h0h0.3h0h0.2h0.1h0h0h0.2h0h0h0.2h0h0.2h0h0h0.2h0h0h0.2h0h0h0.2h0h0h0.2h0h0h0.2h0h0h0.2h0h0h0.2h0h0h0.2h0h0.2h0
			h0.2h0h0h0.2h0h0h0.2h0h0h0.2h0h0.2h0h0.2h0h0h0.2h0h0h0.2h0h0.2h0h0h0.3h0h0.2h0h0h0.2h0h0.2h0h0h0.2h0h0.2h0h0h0.2h0h0h0.2h0
			h0.2h0h0h0.2h0h0h0.2h0h0h0.2h0h0h0.2h0h0.2h0h0.2h0h0h0.2h0h0h0.2h0h0h0.2h0h0h0.2h0h0h0.2h0h0h0.2h0h0h0.2h0h0h0.2h0h0.2h0h0
			h0.2h0h0.2h0h0.2h0h0h0.2h0h0.2h0h0h0.2h0h0h0.2h0h0h0.2h0h0.2h0h0h0.2h0h0.2h0h0.2h0h0h0.2h0h0h0.2h0h0h0.2h0h0h0.2h0h0h0.2h0h0
			h0.2h0h0.2h0h0.2h0h0h0.2h0h0h0.1h0.2h0h0h0h0.2h0h0.2h0h0h0.2h0h0h0.2h0h0h0.2h0h0h0.2h0h0h0.2h0h0h0.2h0h0h0.2h0h0h0.2h0h0h0.2
			h0h0h0.2h0h0h0.2h0h0h0.2h0h0.2h0h0h0.2h0h0h0.2h0h0h0.2h0h0h0.2h0h0.2h0h0h0.2h0h0h0.2h0h0h0.2h0h0.2h0h0h0.2h0h0h0.2h0h0h0.2h0
			h0h0.2h0h0h0.2h0h0h0.2h0h0h0.2h0h0h0.2h0h0h0.2h0h0h0.2h0h0h0.2h0h0h0.2h0h0h0.2h0h0h0.2h0h0h0.2h0h0h0.2h0h0h0.2h0h0h0.2h0h0
			h0.2h0h0h0.2h0h0h0.2h0h0h0.2h0h0h0.2h0h0h0.2h0h0h0.2h0h0h0.2h0h0h0.2h0h0h0.2h0h0h0.2h0h0h0.2h0h0.2h0h0h0.2h0h0h0.2h0h0h0.2h0
			h0h0.2h0h0h0.2h0h0h0.2h0h0h0.2h0h0.2h0h0h0.2h0h0h0.2h0h0h0.2h0h0h0.2h0h0h0.2h0h0h0.2h0h0h0.2h0h0h0.2h0h0h0.2h0h0h0.2h0h0h0.2
			h0h0h0.3h0h0.2h0h0h0.2h0h0h0.2h0h0h0.2h0h0h0.2h0h0h0.2h0h0h0.2h0h0h0.2h0h0h0.2h0h0h0.2h0h0h0.2h0h0h0.2h0h0h0.2h0h0h0.2h0h0
			h0.2h0h0h0.2h0h0h0.2h0h0h0.3h0h0.2h0h0h0.2h0h0h0.2h0h0h0.2h0h0h0.2h0h0h0.2h0h0h0.2h0h0h0.2h0h0h0.2h0h0h0.2h0h0h0.2h0h0h0.2h0
			h0h0.2h0h0.2h0h0h0.2h0h0h0.2h0h0h0.2h0h0h0.2h0l0,0h0.2h0h0h0.2h0h0h0.2h0h0h0.2h0h0h0.2h0h0h0.2h0l0,0h0.2h0h0h0.2h0l0,0h0.2h0
			h0h0.2h0h0h0.2h0h0h0.2h0l0,0h0.2h0h0h0.2h0h0h0.2h0h0h0.2h0l0,0h0.2h0l0,0h0.2h0h0h0.2h0h0h0.2h0l0,0h0.2h0h0h0.2h0h0h0.2h0h0
			h0.2h0h0h0.2h0h0h0.2h0h0h0.2h0h0h0.2h0l0,0h0.2h0h0h0.2h0l0,0h0.2h0h0h0.2h0l0,0h0.2h0h0h0.2h0l0,0h0.3l0,0h0.2h0h0h0.2h0h0h0.2
			h0h0h0.2h0h0h0.2h0h0h0.2h0h0h0.2h0h0h0.2h0h0h0.2h0l0,0h0.2h0h0h0.2h0h0h0.3l0,0h0.2h0l0,0h0.2h0h0h0.2h0h0h0.2h0h0h0.2h0l0,0
			h0.2h0h0h0.2h0h0h0.2h0l0,0h0.2h0h0h0.2h0h0h0.2h0h0h0.2h0l0,0h0.2h0l0,0h0.3l0,0h0.2h0h0h0.2h0l0,0h0.2h0h0h0.2h0h0h0.2h0h0h0.2
			h0h0h0.2h0l0,0h0.2h0l0,0h0.2h0h0h0.2h0h0h0.2h0h0h0.2h0l0,0h0.2h0h0h0.2h0l0,0h0.2h0h0h0.2h0h0h0.2h0h0h0.2h0l0,0h0.2h0l0,0h0.2
			h0h0h0.2h0h0h0.2h0h0h0.2h0h0h0.2h0h0h0.2h0h0h0.2h0l0,0h0.2h0h0h0.2h0l0,0h0.2h0l0,0h0.2h0h0h0.2h0l0,0h0.2h0l0,0h0.2h0h0h0.2h0
			l0,0h0.2h0l0,0h0.2h0h0h0.2h0l0,0h0.2h0l0,0h0.2h0l0,0h0.2h0l0,0h0.2h0h0h0.2h0h0h0.2h0h0h0.2h0h0h0.2h0h0h0.2h0l0,0h0.2h0h0h0.2
			h0l0,0h0.2h0h0h0.2h0h0h0.2h0h0h0.2h0l0,0h0.2h0h0h0.2h0l0,0h0.2h0h0h0.2h0l0,0h0.2h0l0,0h0.2h0l0,0h0.2h0h0h0.2h0l0,0h0.2h0l0,0
			h0.2h0h0h0.2h0h0h0.2h0l0,0h0.2h0h0h0.2h0h0h0.2h0h0h0.2h0l0,0h0.2h0h0h0.2h0l0,0h0.2h0l0,0h0.2h0h0h0.2h0h0h0.2h0l0,0h0.2h0l0,0
			h0.2h0h0h0.2h0h0h0.2h0l0,0h0.2h0l0,0h0.2h0h0h0.2h0h0h0.2h0h0h0.2h0l0,0h0.2h0l0,0h0.2h0h0h0.2h0h0h0.2h0h0h0.2h0l0,0h0.2h0h0
			h0.2h0l0,0h0.2h0h0h0.2h0l0,0h0.2h0h0h0.2h0h0h0.2h0l0,0h0.2h0l0,0h0.2h0l0,0h0.2h0h0h0.2h0h0h0.2h0h0h0.2h0l0,0h0.2h0h0h0.2h0
			l0,0h0.2h0l0,0h0.2h0.1l0,0h0.2h0l0,0h0.2h0l0,0h0.2h0l0,0h0.2h0h0h0.2h0l0,0h0.2h0.1l0,0h0.2h0l0,0h0.2h0.1l0,0h0.2h0h0h0.2h0
			l0,0h0.2h0l0,0h0.2h0l0,0h0.2h0h0h0.2h0l0,0h0.2h0.1l0,0h0.2h0.1l0,0h0.2h0l0,0h0.2h0l0,0h0.2h0l0,0h0.2h0.1l0,0h0.2h0.1l0,0h0.2
			h0l0,0h0.2h0l0,0h0.2h0l0,0h0.2h0l0,0h0.2h0.1l0,0h0.2h0l0,0h0.2h0h0h0.2h0l0,0h0.2h0l0,0h0.2h0.1l0,0h0.2h0l0,0h0.2h0.1l0,0h0.2
			h0l0,0h0.2h0l0,0h0.2h0.1l0,0h0.2h0l0,0h0.2h0l0,0h0.2h0.1l0,0h0.2h0.1l0,0h0.2h0h0h0.2h0l0,0h0.2h0l0,0h0.2h0l0,0h0.2h0l0,0h0.2
			h0l0,0h0.2h0l0,0h0.2h0l0,0h0.2h0l0,0h0.2h0l0,0h0.2h0l0,0h0.2h0l0,0h0.2h0.1l0,0h0.2h0.1l0,0h0.2h0l0,0h0.2h0l0,0h0.2h0.1l0,0
			h0.2h0.1l0,0h0.2h0l0,0h0.2h0.1l0,0h0.2h0.1l0,0h0.2h0l0,0h0.2h0.1l0,0h0.2h0l0,0h0.2h0.1l0,0h0.2h0l0,0h0.2h0.1l0,0h0.2h0l0,0
			h0.2h0.1l0,0h0.2h0.1l0,0h0.2h0l0,0h0.2h0.1l0,0h0.1h0.1l0,0h0.2h0l0,0h0.2h0.1l0,0h0.2h0.1l0,0h0.1h0.1l0,0h0.2h0l0,0h0.2h0l0,0
			h0.2h0.1l0,0h0.2h0.1l0,0h0.2h0.1l0,0h0.1h0.1l0,0h0.1h0.1l0,0h0.1h0.1l0,0h0.2h0l0,0h0.2h0l0,0h0.2h0l0,0h0.2h0l0,0h0.1h0.1l0,0
			h0.1h0.1l0,0h0.1h0.1l0,0h0.2h0.1l0,0h0.2h0.1l0,0h0.2h0.1l0,0h0.2h0l0,0h0.2h0l0,0h0.1h0.1l0,0h0.1h0.1l0,0h0.2h0.1l0,0h0.2h0
			l0,0h0.2h0l0,0h0.1h0.1l0,0h0.2h0.1l0,0h0.2h0l0,0h0.1h0.1l0,0h0.2h0.1l0,0h0.2h0l0,0h0.1h0.1l0,0h0.2h0.1l0,0h0.1h0.2l0,0h0.2
			h0.1l0,0h0.2h0l0,0h0.1h0.1l0,0h0.2h0l0,0h0.1h0.1l0,0h0.2h0l0,0h0.1h0.1l0,0h0.2h0l0,0h0.1h0.1l0,0h0.2h0l0,0h0.2h0.1l0,0h0.1
			h0.2l0,0h0.2h0.1l0,0h0.1h0.1l0,0h0.2h0l0,0h0.2h0.1l0,0h0.1h0.2l0,0h0.2h0l0,0h0.1h0.1l0,0h0.1h0.2l0,0h0.2h0l0,0h0.2h0.1l0,0
			h0.1h0.1l0,0h0.2h0l0,0h0.2h0.1l0,0h0.1h0.1l0,0h0.1h0.2l0,0h0h0.2l0,0h0.2h0l0,0h0.2h0.1l0,0h0.1h0.1l0,0h0.1h0.2l0,0h0.1h0.2
			l0,0h0.2h0l0,0h0.2h0l0,0h0.2h0.1l0,0h0.1h0.1l0,0h0.1h0.1l0,0h0.1h0.2l0,0h0.1h0.2l0,0h0.1h0.2l0,0h0h0.2l0,0h0h0.2l0,0h0.2h0
			l0,0h0.2h0l0,0h0.2h0l0,0h0.2h0l0,0h0.2h0l0,0h0.2h0l0,0h0.2h0l0,0h0.2h0l0,0h0.2h0l0,0h0.2h0l0,0h0.3l0,0h0h0.2l0,0h0h0.2l0,0h0
			h0.2l0,0h0.1h0.2l0,0h0.1h0.2l0,0h0.1h0.1l0,0h0.1h0.1l0,0h0.2h0.1l0,0h0.2h0l0,0h0.2h0l0,0h0.3l0,0h0h0.2l0,0h0.1h0.2l0,0h0.1
			h0.1l0,0h0.2h0.1l0,0h0.2h0l0,0h0.3l0,0h0h0.2l0,0h0.1h0.2l0,0h0.2h0.1l0,0h0.2h0l0,0h0.3l0,0h0h0.2l0,0h0.1h0.1l0,0h0.2h0.1l0,0
			h0.3l0,0h0h0.2l0,0h0.1h0.1l0,0h0.2h0l0,0h0.3l0,0h0.1h0.2l0,0h0.2h0.1l0,0h0.3l0,0h0h0.2l0,0h0.1h0.1l0,0h0.2h0l0,0h0.3l0,0h0.1
			h0.2l0,0h0.2h0l0,0h0.3l0,0h0.1h0.1l0,0h0.2h0l0,0h0.3l0,0h0.1h0.1l0,0h0.3l0,0h0h0.2l0,0h0.2h0.1l0,0h0.3l0,0h0.1h0.2l0,0h0.2h0
			l0,0h0.3l0,0h0.2h0.1l0,0h0.3l0,0h0.1h0.2l0,0h0.3l0,0h0h0.2l0,0h0.2h0l0,0h0.3l0,0h0.2h0.1l0,0h0.3l0,0h0.1h0.1l0,0h0.3l0,0h0.1
			h0.2l0,0h0.3l0,0h0h0.2l0,0h0.3l0,0h0h0.2l0,0h0.3l0,0h0h0.2l0,0h0.2h0l0,0h0.3l0,0h0.2h0l0,0h0.3l0,0h0.3l0,0h0h0.2l0,0h0.3l0,0
			h0h0.2l0,0h0.3l0,0h0.1h0.2l0,0h0.3l0,0h0.1h0.1l0,0h0.3l0,0h0.2h0.1l0,0h0.3l0,0h0.2h0l0,0h0.3l0,0h0.3l0,0h0h0.2l0,0h0.3l0,0
			h0.1h0.1l0,0h0.3l0,0h0.2h0l0,0h0.3l0,0h0.3l0,0h0.1h0.2l0,0h0.3l0,0h0.2h0l0,0h0.3l0,0h0.3l0,0h0.1h0.2l0,0h0.3l0,0h0.2h0l0,0
			h0.3l0,0h0.3l0,0h0.2h0.1l0,0h0.3l0,0h0.3l0,0h0.1h0.2l0,0h0.3l0,0h0.3l0,0h0h0.2l0,0h0.3l0,0h0.3l0,0h0h0.2l0,0h0.3l0,0h0.2h0
			l0,0h0.3l0,0h0.3l0,0h0.3l0,0h0h0.2l0,0h0.3l0,0h0.3l0,0h0h0.2l0,0h0.3l0,0h0.3l0,0h0.1h0.2l0,0h0.3l0,0h0.3l0,0h0.1h0.1l0,0h0.3
			l0,0h0.3l0,0h0.2h0l0,0h0.3l0,0h0.3l0,0h0.3l0,0h0.1h0.2l0,0h0.3l0,0h0.3l0,0h0.2h0l0,0h0.3l0,0h0.3l0,0h0.3l0,0h0.2h0.1l0,0h0.3
			l0,0h0.3l0,0h0.3l0,0h0.1h0.1l0,0h0.3l0,0h0.3l0,0h0.3l0,0h0.1h0.2l0,0h0.3l0,0h0.3l0,0h0.3l0,0h0.1h0.2l0,0h0.3l0,0h0.3l0,0h0.3
			l0,0h0.1h0.1l0,0h0.3l0,0h0.3l0,0h0.3l0,0h0.2h0l0,0h0.3l0,0h0.3l0,0h0.3l0,0h0.3l0,0h0.1h0.1l0,0h0.3l0,0h0.3l0,0h0.3l0,0h0.3
			l0,0h0h0.2l0,0h0.3l0,0h0.3l0,0h0.3l0,0h0.2h0l0,0h0.3l0,0h0.3l0,0h0.3l0,0h0.3l0,0h0.3l0,0h0h0.2l0,0h0.3l0,0h0.3l0,0h0.3l0,0
			h0.3l0,0h0.1h0.2l0,0h0.3l0,0h0.3l0,0h0.3l0,0h0.3l0,0h0.2h0l0,0h0.3l0,0h0.3l0,0h0.3l0,0h0.3l0,0h0.3l0,0h0.2h0.1l0,0h0.3l0,0
			h0.3l0,0h0.3l0,0h0.3l0,0h0.3l0,0h0.2h0.1l0,0h0.3l0,0h0.3l0,0h0.3l0,0h0.3l0,0h0.3l0,0h0.3l0,0h0h0.2l0,0h0.3l0,0h0.3l0,0h0.3
			l0,0h0.3l0,0h0.3l0,0h0.2h0l0,0h0.3l0,0h0.3l0,0h0.3l0,0h0.3l0,0h0.3l0,0h0.3l0,0h0.3l0,0h0h0.2l0,0h0.3l0,0h0.3l0,0h0.3l0,0h0.3
			l0,0h0.3l0,0h0.3l0,0h0.2h0.1l0,0h0.3l0,0h0.3l0,0h0.3l0,0h0.3l0,0h0.3l0,0h0.3l0,0h0.3l0,0h0.2h0.1l0,0h0.3l0,0h0.3l0,0h0.3l0,0
			h0.3l0,0h0.3l0,0h0.3l0,0h0.3l0,0h0.3l0,0h0.1h0.2l0,0h0.3l0,0h0.3l0,0h0.3l0,0h0.3l0,0h0.3l0,0h0.3l0,0h0.3l0,0h0.3l0,0h0.2h0.1
			l0,0h0.3l0,0h0.3l0,0h0.3l0,0h0.3l0,0h0.3l0,0h0.3l0,0h0.3l0,0h0.3l0,0h0.3l0,0h0.2h0.1l0,0h0.3l0,0h0.3l0,0h0.3l0,0h0.3l0,0h0.3
			l0,0h0.3l0,0h0.3l0,0h0.3l0,0h0.3l0,0h0.3l0,0h0.2h0.1l0,0h0.3l0,0h0.3l0,0h0.3l0,0h0.3l0,0h0.3l0,0h0.3l0,0h0.3l0,0h0.3l0,0h0.3
			l0,0h0.3l0,0h0.3l0,0h0.2h0.1l0,0h0.3l0,0h0.3l0,0h0.3l0,0h0.3l0,0h0.3l0,0h0.3l0,0h0.3l0,0h0.3l0,0h0.3l0,0h0.3l0,0h0.3l0,0h0.3
			l0,0h0.3l0,0h0h0.2l0,0h0.3l0,0h0.3l0,0h0.3l0,0h0.3l0,0h0.3l0,0h0.3l0,0h0.3l0,0h0.3l0,0h0.3l0,0h0.3l0,0h0.3l0,0h0.3l0,0h0.3
			l0,0h0.3l0,0h0h0.2l0,0h0.3l0,0h0.3l0,0h0.3l0,0h0.3l0,0h0.3l0,0h0.3l0,0h0.3l0,0h0.3l0,0h0.3l0,0h0.3l0,0h0.3l0,0h0.3l0,0h0.3
			l0,0h0.3l0,0h0.3l0,0h0.3l0,0h0.2h0.1l0,0h0.3l0,0h0.3l0,0h0.3l0,0h0.3l0,0h0.3l0,0h0.3l0,0h0.3l0,0h0.3l0,0h0.3l0,0h0.3l0,0h0.3
			l0,0h0.3l0,0h0.3l0,0h0.3l0,0h0.3l0,0h0.3l0,0h0.3l0,0h0.3l0,0h0.3l0,0h0.3l0,0h0.1h0.1l0,0h0.3l0,0h0.3l0,0h0.3l0,0h0.3l0,0h0.3
			l0,0h0.3l0,0h0.3l0,0h0.3l0,0h0.3l0,0h0.3l0,0h0.3l0,0h0.3l0,0h0.3l0,0h0.3l0,0h0.3l0,0h0.3l0,0h0.3l0,0h0.3l0,0h0.3l0,0h0.3l0,0
			h0.3l0,0h0.3l0,0h0.3l0,0h0.3l0,0h0.3l0,0h0.3l0,0h0.1h0.2l0,0h0.3l0,0h0.3l0,0h0.3l0,0h0.3l0,0h0.3l0,0h0.3l0,0h0.3l0,0h0.3l0,0
			h0.3l0,0h0.3l0,0h0.3l0,0h0.3l0,0h0.3l0,0h0.3l0,0h0.3l0,0h0.3l0,0h0.3l0,0h0.3l0,0h0.3l0,0h0.3l0,0h0.3l0,0h0.3l0,0h0.3l0,0h0.3
			l0,0h0.3l0,0h0.3l0,0h0.3l0,0h0.3l0,0h0.3l0,0h0.3l0,0h0.3l0,0h0.3l0,0h0.3l0,0h0.3l0,0h0.3l0,0h0.3l0,0h0.3l0,0h0.3l0,0h0.3l0,0
			h0.3l0,0h0.3l0,0h0.3l0,0h0.3l0,0h0.2h0l0,0h0.3l0,0h0.3l0,0h0.3l0,0h0.3l0,0h0.3l0,0h0.3l0,0h0.3l0,0h0.3l0,0h0.3l0,0h0.3l0,0
			h0.3l0,0h0.3l0,0h0.3l0,0h0.3l0,0h0.3l0,0h0.3l0,0h0.3l0,0h0.3l0,0h0.3l0,0h0.3l0,0h0.3l0,0h0.3l0,0h0.3l0,0h0.3l0,0h0.3l0,0h0.3
			l0,0h0.3l0,0h0.3l0,0h0.2"/>
	</g>
</g>
</svg>
