<?xml version="1.0" encoding="utf-8"?>
<!-- Generator: Adobe Illustrator 19.0.0, SVG Export Plug-In . SVG Version: 6.00 Build 0)  -->
<svg version="1.1" id="Layer_1" xmlns="http://www.w3.org/2000/svg" xmlns:xlink="http://www.w3.org/1999/xlink" x="0px" y="0px"
	 viewBox="865.8 -33.6 1542.2 850.2" style="enable-background:new 865.8 -33.6 1542.2 850.2;" xml:space="preserve">
<style type="text/css">
	.st0{fill:none;stroke:#262626;stroke-width:0.6667;stroke-linejoin:round;stroke-miterlimit:10;stroke-opacity:0.149;}
	.st1{fill:none;stroke:#262626;stroke-width:0.6667;stroke-linecap:square;stroke-linejoin:round;stroke-miterlimit:10;}
	.st2{fill:#262626;}
	.st3{font-family:'ArialMT';}
	.st4{font-size:13px;}
	.st5{font-size:15px;}
	.st6{font-family:'Arial-BoldMT';}
	.st7{fill:none;stroke:#0072BD;stroke-width:0.6667;stroke-linejoin:round;stroke-miterlimit:10;}
	.st8{fill:none;stroke:#D95319;stroke-width:0.6667;stroke-linejoin:round;stroke-miterlimit:10;}
</style>
<g>
	<g>
		<line class="st0" x1="904" y1="772" x2="904" y2="-14"/>
		<line class="st0" x1="1201.6" y1="772" x2="1201.6" y2="-14"/>
		<line class="st0" x1="1499.2" y1="772" x2="1499.2" y2="-14"/>
		<line class="st0" x1="1796.8" y1="772" x2="1796.8" y2="-14"/>
		<line class="st0" x1="2094.4" y1="772" x2="2094.4" y2="-14"/>
		<line class="st0" x1="2392" y1="772" x2="2392" y2="-14"/>
		<line class="st0" x1="2392" y1="772" x2="904" y2="772"/>
		<line class="st0" x1="2392" y1="673.8" x2="904" y2="673.8"/>
		<line class="st0" x1="2392" y1="575.5" x2="904" y2="575.5"/>
		<line class="st0" x1="2392" y1="477.3" x2="904" y2="477.3"/>
		<line class="st0" x1="2392" y1="379" x2="904" y2="379"/>
		<line class="st0" x1="2392" y1="280.8" x2="904" y2="280.8"/>
		<line class="st0" x1="2392" y1="182.5" x2="904" y2="182.5"/>
		<line class="st0" x1="2392" y1="84.3" x2="904" y2="84.3"/>
		<line class="st0" x1="2392" y1="-14" x2="904" y2="-14"/>
		<line class="st1" x1="904" y1="772" x2="2392" y2="772"/>
		<line class="st1" x1="904" y1="-14" x2="2392" y2="-14"/>
		<line class="st1" x1="904" y1="772" x2="904" y2="757.1"/>
		<line class="st1" x1="1201.6" y1="772" x2="1201.6" y2="757.1"/>
		<line class="st1" x1="1499.2" y1="772" x2="1499.2" y2="757.1"/>
		<line class="st1" x1="1796.8" y1="772" x2="1796.8" y2="757.1"/>
		<line class="st1" x1="2094.4" y1="772" x2="2094.4" y2="757.1"/>
		<line class="st1" x1="2392" y1="772" x2="2392" y2="757.1"/>
		<line class="st1" x1="904" y1="-14" x2="904" y2="0.9"/>
		<line class="st1" x1="1201.6" y1="-14" x2="1201.6" y2="0.9"/>
		<line class="st1" x1="1499.2" y1="-14" x2="1499.2" y2="0.9"/>
		<line class="st1" x1="1796.8" y1="-14" x2="1796.8" y2="0.9"/>
		<line class="st1" x1="2094.4" y1="-14" x2="2094.4" y2="0.9"/>
		<line class="st1" x1="2392" y1="-14" x2="2392" y2="0.9"/>
	</g>
	<g transform="translate(250,863.3333)">
		<text transform="matrix(1 0 0 1 650 -72)" class="st2 st3 st4">0</text>
	</g>
	<g transform="translate(547.6,863.3333)">
		<text transform="matrix(1 0 0 1 637.5 -72)" class="st2 st3 st4">0.005</text>
	</g>
	<g transform="translate(845.2,863.3333)">
		<text transform="matrix(1 0 0 1 641 -72)" class="st2 st3 st4">0.01</text>
	</g>
	<g transform="translate(1142.7999,863.3333)">
		<text transform="matrix(1 0 0 1 637.5 -72)" class="st2 st3 st4">0.015</text>
	</g>
	<g transform="translate(1440.4,863.3333)">
		<text transform="matrix(1 0 0 1 641 -72)" class="st2 st3 st4">0.02</text>
	</g>
	<g transform="translate(1738,863.3333)">
		<text transform="matrix(1 0 0 1 637.5 -72)" class="st2 st3 st4">0.025</text>
	</g>
	<g transform="translate(994.0007,881.6666)">
		<text transform="matrix(1 0 0 1 626.5 -70)" class="st2 st3 st5">Time (s)</text>
	</g>
	<g>
		<line class="st1" x1="904" y1="772" x2="904" y2="-14"/>
		<line class="st1" x1="2392" y1="772" x2="2392" y2="-14"/>
		<line class="st1" x1="904" y1="772" x2="918.9" y2="772"/>
		<line class="st1" x1="904" y1="673.8" x2="918.9" y2="673.8"/>
		<line class="st1" x1="904" y1="575.5" x2="918.9" y2="575.5"/>
		<line class="st1" x1="904" y1="477.3" x2="918.9" y2="477.3"/>
		<line class="st1" x1="904" y1="379" x2="918.9" y2="379"/>
		<line class="st1" x1="904" y1="280.8" x2="918.9" y2="280.8"/>
		<line class="st1" x1="904" y1="182.5" x2="918.9" y2="182.5"/>
		<line class="st1" x1="904" y1="84.3" x2="918.9" y2="84.3"/>
		<line class="st1" x1="904" y1="-14" x2="918.9" y2="-14"/>
		<line class="st1" x1="2392" y1="772" x2="2377.1" y2="772"/>
		<line class="st1" x1="2392" y1="673.8" x2="2377.1" y2="673.8"/>
		<line class="st1" x1="2392" y1="575.5" x2="2377.1" y2="575.5"/>
		<line class="st1" x1="2392" y1="477.3" x2="2377.1" y2="477.3"/>
		<line class="st1" x1="2392" y1="379" x2="2377.1" y2="379"/>
		<line class="st1" x1="2392" y1="280.8" x2="2377.1" y2="280.8"/>
		<line class="st1" x1="2392" y1="182.5" x2="2377.1" y2="182.5"/>
		<line class="st1" x1="2392" y1="84.3" x2="2377.1" y2="84.3"/>
		<line class="st1" x1="2392" y1="-14" x2="2377.1" y2="-14"/>
	</g>
	<g transform="translate(244.6667,858)">
		<text transform="matrix(1 0 0 1 642 -80.5)" class="st2 st3 st4">-4</text>
	</g>
	<g transform="translate(244.6667,759.75)">
		<text transform="matrix(1 0 0 1 642 -80.5)" class="st2 st3 st4">-3</text>
	</g>
	<g transform="translate(244.6667,661.5)">
		<text transform="matrix(1 0 0 1 642 -80.5)" class="st2 st3 st4">-2</text>
	</g>
	<g transform="translate(244.6667,563.25)">
		<text transform="matrix(1 0 0 1 642 -80.5)" class="st2 st3 st4">-1</text>
	</g>
	<g transform="translate(244.6667,465)">
		<text transform="matrix(1 0 0 1 646 -80.5)" class="st2 st3 st4">0</text>
	</g>
	<g transform="translate(244.6667,366.75)">
		<text transform="matrix(1 0 0 1 646 -80.5)" class="st2 st3 st4">1</text>
	</g>
	<g transform="translate(244.6667,268.5)">
		<text transform="matrix(1 0 0 1 646 -80.5)" class="st2 st3 st4">2</text>
	</g>
	<g transform="translate(244.6667,170.25)">
		<text transform="matrix(1 0 0 1 646 -80.5)" class="st2 st3 st4">3</text>
	</g>
	<g transform="translate(244.6667,72)">
		<text transform="matrix(1 0 0 1 646 -80.5)" class="st2 st3 st4">4</text>
	</g>
	<g transform="translate(228.6667,464.9996) rotate(-90)">
		<text transform="matrix(1 0 0 1 47.9996 650.0001)" class="st2 st3 st5">Voltage (V)</text>
	</g>
	<g transform="translate(994.001,69.25)">
		<text transform="matrix(1 0 0 1 546.5 -90)" class="st6 st5">Filter response to input signal</text>
	</g>
	<g>
		<path class="st7" d="M904,15.5l0.7,4.1l0.7,12.2l0.7,19.5l0.7,25.8l0.7,30.8l0.7,34.1l0.7,35.7l0.7,35.5l0.7,33.6l0.7,30.2
			l0.7,25.7l0.7,20.2l0.7,14.3l0.7,8.3l0.7,2.7l0.7-2.2l0.7-6.1l0.7-8.7l0.7-9.9l0.7-9.7l0.7-8.2l0.7-5.4l0.7-1.7l0.7,2.7l0.7,7.4
			l0.7,12l0.7,16.3l0.7,19.8l0.7,22.4l0.7,23.8l0.7,23.9l0.7,22.7l0.7,20.2l0.7,16.7l0.7,12.3l0.7,7.4l0.7,2.1l0.7-3.2l0.7-8.1
			l0.7-12.5l0.7-16l0.7-18.5l0.7-20l0.7-20.3l0.7-19.6l0.7-18l0.7-15.6l0.7-12.7l0.7-9.4l0.7-6l0.7-2.7l0.7,0.3l0.7,2.8l0.7,4.8
			l0.7,6.2l0.7,7l0.7,7.2l0.7,6.9l0.7,6.4l0.7,5.6l0.7,4.7l0.7,3.9l0.7,3.3l0.7,2.8l0.7,2.7l0.7,2.8l0.7,3.1l0.7,3.6l0.7,4.1
			l0.7,4.6l0.7,4.9l0.7,4.9l0.7,4.5l0.7,3.7l0.7,2.6l0.7,1l0.7-0.9l0.7-3l0.7-5.2l0.7-7.3l0.7-9.1l0.7-10.6l0.7-11.5l0.7-11.8
			l0.7-11.5l0.7-10.5l0.7-8.8l0.7-6.7l0.7-4.2l0.7-1.5l0.7,1.2l0.7,3.6l0.7,5.5l0.7,6.8l0.7,7.3l0.7,7l0.7,5.8l0.7,3.8l0.7,1
			l0.7-2.2l0.7-5.7l0.7-9.2l0.7-12.4l0.7-15l0.7-16.8l0.7-17.5l0.7-17l0.7-15.1l0.7-11.9l0.7-7.6l0.7-2.1l0.7,4.1l0.7,10.7l0.7,17.5
			l0.7,23.9l0.7,29.7l0.7,34.4l0.7,37.9l0.7,39.8l0.7,40l0.7,38.5l0.7,35.4l0.7,30.9l0.7,25.2l0.7,18.7l0.7,11.7l0.7,4.7l0.7-1.9
			l0.7-7.7l0.7-12.3l0.7-15.6l0.7-17.4l0.7-17.5l0.7-16.1l0.7-13.3l0.7-9.3l0.7-4.6l0.7,0.6l0.7,5.8l0.7,10.6l0.7,14.6l0.7,17.5
			l0.7,19l0.7,18.9l0.7,17.3l0.7,14.1l0.7,9.6l0.7,3.9l0.7-2.6l0.7-9.4l0.7-16.3l0.7-22.7l0.7-28.4l0.7-32.8l0.7-35.8l0.7-37.3
			l0.7-37l0.7-35.1l0.7-31.7l0.7-27l0.7-21.3l0.7-15l0.7-8.4l0.7-1.9l0.7,4.1l0.7,9.3l0.7,13.5l0.7,16.4l0.7,17.9l0.7,18.2l0.7,17.1
			l0.7,15l0.7,12l0.7,8.5l0.7,4.6l0.7,0.7l0.7-2.9l0.7-6l0.7-8.4l0.7-10l0.7-10.7l0.7-10.5l0.7-9.5l0.7-7.8l0.7-5.7l0.7-3.2l0.7-0.7
			l0.7,1.7l0.7,3.8l0.7,5.4l0.7,6.4l0.7,6.8l0.7,6.6l0.7,5.8l0.7,4.5l0.7,2.9l0.7,1l0.7-0.9l0.7-2.6l0.7-4.2l0.7-5.3l0.7-6.1
			l0.7-6.4l0.7-6.4l0.7-5.9l0.7-5.1l0.7-4.2l0.7-3.2l0.7-2.3l0.7-1.5l0.7-0.9l0.7-0.7l0.7-0.7l0.7-1l0.7-1.4l0.7-2l0.7-2.5l0.7-2.8
			l0.7-2.9l0.7-2.5l0.7-1.6l0.7-0.2l0.7,1.8l0.7,4.4l0.7,7.3l0.7,10.5l0.7,13.8l0.7,16.9l0.7,19.7l0.7,21.9l0.7,23.3l0.7,23.7
			l0.7,23.1l0.7,21.3l0.7,18.5l0.7,14.6l0.7,10l0.7,4.7l0.7-0.9l0.7-6.5l0.7-11.8l0.7-16.5l0.7-20.3l0.7-23l0.7-24.4l0.7-24.5
			l0.7-23.4l0.7-21l0.7-17.6l0.7-13.5l0.7-9l0.7-4.3l0.7,0l0.7,3.7l0.7,6.4l0.7,8l0.7,8.3l0.7,7.1l0.7,4.5l0.7,0.7l0.7-4.1l0.7-9.7
			l0.7-15.6l0.7-21.4l0.7-26.8l0.7-31.3l0.7-34.7l0.7-36.5l0.7-36.7l0.7-35.1l0.7-31.8l0.7-26.9l0.7-20.6l0.7-13.3l0.7-5.3l0.7,2.8
			l0.7,10.8l0.7,18l0.7,24.2l0.7,29l0.7,32.2l0.7,33.6l0.7,33.2l0.7,31.2l0.7,27.7l0.7,22.9l0.7,17.3l0.7,11.2l0.7,5.1l0.7-0.6
			l0.7-5.7l0.7-9.6l0.7-12.3l0.7-13.6l0.7-13.4l0.7-11.9l0.7-9.1l0.7-5.3l0.7-0.8l0.7,4l0.7,8.9l0.7,13.3l0.7,17.1l0.7,20l0.7,21.7
			l0.7,22.1l0.7,21.3l0.7,19.2l0.7,16.1l0.7,12.1l0.7,7.6l0.7,2.7l0.7-2.1l0.7-6.6l0.7-10.5l0.7-13.6l0.7-15.8l0.7-16.8l0.7-16.8
			l0.7-15.8l0.7-13.9l0.7-11.2l0.7-8l0.7-4.5l0.7-0.9l0.7,2.5l0.7,5.5l0.7,8.1l0.7,10.1l0.7,11.4l0.7,12.1l0.7,12.2l0.7,11.7
			l0.7,10.9l0.7,9.9l0.7,8.7l0.7,7.6l0.7,6.5l0.7,5.7l0.7,5.2l0.7,4.8l0.7,4.7l0.7,4.7l0.7,4.8l0.7,4.8l0.7,4.7l0.7,4.2l0.7,3.4
			l0.7,2.3l0.7,0.7l0.7-1.2l0.7-3.5l0.7-5.9l0.7-8.3l0.7-10.7l0.7-12.7l0.7-14.4l0.7-15.5l0.7-15.9l0.7-15.6l0.7-14.6l0.7-12.9
			l0.7-10.7l0.7-8.1l0.7-5.3l0.7-2.6l0.7,0l0.7,2.2l0.7,3.7l0.7,4.4l0.7,4.3l0.7,3.4l0.7,1.6l0.7-0.8l0.7-3.8l0.7-7l0.7-10.3
			l0.7-13.3l0.7-15.7l0.7-17.2l0.7-17.7l0.7-17l0.7-15l0.7-11.7l0.7-7.2l0.7-1.7l0.7,4.6l0.7,11.3l0.7,18l0.7,24.5l0.7,30.3
			l0.7,35.1l0.7,38.5l0.7,40.3l0.7,40.5l0.7,39l0.7,35.9l0.7,31.3l0.7,25.6l0.7,19l0.7,12l0.7,5l0.7-1.6l0.7-7.4l0.7-12.1l0.7-15.4
			l0.7-17.1l0.7-17.2l0.7-15.7l0.7-12.8l0.7-8.7l0.7-3.8l0.7,1.6l0.7,6.9l0.7,11.9l0.7,16.1l0.7,19.2l0.7,21l0.7,21.2l0.7,19.8
			l0.7,16.9l0.7,12.6l0.7,7.2l0.7,0.9l0.7-5.7l0.7-12.4l0.7-18.7l0.7-24.1l0.7-28.5l0.7-31.4l0.7-32.8l0.7-32.5l0.7-30.6l0.7-27.2
			l0.7-22.6l0.7-17l0.7-10.8l0.7-4.4l0.7,1.9l0.7,7.6l0.7,12.6l0.7,16.4l0.7,19l0.7,20.2l0.7,20l0.7,18.6l0.7,16l0.7,12.6l0.7,8.5
			l0.7,4.2l0.7-0.2l0.7-4.3l0.7-7.8l0.7-10.7l0.7-12.7l0.7-13.8l0.7-14l0.7-13.3l0.7-12l0.7-10.1l0.7-7.9l0.7-5.6l0.7-3.3l0.7-1.4
			l0.7,0.2l0.7,1.2l0.7,1.6l0.7,1.4l0.7,0.7l0.7-0.4l0.7-1.8l0.7-3.5l0.7-5.1l0.7-6.6l0.7-7.8l0.7-8.6l0.7-9l0.7-8.9l0.7-8.4
			l0.7-7.5l0.7-6.4l0.7-5l0.7-3.6l0.7-2.3l0.7-1.1l0.7-0.1l0.7,0.5l0.7,0.8l0.7,0.9l0.7,0.7l0.7,0.4l0.7,0.2l0.7,0l0.7,0.1l0.7,0.6
			l0.7,1.6l0.7,3.1l0.7,5.2l0.7,7.7l0.7,10.6l0.7,13.8l0.7,16.9l0.7,20l0.7,22.6l0.7,24.7l0.7,25.9l0.7,26.2l0.7,25.4l0.7,23.4
			l0.7,20.4l0.7,16.4l0.7,11.5l0.7,6.1l0.7,0.3l0.7-5.4l0.7-10.9l0.7-15.7l0.7-19.7l0.7-22.5l0.7-24l0.7-24.2l0.7-23.1l0.7-20.8
			l0.7-17.4l0.7-13.3l0.7-8.8l0.7-4.1l0.7,0.3l0.7,4l0.7,6.8l0.7,8.5l0.7,8.8l0.7,7.7l0.7,5.2l0.7,1.4l0.7-3.3l0.7-8.8l0.7-14.7
			l0.7-20.5l0.7-25.9l0.7-30.5l0.7-33.9l0.7-35.8l0.7-36.1l0.7-34.6l0.7-31.5l0.7-26.7l0.7-20.7l0.7-13.6l0.7-5.9l0.7,2.1l0.7,9.7
			l0.7,16.7l0.7,22.6l0.7,27.1l0.7,30l0.7,31.1l0.7,30.4l0.7,28.1l0.7,24.3l0.7,19.2l0.7,13.4l0.7,7l0.7,0.7l0.7-5.3l0.7-10.5
			l0.7-14.6l0.7-17.4l0.7-18.8l0.7-18.7l0.7-17.1l0.7-14.3l0.7-10.4l0.7-5.8l0.7-0.8l0.7,4.3l0.7,9l0.7,13l0.7,16.2l0.7,18.3
			l0.7,19.1l0.7,18.7l0.7,17.1l0.7,14.4l0.7,10.9l0.7,6.8l0.7,2.5l0.7-1.9l0.7-5.9l0.7-9.3l0.7-12l0.7-13.7l0.7-14.3l0.7-13.9
			l0.7-12.5l0.7-10.3l0.7-7.3l0.7-3.8l0.7-0.1l0.7,3.7l0.7,7.2l0.7,10.4l0.7,13.1l0.7,15l0.7,16.4l0.7,17l0.7,16.9l0.7,16.4
			l0.7,15.4l0.7,14.1l0.7,12.7l0.7,11.3l0.7,9.9l0.7,8.8l0.7,7.9l0.7,7.2l0.7,6.7l0.7,6.4l0.7,6.1l0.7,5.7l0.7,5.2l0.7,4.4l0.7,3.3
			l0.7,1.8l0.7-0.1l0.7-2.3l0.7-4.8l0.7-7.5l0.7-10.1l0.7-12.7l0.7-14.9l0.7-16.6l0.7-17.8l0.7-18.3l0.7-18.1l0.7-17.1l0.7-15.4
			l0.7-13.2l0.7-10.5l0.7-7.7l0.7-4.8l0.7-2.1l0.7,0.2l0.7,1.8l0.7,2.7l0.7,2.8l0.7,2l0.7,0.3l0.7-2l0.7-4.8l0.7-8l0.7-11.2l0.7-14
			l0.7-16.4l0.7-17.9l0.7-18.4l0.7-17.7l0.7-15.7l0.7-12.4l0.7-8l0.7-2.5l0.7,3.7l0.7,10.3l0.7,17l0.7,23.4l0.7,29.1l0.7,33.7
			l0.7,37l0.7,38.8l0.7,38.9l0.7,37.4l0.7,34.2l0.7,29.5l0.7,23.8l0.7,17.2l0.7,10.1l0.7,3.1l0.7-3.4l0.7-9.2l0.7-13.7l0.7-16.9
			l0.7-18.4l0.7-18.4l0.7-16.7l0.7-13.5l0.7-9.2l0.7-4l0.7,1.6l0.7,7.3l0.7,12.7l0.7,17.2l0.7,20.7l0.7,22.9l0.7,23.4l0.7,22.5
			l0.7,19.9l0.7,16l0.7,10.9l0.7,5l0.7-1.3l0.7-7.7l0.7-13.7l0.7-19l0.7-23.1l0.7-25.9l0.7-27.2l0.7-26.8l0.7-24.9l0.7-21.6l0.7-17
			l0.7-11.5l0.7-5.5l0.7,0.8l0.7,6.8l0.7,12.3l0.7,17l0.7,20.5l0.7,22.7l0.7,23.5l0.7,22.9l0.7,21l0.7,18l0.7,14.1l0.7,9.6l0.7,4.7
			l0.7-0.1l0.7-4.7l0.7-8.7l0.7-12l0.7-14.5l0.7-16l0.7-16.6l0.7-16.3l0.7-15.3l0.7-13.7l0.7-11.7l0.7-9.6l0.7-7.6l0.7-5.7l0.7-4.3
			l0.7-3.4l0.7-2.9l0.7-3.1l0.7-3.7l0.7-4.7l0.7-6l0.7-7.4l0.7-8.9l0.7-10.1l0.7-11.1l0.7-11.6l0.7-11.7l0.7-11.4l0.7-10.6l0.7-9.4
			l0.7-7.9l0.7-6.2l0.7-4.5l0.7-2.8l0.7-1.4l0.7-0.2l0.7,0.7l0.7,1.3l0.7,1.6l0.7,1.6l0.7,1.5l0.7,1.3l0.7,1.3l0.7,1.5l0.7,2.1
			l0.7,3.1l0.7,4.7l0.7,6.7l0.7,9.2l0.7,12.1l0.7,15.2l0.7,18.3l0.7,21.3l0.7,23.8l0.7,25.8l0.7,26.9l0.7,27.1l0.7,26.2l0.7,24.2
			l0.7,21.1l0.7,17l0.7,12.2l0.7,6.7l0.7,0.9l0.7-4.9l0.7-10.3l0.7-15.1l0.7-19l0.7-21.8l0.7-23.2l0.7-23.4l0.7-22.1l0.7-19.7
			l0.7-16.2l0.7-11.9l0.7-7.2l0.7-2.4l0.7,2.1l0.7,6l0.7,9l0.7,10.8l0.7,11.3l0.7,10.3l0.7,7.9l0.7,4.3l0.7-0.4l0.7-5.9l0.7-11.8
			l0.7-17.6l0.7-23.1l0.7-27.7l0.7-31.2l0.7-33.3l0.7-33.8l0.7-32.5l0.7-29.6l0.7-25.2l0.7-19.4l0.7-12.6l0.7-5.3l0.7,2.3l0.7,9.5
			l0.7,16.1l0.7,21.6l0.7,25.7l0.7,28.2l0.7,28.9l0.7,27.8l0.7,25l0.7,20.8l0.7,15.4l0.7,9.2l0.7,2.5l0.7-4.1l0.7-10.4l0.7-15.8
			l0.7-20.2l0.7-23.2l0.7-24.6l0.7-24.6l0.7-23.1l0.7-20.2l0.7-16.3l0.7-11.6l0.7-6.4l0.7-1.2l0.7,3.7l0.7,8.1l0.7,11.6l0.7,14
			l0.7,15.2l0.7,15.2l0.7,14l0.7,11.8l0.7,8.8l0.7,5.1l0.7,1.3l0.7-2.6l0.7-6.2l0.7-9.2l0.7-11.4l0.7-12.7l0.7-12.9l0.7-12.1
			l0.7-10.4l0.7-7.8l0.7-4.5l0.7-0.8l0.7,3.2l0.7,7.1l0.7,10.9l0.7,14.1l0.7,16.9l0.7,18.9l0.7,20.2l0.7,20.8l0.7,20.7l0.7,20
			l0.7,18.9l0.7,17.5l0.7,15.9l0.7,14.3l0.7,12.7l0.7,11.3l0.7,10.2l0.7,9.3l0.7,8.5l0.7,7.9l0.7,7.4l0.7,6.8l0.7,6l0.7,5l0.7,3.7
			l0.7,2l0.7-0.1l0.7-2.5l0.7-5.1l0.7-7.8l0.7-10.6l0.7-13.2l0.7-15.5l0.7-17.3l0.7-18.4l0.7-18.9l0.7-18.7l0.7-17.7l0.7-15.9
			l0.7-13.7l0.7-10.9l0.7-8l0.7-5l0.7-2.3l0.7,0.1l0.7,1.8l0.7,2.7l0.7,2.8l0.7,2l0.7,0.4l0.7-1.9l0.7-4.8l0.7-8l0.7-11.2l0.7-14.2
			l0.7-16.6l0.7-18.3l0.7-18.9l0.7-18.4l0.7-16.5l0.7-13.5l0.7-9.2l0.7-4l0.7,2l0.7,8.4l0.7,14.8l0.7,21l0.7,26.5l0.7,30.9l0.7,34
			l0.7,35.7l0.7,35.6l0.7,33.9l0.7,30.6l0.7,25.9l0.7,20l0.7,13.4l0.7,6.4l0.7-0.6l0.7-7.1l0.7-12.7l0.7-17.2l0.7-20.1l0.7-21.5
			l0.7-21.1l0.7-19.2l0.7-15.7l0.7-11.1l0.7-5.5l0.7,0.5l0.7,6.7l0.7,12.5l0.7,17.5l0.7,21.4l0.7,24l0.7,25.1l0.7,24.6l0.7,22.5
			l0.7,19l0.7,14.4l0.7,8.9l0.7,2.9l0.7-3.1l0.7-8.8l0.7-13.8l0.7-17.7l0.7-20.3l0.7-21.4l0.7-21l0.7-19l0.7-15.6l0.7-11.1l0.7-5.7
			l0.7,0.3l0.7,6.4l0.7,12.2l0.7,17.5l0.7,21.8l0.7,25.1l0.7,26.9l0.7,27.4l0.7,26.4l0.7,24.1l0.7,20.7l0.7,16.4l0.7,11.5l0.7,6.2
			l0.7,0.9l0.7-4.1l0.7-8.6l0.7-12.3l0.7-15.1l0.7-17l0.7-17.9l0.7-18l0.7-17.2l0.7-15.9l0.7-14.2l0.7-12.3l0.7-10.3l0.7-8.6
			l0.7-7.3l0.7-6.4l0.7-6l0.7-6.1l0.7-6.7l0.7-7.6l0.7-8.8l0.7-10.2l0.7-11.4l0.7-12.5l0.7-13.3l0.7-13.7l0.7-13.6l0.7-13.1
			l0.7-12.1l0.7-10.7l0.7-9.1l0.7-7.2l0.7-5.4l0.7-3.5l0.7-1.9l0.7-0.6l0.7,0.4l0.7,1l0.7,1.4l0.7,1.5l0.7,1.4l0.7,1.2l0.7,1.2
			l0.7,1.4l0.7,1.9l0.7,2.9l0.7,4.4l0.7,6.3l0.7,8.7l0.7,11.5l0.7,14.6l0.7,17.6l0.7,20.5l0.7,23l0.7,24.9l0.7,26l0.7,26.2l0.7,25.3
			l0.7,23.3l0.7,20.2l0.7,16.2l0.7,11.4l0.7,6l0.7,0.4l0.7-5.3l0.7-10.6l0.7-15.2l0.7-18.9l0.7-21.4l0.7-22.6l0.7-22.5l0.7-21
			l0.7-18.3l0.7-14.5l0.7-10l0.7-5l0.7,0.1l0.7,5l0.7,9.1l0.7,12.4l0.7,14.4l0.7,15.1l0.7,14.3l0.7,12.1l0.7,8.6l0.7,4l0.7-1.4
			l0.7-7.2l0.7-13.1l0.7-18.6l0.7-23.3l0.7-26.9l0.7-29.2l0.7-29.9l0.7-28.9l0.7-26.3l0.7-22.2l0.7-16.8l0.7-10.4l0.7-3.5l0.7,3.6
			l0.7,10.5l0.7,16.6l0.7,21.6l0.7,25.2l0.7,27.2l0.7,27.4l0.7,25.9l0.7,22.7l0.7,18l0.7,12.2l0.7,5.5l0.7-1.5l0.7-8.5l0.7-15.1
			l0.7-20.8l0.7-25.4l0.7-28.6l0.7-30.2l0.7-30.3l0.7-28.8l0.7-26l0.7-22.1l0.7-17.3l0.7-12l0.7-6.6l0.7-1.5l0.7,3.1l0.7,6.8
			l0.7,9.5l0.7,11.1l0.7,11.4l0.7,10.6l0.7,8.7l0.7,6.1l0.7,2.9l0.7-0.6l0.7-4.1l0.7-7.3l0.7-9.9l0.7-11.8l0.7-12.7l0.7-12.6
			l0.7-11.6l0.7-9.5l0.7-6.7l0.7-3.2l0.7,0.7l0.7,4.8l0.7,8.9l0.7,12.8l0.7,16.1l0.7,18.9l0.7,21l0.7,22.3l0.7,22.9l0.7,22.7l0.7,22
			l0.7,20.8l0.7,19.3l0.7,17.6l0.7,15.8l0.7,14.2l0.7,12.7l0.7,11.4l0.7,10.3l0.7,9.5l0.7,8.8l0.7,8.1l0.7,7.4l0.7,6.6l0.7,5.5
			l0.7,4.1l0.7,2.4l0.7,0.4l0.7-2l0.7-4.6l0.7-7.3l0.7-10l0.7-12.5l0.7-14.7l0.7-16.4l0.7-17.5l0.7-17.9l0.7-17.5l0.7-16.4l0.7-14.6
			l0.7-12.2l0.7-9.4l0.7-6.3l0.7-3.3l0.7-0.5l0.7,1.9l0.7,3.7l0.7,4.6l0.7,4.7l0.7,3.9l0.7,2.2l0.7-0.3l0.7-3.3l0.7-6.6l0.7-10
			l0.7-13.2l0.7-15.9l0.7-17.8l0.7-18.8l0.7-18.5l0.7-17l0.7-14.3l0.7-10.4l0.7-5.6l0.7,0.1l0.7,6.1l0.7,12.2l0.7,18l0.7,23.2
			l0.7,27.3l0.7,30.2l0.7,31.5l0.7,31.3l0.7,29.3l0.7,25.9l0.7,21l0.7,15.1l0.7,8.4l0.7,1.3l0.7-5.6l0.7-12l0.7-17.6l0.7-21.9
			l0.7-24.7l0.7-25.8l0.7-25.2l0.7-22.9l0.7-19.1l0.7-14.1l0.7-8.2l0.7-1.7l0.7,4.9l0.7,11.2l0.7,16.7l0.7,21.1l0.7,24.2l0.7,25.8
			l0.7,25.8l0.7,24.2l0.7,21.2l0.7,17l0.7,11.9l0.7,6.3l0.7,0.7l0.7-4.7l0.7-9.4l0.7-13l0.7-15.4l0.7-16.4l0.7-15.8l0.7-13.7
			l0.7-10.3l0.7-5.8l0.7-0.4l0.7,5.5l0.7,11.4l0.7,17.2l0.7,22.3l0.7,26.4l0.7,29.4l0.7,31l0.7,31.2l0.7,29.9l0.7,27.4l0.7,23.6
			l0.7,19l0.7,13.7l0.7,8.1l0.7,2.5l0.7-2.8l0.7-7.6l0.7-11.6l0.7-14.7l0.7-16.8l0.7-18l0.7-18.2l0.7-17.7l0.7-16.5l0.7-15l0.7-13.1
			l0.7-11.3l0.7-9.7l0.7-8.4l0.7-7.5l0.7-7.1l0.7-7.1l0.7-7.7l0.7-8.6l0.7-9.7l0.7-11l0.7-12.2l0.7-13.2l0.7-13.9l0.7-14.2l0.7-14.1
			l0.7-13.5l0.7-12.4l0.7-11l0.7-9.3l0.7-7.5l0.7-5.6l0.7-3.8l0.7-2.2l0.7-0.9l0.7,0l0.7,0.6l0.7,0.8l0.7,0.7l0.7,0.5l0.7,0.2l0.7,0
			l0.7,0.1l0.7,0.4l0.7,1.2l0.7,2.5l0.7,4.3l0.7,6.6l0.7,9.2l0.7,12.1l0.7,15l0.7,17.8l0.7,20.3l0.7,22.1l0.7,23.2l0.7,23.4
			l0.7,22.5l0.7,20.6l0.7,17.6l0.7,13.7l0.7,9.1l0.7,3.9l0.7-1.6l0.7-6.9l0.7-11.9l0.7-16.3l0.7-19.6l0.7-21.8l0.7-22.7l0.7-22.2
			l0.7-20.3l0.7-17.2l0.7-13l0.7-8.1l0.7-2.7l0.7,2.8l0.7,8l0.7,12.6l0.7,16.2l0.7,18.6l0.7,19.6l0.7,19l0.7,17.1l0.7,13.8l0.7,9.3
			l0.7,4l0.7-1.7l0.7-7.6l0.7-13.1l0.7-17.9l0.7-21.7l0.7-24.1l0.7-25l0.7-24.3l0.7-22l0.7-18.2l0.7-13.2l0.7-7.2l0.7-0.7l0.7,6
			l0.7,12.4l0.7,18l0.7,22.6l0.7,25.7l0.7,27.3l0.7,27l0.7,25l0.7,21.4l0.7,16.3l0.7,10l0.7,3l0.7-4.4l0.7-11.7l0.7-18.6l0.7-24.6
			l0.7-29.4l0.7-32.8l0.7-34.7l0.7-34.9l0.7-33.5l0.7-30.7l0.7-26.8l0.7-22l0.7-16.6l0.7-11.2l0.7-5.9l0.7-1.1l0.7,2.8l0.7,5.7
			l0.7,7.5l0.7,8.1l0.7,7.5l0.7,5.9l0.7,3.5l0.7,0.6l0.7-2.7l0.7-5.9l0.7-8.8l0.7-11.2l0.7-12.9l0.7-13.6l0.7-13.4l0.7-12.1l0.7-9.9
			l0.7-7l0.7-3.4l0.7,0.6l0.7,4.8l0.7,9l0.7,12.8l0.7,16.2l0.7,19l0.7,21l0.7,22.3l0.7,22.8l0.7,22.6l0.7,21.8l0.7,20.6l0.7,19
			l0.7,17.2l0.7,15.5l0.7,13.7l0.7,12.2l0.7,10.9l0.7,9.8l0.7,9l0.7,8.3l0.7,7.7l0.7,7.1l0.7,6.3l0.7,5.4l0.7,4.1l0.7,2.6l0.7,0.7
			l0.7-1.5l0.7-3.9l0.7-6.4l0.7-8.9l0.7-11.2l0.7-13.1l0.7-14.6l0.7-15.5l0.7-15.6l0.7-15l0.7-13.7l0.7-11.7l0.7-9.1l0.7-6.1l0.7-3
			l0.7,0.2l0.7,3.1l0.7,5.5l0.7,7.3l0.7,8.2l0.7,8.2l0.7,7.3l0.7,5.5l0.7,2.9l0.7-0.3l0.7-3.8l0.7-7.5l0.7-11l0.7-14l0.7-16.3
			l0.7-17.6l0.7-17.8l0.7-16.8l0.7-14.5l0.7-11l0.7-6.6l0.7-1.4l0.7,4.2l0.7,9.8l0.7,15.2l0.7,20l0.7,23.7l0.7,26.2l0.7,27.3
			l0.7,26.7l0.7,24.5l0.7,20.8l0.7,15.8l0.7,9.7l0.7,2.9l0.7-4.2l0.7-11.1l0.7-17.5l0.7-23l0.7-27.2l0.7-29.8l0.7-30.7l0.7-29.9
			l0.7-27.4l0.7-23.3l0.7-17.9l0.7-11.6l0.7-4.7l0.7,2.3l0.7,9l0.7,15l0.7,19.9l0.7,23.4l0.7,25.5l0.7,25.9l0.7,24.7l0.7,22.1
			l0.7,18.4l0.7,13.7l0.7,8.5l0.7,3.1l0.7-2l0.7-6.4l0.7-9.8l0.7-12l0.7-12.8l0.7-12.1l0.7-10l0.7-6.5l0.7-2l0.7,3.4l0.7,9.2
			l0.7,15.2l0.7,20.8l0.7,25.8l0.7,29.8l0.7,32.6l0.7,34.1l0.7,34.1l0.7,32.7l0.7,29.9l0.7,26l0.7,21.2l0.7,15.7l0.7,9.9l0.7,4.2
			l0.7-1.3l0.7-6.2l0.7-10.4l0.7-13.6l0.7-15.9l0.7-17.1l0.7-17.4l0.7-16.9l0.7-15.8l0.7-14.2l0.7-12.4l0.7-10.5l0.7-8.9l0.7-7.5
			l0.7-6.5l0.7-6.1l0.7-6.1l0.7-6.5l0.7-7.4l0.7-8.4l0.7-9.6l0.7-10.8l0.7-11.8l0.7-12.5l0.7-12.8l0.7-12.7l0.7-12.1l0.7-11.1
			l0.7-9.8l0.7-8.2l0.7-6.4l0.7-4.7l0.7-3.1l0.7-1.7l0.7-0.6l0.7,0.1l0.7,0.4l0.7,0.4l0.7,0l0.7-0.5l0.7-1l0.7-1.5l0.7-1.8l0.7-1.7
			l0.7-1.2l0.7-0.2l0.7,1.3l0.7,3.3l0.7,5.7l0.7,8.4l0.7,11.1l0.7,13.8l0.7,16.1l0.7,17.9l0.7,18.9l0.7,19.1l0.7,18.3l0.7,16.4
			l0.7,13.6l0.7,9.8l0.7,5.4l0.7,0.4l0.7-4.7l0.7-9.8l0.7-14.5l0.7-18.4l0.7-21.4l0.7-23.2l0.7-23.7l0.7-22.7l0.7-20.4l0.7-16.8
			l0.7-12.2l0.7-6.7l0.7-0.9l0.7,5.1l0.7,10.7l0.7,15.7l0.7,19.7l0.7,22.4l0.7,23.8l0.7,23.6l0.7,21.9l0.7,18.8l0.7,14.5l0.7,9.4
			l0.7,3.7l0.7-2.1l0.7-7.6l0.7-12.5l0.7-16.4l0.7-18.9l0.7-20l0.7-19.5l0.7-17.4l0.7-13.9l0.7-9.2l0.7-3.5l0.7,2.6l0.7,8.9
			l0.7,14.9l0.7,20.2l0.7,24.3l0.7,27.1l0.7,28.2l0.7,27.6l0.7,25.2l0.7,21.2l0.7,15.8l0.7,9.2l0.7,1.8l0.7-5.9l0.7-13.5l0.7-20.6
			l0.7-26.8l0.7-31.8l0.7-35.4l0.7-37.4l0.7-37.7l0.7-36.4l0.7-33.6l0.7-29.7l0.7-24.9l0.7-19.5l0.7-14l0.7-8.6l0.7-3.8l0.7,0.3
			l0.7,3.3l0.7,5.2l0.7,5.9l0.7,5.5l0.7,4.1l0.7,1.8l0.7-1l0.7-4.2l0.7-7.3l0.7-10.2l0.7-12.5l0.7-14.1l0.7-14.8l0.7-14.5l0.7-13.3
			l0.7-11.2l0.7-8.2l0.7-4.7l0.7-0.7l0.7,3.4l0.7,7.4l0.7,11.2l0.7,14.5l0.7,17.2l0.7,19.1l0.7,20.3l0.7,20.7l0.7,20.4l0.7,19.6
			l0.7,18.3l0.7,16.6l0.7,14.8l0.7,13l0.7,11.3l0.7,9.8l0.7,8.6l0.7,7.6l0.7,6.8l0.7,6.3l0.7,5.8l0.7,5.4l0.7,4.9l0.7,4.2l0.7,3.2
			l0.7,1.9l0.7,0.3l0.7-1.5l0.7-3.6l0.7-5.7l0.7-7.8l0.7-9.8l0.7-11.4l0.7-12.5l0.7-13l0.7-12.8l0.7-11.9l0.7-10.3l0.7-8l0.7-5.2
			l0.7-2l0.7,1.4l0.7,4.7l0.7,7.7l0.7,10.2l0.7,12l0.7,13l0.7,13l0.7,12l0.7,10l0.7,7.3l0.7,3.9l0.7,0l0.7-3.9l0.7-7.8l0.7-11.2
			l0.7-13.8l0.7-15.6l0.7-16.2l0.7-15.6l0.7-13.8l0.7-10.8l0.7-6.9l0.7-2.2l0.7,2.9l0.7,8.2l0.7,13.1l0.7,17.4l0.7,20.8l0.7,22.9
			l0.7,23.6l0.7,22.7l0.7,20.3l0.7,16.3l0.7,11.1l0.7,4.9l0.7-2l0.7-9.2l0.7-16.2l0.7-22.6l0.7-28l0.7-32.1l0.7-34.7l0.7-35.5
			l0.7-34.4l0.7-31.7l0.7-27.3l0.7-21.7l0.7-15.1l0.7-7.9l0.7-0.6l0.7,6.5l0.7,12.8l0.7,18.1l0.7,22l0.7,24.4l0.7,25.1l0.7,24.3
			l0.7,22l0.7,18.6l0.7,14.1l0.7,9.2l0.7,4.1l0.7-0.8l0.7-5l0.7-8.3l0.7-10.4l0.7-11.1l0.7-10.4l0.7-8.2l0.7-4.7l0.7-0.1l0.7,5.2
			l0.7,11l0.7,16.9l0.7,22.5l0.7,27.4l0.7,31.4l0.7,34.1l0.7,35.5l0.7,35.4l0.7,34l0.7,31.1l0.7,27.2l0.7,22.3l0.7,16.8l0.7,11
			l0.7,5.2l0.7-0.3l0.7-5.2l0.7-9.3l0.7-12.4l0.7-14.6l0.7-15.8l0.7-16l0.7-15.4l0.7-14.1l0.7-12.4l0.7-10.4l0.7-8.4l0.7-6.6l0.7-5
			l0.7-3.9l0.7-3.3l0.7-3.2l0.7-3.5l0.7-4.2l0.7-5.2l0.7-6.3l0.7-7.4l0.7-8.4l0.7-9.1l0.7-9.4l0.7-9.3l0.7-8.9l0.7-8l0.7-6.8
			l0.7-5.4l0.7-3.9l0.7-2.4l0.7-1.1l0.7,0l0.7,0.7l0.7,1.1l0.7,1l0.7,0.6l0.7-0.1l0.7-1l0.7-2l0.7-2.9l0.7-3.6l0.7-3.9l0.7-3.8
			l0.7-3.2l0.7-2l0.7-0.4l0.7,1.7l0.7,4.1l0.7,6.7l0.7,9.1l0.7,11.3l0.7,12.9l0.7,13.9l0.7,14.1l0.7,13.2l0.7,11.5l0.7,8.7l0.7,5.1
			l0.7,0.9l0.7-3.8l0.7-8.7l0.7-13.5l0.7-17.9l0.7-21.5l0.7-24.1l0.7-25.4l0.7-25.5l0.7-24.1l0.7-21.3l0.7-17.2l0.7-12.1l0.7-6.3
			l0.7,0.1l0.7,6.4l0.7,12.5l0.7,17.9l0.7,22.3l0.7,25.4l0.7,27.1l0.7,27.2l0.7,25.7l0.7,22.9l0.7,18.8l0.7,13.8l0.7,8.2l0.7,2.5
			l0.7-3l0.7-7.9l0.7-11.8l0.7-14.5l0.7-15.7l0.7-15.3l0.7-13.4l0.7-10.1l0.7-5.6l0.7-0.2l0.7,5.7l0.7,11.7l0.7,17.4l0.7,22.4
			l0.7,26.3l0.7,28.8l0.7,29.6l0.7,28.7l0.7,26.1l0.7,21.9l0.7,16.2l0.7,9.4l0.7,1.9l0.7-6l0.7-13.7l0.7-21l0.7-27.3l0.7-32.4
			l0.7-36.1l0.7-38.1l0.7-38.4l0.7-37.1l0.7-34.4l0.7-30.5l0.7-25.6l0.7-20.2l0.7-14.6l0.7-9.2l0.7-4.3l0.7-0.2l0.7,2.9l0.7,4.8
			l0.7,5.6l0.7,5.2l0.7,3.8l0.7,1.5l0.7-1.4l0.7-4.5l0.7-7.7l0.7-10.7l0.7-13.1l0.7-14.8l0.7-15.7l0.7-15.6l0.7-14.5l0.7-12.6
			l0.7-9.9l0.7-6.5l0.7-2.8l0.7,1.1l0.7,4.9l0.7,8.5l0.7,11.5l0.7,14l0.7,15.7l0.7,16.7l0.7,17l0.7,16.6l0.7,15.6l0.7,14.1l0.7,12.4
			l0.7,10.6l0.7,8.8l0.7,7.1l0.7,5.6l0.7,4.5l0.7,3.6l0.7,3l0.7,2.7l0.7,2.5l0.7,2.3l0.7,2.1l0.7,1.7l0.7,1.1l0.7,0.2"/>
		<path class="st8" d="M904,379h0.7h0.7h0.7l0.7,0l0.7,0l0.7,0l0.7,0l0.7,0l0.7,0l0.7,0l0.7,0l0.7,0l0.7,0l0.7,0l0.7,0l0.7,0l0.7,0
			l0.7,0l0.7,0l0.7,0l0.7,0l0.7,0l0.7,0l0.7,0l0.7,0l0.7,0l0.7,0l0.7,0l0.7,0l0.7,0l0.7,0l0.7,0l0.7,0h0.7l0.7,0l0.7,0l0.7,0l0.7,0
			l0.7,0l0.7,0l0.7,0l0.7,0l0.7,0l0.7,0l0.7,0l0.7,0l0.7,0l0.7,0l0.7,0l0.7,0l0.7,0l0.7,0l0.7,0l0.7,0l0.7,0l0.7,0l0.7,0l0.7,0
			l0.7,0l0.7,0l0.7,0l0.7,0l0.7,0l0.7,0l0.7,0l0.7,0l0.7,0l0.7,0l0.7,0l0.7,0l0.7,0l0.7,0l0.7,0l0.7,0l0.7,0l0.7,0l0.7,0l0.7,0
			l0.7-0.1l0.7-0.1l0.7-0.1l0.7-0.1l0.7-0.1l0.7-0.1l0.7-0.1l0.7-0.1l0.7-0.1l0.7-0.1l0.7-0.1l0.7-0.1l0.7-0.1l0.7-0.1l0.7-0.1
			l0.7-0.1l0.7-0.1l0.7-0.1l0.7-0.1l0.7-0.1l0.7-0.1l0.7-0.1l0.7-0.1l0.7,0l0.7,0l0.7,0l0.7,0l0.7,0l0.7,0l0.7,0l0.7,0l0.7,0l0.7,0
			l0.7,0.1l0.7,0.1l0.7,0.1l0.7,0.1l0.7,0.1l0.7,0.1l0.7,0.1l0.7,0.1l0.7,0.1l0.7,0.2l0.7,0.2l0.7,0.2l0.7,0.2l0.7,0.2l0.7,0.2
			l0.7,0.2l0.7,0.2l0.7,0.2l0.7,0.2l0.7,0.2l0.7,0.2l0.7,0.2l0.7,0.2l0.7,0.2l0.7,0.2l0.7,0.2l0.7,0.2l0.7,0.1l0.7,0.1l0.7,0.1
			l0.7,0.1l0.7,0.1l0.7,0.1l0.7,0.1l0.7,0l0.7,0l0.7,0l0.7,0l0.7,0l0.7-0.1l0.7-0.1l0.7-0.1l0.7-0.1l0.7-0.2l0.7-0.2l0.7-0.2
			l0.7-0.2l0.7-0.2l0.7-0.3l0.7-0.3l0.7-0.3l0.7-0.3l0.7-0.3l0.7-0.3l0.7-0.4l0.7-0.4l0.7-0.4l0.7-0.4l0.7-0.4l0.7-0.4l0.7-0.4
			l0.7-0.4l0.7-0.4l0.7-0.4l0.7-0.4l0.7-0.4l0.7-0.4l0.7-0.3l0.7-0.3l0.7-0.3l0.7-0.3l0.7-0.3l0.7-0.2l0.7-0.2l0.7-0.2l0.7-0.1
			l0.7-0.1l0.7-0.1l0.7,0l0.7,0l0.7,0l0.7,0.1l0.7,0.1l0.7,0.2l0.7,0.2l0.7,0.3l0.7,0.3l0.7,0.3l0.7,0.4l0.7,0.4l0.7,0.5l0.7,0.5
			l0.7,0.5l0.7,0.6l0.7,0.6l0.7,0.6l0.7,0.7l0.7,0.7l0.7,0.7l0.7,0.7l0.7,0.7l0.7,0.7l0.7,0.8l0.7,0.8l0.7,0.7l0.7,0.7l0.7,0.7
			l0.7,0.7l0.7,0.7l0.7,0.7l0.7,0.6l0.7,0.6l0.7,0.6l0.7,0.5l0.7,0.5l0.7,0.4l0.7,0.4l0.7,0.3l0.7,0.3l0.7,0.2l0.7,0.1l0.7,0.1
			l0.7,0l0.7-0.1l0.7-0.2l0.7-0.2l0.7-0.3l0.7-0.4l0.7-0.5l0.7-0.5l0.7-0.6l0.7-0.7l0.7-0.7l0.7-0.8l0.7-0.9l0.7-0.9l0.7-1l0.7-1
			l0.7-1.1l0.7-1.1l0.7-1.2l0.7-1.2l0.7-1.2l0.7-1.2l0.7-1.2l0.7-1.2l0.7-1.2l0.7-1.2l0.7-1.2l0.7-1.2l0.7-1.2l0.7-1.1l0.7-1.1
			l0.7-1l0.7-1l0.7-0.9l0.7-0.9l0.7-0.8l0.7-0.7l0.7-0.6l0.7-0.5l0.7-0.4l0.7-0.3l0.7-0.2l0.7-0.1l0.7,0l0.7,0.1l0.7,0.2l0.7,0.3
			l0.7,0.4l0.7,0.6l0.7,0.7l0.7,0.8l0.7,0.9l0.7,1l0.7,1.1l0.7,1.2l0.7,1.3l0.7,1.4l0.7,1.5l0.7,1.5l0.7,1.6l0.7,1.7l0.7,1.7
			l0.7,1.8l0.7,1.8l0.7,1.8l0.7,1.9l0.7,1.9l0.7,1.9l0.7,1.8l0.7,1.8l0.7,1.8l0.7,1.8l0.7,1.7l0.7,1.6l0.7,1.6l0.7,1.5l0.7,1.4
			l0.7,1.3l0.7,1.2l0.7,1.1l0.7,1l0.7,0.8l0.7,0.7l0.7,0.6l0.7,0.4l0.7,0.3l0.7,0.1l0.7,0l0.7-0.2l0.7-0.4l0.7-0.5l0.7-0.7l0.7-0.8
			l0.7-1l0.7-1.1l0.7-1.3l0.7-1.4l0.7-1.6l0.7-1.7l0.7-1.8l0.7-2l0.7-2.1l0.7-2.2l0.7-2.3l0.7-2.4l0.7-2.4l0.7-2.5l0.7-2.5l0.7-2.6
			l0.7-2.6l0.7-2.6l0.7-2.6l0.7-2.6l0.7-2.5l0.7-2.5l0.7-2.4l0.7-2.4l0.7-2.3l0.7-2.2l0.7-2.1l0.7-1.9l0.7-1.8l0.7-1.7l0.7-1.5
			l0.7-1.3l0.7-1.2l0.7-1l0.7-0.8l0.7-0.6l0.7-0.4l0.7-0.2l0.7,0l0.7,0.2l0.7,0.5l0.7,0.7l0.7,0.9l0.7,1.1l0.7,1.3l0.7,1.5l0.7,1.7
			l0.7,1.9l0.7,2.1l0.7,2.3l0.7,2.4l0.7,2.6l0.7,2.7l0.7,2.9l0.7,3l0.7,3.1l0.7,3.2l0.7,3.3l0.7,3.3l0.7,3.4l0.7,3.4l0.7,3.4
			l0.7,3.4l0.7,3.4l0.7,3.3l0.7,3.3l0.7,3.2l0.7,3.1l0.7,3l0.7,2.9l0.7,2.7l0.7,2.6l0.7,2.4l0.7,2.2l0.7,2l0.7,1.8l0.7,1.5l0.7,1.3
			l0.7,1.1l0.7,0.8l0.7,0.6l0.7,0.3l0.7,0l0.7-0.2l0.7-0.5l0.7-0.8l0.7-1.1l0.7-1.3l0.7-1.6l0.7-1.8l0.7-2.1l0.7-2.3l0.7-2.6
			l0.7-2.8l0.7-3l0.7-3.2l0.7-3.4l0.7-3.5l0.7-3.7l0.7-3.8l0.7-3.9l0.7-4l0.7-4.1l0.7-4.2l0.7-4.2l0.7-4.2l0.7-4.2l0.7-4.2l0.7-4.1
			l0.7-4.1l0.7-4l0.7-3.9l0.7-3.7l0.7-3.6l0.7-3.4l0.7-3.2l0.7-3l0.7-2.8l0.7-2.5l0.7-2.3l0.7-2l0.7-1.7l0.7-1.4l0.7-1.1l0.7-0.8
			l0.7-0.5l0.7-0.2l0.7,0.1l0.7,0.4l0.7,0.8l0.7,1.1l0.7,1.4l0.7,1.7l0.7,2l0.7,2.3l0.7,2.6l0.7,2.9l0.7,3.2l0.7,3.4l0.7,3.6
			l0.7,3.9l0.7,4.1l0.7,4.2l0.7,4.4l0.7,4.6l0.7,4.7l0.7,4.8l0.7,4.9l0.7,4.9l0.7,4.9l0.7,4.9l0.7,4.9l0.7,4.9l0.7,4.8l0.7,4.7
			l0.7,4.6l0.7,4.5l0.7,4.3l0.7,4.1l0.7,3.9l0.7,3.7l0.7,3.4l0.7,3.2l0.7,2.9l0.7,2.6l0.7,2.3l0.7,2l0.7,1.6l0.7,1.3l0.7,0.9
			l0.7,0.6l0.7,0.2l0.7-0.2l0.7-0.5l0.7-0.9l0.7-1.3l0.7-1.6l0.7-2l0.7-2.3l0.7-2.7l0.7-3l0.7-3.3l0.7-3.6l0.7-3.9l0.7-4.2l0.7-4.4
			l0.7-4.6l0.7-4.8l0.7-5l0.7-5.2l0.7-5.3l0.7-5.4l0.7-5.5l0.7-5.5l0.7-5.6l0.7-5.6l0.7-5.5l0.7-5.5l0.7-5.4l0.7-5.3l0.7-5.2l0.7-5
			l0.7-4.8l0.7-4.6l0.7-4.4l0.7-4.1l0.7-3.9l0.7-3.6l0.7-3.2l0.7-2.9l0.7-2.6l0.7-2.2l0.7-1.8l0.7-1.5l0.7-1.1l0.7-0.7l0.7-0.3
			l0.7,0.1l0.7,0.5l0.7,0.9l0.7,1.3l0.7,1.7l0.7,2.1l0.7,2.5l0.7,2.9l0.7,3.2l0.7,3.6l0.7,3.9l0.7,4.2l0.7,4.5l0.7,4.8l0.7,5
			l0.7,5.2l0.7,5.4l0.7,5.6l0.7,5.7l0.7,5.8l0.7,5.9l0.7,6l0.7,6l0.7,6l0.7,6l0.7,5.9l0.7,5.9l0.7,5.7l0.7,5.6l0.7,5.4l0.7,5.3
			l0.7,5l0.7,4.8l0.7,4.5l0.7,4.2l0.7,3.9l0.7,3.6l0.7,3.2l0.7,2.9l0.7,2.5l0.7,2.1l0.7,1.7l0.7,1.3l0.7,0.9l0.7,0.5l0.7,0.1
			l0.7-0.4l0.7-0.8l0.7-1.2l0.7-1.6l0.7-2l0.7-2.4l0.7-2.8l0.7-3.2l0.7-3.6l0.7-3.9l0.7-4.2l0.7-4.5l0.7-4.8l0.7-5.1l0.7-5.3
			l0.7-5.5l0.7-5.7l0.7-5.9l0.7-6l0.7-6.1l0.7-6.2l0.7-6.3l0.7-6.3l0.7-6.3l0.7-6.2l0.7-6.2l0.7-6.1l0.7-5.9l0.7-5.8l0.7-5.6
			l0.7-5.4l0.7-5.2l0.7-4.9l0.7-4.6l0.7-4.3l0.7-4l0.7-3.7l0.7-3.3l0.7-2.9l0.7-2.5l0.7-2.1l0.7-1.7l0.7-1.3l0.7-0.9l0.7-0.5l0.7,0
			l0.7,0.4l0.7,0.8l0.7,1.3l0.7,1.7l0.7,2.1l0.7,2.5l0.7,2.9l0.7,3.3l0.7,3.6l0.7,4l0.7,4.3l0.7,4.6l0.7,4.9l0.7,5.2l0.7,5.4
			l0.7,5.6l0.7,5.8l0.7,6l0.7,6.1l0.7,6.2l0.7,6.3l0.7,6.4l0.7,6.4l0.7,6.4l0.7,6.3l0.7,6.3l0.7,6.2l0.7,6.1l0.7,5.9l0.7,5.7
			l0.7,5.5l0.7,5.3l0.7,5l0.7,4.8l0.7,4.5l0.7,4.1l0.7,3.8l0.7,3.4l0.7,3.1l0.7,2.7l0.7,2.3l0.7,1.9l0.7,1.4l0.7,1l0.7,0.6l0.7,0.2
			l0.7-0.3l0.7-0.7l0.7-1.1l0.7-1.6l0.7-2l0.7-2.4l0.7-2.8l0.7-3.1l0.7-3.5l0.7-3.9l0.7-4.2l0.7-4.5l0.7-4.8l0.7-5.1l0.7-5.3
			l0.7-5.6l0.7-5.7l0.7-5.9l0.7-6.1l0.7-6.2l0.7-6.3l0.7-6.3l0.7-6.4l0.7-6.4l0.7-6.4l0.7-6.3l0.7-6.2l0.7-6.1l0.7-6l0.7-5.8
			l0.7-5.6l0.7-5.4l0.7-5.2l0.7-4.9l0.7-4.6l0.7-4.3l0.7-4l0.7-3.7l0.7-3.3l0.7-2.9l0.7-2.6l0.7-2.2l0.7-1.8l0.7-1.3l0.7-0.9
			l0.7-0.5l0.7-0.1l0.7,0.3l0.7,0.8l0.7,1.2l0.7,1.6l0.7,2l0.7,2.4l0.7,2.8l0.7,3.1l0.7,3.5l0.7,3.8l0.7,4.2l0.7,4.5l0.7,4.8l0.7,5
			l0.7,5.3l0.7,5.5l0.7,5.7l0.7,5.9l0.7,6l0.7,6.1l0.7,6.2l0.7,6.3l0.7,6.3l0.7,6.3l0.7,6.3l0.7,6.2l0.7,6.2l0.7,6.1l0.7,5.9
			l0.7,5.8l0.7,5.6l0.7,5.4l0.7,5.2l0.7,4.9l0.7,4.7l0.7,4.4l0.7,4.1l0.7,3.7l0.7,3.4l0.7,3l0.7,2.6l0.7,2.3l0.7,1.9l0.7,1.5
			l0.7,1.1l0.7,0.6l0.7,0.2l0.7-0.2l0.7-0.6l0.7-1l0.7-1.4l0.7-1.8l0.7-2.2l0.7-2.6l0.7-3l0.7-3.4l0.7-3.7l0.7-4l0.7-4.3l0.7-4.6
			l0.7-4.9l0.7-5.2l0.7-5.4l0.7-5.6l0.7-5.8l0.7-5.9l0.7-6.1l0.7-6.2l0.7-6.3l0.7-6.3l0.7-6.3l0.7-6.3l0.7-6.3l0.7-6.2l0.7-6.2
			l0.7-6l0.7-5.9l0.7-5.7l0.7-5.5l0.7-5.3l0.7-5.1l0.7-4.8l0.7-4.6l0.7-4.3l0.7-3.9l0.7-3.6l0.7-3.2l0.7-2.9l0.7-2.5l0.7-2.1
			l0.7-1.7l0.7-1.3l0.7-0.9l0.7-0.5l0.7,0l0.7,0.4l0.7,0.8l0.7,1.2l0.7,1.6l0.7,2l0.7,2.4l0.7,2.8l0.7,3.2l0.7,3.5l0.7,3.9l0.7,4.2
			l0.7,4.5l0.7,4.8l0.7,5.1l0.7,5.3l0.7,5.5l0.7,5.7l0.7,5.9l0.7,6.1l0.7,6.2l0.7,6.3l0.7,6.4l0.7,6.4l0.7,6.4l0.7,6.4l0.7,6.4
			l0.7,6.3l0.7,6.2l0.7,6.1l0.7,5.9l0.7,5.8l0.7,5.6l0.7,5.3l0.7,5.1l0.7,4.8l0.7,4.5l0.7,4.2l0.7,3.9l0.7,3.6l0.7,3.2l0.7,2.8
			l0.7,2.4l0.7,2l0.7,1.6l0.7,1.2l0.7,0.8l0.7,0.3l0.7-0.1l0.7-0.5l0.7-0.9l0.7-1.4l0.7-1.8l0.7-2.2l0.7-2.6l0.7-3l0.7-3.4l0.7-3.7
			l0.7-4.1l0.7-4.4l0.7-4.7l0.7-5l0.7-5.3l0.7-5.6l0.7-5.8l0.7-6l0.7-6.2l0.7-6.3l0.7-6.4l0.7-6.5l0.7-6.6l0.7-6.6l0.7-6.6l0.7-6.6
			l0.7-6.6l0.7-6.5l0.7-6.4l0.7-6.2l0.7-6.1l0.7-5.9l0.7-5.7l0.7-5.4l0.7-5.2l0.7-4.9l0.7-4.6l0.7-4.3l0.7-3.9l0.7-3.5l0.7-3.2
			l0.7-2.8l0.7-2.3l0.7-1.9l0.7-1.5l0.7-1.1l0.7-0.6l0.7-0.2l0.7,0.3l0.7,0.7l0.7,1.2l0.7,1.6l0.7,2.1l0.7,2.5l0.7,2.9l0.7,3.3
			l0.7,3.7l0.7,4.1l0.7,4.4l0.7,4.8l0.7,5.1l0.7,5.4l0.7,5.7l0.7,5.9l0.7,6.1l0.7,6.3l0.7,6.5l0.7,6.6l0.7,6.8l0.7,6.8l0.7,6.9
			l0.7,6.9l0.7,6.9l0.7,6.9l0.7,6.8l0.7,6.7l0.7,6.6l0.7,6.4l0.7,6.2l0.7,6l0.7,5.8l0.7,5.5l0.7,5.2l0.7,4.9l0.7,4.5l0.7,4.2
			l0.7,3.8l0.7,3.4l0.7,3l0.7,2.6l0.7,2.1l0.7,1.7l0.7,1.2l0.7,0.8l0.7,0.3l0.7-0.2l0.7-0.6l0.7-1.1l0.7-1.6l0.7-2l0.7-2.5l0.7-2.9
			l0.7-3.3l0.7-3.7l0.7-4.1l0.7-4.5l0.7-4.8l0.7-5.2l0.7-5.5l0.7-5.8l0.7-6l0.7-6.3l0.7-6.5l0.7-6.7l0.7-6.8l0.7-6.9l0.7-7l0.7-7.1
			l0.7-7.1l0.7-7.1l0.7-7.1l0.7-7l0.7-6.9l0.7-6.8l0.7-6.6l0.7-6.4l0.7-6.2l0.7-6l0.7-5.7l0.7-5.4l0.7-5.1l0.7-4.7l0.7-4.4l0.7-4
			l0.7-3.6l0.7-3.2l0.7-2.7l0.7-2.3l0.7-1.8l0.7-1.3l0.7-0.9l0.7-0.4l0.7,0.1l0.7,0.6l0.7,1l0.7,1.5l0.7,2l0.7,2.5l0.7,2.9l0.7,3.3
			l0.7,3.8l0.7,4.2l0.7,4.6l0.7,4.9l0.7,5.3l0.7,5.6l0.7,5.9l0.7,6.2l0.7,6.4l0.7,6.6l0.7,6.8l0.7,7l0.7,7.1l0.7,7.2l0.7,7.3
			l0.7,7.3l0.7,7.3l0.7,7.3l0.7,7.2l0.7,7.1l0.7,7l0.7,6.8l0.7,6.6l0.7,6.4l0.7,6.1l0.7,5.9l0.7,5.5l0.7,5.2l0.7,4.9l0.7,4.5
			l0.7,4.1l0.7,3.7l0.7,3.2l0.7,2.8l0.7,2.3l0.7,1.9l0.7,1.4l0.7,0.9l0.7,0.4l0.7-0.1l0.7-0.6l0.7-1.1l0.7-1.5l0.7-2l0.7-2.5
			l0.7-2.9l0.7-3.4l0.7-3.8l0.7-4.2l0.7-4.6l0.7-5l0.7-5.3l0.7-5.7l0.7-6l0.7-6.3l0.7-6.5l0.7-6.7l0.7-6.9l0.7-7.1l0.7-7.2l0.7-7.3
			l0.7-7.3l0.7-7.4l0.7-7.4l0.7-7.3l0.7-7.3l0.7-7.1l0.7-7l0.7-6.8l0.7-6.6l0.7-6.4l0.7-6.2l0.7-5.9l0.7-5.6l0.7-5.2l0.7-4.9
			l0.7-4.5l0.7-4.1l0.7-3.7l0.7-3.3l0.7-2.8l0.7-2.3l0.7-1.9l0.7-1.4l0.7-0.9l0.7-0.4l0.7,0.1l0.7,0.6l0.7,1.1l0.7,1.5l0.7,2
			l0.7,2.5l0.7,2.9l0.7,3.4l0.7,3.8l0.7,4.2l0.7,4.6l0.7,5l0.7,5.3l0.7,5.6l0.7,5.9l0.7,6.2l0.7,6.5l0.7,6.7l0.7,6.9l0.7,7l0.7,7.1
			l0.7,7.2l0.7,7.3l0.7,7.3l0.7,7.3l0.7,7.3l0.7,7.2l0.7,7.1l0.7,7l0.7,6.8l0.7,6.6l0.7,6.4l0.7,6.1l0.7,5.9l0.7,5.6l0.7,5.2
			l0.7,4.9l0.7,4.5l0.7,4.1l0.7,3.7l0.7,3.3l0.7,2.8l0.7,2.4l0.7,1.9l0.7,1.4l0.7,1l0.7,0.5l0.7,0l0.7-0.5l0.7-1l0.7-1.5l0.7-1.9
			l0.7-2.4l0.7-2.8l0.7-3.3l0.7-3.7l0.7-4.1l0.7-4.5l0.7-4.9l0.7-5.2l0.7-5.6l0.7-5.9l0.7-6.1l0.7-6.4l0.7-6.6l0.7-6.8l0.7-6.9
			l0.7-7.1l0.7-7.2l0.7-7.2l0.7-7.3l0.7-7.3l0.7-7.2l0.7-7.2l0.7-7.1l0.7-6.9l0.7-6.8l0.7-6.6l0.7-6.4l0.7-6.1l0.7-5.9l0.7-5.6
			l0.7-5.2l0.7-4.9l0.7-4.5l0.7-4.1l0.7-3.7l0.7-3.3l0.7-2.9l0.7-2.4l0.7-2l0.7-1.5l0.7-1l0.7-0.6l0.7-0.1l0.7,0.4l0.7,0.9l0.7,1.4
			l0.7,1.8l0.7,2.3l0.7,2.7l0.7,3.2l0.7,3.6l0.7,4l0.7,4.4l0.7,4.8l0.7,5.1l0.7,5.4l0.7,5.7l0.7,6l0.7,6.2l0.7,6.5l0.7,6.7l0.7,6.8
			l0.7,6.9l0.7,7l0.7,7.1l0.7,7.2l0.7,7.2l0.7,7.1l0.7,7.1l0.7,7l0.7,6.9l0.7,6.7l0.7,6.5l0.7,6.3l0.7,6.1l0.7,5.8l0.7,5.6l0.7,5.2
			l0.7,4.9l0.7,4.6l0.7,4.2l0.7,3.8l0.7,3.4l0.7,3l0.7,2.5l0.7,2.1l0.7,1.6l0.7,1.1l0.7,0.7l0.7,0.2l0.7-0.3l0.7-0.7l0.7-1.2
			l0.7-1.7l0.7-2.1l0.7-2.6l0.7-3l0.7-3.4l0.7-3.8l0.7-4.2l0.7-4.6l0.7-4.9l0.7-5.2l0.7-5.5l0.7-5.8l0.7-6.1l0.7-6.3l0.7-6.5
			l0.7-6.7l0.7-6.8l0.7-6.9l0.7-7l0.7-7.1l0.7-7.1l0.7-7.1l0.7-7l0.7-6.9l0.7-6.8l0.7-6.7l0.7-6.5l0.7-6.3l0.7-6.1l0.7-5.9l0.7-5.6
			l0.7-5.3l0.7-5l0.7-4.6l0.7-4.3l0.7-3.9l0.7-3.5l0.7-3.1l0.7-2.7l0.7-2.2l0.7-1.8l0.7-1.3l0.7-0.8l0.7-0.4l0.7,0.1l0.7,0.6l0.7,1
			l0.7,1.5l0.7,1.9l0.7,2.4l0.7,2.8l0.7,3.2l0.7,3.7l0.7,4l0.7,4.4l0.7,4.8l0.7,5.1l0.7,5.4l0.7,5.7l0.7,6l0.7,6.2l0.7,6.4l0.7,6.6
			l0.7,6.8l0.7,6.9l0.7,7l0.7,7l0.7,7.1l0.7,7.1l0.7,7l0.7,7l0.7,6.9l0.7,6.7l0.7,6.6l0.7,6.4l0.7,6.2l0.7,6l0.7,5.7l0.7,5.4
			l0.7,5.1l0.7,4.7l0.7,4.4l0.7,4l0.7,3.6l0.7,3.2l0.7,2.8l0.7,2.3l0.7,1.9l0.7,1.4l0.7,1l0.7,0.5l0.7,0l0.7-0.4l0.7-0.9l0.7-1.4
			l0.7-1.8l0.7-2.3l0.7-2.7l0.7-3.1l0.7-3.5l0.7-3.9l0.7-4.3l0.7-4.7l0.7-5l0.7-5.3l0.7-5.6l0.7-5.9l0.7-6.1l0.7-6.4l0.7-6.5
			l0.7-6.7l0.7-6.8l0.7-6.9l0.7-7l0.7-7l0.7-7.1l0.7-7l0.7-7l0.7-6.9l0.7-6.8l0.7-6.6l0.7-6.4l0.7-6.2l0.7-6l0.7-5.7l0.7-5.5
			l0.7-5.2l0.7-4.8l0.7-4.5l0.7-4.1l0.7-3.7l0.7-3.3l0.7-2.9l0.7-2.4l0.7-2l0.7-1.5l0.7-1.1l0.7-0.6l0.7-0.2l0.7,0.3l0.7,0.8
			l0.7,1.3l0.7,1.7l0.7,2.2l0.7,2.6l0.7,3l0.7,3.5l0.7,3.9l0.7,4.2l0.7,4.6l0.7,5l0.7,5.3l0.7,5.6l0.7,5.9l0.7,6.1l0.7,6.3l0.7,6.5
			l0.7,6.7l0.7,6.8l0.7,6.9l0.7,7l0.7,7.1l0.7,7.1l0.7,7.1l0.7,7l0.7,6.9l0.7,6.8l0.7,6.7l0.7,6.5l0.7,6.3l0.7,6.1l0.7,5.8l0.7,5.5
			l0.7,5.2l0.7,4.9l0.7,4.6l0.7,4.2l0.7,3.8l0.7,3.4l0.7,3l0.7,2.5l0.7,2.1l0.7,1.6l0.7,1.1l0.7,0.7l0.7,0.2l0.7-0.3l0.7-0.8
			l0.7-1.2l0.7-1.7l0.7-2.1l0.7-2.6l0.7-3l0.7-3.5l0.7-3.9l0.7-4.3l0.7-4.6l0.7-5l0.7-5.3l0.7-5.6l0.7-5.9l0.7-6.1l0.7-6.4l0.7-6.6
			l0.7-6.7l0.7-6.9l0.7-7l0.7-7.1l0.7-7.1l0.7-7.1l0.7-7.1l0.7-7l0.7-7l0.7-6.9l0.7-6.7l0.7-6.5l0.7-6.3l0.7-6.1l0.7-5.8l0.7-5.6
			l0.7-5.2l0.7-4.9l0.7-4.6l0.7-4.2l0.7-3.8l0.7-3.4l0.7-2.9l0.7-2.5l0.7-2l0.7-1.6l0.7-1.1l0.7-0.6l0.7-0.2l0.7,0.3l0.7,0.8
			l0.7,1.3l0.7,1.7l0.7,2.2l0.7,2.6l0.7,3.1l0.7,3.5l0.7,3.9l0.7,4.3l0.7,4.6l0.7,5l0.7,5.3l0.7,5.6l0.7,5.9l0.7,6.2l0.7,6.4
			l0.7,6.6l0.7,6.7l0.7,6.9l0.7,7l0.7,7l0.7,7.1l0.7,7.1l0.7,7.1l0.7,7l0.7,6.9l0.7,6.8l0.7,6.7l0.7,6.5l0.7,6.3l0.7,6.1l0.7,5.8
			l0.7,5.5l0.7,5.2l0.7,4.9l0.7,4.5l0.7,4.1l0.7,3.7l0.7,3.3l0.7,2.9l0.7,2.5l0.7,2l0.7,1.5l0.7,1.1l0.7,0.6l0.7,0.1l0.7-0.3
			l0.7-0.8l0.7-1.3l0.7-1.7l0.7-2.2l0.7-2.6l0.7-3.1l0.7-3.5l0.7-3.9l0.7-4.3l0.7-4.7l0.7-5l0.7-5.3l0.7-5.6l0.7-5.9l0.7-6.1
			l0.7-6.4l0.7-6.6l0.7-6.7l0.7-6.9l0.7-7l0.7-7l0.7-7.1l0.7-7.1l0.7-7l0.7-7l0.7-6.9l0.7-6.8l0.7-6.6l0.7-6.4l0.7-6.2l0.7-6
			l0.7-5.7l0.7-5.5l0.7-5.1l0.7-4.8l0.7-4.4l0.7-4.1l0.7-3.7l0.7-3.3l0.7-2.8l0.7-2.4l0.7-1.9l0.7-1.5l0.7-1l0.7-0.5l0.7-0.1
			l0.7,0.4l0.7,0.9l0.7,1.3l0.7,1.8l0.7,2.3l0.7,2.7l0.7,3.1l0.7,3.5l0.7,3.9l0.7,4.3l0.7,4.7l0.7,5l0.7,5.3l0.7,5.6l0.7,5.9
			l0.7,6.1l0.7,6.3l0.7,6.5l0.7,6.7l0.7,6.8l0.7,6.9l0.7,7l0.7,7l0.7,7l0.7,7l0.7,6.9l0.7,6.8l0.7,6.7l0.7,6.5l0.7,6.3l0.7,6.1
			l0.7,5.9l0.7,5.6l0.7,5.3l0.7,5l0.7,4.7l0.7,4.3l0.7,4l0.7,3.6l0.7,3.2l0.7,2.7l0.7,2.3l0.7,1.8l0.7,1.4l0.7,0.9l0.7,0.5l0.7,0
			l0.7-0.5l0.7-0.9l0.7-1.4l0.7-1.8l0.7-2.3l0.7-2.7l0.7-3.1l0.7-3.5l0.7-3.9l0.7-4.3l0.7-4.6l0.7-5l0.7-5.3l0.7-5.6l0.7-5.8
			l0.7-6.1l0.7-6.3l0.7-6.4l0.7-6.6l0.7-6.7l0.7-6.8l0.7-6.9l0.7-6.9l0.7-6.9l0.7-6.9l0.7-6.8l0.7-6.7l0.7-6.6l0.7-6.4l0.7-6.2
			l0.7-6l0.7-5.8l0.7-5.5l0.7-5.2l0.7-4.9l0.7-4.6l0.7-4.3l0.7-3.9l0.7-3.5l0.7-3.1l0.7-2.7l0.7-2.2l0.7-1.8l0.7-1.4l0.7-0.9
			l0.7-0.5l0.7,0l0.7,0.5l0.7,0.9l0.7,1.4l0.7,1.8l0.7,2.2l0.7,2.7l0.7,3.1l0.7,3.5l0.7,3.9l0.7,4.2l0.7,4.6l0.7,4.9l0.7,5.2
			l0.7,5.5l0.7,5.8l0.7,6l0.7,6.2l0.7,6.4l0.7,6.5l0.7,6.6l0.7,6.7l0.7,6.8l0.7,6.8l0.7,6.8l0.7,6.8l0.7,6.7l0.7,6.6l0.7,6.5
			l0.7,6.3l0.7,6.2l0.7,6l0.7,5.7l0.7,5.5l0.7,5.2l0.7,4.9l0.7,4.6l0.7,4.2l0.7,3.8l0.7,3.5l0.7,3.1l0.7,2.6l0.7,2.2l0.7,1.8
			l0.7,1.3l0.7,0.9l0.7,0.4l0.7,0l0.7-0.5l0.7-0.9l0.7-1.4l0.7-1.8l0.7-2.2l0.7-2.7l0.7-3.1l0.7-3.5l0.7-3.8l0.7-4.2l0.7-4.5
			l0.7-4.9l0.7-5.2l0.7-5.4l0.7-5.7l0.7-5.9l0.7-6.1l0.7-6.3l0.7-6.4l0.7-6.6l0.7-6.6l0.7-6.7l0.7-6.7l0.7-6.7l0.7-6.7l0.7-6.6
			l0.7-6.5l0.7-6.4l0.7-6.3l0.7-6.1l0.7-5.9l0.7-5.7l0.7-5.4l0.7-5.1l0.7-4.8l0.7-4.5l0.7-4.2l0.7-3.8l0.7-3.4l0.7-3l0.7-2.6
			l0.7-2.2l0.7-1.8l0.7-1.3l0.7-0.9l0.7-0.5l0.7,0l0.7,0.4l0.7,0.9l0.7,1.3l0.7,1.8l0.7,2.2l0.7,2.6l0.7,3l0.7,3.4l0.7,3.8l0.7,4.1
			l0.7,4.5l0.7,4.8l0.7,5.1l0.7,5.4l0.7,5.6l0.7,5.9l0.7,6.1l0.7,6.2l0.7,6.4l0.7,6.5l0.7,6.6l0.7,6.7l0.7,6.7l0.7,6.7l0.7,6.7
			l0.7,6.6l0.7,6.5l0.7,6.4l0.7,6.3l0.7,6.1l0.7,5.9l0.7,5.7l0.7,5.4l0.7,5.1l0.7,4.8l0.7,4.5l0.7,4.2l0.7,3.8l0.7,3.5l0.7,3.1
			l0.7,2.7l0.7,2.2l0.7,1.8l0.7,1.4l0.7,0.9l0.7,0.5l0.7,0.1l0.7-0.4l0.7-0.8l0.7-1.3l0.7-1.7l0.7-2.1l0.7-2.6l0.7-3l0.7-3.4
			l0.7-3.7l0.7-4.1l0.7-4.4l0.7-4.8l0.7-5.1l0.7-5.4l0.7-5.6l0.7-5.8l0.7-6.1l0.7-6.2l0.7-6.4l0.7-6.5l0.7-6.6l0.7-6.7l0.7-6.7
			l0.7-6.7l0.7-6.7l0.7-6.6l0.7-6.5l0.7-6.4l0.7-6.3l0.7-6.1l0.7-5.9l0.7-5.7l0.7-5.4l0.7-5.2l0.7-4.9l0.7-4.5l0.7-4.2l0.7-3.9
			l0.7-3.5l0.7-3.1l0.7-2.7l0.7-2.3l0.7-1.8l0.7-1.4l0.7-1l0.7-0.5l0.7-0.1l0.7,0.4l0.7,0.8l0.7,1.3l0.7,1.7l0.7,2.1l0.7,2.6l0.7,3
			l0.7,3.4l0.7,3.7l0.7,4.1l0.7,4.5l0.7,4.8l0.7,5.1l0.7,5.4l0.7,5.6l0.7,5.9l0.7,6.1l0.7,6.2l0.7,6.4l0.7,6.5l0.7,6.6l0.7,6.7
			l0.7,6.7l0.7,6.7l0.7,6.7l0.7,6.6l0.7,6.6l0.7,6.4l0.7,6.3l0.7,6.1l0.7,5.9l0.7,5.7l0.7,5.5l0.7,5.2l0.7,4.9l0.7,4.6l0.7,4.2
			l0.7,3.9l0.7,3.5l0.7,3.1l0.7,2.7l0.7,2.3l0.7,1.9l0.7,1.4l0.7,1l0.7,0.5l0.7,0.1l0.7-0.4l0.7-0.8l0.7-1.3l0.7-1.7l0.7-2.1
			l0.7-2.6l0.7-3l0.7-3.4l0.7-3.7l0.7-4.1l0.7-4.5l0.7-4.8l0.7-5.1l0.7-5.4l0.7-5.6l0.7-5.9l0.7-6.1l0.7-6.3l0.7-6.4l0.7-6.6
			l0.7-6.6l0.7-6.7l0.7-6.8l0.7-6.8l0.7-6.7l0.7-6.7l0.7-6.6l0.7-6.5l0.7-6.3l0.7-6.2l0.7-6l0.7-5.8l0.7-5.5l0.7-5.2l0.7-4.9
			l0.7-4.6l0.7-4.3l0.7-3.9l0.7-3.5l0.7-3.1l0.7-2.7l0.7-2.3l0.7-1.9l0.7-1.4l0.7-1l0.7-0.5l0.7-0.1l0.7,0.4l0.7,0.8l0.7,1.3
			l0.7,1.7l0.7,2.2l0.7,2.6l0.7,3l0.7,3.4l0.7,3.8l0.7,4.2l0.7,4.5l0.7,4.9l0.7,5.2l0.7,5.4l0.7,5.7l0.7,5.9l0.7,6.2l0.7,6.3
			l0.7,6.5l0.7,6.6l0.7,6.7l0.7,6.8l0.7,6.8l0.7,6.8l0.7,6.8l0.7,6.7l0.7,6.6l0.7,6.5l0.7,6.4l0.7,6.2l0.7,6l0.7,5.8l0.7,5.5
			l0.7,5.2l0.7,4.9l0.7,4.6l0.7,4.3l0.7,3.9l0.7,3.5l0.7,3.1l0.7,2.7l0.7,2.3l0.7,1.8l0.7,1.4l0.7,0.9"/>
	</g>
</g>
</svg>
