<?xml version="1.0" encoding="utf-8"?>
<!-- Generator: Adobe Illustrator 19.0.0, SVG Export Plug-In . SVG Version: 6.00 Build 0)  -->
<svg version="1.1" id="Layer_1" xmlns="http://www.w3.org/2000/svg" xmlns:xlink="http://www.w3.org/1999/xlink" x="0px" y="0px"
	 viewBox="1361.5 -115.3 263.5 770.1" style="enable-background:new 1361.5 -115.3 263.5 770.1;" xml:space="preserve">
<style type="text/css">
	.st0{fill:none;stroke:#262626;stroke-linecap:square;stroke-linejoin:round;stroke-miterlimit:10;}
	.st1{fill:none;stroke:#000000;stroke-linejoin:round;stroke-miterlimit:10;}
</style>
<g>
	<g>
		<line class="st0" x1="1362" y1="281.3" x2="1618" y2="281.3"/>
		<line class="st0" x1="1618" y1="654.3" x2="1618" y2="-91.7"/>
	</g>
	<g transform="translate(951.0009,66.25)">
		<path d="M432.6-181.5h3.2v8.5c0,1.4,0,2.2,0.1,2.6c0.1,0.6,0.5,1.2,1,1.6c0.5,0.4,1.2,0.6,2.1,0.6c0.9,0,1.6-0.2,2-0.6
			c0.5-0.4,0.7-0.8,0.8-1.4s0.1-1.4,0.1-2.7v-8.7h3.2v8.3c0,1.9-0.1,3.2-0.3,4c-0.2,0.8-0.5,1.4-1,2s-1.1,1-1.9,1.3
			c-0.8,0.3-1.8,0.5-3,0.5c-1.5,0-2.6-0.2-3.4-0.5s-1.4-0.8-1.8-1.4c-0.4-0.6-0.7-1.1-0.9-1.8c-0.2-0.9-0.3-2.2-0.3-4V-181.5z
			 M458.8-165.7h-3v-5.8c0-1.2-0.1-2-0.2-2.4c-0.1-0.4-0.3-0.6-0.6-0.8c-0.3-0.2-0.6-0.3-1.1-0.3c-0.5,0-1,0.1-1.4,0.4
			c-0.4,0.3-0.7,0.7-0.9,1.1c-0.2,0.5-0.2,1.3-0.2,2.6v5.2h-3v-11.4h2.8v1.7c1-1.3,2.3-1.9,3.8-1.9c0.7,0,1.3,0.1,1.8,0.4
			s1,0.5,1.3,0.9c0.3,0.4,0.5,0.8,0.6,1.3c0.1,0.5,0.2,1.1,0.2,2V-165.7z M461.9-178.7v-2.8h3v2.8H461.9z M461.9-165.7v-11.4h3v11.4
			H461.9z M473.3-177.1v2.4h-2.1v4.6c0,0.9,0,1.5,0.1,1.6c0,0.2,0.1,0.3,0.3,0.4c0.1,0.1,0.3,0.1,0.5,0.1c0.3,0,0.7-0.1,1.2-0.3
			l0.3,2.3c-0.7,0.3-1.5,0.5-2.4,0.5c-0.5,0-1-0.1-1.5-0.3c-0.4-0.2-0.8-0.4-1-0.7c-0.2-0.3-0.3-0.7-0.4-1.2
			c-0.1-0.3-0.1-1.1-0.1-2.1v-5h-1.4v-2.4h1.4v-2.3l3-1.8v4H473.3z M488.5-165.7h-3v-11.4c-1.1,1-2.4,1.8-3.9,2.3v-2.7
			c0.8-0.3,1.6-0.8,2.6-1.5c0.9-0.7,1.6-1.6,1.9-2.5h2.5V-165.7z M498.5-165.7v-2.9l8.3-10.2h-7.3v-2.7h11.5v2.5l-8.6,10.6h9v2.7
			H498.5z M519.9-169.3l3,0.5c-0.4,1.1-1,1.9-1.8,2.5c-0.8,0.6-1.9,0.9-3.1,0.9c-2,0-3.5-0.7-4.4-2c-0.8-1-1.1-2.4-1.1-3.9
			c0-1.9,0.5-3.4,1.5-4.4s2.2-1.6,3.8-1.6c1.7,0,3,0.6,4,1.7s1.5,2.8,1.4,5.2h-7.6c0,0.9,0.3,1.6,0.7,2.1c0.5,0.5,1,0.7,1.7,0.7
			c0.5,0,0.9-0.1,1.2-0.4S519.7-168.8,519.9-169.3z M520-172.4c0-0.9-0.2-1.5-0.7-2c-0.4-0.5-1-0.7-1.6-0.7c-0.7,0-1.2,0.2-1.6,0.7
			c-0.4,0.5-0.7,1.1-0.6,2H520z M528.4-165.7h-3v-11.4h2.8v1.6c0.5-0.8,0.9-1.3,1.3-1.5c0.4-0.2,0.8-0.4,1.3-0.4
			c0.7,0,1.3,0.2,2,0.6l-0.9,2.6c-0.5-0.3-1-0.5-1.4-0.5c-0.4,0-0.8,0.1-1.1,0.3c-0.3,0.2-0.5,0.6-0.7,1.3c-0.2,0.6-0.3,1.9-0.3,3.8
			V-165.7z M533.3-171.6c0-1,0.2-2,0.7-2.9c0.5-0.9,1.2-1.7,2.1-2.1s1.9-0.7,3-0.7c1.7,0,3.1,0.6,4.3,1.7c1.1,1.1,1.7,2.5,1.7,4.3
			c0,1.7-0.6,3.2-1.7,4.3c-1.1,1.1-2.5,1.7-4.2,1.7c-1.1,0-2.1-0.2-3-0.7s-1.7-1.2-2.2-2.1C533.6-169.2,533.3-170.3,533.3-171.6z
			 M536.4-171.4c0,1.1,0.3,2,0.8,2.6c0.5,0.6,1.2,0.9,2,0.9c0.8,0,1.5-0.3,2-0.9c0.5-0.6,0.8-1.5,0.8-2.6c0-1.1-0.3-2-0.8-2.6
			c-0.5-0.6-1.2-0.9-2-0.9c-0.8,0-1.4,0.3-2,0.9C536.7-173.4,536.4-172.6,536.4-171.4z M547.1-169.9v-3h5.9v3H547.1z M554.8-165.7
			v-15.8h5.1c1.9,0,3.2,0.1,3.8,0.2c0.9,0.2,1.7,0.8,2.3,1.5c0.6,0.8,0.9,1.8,0.9,3.1c0,1-0.2,1.8-0.5,2.4c-0.4,0.7-0.8,1.2-1.3,1.6
			c-0.5,0.4-1.1,0.6-1.6,0.7c-0.8,0.2-1.9,0.2-3.3,0.2H558v5.9H554.8z M558-178.8v4.5h1.7c1.3,0,2.1-0.1,2.5-0.3
			c0.4-0.2,0.8-0.4,1-0.8c0.2-0.3,0.4-0.8,0.4-1.2c0-0.6-0.2-1-0.5-1.4c-0.3-0.4-0.8-0.6-1.3-0.7c-0.4-0.1-1.2-0.1-2.3-0.1H558z
			 M568.8-171.6c0-1,0.2-2,0.7-2.9c0.5-0.9,1.2-1.7,2.1-2.1s1.9-0.7,3-0.7c1.7,0,3.1,0.6,4.3,1.7c1.1,1.1,1.7,2.5,1.7,4.3
			c0,1.7-0.6,3.2-1.7,4.3c-1.1,1.1-2.5,1.7-4.2,1.7c-1.1,0-2.1-0.2-3-0.7s-1.7-1.2-2.2-2.1C569-169.2,568.8-170.3,568.8-171.6z
			 M571.9-171.4c0,1.1,0.3,2,0.8,2.6c0.5,0.6,1.2,0.9,2,0.9c0.8,0,1.5-0.3,2-0.9c0.5-0.6,0.8-1.5,0.8-2.6c0-1.1-0.3-2-0.8-2.6
			c-0.5-0.6-1.2-0.9-2-0.9c-0.8,0-1.4,0.3-2,0.9C572.1-173.4,571.9-172.6,571.9-171.4z M582.9-165.7v-15.8h3v15.8H582.9z
			 M595.6-169.3l3,0.5c-0.4,1.1-1,1.9-1.8,2.5c-0.8,0.6-1.9,0.9-3.1,0.9c-2,0-3.5-0.7-4.4-2c-0.8-1-1.1-2.4-1.1-3.9
			c0-1.9,0.5-3.4,1.5-4.4c1-1.1,2.2-1.6,3.8-1.6c1.7,0,3,0.6,4,1.7c1,1.1,1.5,2.8,1.4,5.2h-7.6c0,0.9,0.3,1.6,0.7,2.1
			c0.5,0.5,1,0.7,1.7,0.7c0.5,0,0.9-0.1,1.2-0.4C595.2-168.4,595.5-168.8,595.6-169.3z M595.8-172.4c0-0.9-0.2-1.5-0.7-2
			c-0.4-0.5-1-0.7-1.6-0.7c-0.7,0-1.2,0.2-1.6,0.7c-0.4,0.5-0.7,1.1-0.6,2H595.8z M607.3-177.1h2.8v1.7c0.4-0.6,0.9-1,1.5-1.4
			c0.6-0.4,1.3-0.5,2.1-0.5c1.3,0,2.4,0.5,3.4,1.6c0.9,1,1.4,2.5,1.4,4.3c0,1.9-0.5,3.4-1.4,4.4c-0.9,1.1-2.1,1.6-3.4,1.6
			c-0.6,0-1.2-0.1-1.7-0.4s-1-0.7-1.6-1.3v5.8h-3V-177.1z M610.3-171.6c0,1.3,0.3,2.2,0.8,2.8c0.5,0.6,1.1,0.9,1.9,0.9
			c0.7,0,1.3-0.3,1.8-0.8c0.5-0.6,0.7-1.5,0.7-2.8c0-1.2-0.2-2.1-0.7-2.7c-0.5-0.6-1.1-0.9-1.8-0.9c-0.7,0-1.4,0.3-1.8,0.9
			C610.5-173.6,610.3-172.7,610.3-171.6z M620.8-165.7v-15.8h3v15.8H620.8z M626.2-171.6c0-1,0.2-2,0.7-2.9c0.5-0.9,1.2-1.7,2.1-2.1
			s1.9-0.7,3-0.7c1.7,0,3.1,0.6,4.3,1.7c1.1,1.1,1.7,2.5,1.7,4.3c0,1.7-0.6,3.2-1.7,4.3c-1.1,1.1-2.5,1.7-4.2,1.7
			c-1.1,0-2.1-0.2-3-0.7s-1.7-1.2-2.2-2.1C626.5-169.2,626.2-170.3,626.2-171.6z M629.3-171.4c0,1.1,0.3,2,0.8,2.6
			c0.5,0.6,1.2,0.9,2,0.9c0.8,0,1.5-0.3,2-0.9c0.5-0.6,0.8-1.5,0.8-2.6c0-1.1-0.3-2-0.8-2.6c-0.5-0.6-1.2-0.9-2-0.9
			c-0.8,0-1.4,0.3-2,0.9C629.6-173.4,629.3-172.6,629.3-171.4z M645.6-177.1v2.4h-2.1v4.6c0,0.9,0,1.5,0.1,1.6
			c0,0.2,0.1,0.3,0.3,0.4c0.1,0.1,0.3,0.1,0.5,0.1c0.3,0,0.7-0.1,1.2-0.3l0.3,2.3c-0.7,0.3-1.5,0.5-2.4,0.5c-0.5,0-1-0.1-1.5-0.3
			c-0.4-0.2-0.8-0.4-1-0.7c-0.2-0.3-0.3-0.7-0.4-1.2c-0.1-0.3-0.1-1.1-0.1-2.1v-5h-1.4v-2.4h1.4v-2.3l3-1.8v4H645.6z"/>
	</g>
	<g>
		<line class="st1" x1="1400" y1="46.3" x2="1409" y2="37.3"/>
		<line class="st1" x1="1400" y1="37.3" x2="1409" y2="46.3"/>
	</g>
	<g transform="translate(908,194)">
		<path d="M541.4-160.5c-0.8,0-1.3-0.3-1.6-0.8c-0.3-0.6-0.5-1.2-0.5-2c0-0.5,0-1,0.1-1.5s0.2-1,0.4-1.5c0.2-0.5,0.4-1,0.7-1.5
			c0.3-0.5,0.5-0.9,0.8-1.3c0.1-0.1,0.1-0.1,0.2-0.1c0.1,0,0.2,0,0.2,0.1c0.1,0.1,0.1,0.1,0.1,0.2c0,0.1,0,0.1-0.1,0.2
			c-1.2,1.7-1.8,3.2-1.8,4.6c0,0.6,0.1,1.1,0.4,1.6c0.3,0.4,0.7,0.7,1.3,0.7c0.5,0,1-0.1,1.4-0.4c0.4-0.3,0.8-0.7,1.1-1.1
			c0-0.2,0-0.6,0.1-1.1c0.1-0.5,0.2-0.9,0.4-1.3c0.2-0.4,0.4-0.6,0.6-0.6c0.3,0,0.5,0.2,0.5,0.5c0,0.2,0,0.5-0.1,0.8
			c-0.1,0.3-0.2,0.6-0.3,0.9c-0.1,0.3-0.2,0.6-0.4,0.9c0.2,0.9,0.6,1.4,1.4,1.4c0.5,0,0.9-0.1,1.4-0.4c0.5-0.3,0.9-0.6,1.2-1.1
			s0.6-0.9,0.8-1.4c0.2-0.5,0.3-1,0.3-1.4c0-0.4-0.1-0.7-0.2-0.9c-0.1-0.2-0.3-0.5-0.5-0.7c-0.2-0.2-0.3-0.4-0.3-0.6
			c0-0.3,0.1-0.5,0.3-0.7c0.2-0.2,0.5-0.3,0.7-0.3c0.3,0,0.6,0.1,0.7,0.4c0.1,0.3,0.2,0.6,0.2,1c0,0.6-0.1,1.4-0.4,2.3
			c-0.2,0.9-0.5,1.7-0.8,2.3c-0.4,0.8-1,1.6-1.6,2.1c-0.6,0.6-1.4,0.9-2.2,0.9c-0.5,0-0.9-0.2-1.2-0.5c-0.3-0.3-0.5-0.7-0.6-1.3
			c-0.4,0.5-0.8,0.9-1.3,1.3C542.5-160.7,542-160.5,541.4-160.5z"/>
	</g>
	<g transform="translate(921,204)">
		<path d="M539.7-166.4c0-1.4,0.1-2.4,0.4-3.3c0.3-0.8,0.7-1.5,1.2-1.9c0.6-0.4,1.2-0.7,2.1-0.7c0.6,0,1.2,0.1,1.6,0.4
			c0.5,0.2,0.8,0.6,1.1,1.1s0.5,1,0.7,1.7c0.2,0.7,0.3,1.6,0.3,2.7c0,1.3-0.1,2.4-0.4,3.3c-0.3,0.8-0.7,1.5-1.2,1.9
			c-0.6,0.5-1.2,0.7-2.1,0.7c-1.1,0-2-0.4-2.6-1.2C540-162.7,539.7-164.2,539.7-166.4z M541.1-166.4c0,1.9,0.2,3.1,0.7,3.8
			c0.4,0.6,1,0.9,1.6,0.9c0.6,0,1.2-0.3,1.6-0.9c0.4-0.6,0.7-1.9,0.7-3.8c0-1.9-0.2-3.1-0.7-3.8c-0.4-0.6-1-0.9-1.6-0.9
			c-0.6,0-1.2,0.3-1.5,0.8C541.4-169.5,541.1-168.3,541.1-166.4z"/>
	</g>
	<g transform="translate(930,214)">
		<path d="M543.5-160.7h-1v-6.7c-0.3,0.2-0.6,0.5-1,0.7c-0.4,0.2-0.8,0.4-1.1,0.5v-1c0.6-0.3,1.1-0.6,1.5-1c0.4-0.4,0.8-0.8,0.9-1.1
			h0.7V-160.7z"/>
	</g>
	<g>
		<line class="st1" x1="1400" y1="525.3" x2="1409" y2="516.3"/>
		<line class="st1" x1="1400" y1="516.3" x2="1409" y2="525.3"/>
	</g>
	<g transform="translate(908,673)">
		<path d="M541.4-160.5c-0.8,0-1.3-0.3-1.6-0.8c-0.3-0.6-0.5-1.2-0.5-2c0-0.5,0-1,0.1-1.5s0.2-1,0.4-1.5c0.2-0.5,0.4-1,0.7-1.5
			c0.3-0.5,0.5-0.9,0.8-1.3c0.1-0.1,0.1-0.1,0.2-0.1c0.1,0,0.2,0,0.2,0.1c0.1,0.1,0.1,0.1,0.1,0.2c0,0.1,0,0.1-0.1,0.2
			c-1.2,1.7-1.8,3.2-1.8,4.6c0,0.6,0.1,1.1,0.4,1.6c0.3,0.4,0.7,0.7,1.3,0.7c0.5,0,1-0.1,1.4-0.4c0.4-0.3,0.8-0.7,1.1-1.1
			c0-0.2,0-0.6,0.1-1.1c0.1-0.5,0.2-0.9,0.4-1.3c0.2-0.4,0.4-0.6,0.6-0.6c0.3,0,0.5,0.2,0.5,0.5c0,0.2,0,0.5-0.1,0.8
			c-0.1,0.3-0.2,0.6-0.3,0.9c-0.1,0.3-0.2,0.6-0.4,0.9c0.2,0.9,0.6,1.4,1.4,1.4c0.5,0,0.9-0.1,1.4-0.4c0.5-0.3,0.9-0.6,1.2-1.1
			s0.6-0.9,0.8-1.4c0.2-0.5,0.3-1,0.3-1.4c0-0.4-0.1-0.7-0.2-0.9c-0.1-0.2-0.3-0.5-0.5-0.7c-0.2-0.2-0.3-0.4-0.3-0.6
			c0-0.3,0.1-0.5,0.3-0.7c0.2-0.2,0.5-0.3,0.7-0.3c0.3,0,0.6,0.1,0.7,0.4c0.1,0.3,0.2,0.6,0.2,1c0,0.6-0.1,1.4-0.4,2.3
			c-0.2,0.9-0.5,1.7-0.8,2.3c-0.4,0.8-1,1.6-1.6,2.1c-0.6,0.6-1.4,0.9-2.2,0.9c-0.5,0-0.9-0.2-1.2-0.5c-0.3-0.3-0.5-0.7-0.6-1.3
			c-0.4,0.5-0.8,0.9-1.3,1.3C542.5-160.7,542-160.5,541.4-160.5z"/>
	</g>
	<g transform="translate(921,683)">
		<path d="M539.7-166.4c0-1.4,0.1-2.4,0.4-3.3c0.3-0.8,0.7-1.5,1.2-1.9c0.6-0.4,1.2-0.7,2.1-0.7c0.6,0,1.2,0.1,1.6,0.4
			c0.5,0.2,0.8,0.6,1.1,1.1s0.5,1,0.7,1.7c0.2,0.7,0.3,1.6,0.3,2.7c0,1.3-0.1,2.4-0.4,3.3c-0.3,0.8-0.7,1.5-1.2,1.9
			c-0.6,0.5-1.2,0.7-2.1,0.7c-1.1,0-2-0.4-2.6-1.2C540-162.7,539.7-164.2,539.7-166.4z M541.1-166.4c0,1.9,0.2,3.1,0.7,3.8
			c0.4,0.6,1,0.9,1.6,0.9c0.6,0,1.2-0.3,1.6-0.9c0.4-0.6,0.7-1.9,0.7-3.8c0-1.9-0.2-3.1-0.7-3.8c-0.4-0.6-1-0.9-1.6-0.9
			c-0.6,0-1.2,0.3-1.5,0.8C541.4-169.5,541.1-168.3,541.1-166.4z"/>
	</g>
	<g transform="translate(930,693)">
		<path d="M543.5-160.7h-1v-6.7c-0.3,0.2-0.6,0.5-1,0.7c-0.4,0.2-0.8,0.4-1.1,0.5v-1c0.6-0.3,1.1-0.6,1.5-1c0.4-0.4,0.8-0.8,0.9-1.1
			h0.7V-160.7z"/>
	</g>
	<g>
		<path class="st1" d="M1624.5,11.8l-0.8-3l-2.2-2.2l-3-0.8l-3,0.8l-2.2,2.2l-0.8,3l0.8,3l2.2,2.2l3,0.8l3-0.8l2.2-2.2L1624.5,11.8z
			"/>
	</g>
	<g transform="translate(1013,164)">
		<path d="M541.4-160.5c-0.8,0-1.3-0.3-1.6-0.8c-0.3-0.6-0.5-1.2-0.5-2c0-0.5,0-1,0.1-1.5s0.2-1,0.4-1.5c0.2-0.5,0.4-1,0.7-1.5
			c0.3-0.5,0.5-0.9,0.8-1.3c0.1-0.1,0.1-0.1,0.2-0.1c0.1,0,0.2,0,0.2,0.1c0.1,0.1,0.1,0.1,0.1,0.2c0,0.1,0,0.1-0.1,0.2
			c-1.2,1.7-1.8,3.2-1.8,4.6c0,0.6,0.1,1.1,0.4,1.6c0.3,0.4,0.7,0.7,1.3,0.7c0.5,0,1-0.1,1.4-0.4c0.4-0.3,0.8-0.7,1.1-1.1
			c0-0.2,0-0.6,0.1-1.1c0.1-0.5,0.2-0.9,0.4-1.3c0.2-0.4,0.4-0.6,0.6-0.6c0.3,0,0.5,0.2,0.5,0.5c0,0.2,0,0.5-0.1,0.8
			c-0.1,0.3-0.2,0.6-0.3,0.9c-0.1,0.3-0.2,0.6-0.4,0.9c0.2,0.9,0.6,1.4,1.4,1.4c0.5,0,0.9-0.1,1.4-0.4c0.5-0.3,0.9-0.6,1.2-1.1
			s0.6-0.9,0.8-1.4c0.2-0.5,0.3-1,0.3-1.4c0-0.4-0.1-0.7-0.2-0.9c-0.1-0.2-0.3-0.5-0.5-0.7c-0.2-0.2-0.3-0.4-0.3-0.6
			c0-0.3,0.1-0.5,0.3-0.7c0.2-0.2,0.5-0.3,0.7-0.3c0.3,0,0.6,0.1,0.7,0.4c0.1,0.3,0.2,0.6,0.2,1c0,0.6-0.1,1.4-0.4,2.3
			c-0.2,0.9-0.5,1.7-0.8,2.3c-0.4,0.8-1,1.6-1.6,2.1c-0.6,0.6-1.4,0.9-2.2,0.9c-0.5,0-0.9-0.2-1.2-0.5c-0.3-0.3-0.5-0.7-0.6-1.3
			c-0.4,0.5-0.8,0.9-1.3,1.3C542.5-160.7,542-160.5,541.4-160.5z"/>
	</g>
	<g transform="translate(1026,174)">
		<path d="M539.3-160.7v-1.4l5.9-7.3c0.4-0.5,0.8-1,1.2-1.4H540v-1.3h8.2v1.3l-6.4,8l-0.7,0.8h7.3v1.4H539.3z"/>
	</g>
	<g transform="translate(1036,184)">
		<path d="M543.5-160.7h-1v-6.7c-0.3,0.2-0.6,0.5-1,0.7c-0.4,0.2-0.8,0.4-1.1,0.5v-1c0.6-0.3,1.1-0.6,1.5-1c0.4-0.4,0.8-0.8,0.9-1.1
			h0.7V-160.7z"/>
	</g>
	<g>
		<path class="st1" d="M1624.5,550.8l-0.8-3l-2.2-2.2l-3-0.8l-3,0.8l-2.2,2.2l-0.8,3l0.8,3l2.2,2.2l3,0.8l3-0.8l2.2-2.2
			L1624.5,550.8z"/>
	</g>
	<g transform="translate(1013,703)">
		<path d="M541.4-160.5c-0.8,0-1.3-0.3-1.6-0.8c-0.3-0.6-0.5-1.2-0.5-2c0-0.5,0-1,0.1-1.5s0.2-1,0.4-1.5c0.2-0.5,0.4-1,0.7-1.5
			c0.3-0.5,0.5-0.9,0.8-1.3c0.1-0.1,0.1-0.1,0.2-0.1c0.1,0,0.2,0,0.2,0.1c0.1,0.1,0.1,0.1,0.1,0.2c0,0.1,0,0.1-0.1,0.2
			c-1.2,1.7-1.8,3.2-1.8,4.6c0,0.6,0.1,1.1,0.4,1.6c0.3,0.4,0.7,0.7,1.3,0.7c0.5,0,1-0.1,1.4-0.4c0.4-0.3,0.8-0.7,1.1-1.1
			c0-0.2,0-0.6,0.1-1.1c0.1-0.5,0.2-0.9,0.4-1.3c0.2-0.4,0.4-0.6,0.6-0.6c0.3,0,0.5,0.2,0.5,0.5c0,0.2,0,0.5-0.1,0.8
			c-0.1,0.3-0.2,0.6-0.3,0.9c-0.1,0.3-0.2,0.6-0.4,0.9c0.2,0.9,0.6,1.4,1.4,1.4c0.5,0,0.9-0.1,1.4-0.4c0.5-0.3,0.9-0.6,1.2-1.1
			s0.6-0.9,0.8-1.4c0.2-0.5,0.3-1,0.3-1.4c0-0.4-0.1-0.7-0.2-0.9c-0.1-0.2-0.3-0.5-0.5-0.7c-0.2-0.2-0.3-0.4-0.3-0.6
			c0-0.3,0.1-0.5,0.3-0.7c0.2-0.2,0.5-0.3,0.7-0.3c0.3,0,0.6,0.1,0.7,0.4c0.1,0.3,0.2,0.6,0.2,1c0,0.6-0.1,1.4-0.4,2.3
			c-0.2,0.9-0.5,1.7-0.8,2.3c-0.4,0.8-1,1.6-1.6,2.1c-0.6,0.6-1.4,0.9-2.2,0.9c-0.5,0-0.9-0.2-1.2-0.5c-0.3-0.3-0.5-0.7-0.6-1.3
			c-0.4,0.5-0.8,0.9-1.3,1.3C542.5-160.7,542-160.5,541.4-160.5z"/>
	</g>
	<g transform="translate(1026,713)">
		<path d="M539.3-160.7v-1.4l5.9-7.3c0.4-0.5,0.8-1,1.2-1.4H540v-1.3h8.2v1.3l-6.4,8l-0.7,0.8h7.3v1.4H539.3z"/>
	</g>
	<g transform="translate(1036,723)">
		<path d="M543.5-160.7h-1v-6.7c-0.3,0.2-0.6,0.5-1,0.7c-0.4,0.2-0.8,0.4-1.1,0.5v-1c0.6-0.3,1.1-0.6,1.5-1c0.4-0.4,0.8-0.8,0.9-1.1
			h0.7V-160.7z"/>
	</g>
	<g>
		<line class="st1" x1="1404.7" y1="41.8" x2="1404.7" y2="520.8"/>
	</g>
</g>
</svg>
