<?xml version="1.0"?>
<!DOCTYPE svg PUBLIC '-//W3C//DTD SVG 1.0//EN'
          'http://www.w3.org/TR/2001/REC-SVG-20010904/DTD/svg10.dtd'>
<svg xmlns:xlink="http://www.w3.org/1999/xlink" style="fill-opacity:1; color-rendering:auto; color-interpolation:auto; stroke:black; text-rendering:auto; stroke-linecap:square; stroke-miterlimit:10; stroke-opacity:1; shape-rendering:auto; fill:black; stroke-dasharray:none; font-weight:normal; stroke-width:1; font-family:'Dialog'; font-style:normal; stroke-linejoin:miter; font-size:12px; stroke-dashoffset:0; image-rendering:auto;" width="1680" height="927" xmlns="http://www.w3.org/2000/svg"
><!--Generated by the Batik Graphics2D SVG Generator--><defs id="genericDefs"
  /><g
  ><defs id="defs1"
    ><clipPath clipPathUnits="userSpaceOnUse" id="clipPath1"
      ><path d="M0 0 L1680 0 L1680 927 L0 927 L0 0 Z"
      /></clipPath
      ><font horiz-adv-x="75.0" id="font1"
      ><font-face ascent="100.53711" descent="21.972656" units-per-em="100" style="font-style:normal; font-family:Dialog; font-weight:normal;"
        /><missing-glyph horiz-adv-x="75.0" d="M12.5 0 L12.5 62.5 L62.5 62.5 L62.5 0 L12.5 0 ZM14.0625 1.5625 L60.9375 1.5625 L60.9375 60.9375 L14.0625 60.9375 L14.0625 1.5625 Z"
        /><glyph unicode="0" horiz-adv-x="55.615234" d="M4.1562 35.2969 Q4.1562 48 6.7656 55.7422 Q9.375 63.4844 14.5234 67.6797 Q19.6719 71.875 27.4844 71.875 Q33.25 71.875 37.5938 69.5547 Q41.9375 67.2344 44.7734 62.8672 Q47.6094 58.5 49.2188 52.2266 Q50.8281 45.9531 50.8281 35.2969 Q50.8281 22.7031 48.2422 14.9688 Q45.6562 7.2344 40.5078 3.0078 Q35.3594 -1.2188 27.4844 -1.2188 Q17.1406 -1.2188 11.2344 6.2031 Q4.1562 15.1406 4.1562 35.2969 ZM13.1875 35.2969 Q13.1875 17.6719 17.3125 11.8359 Q21.4375 6 27.4844 6 Q33.5469 6 37.6719 11.8594 Q41.7969 17.7188 41.7969 35.2969 Q41.7969 52.9844 37.6719 58.7891 Q33.5469 64.5938 27.3906 64.5938 Q21.3438 64.5938 17.7188 59.4688 Q13.1875 52.9375 13.1875 35.2969 Z"
        /><glyph unicode="1" horiz-adv-x="55.615234" d="M37.25 0 L28.4688 0 L28.4688 56 Q25.2969 52.9844 20.1406 49.9531 Q14.9844 46.9219 10.8906 45.4062 L10.8906 53.9062 Q18.2656 57.375 23.7812 62.3047 Q29.2969 67.2344 31.5938 71.875 L37.25 71.875 L37.25 0 Z"
        /><glyph unicode="2" horiz-adv-x="55.615234" d="M50.3438 8.4531 L50.3438 0 L3.0312 0 Q2.9375 3.1719 4.0469 6.1094 Q5.8594 10.9375 9.8359 15.625 Q13.8125 20.3125 21.3438 26.4688 Q33.0156 36.0312 37.1172 41.625 Q41.2188 47.2188 41.2188 52.2031 Q41.2188 57.4219 37.4766 61.0078 Q33.7344 64.5938 27.7344 64.5938 Q21.3906 64.5938 17.5781 60.7891 Q13.7656 56.9844 13.7188 50.25 L4.6875 51.1719 Q5.6094 61.2812 11.6641 66.5781 Q17.7188 71.875 27.9375 71.875 Q38.2344 71.875 44.2422 66.1641 Q50.25 60.4531 50.25 52 Q50.25 47.7031 48.4922 43.5547 Q46.7344 39.4062 42.6562 34.8125 Q38.5781 30.2188 29.1094 22.2188 Q21.1875 15.5781 18.9453 13.2109 Q16.7031 10.8438 15.2344 8.4531 L50.3438 8.4531 Z"
        /><glyph unicode="3" horiz-adv-x="55.615234" d="M4.2031 18.8906 L12.9844 20.0625 Q14.5 12.5938 18.1406 9.2969 Q21.7812 6 27 6 Q33.2031 6 37.4766 10.2969 Q41.75 14.5938 41.75 20.9531 Q41.75 27 37.7969 30.9297 Q33.8438 34.8594 27.7344 34.8594 Q25.25 34.8594 21.5312 33.8906 L22.5156 41.6094 Q23.3906 41.5 23.9219 41.5 Q29.5469 41.5 34.0391 44.4297 Q38.5312 47.3594 38.5312 53.4688 Q38.5312 58.2969 35.2578 61.4766 Q31.9844 64.6562 26.8125 64.6562 Q21.6875 64.6562 18.2656 61.4297 Q14.8438 58.2031 13.875 51.7656 L5.0781 53.3281 Q6.6875 62.1562 12.3984 67.0156 Q18.1094 71.875 26.6094 71.875 Q32.4688 71.875 37.3984 69.3594 Q42.3281 66.8438 44.9453 62.5 Q47.5625 58.1562 47.5625 53.2656 Q47.5625 48.6406 45.0703 44.8281 Q42.5781 41.0156 37.7031 38.7656 Q44.0469 37.3125 47.5625 32.6953 Q51.0781 28.0781 51.0781 21.1406 Q51.0781 11.7656 44.2422 5.25 Q37.4062 -1.2656 26.9531 -1.2656 Q17.5312 -1.2656 11.3047 4.3516 Q5.0781 9.9688 4.2031 18.8906 Z"
        /><glyph unicode="4" horiz-adv-x="55.615234" d="M32.3281 0 L32.3281 17.1406 L1.2656 17.1406 L1.2656 25.2031 L33.9375 71.5781 L41.1094 71.5781 L41.1094 25.2031 L50.7812 25.2031 L50.7812 17.1406 L41.1094 17.1406 L41.1094 0 L32.3281 0 ZM32.3281 25.2031 L32.3281 57.4688 L9.9062 25.2031 L32.3281 25.2031 Z"
        /><glyph unicode=")" horiz-adv-x="33.30078" d="M12.3594 -21.0469 L6.0625 -21.0469 Q20.6562 2.3906 20.6562 25.875 Q20.6562 35.0625 18.5625 44.0938 Q16.8906 51.4219 13.9219 58.1562 Q12.0156 62.5469 6.0625 72.7969 L12.3594 72.7969 Q21.5312 60.5469 25.9219 48.1875 Q29.6875 37.5469 29.6875 25.9219 Q29.6875 12.75 24.6328 0.4453 Q19.5781 -11.8594 12.3594 -21.0469 Z"
        /><glyph unicode="z" horiz-adv-x="50.0" d="M1.9531 0 L1.9531 7.125 L34.9688 45.0156 Q29.3438 44.7344 25.0469 44.7344 L3.9062 44.7344 L3.9062 51.8594 L46.2969 51.8594 L46.2969 46.0469 L18.2188 13.1406 L12.7969 7.125 Q18.7031 7.5625 23.875 7.5625 L47.8594 7.5625 L47.8594 0 L1.9531 0 Z"
        /><glyph unicode="H" horiz-adv-x="72.2168" d="M8.0156 0 L8.0156 71.5781 L17.4844 71.5781 L17.4844 42.1875 L54.6875 42.1875 L54.6875 71.5781 L64.1562 71.5781 L64.1562 0 L54.6875 0 L54.6875 33.7344 L17.4844 33.7344 L17.4844 0 L8.0156 0 Z"
        /><glyph unicode="(" horiz-adv-x="33.30078" d="M23.3906 -21.0469 Q16.1094 -11.8594 11.0859 0.4453 Q6.0625 12.75 6.0625 25.9219 Q6.0625 37.5469 9.8125 48.1875 Q14.2031 60.5469 23.3906 72.7969 L29.6875 72.7969 Q23.7812 62.6406 21.875 58.2969 Q18.8906 51.5625 17.1875 44.2344 Q15.0938 35.1094 15.0938 25.875 Q15.0938 2.3906 29.6875 -21.0469 L23.3906 -21.0469 Z"
        /><glyph unicode=" " horiz-adv-x="27.783203" d=""
        /><glyph unicode="y" horiz-adv-x="50.0" d="M6.2031 -19.9688 L5.2188 -11.7188 Q8.1094 -12.5 10.25 -12.5 Q13.1875 -12.5 14.9453 -11.5234 Q16.7031 -10.5469 17.8281 -8.7969 Q18.6562 -7.4688 20.5156 -2.25 Q20.75 -1.5156 21.2969 -0.0938 L1.6094 51.8594 L11.0781 51.8594 L21.875 21.8281 Q23.9688 16.1094 25.6406 9.8125 Q27.1562 15.875 29.25 21.625 L40.3281 51.8594 L49.125 51.8594 L29.3906 -0.875 Q26.2188 -9.4219 24.4688 -12.6406 Q22.125 -17 19.0938 -19.0234 Q16.0625 -21.0469 11.8594 -21.0469 Q9.3281 -21.0469 6.2031 -19.9688 Z"
        /><glyph unicode="c" horiz-adv-x="50.0" d="M40.4375 19 L49.0781 17.875 Q47.6562 8.9375 41.8203 3.8828 Q35.9844 -1.1719 27.4844 -1.1719 Q16.8438 -1.1719 10.375 5.7891 Q3.9062 12.75 3.9062 25.7344 Q3.9062 34.125 6.6875 40.4297 Q9.4688 46.7344 15.1562 49.8828 Q20.8438 53.0312 27.5469 53.0312 Q35.9844 53.0312 41.3594 48.7578 Q46.7344 44.4844 48.25 36.625 L39.7031 35.2969 Q38.4844 40.5312 35.3828 43.1641 Q32.2812 45.7969 27.875 45.7969 Q21.2344 45.7969 17.0859 41.0391 Q12.9375 36.2812 12.9375 25.9844 Q12.9375 15.5312 16.9453 10.7969 Q20.9531 6.0625 27.3906 6.0625 Q32.5625 6.0625 36.0312 9.2344 Q39.5 12.4062 40.4375 19 Z"
        /><glyph unicode="n" horiz-adv-x="55.615234" d="M6.5938 0 L6.5938 51.8594 L14.5 51.8594 L14.5 44.4844 Q20.2188 53.0312 31 53.0312 Q35.6875 53.0312 39.625 51.3438 Q43.5625 49.6562 45.5156 46.9219 Q47.4688 44.1875 48.25 40.4375 Q48.7344 37.9844 48.7344 31.8906 L48.7344 0 L39.9375 0 L39.9375 31.5469 Q39.9375 36.9219 38.9141 39.5781 Q37.8906 42.2344 35.2812 43.8203 Q32.6719 45.4062 29.1562 45.4062 Q23.5312 45.4062 19.4531 41.8438 Q15.375 38.2812 15.375 28.3281 L15.375 0 L6.5938 0 Z"
        /><glyph unicode="u" horiz-adv-x="55.615234" d="M40.5781 0 L40.5781 7.625 Q34.5156 -1.1719 24.125 -1.1719 Q19.5312 -1.1719 15.5547 0.5859 Q11.5781 2.3438 9.6484 5.0078 Q7.7188 7.6719 6.9375 11.5312 Q6.3906 14.1094 6.3906 19.7344 L6.3906 51.8594 L15.1875 51.8594 L15.1875 23.0938 Q15.1875 16.2188 15.7188 13.8125 Q16.5469 10.3594 19.2344 8.375 Q21.9219 6.3906 25.875 6.3906 Q29.8281 6.3906 33.2969 8.4219 Q36.7656 10.4531 38.2109 13.9453 Q39.6562 17.4375 39.6562 24.0781 L39.6562 51.8594 L48.4375 51.8594 L48.4375 0 L40.5781 0 Z"
        /><glyph unicode="q" horiz-adv-x="55.615234" d="M39.6562 -19.875 L39.6562 5.5156 Q37.5938 2.6406 33.9062 0.7344 Q30.2188 -1.1719 26.0781 -1.1719 Q16.8438 -1.1719 10.1797 6.2031 Q3.5156 13.5781 3.5156 26.4219 Q3.5156 34.2344 6.2266 40.4297 Q8.9375 46.625 14.0859 49.8281 Q19.2344 53.0312 25.3906 53.0312 Q35.0156 53.0312 40.5312 44.9219 L40.5312 51.8594 L48.4375 51.8594 L48.4375 -19.875 L39.6562 -19.875 ZM12.5469 26.0781 Q12.5469 16.0625 16.75 11.0625 Q20.9531 6.0625 26.8125 6.0625 Q32.4219 6.0625 36.4766 10.8203 Q40.5312 15.5781 40.5312 25.2969 Q40.5312 35.6406 36.2578 40.8672 Q31.9844 46.0938 26.2188 46.0938 Q20.5156 46.0938 16.5312 41.2344 Q12.5469 36.375 12.5469 26.0781 Z"
        /><glyph unicode="e" horiz-adv-x="55.615234" d="M42.0938 16.7031 L51.1719 15.5781 Q49.0312 7.625 43.2188 3.2266 Q37.4062 -1.1719 28.375 -1.1719 Q17 -1.1719 10.3281 5.8359 Q3.6562 12.8438 3.6562 25.4844 Q3.6562 38.5781 10.3984 45.8047 Q17.1406 53.0312 27.875 53.0312 Q38.2812 53.0312 44.875 45.9531 Q51.4688 38.875 51.4688 26.0312 Q51.4688 25.25 51.4219 23.6875 L12.75 23.6875 Q13.2344 15.1406 17.5781 10.6016 Q21.9219 6.0625 28.4219 6.0625 Q33.25 6.0625 36.6719 8.6016 Q40.0938 11.1406 42.0938 16.7031 ZM13.2344 30.9062 L42.1875 30.9062 Q41.6094 37.4531 38.875 40.7188 Q34.6719 45.7969 27.9844 45.7969 Q21.9219 45.7969 17.7969 41.75 Q13.6719 37.7031 13.2344 30.9062 Z"
        /><glyph unicode="r" horiz-adv-x="33.30078" d="M6.5 0 L6.5 51.8594 L14.4062 51.8594 L14.4062 44 Q17.4375 49.5156 20 51.2734 Q22.5625 53.0312 25.6406 53.0312 Q30.0781 53.0312 34.6719 50.2031 L31.6406 42.0469 Q28.4219 43.9531 25.2031 43.9531 Q22.3125 43.9531 20.0156 42.2188 Q17.7188 40.4844 16.75 37.4062 Q15.2812 32.7188 15.2812 27.1562 L15.2812 0 L6.5 0 Z"
        /><glyph unicode="F" horiz-adv-x="61.083984" d="M8.2031 0 L8.2031 71.5781 L56.5 71.5781 L56.5 63.1406 L17.6719 63.1406 L17.6719 40.9688 L51.2656 40.9688 L51.2656 32.5156 L17.6719 32.5156 L17.6719 0 L8.2031 0 Z"
        /><glyph unicode="9" horiz-adv-x="55.615234" d="M5.4688 16.5469 L13.9219 17.3281 Q14.9844 11.375 18.0156 8.6875 Q21.0469 6 25.7812 6 Q29.8281 6 32.8828 7.8594 Q35.9375 9.7188 37.8906 12.8203 Q39.8438 15.9219 41.1641 21.1953 Q42.4844 26.4688 42.4844 31.9375 Q42.4844 32.5156 42.4375 33.6875 Q39.7969 29.5 35.2344 26.8828 Q30.6719 24.2656 25.3438 24.2656 Q16.4531 24.2656 10.3047 30.7109 Q4.1562 37.1562 4.1562 47.7031 Q4.1562 58.5938 10.5781 65.2344 Q17 71.875 26.6562 71.875 Q33.6406 71.875 39.4297 68.1172 Q45.2188 64.3594 48.2188 57.3984 Q51.2188 50.4375 51.2188 37.25 Q51.2188 23.5312 48.2422 15.4062 Q45.2656 7.2812 39.3828 3.0312 Q33.5 -1.2188 25.5938 -1.2188 Q17.1875 -1.2188 11.8672 3.4453 Q6.5469 8.1094 5.4688 16.5469 ZM41.4531 48.1406 Q41.4531 55.7188 37.4297 60.1562 Q33.4062 64.5938 27.7344 64.5938 Q21.875 64.5938 17.5312 59.8125 Q13.1875 55.0312 13.1875 47.4062 Q13.1875 40.5781 17.3125 36.3047 Q21.4375 32.0312 27.4844 32.0312 Q33.5938 32.0312 37.5234 36.3047 Q41.4531 40.5781 41.4531 48.1406 Z"
        /><glyph unicode="-" horiz-adv-x="33.30078" d="M3.1719 21.4844 L3.1719 30.3281 L30.1719 30.3281 L30.1719 21.4844 L3.1719 21.4844 Z"
        /><glyph unicode="8" horiz-adv-x="55.615234" d="M17.6719 38.8125 Q12.2031 40.8281 9.5703 44.5391 Q6.9375 48.25 6.9375 53.4219 Q6.9375 61.2344 12.5547 66.5547 Q18.1719 71.875 27.4844 71.875 Q36.8594 71.875 42.5781 66.4297 Q48.2969 60.9844 48.2969 53.1719 Q48.2969 48.1875 45.6797 44.5078 Q43.0625 40.8281 37.75 38.8125 Q44.3438 36.6719 47.7812 31.8828 Q51.2188 27.0938 51.2188 20.4531 Q51.2188 11.2812 44.7266 5.0312 Q38.2344 -1.2188 27.6406 -1.2188 Q17.0469 -1.2188 10.5469 5.0547 Q4.0469 11.3281 4.0469 20.7031 Q4.0469 27.6875 7.5938 32.3984 Q11.1406 37.1094 17.6719 38.8125 ZM15.9219 53.7188 Q15.9219 48.6406 19.1953 45.4141 Q22.4688 42.1875 27.6875 42.1875 Q32.7656 42.1875 36.0156 45.3828 Q39.2656 48.5781 39.2656 53.2188 Q39.2656 58.0625 35.9141 61.3594 Q32.5625 64.6562 27.5938 64.6562 Q22.5625 64.6562 19.2422 61.4297 Q15.9219 58.2031 15.9219 53.7188 ZM13.0938 20.6562 Q13.0938 16.8906 14.875 13.375 Q16.6562 9.8594 20.1719 7.9297 Q23.6875 6 27.7344 6 Q34.0312 6 38.1328 10.0547 Q42.2344 14.1094 42.2344 20.3594 Q42.2344 26.7031 38.0156 30.8594 Q33.7969 35.0156 27.4375 35.0156 Q21.2344 35.0156 17.1641 30.9141 Q13.0938 26.8125 13.0938 20.6562 Z"
        /><glyph unicode="7" horiz-adv-x="55.615234" d="M4.7344 62.2031 L4.7344 70.6562 L51.0781 70.6562 L51.0781 63.8125 Q44.2344 56.5469 37.5234 44.4844 Q30.8125 32.4219 27.1562 19.6719 Q24.5156 10.6875 23.7812 0 L14.75 0 Q14.8906 8.4531 18.0625 20.4141 Q21.2344 32.375 27.1719 43.4844 Q33.1094 54.5938 39.7969 62.2031 L4.7344 62.2031 Z"
        /><glyph unicode="6" horiz-adv-x="55.615234" d="M49.75 54.0469 L41.0156 53.375 Q39.8438 58.5469 37.7031 60.8906 Q34.125 64.6562 28.9062 64.6562 Q24.7031 64.6562 21.5312 62.3125 Q17.3906 59.2812 14.9922 53.4688 Q12.5938 47.6562 12.5 36.9219 Q15.6719 41.75 20.2656 44.0938 Q24.8594 46.4375 29.8906 46.4375 Q38.6719 46.4375 44.8516 39.9688 Q51.0312 33.5 51.0312 23.25 Q51.0312 16.5 48.125 10.7188 Q45.2188 4.9375 40.1406 1.8594 Q35.0625 -1.2188 28.6094 -1.2188 Q17.625 -1.2188 10.6953 6.8594 Q3.7656 14.9375 3.7656 33.5 Q3.7656 54.25 11.4219 63.6719 Q18.1094 71.875 29.4375 71.875 Q37.8906 71.875 43.2891 67.1406 Q48.6875 62.4062 49.75 54.0469 ZM13.875 23.1875 Q13.875 18.6562 15.7969 14.5078 Q17.7188 10.3594 21.1875 8.1797 Q24.6562 6 28.4688 6 Q34.0312 6 38.0391 10.4922 Q42.0469 14.9844 42.0469 22.7031 Q42.0469 30.125 38.0859 34.3984 Q34.125 38.6719 28.125 38.6719 Q22.1719 38.6719 18.0234 34.3984 Q13.875 30.125 13.875 23.1875 Z"
        /><glyph unicode="5" horiz-adv-x="55.615234" d="M4.1562 18.75 L13.375 19.5312 Q14.4062 12.7969 18.1406 9.3984 Q21.875 6 27.1562 6 Q33.5 6 37.8906 10.7891 Q42.2812 15.5781 42.2812 23.4844 Q42.2812 31 38.0625 35.3516 Q33.8438 39.7031 27 39.7031 Q22.75 39.7031 19.3359 37.7734 Q15.9219 35.8438 13.9688 32.7656 L5.7188 33.8438 L12.6406 70.6094 L48.25 70.6094 L48.25 62.2031 L19.6719 62.2031 L15.8281 42.9688 Q22.2656 47.4688 29.3438 47.4688 Q38.7188 47.4688 45.1641 40.9688 Q51.6094 34.4688 51.6094 24.2656 Q51.6094 14.5469 45.9531 7.4688 Q39.0625 -1.2188 27.1562 -1.2188 Q17.3906 -1.2188 11.2109 4.25 Q5.0312 9.7188 4.1562 18.75 Z"
        /><glyph unicode="B" horiz-adv-x="66.69922" d="M7.3281 0 L7.3281 71.5781 L34.1875 71.5781 Q42.3906 71.5781 47.3438 69.4062 Q52.2969 67.2344 55.1016 62.7188 Q57.9062 58.2031 57.9062 53.2656 Q57.9062 48.6875 55.4219 44.6328 Q52.9375 40.5781 47.9062 38.0938 Q54.3906 36.1875 57.8828 31.5938 Q61.375 27 61.375 20.75 Q61.375 15.7188 59.25 11.3984 Q57.125 7.0781 54 4.7344 Q50.875 2.3906 46.1641 1.1953 Q41.4531 0 34.625 0 L7.3281 0 ZM16.7969 41.5 L32.2812 41.5 Q38.5781 41.5 41.3125 42.3281 Q44.9219 43.4062 46.75 45.8984 Q48.5781 48.3906 48.5781 52.1562 Q48.5781 55.7188 46.875 58.4297 Q45.1719 61.1406 41.9922 62.1406 Q38.8125 63.1406 31.1094 63.1406 L16.7969 63.1406 L16.7969 41.5 ZM16.7969 8.4531 L34.625 8.4531 Q39.2031 8.4531 41.0625 8.7969 Q44.3438 9.375 46.5391 10.7422 Q48.7344 12.1094 50.1484 14.7188 Q51.5625 17.3281 51.5625 20.75 Q51.5625 24.75 49.5156 27.7109 Q47.4688 30.6719 43.8281 31.8672 Q40.1875 33.0625 33.3438 33.0625 L16.7969 33.0625 L16.7969 8.4531 Z"
        /><glyph unicode="d" horiz-adv-x="55.615234" d="M40.2344 0 L40.2344 6.5469 Q35.2969 -1.1719 25.7344 -1.1719 Q19.5312 -1.1719 14.3281 2.25 Q9.125 5.6719 6.2734 11.7969 Q3.4219 17.9219 3.4219 25.875 Q3.4219 33.6406 6.0078 39.9688 Q8.5938 46.2969 13.7734 49.6641 Q18.9531 53.0312 25.3438 53.0312 Q30.0312 53.0312 33.6953 51.0547 Q37.3594 49.0781 39.6562 45.9062 L39.6562 71.5781 L48.3906 71.5781 L48.3906 0 L40.2344 0 ZM12.4531 25.875 Q12.4531 15.9219 16.6484 10.9922 Q20.8438 6.0625 26.5625 6.0625 Q32.3281 6.0625 36.3516 10.7734 Q40.375 15.4844 40.375 25.1406 Q40.375 35.7969 36.2734 40.7734 Q32.1719 45.75 26.1719 45.75 Q20.3125 45.75 16.3828 40.9688 Q12.4531 36.1875 12.4531 25.875 Z"
        /><glyph unicode="i" horiz-adv-x="22.216797" d="M6.6406 61.4688 L6.6406 71.5781 L15.4375 71.5781 L15.4375 61.4688 L6.6406 61.4688 ZM6.6406 0 L6.6406 51.8594 L15.4375 51.8594 L15.4375 0 L6.6406 0 Z"
        /><glyph unicode="a" horiz-adv-x="55.615234" d="M40.4375 6.3906 Q35.5469 2.25 31.0312 0.5391 Q26.5156 -1.1719 21.3438 -1.1719 Q12.7969 -1.1719 8.2031 3 Q3.6094 7.1719 3.6094 13.6719 Q3.6094 17.4844 5.3438 20.6328 Q7.0781 23.7812 9.8906 25.6875 Q12.7031 27.5938 16.2188 28.5625 Q18.7969 29.25 24.0312 29.8906 Q34.6719 31.1562 39.7031 32.9062 Q39.75 34.7188 39.75 35.2031 Q39.75 40.5781 37.25 42.7812 Q33.8906 45.75 27.25 45.75 Q21.0469 45.75 18.0938 43.5781 Q15.1406 41.4062 13.7188 35.8906 L5.125 37.0625 Q6.2969 42.5781 8.9844 45.9688 Q11.6719 49.3594 16.75 51.1953 Q21.8281 53.0312 28.5156 53.0312 Q35.1562 53.0312 39.3047 51.4688 Q43.4531 49.9062 45.4062 47.5391 Q47.3594 45.1719 48.1406 41.5469 Q48.5781 39.3125 48.5781 33.4531 L48.5781 21.7344 Q48.5781 9.4688 49.1406 6.2266 Q49.7031 2.9844 51.375 0 L42.1875 0 Q40.8281 2.7344 40.4375 6.3906 ZM39.7031 26.0312 Q34.9062 24.0781 25.3438 22.7031 Q19.9219 21.9219 17.6797 20.9453 Q15.4375 19.9688 14.2109 18.0938 Q12.9844 16.2188 12.9844 13.9219 Q12.9844 10.4062 15.6484 8.0625 Q18.3125 5.7188 23.4375 5.7188 Q28.5156 5.7188 32.4688 7.9375 Q36.4219 10.1562 38.2812 14.0156 Q39.7031 17 39.7031 22.7969 L39.7031 26.0312 Z"
        /><glyph unicode="G" horiz-adv-x="77.7832" d="M41.2188 28.0781 L41.2188 36.4688 L71.5312 36.5312 L71.5312 9.9688 Q64.5469 4.3906 57.125 1.5859 Q49.7031 -1.2188 41.8906 -1.2188 Q31.3438 -1.2188 22.7266 3.2969 Q14.1094 7.8125 9.7188 16.3594 Q5.3281 24.9062 5.3281 35.4531 Q5.3281 45.9062 9.6953 54.9609 Q14.0625 64.0156 22.2656 68.4062 Q30.4688 72.7969 41.1562 72.7969 Q48.9219 72.7969 55.1953 70.2891 Q61.4688 67.7812 65.0391 63.2891 Q68.6094 58.7969 70.4531 51.5625 L61.9219 49.2188 Q60.2969 54.6875 57.9062 57.8125 Q55.5156 60.9375 51.0703 62.8203 Q46.625 64.7031 41.2188 64.7031 Q34.7188 64.7031 29.9844 62.7266 Q25.25 60.75 22.3438 57.5234 Q19.4375 54.2969 17.8281 50.4375 Q15.0938 43.7969 15.0938 36.0312 Q15.0938 26.4688 18.3906 20.0234 Q21.6875 13.5781 27.9844 10.4531 Q34.2812 7.3281 41.3594 7.3281 Q47.5156 7.3281 53.375 9.6953 Q59.2344 12.0625 62.25 14.75 L62.25 28.0781 L41.2188 28.0781 Z"
        /><glyph unicode=":" horiz-adv-x="27.783203" d="M9.0312 41.8438 L9.0312 51.8594 L19.0469 51.8594 L19.0469 41.8438 L9.0312 41.8438 ZM9.0312 0 L9.0312 10.0156 L19.0469 10.0156 L19.0469 0 L9.0312 0 Z"
        /><glyph unicode="X" horiz-adv-x="66.69922" d="M0.4375 0 L28.125 37.3125 L3.7188 71.5781 L14.9844 71.5781 L27.9844 53.2188 Q32.0312 47.5156 33.7344 44.4375 Q36.1406 48.3438 39.4062 52.5938 L53.8125 71.5781 L64.1094 71.5781 L38.9688 37.8438 L66.0625 0 L54.3438 0 L36.3281 25.5312 Q34.8125 27.7344 33.2031 30.3281 Q30.8125 26.4219 29.7812 24.9531 L11.8125 0 L0.4375 0 Z"
        /><glyph unicode="." horiz-adv-x="27.783203" d="M9.0781 0 L9.0781 10.0156 L19.0938 10.0156 L19.0938 0 L9.0781 0 Z"
        /><glyph unicode="Y" horiz-adv-x="66.69922" d="M27.875 0 L27.875 30.3281 L0.2969 71.5781 L11.8125 71.5781 L25.9219 50 Q29.8281 43.9531 33.2031 37.8906 Q36.4219 43.5 41.0156 50.5312 L54.8906 71.5781 L65.9219 71.5781 L37.3594 30.3281 L37.3594 0 L27.875 0 Z"
      /></font
      ><font horiz-adv-x="75.0" id="font2"
      ><font-face ascent="100.53711" descent="21.972656" units-per-em="100" style="font-style:normal; font-family:Dialog; font-weight:bold;"
        /><missing-glyph horiz-adv-x="75.0" d="M12.5 0 L12.5 62.5 L62.5 62.5 L62.5 0 L12.5 0 ZM14.0625 1.5625 L60.9375 1.5625 L60.9375 60.9375 L14.0625 60.9375 L14.0625 1.5625 Z"
        /><glyph unicode="t" horiz-adv-x="33.30078" d="M30.9531 51.8594 L30.9531 40.9219 L21.5781 40.9219 L21.5781 20.0156 Q21.5781 13.6719 21.8516 12.625 Q22.125 11.5781 23.0781 10.8906 Q24.0312 10.2031 25.3906 10.2031 Q27.2969 10.2031 30.9062 11.5312 L32.0781 0.875 Q27.2969 -1.1719 21.2344 -1.1719 Q17.5312 -1.1719 14.5547 0.0703 Q11.5781 1.3125 10.1875 3.2969 Q8.7969 5.2812 8.25 8.6406 Q7.8125 11.0312 7.8125 18.3125 L7.8125 40.9219 L1.5156 40.9219 L1.5156 51.8594 L7.8125 51.8594 L7.8125 62.1562 L21.5781 70.1719 L21.5781 51.8594 L30.9531 51.8594 Z"
        /><glyph unicode="l" horiz-adv-x="27.783203" d="M7.1719 0 L7.1719 71.5781 L20.9062 71.5781 L20.9062 0 L7.1719 0 Z"
        /><glyph unicode="p" horiz-adv-x="61.083984" d="M6.7812 51.8594 L19.5781 51.8594 L19.5781 44.2344 Q22.0781 48.1406 26.3203 50.5859 Q30.5625 53.0312 35.75 53.0312 Q44.7812 53.0312 51.0781 45.9531 Q57.375 38.875 57.375 26.2188 Q57.375 13.2344 51.0234 6.0312 Q44.6719 -1.1719 35.6406 -1.1719 Q31.3438 -1.1719 27.8516 0.5391 Q24.3594 2.25 20.5156 6.3906 L20.5156 -19.7344 L6.7812 -19.7344 L6.7812 51.8594 ZM20.3594 26.8125 Q20.3594 18.0625 23.8281 13.8906 Q27.2969 9.7188 32.2812 9.7188 Q37.0625 9.7188 40.2344 13.5547 Q43.4062 17.3906 43.4062 26.125 Q43.4062 34.2812 40.1328 38.2344 Q36.8594 42.1875 32.0312 42.1875 Q27 42.1875 23.6797 38.3047 Q20.3594 34.4219 20.3594 26.8125 Z"
        /><glyph unicode=" " horiz-adv-x="27.783203" d=""
        /><glyph unicode="e" horiz-adv-x="55.615234" d="M37.2031 16.5 L50.875 14.2031 Q48.25 6.6875 42.5547 2.7578 Q36.8594 -1.1719 28.3281 -1.1719 Q14.7969 -1.1719 8.2969 7.6719 Q3.1719 14.75 3.1719 25.5312 Q3.1719 38.4219 9.9141 45.7266 Q16.6562 53.0312 26.9531 53.0312 Q38.5312 53.0312 45.2188 45.3906 Q51.9062 37.75 51.6094 21.9688 L17.2344 21.9688 Q17.3906 15.875 20.5625 12.4766 Q23.7344 9.0781 28.4688 9.0781 Q31.6875 9.0781 33.8828 10.8359 Q36.0781 12.5938 37.2031 16.5 ZM37.9844 30.375 Q37.8438 36.3281 34.9141 39.4297 Q31.9844 42.5312 27.7812 42.5312 Q23.2969 42.5312 20.3594 39.2656 Q17.4375 35.9844 17.4844 30.375 L37.9844 30.375 Z"
        /><glyph unicode="d" horiz-adv-x="61.083984" d="M54.7344 0 L42 0 L42 7.625 Q38.8125 3.1719 34.4922 1 Q30.1719 -1.1719 25.7812 -1.1719 Q16.8438 -1.1719 10.4766 6.0312 Q4.1094 13.2344 4.1094 26.125 Q4.1094 39.3125 10.3047 46.1719 Q16.5 53.0312 25.9844 53.0312 Q34.6719 53.0312 41.0156 45.7969 L41.0156 71.5781 L54.7344 71.5781 L54.7344 0 ZM18.1094 27.0469 Q18.1094 18.75 20.4062 15.0469 Q23.7344 9.6719 29.6875 9.6719 Q34.4219 9.6719 37.7422 13.6953 Q41.0625 17.7188 41.0625 25.7344 Q41.0625 34.6719 37.8438 38.6016 Q34.625 42.5312 29.5938 42.5312 Q24.7031 42.5312 21.4062 38.6484 Q18.1094 34.7656 18.1094 27.0469 Z"
        /><glyph unicode="o" horiz-adv-x="61.083984" d="M4 26.6562 Q4 33.5 7.375 39.8984 Q10.75 46.2969 16.9219 49.6641 Q23.0938 53.0312 30.7188 53.0312 Q42.4844 53.0312 50 45.3906 Q57.5156 37.75 57.5156 26.0781 Q57.5156 14.3125 49.9219 6.5703 Q42.3281 -1.1719 30.8125 -1.1719 Q23.6875 -1.1719 17.2188 2.0547 Q10.75 5.2812 7.375 11.5 Q4 17.7188 4 26.6562 ZM18.0625 25.9219 Q18.0625 18.2188 21.7266 14.1172 Q25.3906 10.0156 30.7656 10.0156 Q36.1406 10.0156 39.7734 14.1172 Q43.4062 18.2188 43.4062 26.0312 Q43.4062 33.6406 39.7734 37.7422 Q36.1406 41.8438 30.7656 41.8438 Q25.3906 41.8438 21.7266 37.7422 Q18.0625 33.6406 18.0625 25.9219 Z"
        /><glyph unicode="B" horiz-adv-x="72.2168" d="M7.3281 71.5781 L35.9375 71.5781 Q44.4375 71.5781 48.6094 70.875 Q52.7812 70.1719 56.0781 67.9219 Q59.375 65.6719 61.5703 61.9375 Q63.7656 58.2031 63.7656 53.5625 Q63.7656 48.5312 61.0547 44.3359 Q58.3438 40.1406 53.7188 38.0312 Q60.25 36.1406 63.7656 31.5469 Q67.2812 26.9531 67.2812 20.75 Q67.2812 15.875 65.0156 11.2578 Q62.75 6.6406 58.8203 3.8828 Q54.8906 1.125 49.125 0.4844 Q45.5156 0.0938 31.6875 0 L7.3281 0 L7.3281 71.5781 ZM21.7812 59.6719 L21.7812 43.1094 L31.25 43.1094 Q39.7031 43.1094 41.75 43.3594 Q45.4531 43.7969 47.5781 45.9219 Q49.7031 48.0469 49.7031 51.5156 Q49.7031 54.8281 47.875 56.9062 Q46.0469 58.9844 42.4375 59.4219 Q40.2812 59.6719 30.0781 59.6719 L21.7812 59.6719 ZM21.7812 31.2031 L21.7812 12.0625 L35.1562 12.0625 Q42.9688 12.0625 45.0625 12.5 Q48.2969 13.0938 50.3203 15.3594 Q52.3438 17.625 52.3438 21.4375 Q52.3438 24.6562 50.7812 26.9062 Q49.2188 29.1562 46.2656 30.1797 Q43.3125 31.2031 33.4531 31.2031 L21.7812 31.2031 Z"
      /></font
    ></defs
    ><g style="fill:white; stroke:white;"
    ><rect x="0" y="0" width="1680" style="clip-path:url(#clipPath1); stroke:none;" height="927"
    /></g
    ><g style="fill:white; text-rendering:optimizeSpeed; color-rendering:optimizeSpeed; image-rendering:optimizeSpeed; shape-rendering:crispEdges; color-interpolation:sRGB; stroke:white;"
    ><rect x="0" width="1680" height="927" y="0" style="stroke:none;"
      /><path d="M218 825 L1520 825 L1520 70 L218 70 Z" style="fill:black; stroke:none;"
    /></g
    ><g style="fill-opacity:0.502; color-rendering:optimizeQuality; color-interpolation:linearRGB; text-rendering:geometricPrecision; stroke:rgb(255,255,255); stroke-linecap:butt; stroke-miterlimit:1; stroke-opacity:0.502; fill:rgb(255,255,255); stroke-dasharray:1,3; stroke-width:0.6667; stroke-linejoin:bevel; image-rendering:optimizeQuality;"
    ><line y2="70" style="fill:none;" x1="388.3329" x2="388.3329" y1="825"
      /><line y2="70" style="fill:none;" x1="487.9712" x2="487.9712" y1="825"
      /><line y2="70" style="fill:none;" x1="558.6657" x2="558.6657" y1="825"
      /><line y2="70" style="fill:none;" x1="613.5007" x2="613.5007" y1="825"
      /><line y2="70" style="fill:none;" x1="658.3041" x2="658.3041" y1="825"
      /><line y2="70" style="fill:none;" x1="696.1848" x2="696.1848" y1="825"
      /><line y2="70" style="fill:none;" x1="728.9986" x2="728.9986" y1="825"
      /><line y2="70" style="fill:none;" x1="757.9424" x2="757.9424" y1="825"
      /><line y2="70" style="fill:none;" x1="954.1664" x2="954.1664" y1="825"
      /><line y2="70" style="fill:none;" x1="1053.8048" x2="1053.8048" y1="825"
      /><line y2="70" style="fill:none;" x1="1124.4993" x2="1124.4993" y1="825"
      /><line y2="70" style="fill:none;" x1="1179.3342" x2="1179.3342" y1="825"
      /><line y2="70" style="fill:none;" x1="1224.1377" x2="1224.1377" y1="825"
      /><line y2="70" style="fill:none;" x1="1262.0184" x2="1262.0184" y1="825"
      /><line y2="70" style="fill:none;" x1="1294.8322" x2="1294.8322" y1="825"
      /><line y2="70" style="fill:none;" x1="1323.776" x2="1323.776" y1="825"
      /><line y2="70" style="fill:none;" x1="218" x2="218" y1="825"
      /><line y2="70" style="fill:none;" x1="783.8336" x2="783.8336" y1="825"
      /><line y2="70" style="fill:none;" x1="1349.6671" x2="1349.6671" y1="825"
      /><line y2="825" style="fill:none;" x1="1520" x2="218" y1="825"
      /><line y2="750.9804" style="fill:none;" x1="1520" x2="218" y1="750.9804"
      /><line y2="676.9608" style="fill:none;" x1="1520" x2="218" y1="676.9608"
      /><line y2="602.9412" style="fill:none;" x1="1520" x2="218" y1="602.9412"
      /><line y2="528.9216" style="fill:none;" x1="1520" x2="218" y1="528.9216"
      /><line y2="454.9019" style="fill:none;" x1="1520" x2="218" y1="454.9019"
      /><line y2="380.8823" style="fill:none;" x1="1520" x2="218" y1="380.8823"
      /><line y2="306.8627" style="fill:none;" x1="1520" x2="218" y1="306.8627"
      /><line y2="232.8431" style="fill:none;" x1="1520" x2="218" y1="232.8431"
      /><line y2="158.8235" style="fill:none;" x1="1520" x2="218" y1="158.8235"
      /><line y2="84.8039" style="fill:none;" x1="1520" x2="218" y1="84.8039"
    /></g
    ><g style="text-rendering:geometricPrecision; stroke-width:0.6667; color-interpolation:linearRGB; color-rendering:optimizeQuality; stroke-linejoin:round; image-rendering:optimizeQuality;"
    ><line y2="825" style="fill:none;" x1="218" x2="1520" y1="825"
      /><line y2="830.208" style="fill:none;" x1="218" x2="218" y1="819.792"
      /><line y2="830.208" style="fill:none;" x1="783.8336" x2="783.8336" y1="819.792"
      /><line y2="830.208" style="fill:none;" x1="1349.6671" x2="1349.6671" y1="819.792"
      /><line y2="827.604" style="fill:none;" x1="388.3329" x2="388.3329" y1="822.396"
      /><line y2="827.604" style="fill:none;" x1="487.9712" x2="487.9712" y1="822.396"
      /><line y2="827.604" style="fill:none;" x1="558.6657" x2="558.6657" y1="822.396"
      /><line y2="827.604" style="fill:none;" x1="613.5007" x2="613.5007" y1="822.396"
      /><line y2="827.604" style="fill:none;" x1="658.3041" x2="658.3041" y1="822.396"
      /><line y2="827.604" style="fill:none;" x1="696.1848" x2="696.1848" y1="822.396"
      /><line y2="827.604" style="fill:none;" x1="728.9986" x2="728.9986" y1="822.396"
      /><line y2="827.604" style="fill:none;" x1="757.9424" x2="757.9424" y1="822.396"
      /><line y2="827.604" style="fill:none;" x1="954.1664" x2="954.1664" y1="822.396"
      /><line y2="827.604" style="fill:none;" x1="1053.8048" x2="1053.8048" y1="822.396"
      /><line y2="827.604" style="fill:none;" x1="1124.4993" x2="1124.4993" y1="822.396"
      /><line y2="827.604" style="fill:none;" x1="1179.3342" x2="1179.3342" y1="822.396"
      /><line y2="827.604" style="fill:none;" x1="1224.1377" x2="1224.1377" y1="822.396"
      /><line y2="827.604" style="fill:none;" x1="1262.0184" x2="1262.0184" y1="822.396"
      /><line y2="827.604" style="fill:none;" x1="1294.8322" x2="1294.8322" y1="822.396"
      /><line y2="827.604" style="fill:none;" x1="1323.776" x2="1323.776" y1="822.396"
    /></g
    ><g transform="translate(207,854)" style="text-rendering:geometricPrecision; font-size:13px; color-interpolation:linearRGB; color-rendering:optimizeQuality; image-rendering:optimizeQuality;"
    ><text x="0" xml:space="preserve" y="0" style="stroke:none;"
      >10</text
    ></g
    ><g transform="translate(222,848)" style="text-rendering:geometricPrecision; font-size:11px; color-interpolation:linearRGB; color-rendering:optimizeQuality; image-rendering:optimizeQuality;"
    ><text x="0" xml:space="preserve" y="0" style="stroke:none;"
      >2</text
    ></g
    ><g transform="translate(773,854)" style="text-rendering:geometricPrecision; font-size:13px; color-interpolation:linearRGB; color-rendering:optimizeQuality; image-rendering:optimizeQuality;"
    ><text x="0" xml:space="preserve" y="0" style="stroke:none;"
      >10</text
    ></g
    ><g transform="translate(788,848)" style="text-rendering:geometricPrecision; font-size:11px; color-interpolation:linearRGB; color-rendering:optimizeQuality; image-rendering:optimizeQuality;"
    ><text x="0" xml:space="preserve" y="0" style="stroke:none;"
      >3</text
    ></g
    ><g transform="translate(1339,854)" style="text-rendering:geometricPrecision; font-size:13px; color-interpolation:linearRGB; color-rendering:optimizeQuality; image-rendering:optimizeQuality;"
    ><text x="0" xml:space="preserve" y="0" style="stroke:none;"
      >10</text
    ></g
    ><g transform="translate(1354,848)" style="text-rendering:geometricPrecision; font-size:11px; color-interpolation:linearRGB; color-rendering:optimizeQuality; image-rendering:optimizeQuality;"
    ><text x="0" xml:space="preserve" y="0" style="stroke:none;"
      >4</text
    ></g
    ><g transform="translate(869.0006,857.8747)" style="text-rendering:geometricPrecision; font-size:15px; color-interpolation:linearRGB; color-rendering:optimizeQuality; image-rendering:optimizeQuality;"
    ><text x="-52" xml:space="preserve" y="16" style="stroke:none;"
      >Frequency (Hz)</text
    ></g
    ><g style="text-rendering:geometricPrecision; stroke-width:0.6667; color-interpolation:linearRGB; color-rendering:optimizeQuality; stroke-linejoin:round; image-rendering:optimizeQuality;"
    ><line y2="70" style="fill:none;" x1="218" x2="218" y1="825"
      /><line y2="825" style="fill:none;" x1="223.208" x2="212.792" y1="825"
      /><line y2="750.9804" style="fill:none;" x1="223.208" x2="212.792" y1="750.9804"
      /><line y2="676.9608" style="fill:none;" x1="223.208" x2="212.792" y1="676.9608"
      /><line y2="602.9412" style="fill:none;" x1="223.208" x2="212.792" y1="602.9412"
      /><line y2="528.9216" style="fill:none;" x1="223.208" x2="212.792" y1="528.9216"
      /><line y2="454.9019" style="fill:none;" x1="223.208" x2="212.792" y1="454.9019"
      /><line y2="380.8823" style="fill:none;" x1="223.208" x2="212.792" y1="380.8823"
      /><line y2="306.8627" style="fill:none;" x1="223.208" x2="212.792" y1="306.8627"
      /><line y2="232.8431" style="fill:none;" x1="223.208" x2="212.792" y1="232.8431"
      /><line y2="158.8235" style="fill:none;" x1="223.208" x2="212.792" y1="158.8235"
      /><line y2="84.8039" style="fill:none;" x1="223.208" x2="212.792" y1="84.8039"
    /></g
    ><g transform="translate(207.4587,825)" style="text-rendering:geometricPrecision; font-size:13px; color-interpolation:linearRGB; color-rendering:optimizeQuality; image-rendering:optimizeQuality;"
    ><text x="-19" xml:space="preserve" y="5.5" style="stroke:none;"
      >-90</text
    ></g
    ><g transform="translate(207.4587,750.9804)" style="text-rendering:geometricPrecision; font-size:13px; color-interpolation:linearRGB; color-rendering:optimizeQuality; image-rendering:optimizeQuality;"
    ><text x="-19" xml:space="preserve" y="5.5" style="stroke:none;"
      >-80</text
    ></g
    ><g transform="translate(207.4587,676.9608)" style="text-rendering:geometricPrecision; font-size:13px; color-interpolation:linearRGB; color-rendering:optimizeQuality; image-rendering:optimizeQuality;"
    ><text x="-19" xml:space="preserve" y="5.5" style="stroke:none;"
      >-70</text
    ></g
    ><g transform="translate(207.4587,602.9412)" style="text-rendering:geometricPrecision; font-size:13px; color-interpolation:linearRGB; color-rendering:optimizeQuality; image-rendering:optimizeQuality;"
    ><text x="-19" xml:space="preserve" y="5.5" style="stroke:none;"
      >-60</text
    ></g
    ><g transform="translate(207.4587,528.9216)" style="text-rendering:geometricPrecision; font-size:13px; color-interpolation:linearRGB; color-rendering:optimizeQuality; image-rendering:optimizeQuality;"
    ><text x="-19" xml:space="preserve" y="5.5" style="stroke:none;"
      >-50</text
    ></g
    ><g transform="translate(207.4587,454.9019)" style="text-rendering:geometricPrecision; font-size:13px; color-interpolation:linearRGB; color-rendering:optimizeQuality; image-rendering:optimizeQuality;"
    ><text x="-19" xml:space="preserve" y="5.5" style="stroke:none;"
      >-40</text
    ></g
    ><g transform="translate(207.4587,380.8823)" style="text-rendering:geometricPrecision; font-size:13px; color-interpolation:linearRGB; color-rendering:optimizeQuality; image-rendering:optimizeQuality;"
    ><text x="-19" xml:space="preserve" y="5.5" style="stroke:none;"
      >-30</text
    ></g
    ><g transform="translate(207.4587,306.8627)" style="text-rendering:geometricPrecision; font-size:13px; color-interpolation:linearRGB; color-rendering:optimizeQuality; image-rendering:optimizeQuality;"
    ><text x="-19" xml:space="preserve" y="5.5" style="stroke:none;"
      >-20</text
    ></g
    ><g transform="translate(207.4587,232.8431)" style="text-rendering:geometricPrecision; font-size:13px; color-interpolation:linearRGB; color-rendering:optimizeQuality; image-rendering:optimizeQuality;"
    ><text x="-19" xml:space="preserve" y="5.5" style="stroke:none;"
      >-10</text
    ></g
    ><g transform="translate(207.4587,158.8235)" style="text-rendering:geometricPrecision; font-size:13px; color-interpolation:linearRGB; color-rendering:optimizeQuality; image-rendering:optimizeQuality;"
    ><text x="-8" xml:space="preserve" y="5.5" style="stroke:none;"
      >0</text
    ></g
    ><g transform="translate(207.4587,84.8039)" style="text-rendering:geometricPrecision; font-size:13px; color-interpolation:linearRGB; color-rendering:optimizeQuality; image-rendering:optimizeQuality;"
    ><text x="-15" xml:space="preserve" y="5.5" style="stroke:none;"
      >10</text
    ></g
    ><g transform="translate(184.4587,447.4996) rotate(-90)" style="text-rendering:geometricPrecision; font-size:15px; color-interpolation:linearRGB; color-rendering:optimizeQuality; image-rendering:optimizeQuality;"
    ><text x="-32.5" xml:space="preserve" y="-4" style="stroke:none;"
      >Gain (dB)</text
    ></g
    ><g transform="translate(869.0009,67.25)" style="font-size:15px; text-rendering:geometricPrecision; color-rendering:optimizeQuality; image-rendering:optimizeQuality; color-interpolation:linearRGB; font-weight:bold;"
    ><text x="-35" xml:space="preserve" y="-4" style="stroke:none;"
      >Bode plot</text
    ></g
    ><g style="stroke-linecap:butt; fill:rgb(255,128,0); text-rendering:geometricPrecision; color-rendering:optimizeQuality; image-rendering:optimizeQuality; stroke-linejoin:round; color-interpolation:linearRGB; stroke:rgb(255,128,0); stroke-width:0.6667;"
    ><path d="M416.8199 825.0755 L417.1729 824.7058 L418.3055 823.5215 L419.4362 822.3372 L420.5682 821.153 L421.7003 819.9686 L422.8316 818.7842 L423.9629 817.5999 L425.0954 816.4156 L426.227 815.2313 L427.3586 814.047 L428.4902 812.8627 L429.6218 811.6785 L430.7534 810.4941 L431.8849 809.3098 L433.0164 808.1255 L434.1489 806.9412 L435.2802 805.7568 L436.4113 804.5726 L437.5434 803.3882 L438.6752 802.2039 L439.8068 801.0196 L440.9382 799.8353 L442.0703 798.6509 L443.2022 797.4666 L444.3338 796.2823 L445.465 795.0981 L446.5969 793.9137 L447.7284 792.7294 L448.8605 791.5451 L449.9922 790.3607 L451.1234 789.1765 L452.2552 787.9922 L453.3864 786.8078 L454.5182 785.6235 L455.6503 784.4392 L456.7819 783.2548 L457.9138 782.0706 L459.0452 780.8863 L460.1769 779.7019 L461.308 778.5176 L462.4402 777.3333 L463.5718 776.149 L464.7036 774.9647 L465.8347 773.7804 L466.9669 772.596 L468.0983 771.4117 L469.2298 770.2274 L470.3615 769.0431 L471.4931 767.8588 L472.6248 766.6745 L473.7566 765.4901 L474.8883 764.3058 L476.0201 763.1216 L477.1517 761.9372 L478.2833 760.7529 L479.4148 759.5685 L480.547 758.3843 L481.6783 757.1999 L482.8102 756.0156 L483.9418 754.8313 L485.0733 753.647 L486.2054 752.4627 L487.3364 751.2784 L488.4688 750.0942 L489.6 748.9098 L490.7317 747.7255 L491.863 746.541 L492.9948 745.3567 L494.127 744.1724 L495.2588 742.988 L496.3901 741.8038 L497.5218 740.6197 L498.6538 739.435 L499.7852 738.2511 L500.917 737.0664 L502.0481 735.8823 L503.1803 734.6981 L504.3118 733.5137 L505.4435 732.3292 L506.5754 731.1453 L507.7066 729.9605 L508.8386 728.7762 L509.9699 727.5919 L511.102 726.408 L512.2334 725.2235 L513.3655 724.0392 L514.4968 722.8549 L515.6287 721.6703 L516.7599 720.4864 L517.8917 719.3018 L519.0233 718.1175 L520.1548 716.9334 L521.2868 715.7488 L522.4186 714.5648 L523.5502 713.3804 L524.6816 712.1959 L525.8134 711.0118 L526.9448 709.8274 L528.0767 708.6431 L529.2082 707.4587 L530.34 706.2745 L531.4715 705.0901 L532.6032 703.9057 L533.7352 702.7215 L534.8668 701.5372 L535.9985 700.3527 L537.1304 699.1684 L538.2618 697.9841 L539.3934 696.7999 L540.525 695.6156 L541.6567 694.4312 L542.7885 693.2469 L543.9203 692.0627 L545.0521 690.8782 L546.1832 689.6939 L547.3149 688.5098 L548.4467 687.3253 L549.5782 686.1409 L550.7103 684.9568 L551.8417 683.7724 L552.9736 682.5881 L554.1052 681.4037 L555.2366 680.2195 L556.3685 679.0351 L557.5 677.8509 L558.632 676.6666 L559.7635 675.4823 L560.8949 674.298 L562.0271 673.1136 L563.1583 671.9293 L564.2903 670.7451 L565.422 669.5607 L566.5538 668.3763 L567.6851 667.192 L568.8166 666.0078 L569.9487 664.8233 L571.0804 663.6391 L572.212 662.4547 L573.3437 661.2704 L574.4755 660.0861 L575.6071 658.9018 L576.7387 657.7174 L577.8702 656.5332 L579.0017 655.3489 L580.1335 654.1646 L581.2653 652.9803 L582.3969 651.7959 L583.5283 650.6116 L584.66 649.4272 L585.7921 648.243 L586.9233 647.0586 L588.0553 645.8743 L589.1871 644.69 L590.3185 643.5057 L591.45 642.3214 L592.5818 641.1371 L593.7137 639.9528 L594.8452 638.7685 L595.9768 637.5841 L597.1084 636.3998 L598.2401 635.2155 L599.3718 634.0312 L600.5035 632.8469 L601.6352 631.6625 L602.7668 630.4782 L603.8983 629.2939 L605.0303 628.1096 L606.1621 626.9252 L607.2933 625.741 L608.4252 624.5566 L609.5571 623.3724 L610.6887 622.188 L611.82 621.0037 L612.9516 619.8193 L614.0834 618.635 L615.2153 617.4508 L616.347 616.2664 L617.4783 615.0822 L618.6102 613.8978 L619.7416 612.7134 L620.8737 611.5291 L622.0052 610.3448 L623.1368 609.1605 L624.2684 607.9762 L625.4 606.7919 L626.5319 605.6075 L627.6633 604.4232 L628.795 603.2389 L629.9267 602.0543 L631.0586 600.8706 L632.1904 599.6863 L633.3218 598.5018 L634.4537 597.3174 L635.5852 596.1332 L636.7169 594.9488 L637.8483 593.7646 L638.9803 592.58 L640.1119 591.3958 L641.2437 590.2114 L642.375 589.0272 L643.5068 587.843 L644.6387 586.6583 L645.7701 585.474 L646.9018 584.2899 L648.0335 583.1056 L649.1652 581.9213 L650.2966 580.737 L651.4285 579.5527 L652.5601 578.3683 L653.692 577.1838 L654.8237 575.9996 L655.9551 574.8152 L657.0867 573.6311 L658.2185 572.4468 L659.3503 571.2622 L660.4819 570.0779 L661.6135 568.8938 L662.7452 567.7095 L663.8768 566.5252 L665.0085 565.3408 L666.1401 564.1563 L667.2717 562.9722 L668.4036 561.7878 L669.535 560.6036 L670.6667 559.4191 L671.7986 558.235 L672.9304 557.0505 L674.0619 555.8661 L675.1936 554.6819 L676.3251 553.4977 L677.4567 552.3132 L678.5884 551.1289 L679.7201 549.9446 L680.8519 548.7604 L681.9833 547.5761 L683.1152 546.3917 L684.2469 545.2075 L685.3787 544.023 L686.5103 542.8387 L687.6418 541.6544 L688.7736 540.47 L689.9053 539.2859 L691.0367 538.1015 L692.1684 536.9172 L693.3002 535.7327 L694.4317 534.5485 L695.5634 533.3643 L696.6951 532.1799 L697.8268 530.9955 L698.9586 529.8112 L700.0903 528.627 L701.2217 527.4427 L702.3535 526.2584 L703.485 525.074 L704.6169 523.8896 L705.7486 522.7053 L706.8801 521.5209 L708.0119 520.3367 L709.1435 519.1523 L710.2751 517.968 L711.4069 516.7838 L712.5387 515.5994 L713.6702 514.415 L714.8018 513.2308 L715.9337 512.0464 L717.0652 510.8621 L718.197 509.6777 L719.3284 508.4935 L720.4603 507.3092 L721.5918 506.1249 L722.7235 504.9406 L723.8553 503.7563 L724.9869 502.5719 L726.1187 501.3875 L727.2501 500.2032 L728.382 499.019 L729.5135 497.8346 L730.6451 496.6503 L731.7769 495.4661 L732.9087 494.2817 L734.0401 493.0974 L735.172 491.9131 L736.3035 490.7287 L737.4352 489.5445 L738.567 488.3601 L739.6985 487.1758 L740.8302 485.9915 L741.962 484.8072 L743.0934 483.6229 L744.2252 482.4385 L745.3569 481.2542 L746.4886 480.0699 L747.6204 478.8856 L748.7519 477.7012 L749.8837 476.517 L751.0153 475.3326 L752.147 474.1483 L753.2786 472.964 L754.4102 471.7796 L755.5419 470.5953 L756.6736 469.4111 L757.8054 468.2267 L758.9368 467.0424 L760.0687 465.8581 L761.2003 464.6738 L762.3317 463.4895 L763.4637 462.3051 L764.5952 461.1208 L765.7268 459.9366 L766.8585 458.7522 L767.9902 457.5679 L769.122 456.3836 L770.2535 455.1993 L771.3853 454.0151 L772.517 452.8307 L773.6486 451.6465 L774.7802 450.4619 L775.9119 449.2777 L777.0435 448.0934 L778.1752 446.909 L779.3069 445.7248 L780.4384 444.5407 L781.5703 443.356 L782.7018 442.1716 L783.8336 440.9874 L784.9662 439.8033 L786.0962 438.6191 L787.2283 437.4348 L788.3599 436.2502 L789.4911 435.0659 L790.6245 433.8816 L791.7549 432.6973 L792.8873 431.513 L794.0192 430.3287 L795.1506 429.1446 L796.2815 427.9604 L797.4142 426.776 L798.5463 425.5915 L799.6778 424.4075 L800.8087 423.223 L801.9413 422.0387 L803.071 420.8546 L804.2045 419.67 L805.3352 418.486 L806.4673 417.3015 L807.5988 416.1174 L808.7294 414.933 L809.8616 413.7486 L810.9929 412.5643 L812.1256 411.3802 L813.2574 410.1958 L814.3885 409.0116 L815.5208 407.8273 L816.6523 406.643 L817.7828 405.4588 L818.9146 404.2746 L820.0475 403.0903 L821.1794 401.9059 L822.3104 400.7217 L823.4424 399.5374 L824.5734 398.3533 L825.7055 397.169 L826.8365 395.9846 L827.9685 394.8003 L829.0994 393.6162 L830.2311 392.4318 L831.3638 391.2476 L832.4954 390.0634 L833.6277 388.8791 L834.7588 387.6949 L835.8907 386.5106 L837.0215 385.3265 L838.1529 384.1421 L839.285 382.9579 L840.4178 381.7739 L841.5493 380.5896 L842.6794 379.4052 L843.8121 378.2211 L844.9435 377.0369 L846.0753 375.8527 L847.2077 374.6687 L848.3386 373.4844 L849.4701 372.3001 L850.6019 371.116 L851.7342 369.9319 L852.865 368.7477 L853.9961 367.5635 L855.1294 366.3794 L856.2593 365.1952 L857.3914 364.0111 L858.5237 362.827 L859.6544 361.6429 L860.7872 360.4588 L861.9183 359.2746 L863.0495 358.0905 L864.1827 356.9064 L865.3141 355.7223 L866.4457 354.5383 L867.5774 353.3543 L868.709 352.1701 L869.8407 350.9862 L870.9724 349.802 L872.104 348.618 L873.2355 347.4341 L874.3669 346.2501 L875.4984 345.0661 L876.6295 343.8822 L877.7623 342.6982 L878.8932 341.5142 L880.0255 340.3304 L881.1577 339.1465 L882.2879 337.9625 L883.4194 336.7786 L884.5524 335.5948 L885.6834 334.4109 L886.8157 333.2271 L887.9476 332.0433 L889.0791 330.8595 L890.2102 329.6758 L891.3425 328.492 L892.4742 327.3082 L893.6057 326.1245 L894.7365 324.9408 L895.8684 323.7572 L896.9998 322.5736 L898.1321 321.39 L899.2639 320.2064 L900.395 319.0229 L901.5272 317.8394 L902.6586 316.6558 L903.7909 315.4725 L904.9225 314.289 L906.0533 313.1056 L907.1851 311.9222 L908.3174 310.7389 L909.449 309.5557 L910.5799 308.3724 L911.7114 307.1892 L912.8434 306.0063 L913.9747 304.8233 L915.1066 303.6396 L916.239 302.4569 L917.3705 301.2738 L918.5024 300.0912 L919.6335 298.9084 L920.765 297.7252 L921.8969 296.5426 L923.0292 295.3598 L924.1604 294.1772 L925.2921 292.9948 L926.424 291.8124 L927.5548 290.6298 L928.6873 289.4475 L929.8186 288.2654 L930.9502 287.0829 L932.0819 285.9008 L933.2139 284.7187 L934.3459 283.5369 L935.4767 282.3549 L936.609 281.1735 L937.74 279.9918 L938.8724 278.8099 L940.0034 277.6285 L941.1358 276.4472 L942.2669 275.2659 L943.3992 274.0847 L944.5301 272.904 L945.6622 271.723 L946.7941 270.5421 L947.9247 269.3617 L949.0564 268.181 L950.1891 267.0009 L951.3203 265.8207 L952.4514 264.6407 L953.5834 263.4608 L954.7151 262.2811 L955.8465 261.1013 L956.9788 259.922 L958.1107 258.743 L959.2422 257.5639 L960.3734 256.3853 L961.5053 255.2066 L962.6368 254.0282 L963.769 252.8502 L964.9008 251.6724 L966.032 250.4947 L967.1639 249.3173 L968.2952 248.14 L969.4271 246.9634 L970.5584 245.7867 L971.6902 244.6105 L972.8215 243.4345 L973.9532 242.2587 L975.0854 241.0835 L976.2168 239.9084 L977.3486 238.7338 L978.4798 237.5594 L979.6124 236.3854 L980.7442 235.2119 L981.8752 234.0386 L983.0065 232.8659 L984.1391 231.6935 L985.2698 230.5218 L986.4017 229.3503 L987.5339 228.1794 L988.6651 227.009 L989.7964 225.8391 L990.929 224.6698 L992.0605 223.501 L993.1921 222.3327 L994.3237 221.165 L995.4553 219.998 L996.587 218.8315 L997.7186 217.666 L998.85 216.5008 L999.9824 215.3365 L1001.1138 214.1729 L1002.2449 213.0101 L1003.3769 211.8482 L1004.5088 210.687 L1005.6404 209.5266 L1006.7718 208.3672 L1007.9039 207.2086 L1009.0358 206.051 L1010.1674 204.8944 L1011.2986 203.7387 L1012.4305 202.5842 L1013.562 201.4307 L1014.6941 200.2785 L1015.8257 199.1273 L1016.957 197.9773 L1018.0887 196.8286 L1019.22 195.6812 L1020.3517 194.5352 L1021.4838 193.3905 L1022.6155 192.2472 L1023.7474 191.1055 L1024.8788 189.9653 L1026.0105 188.8267 L1027.1416 187.6897 L1028.2738 186.5544 L1029.4054 185.4209 L1030.5372 184.2893 L1031.6683 183.1595 L1032.8004 182.0317 L1033.9319 180.9058 L1035.0634 179.7821 L1036.1949 178.6605 L1037.3267 177.5412 L1038.4584 176.4241 L1039.5901 175.3095 L1040.7219 174.1973 L1041.8536 173.0876 L1042.9854 171.9806 L1044.1168 170.8762 L1045.2483 169.7747 L1046.3806 168.676 L1047.5118 167.5803 L1048.6437 166.4876 L1049.7754 165.3982 L1050.9069 164.3121 L1052.0389 163.2293 L1053.1699 162.1499 L1054.3024 161.0741 L1055.4336 160.0021 L1056.5652 158.9338 L1057.6967 157.8694 L1058.8284 156.809 L1059.9606 155.7529 L1061.0924 154.7011 L1062.2238 153.6538 L1063.3553 152.6105 L1064.4873 151.5723 L1065.6188 150.5388 L1066.7505 149.51 L1067.8817 148.4864 L1069.0139 147.468 L1070.1454 146.455 L1071.2771 145.4477 L1072.4089 144.4457 L1073.5402 143.4494 L1074.6721 142.4594 L1075.8035 141.475 L1076.9355 140.4968 L1078.0669 139.5252 L1079.199 138.5601 L1080.3303 137.6013 L1081.4623 136.6498 L1082.5935 135.7051 L1083.7252 134.7673 L1084.8569 133.837 L1085.9884 132.9143 L1087.1204 131.9988 L1088.2522 131.0915 L1089.3838 130.1915 L1090.5151 129.2998 L1091.6469 128.4164 L1092.7783 127.5414 L1093.9103 126.6749 L1095.0417 125.8169 L1096.1736 124.9676 L1097.3051 124.1275 L1098.4368 123.2964 L1099.5687 122.4744 L1100.7003 121.6617 L1101.832 120.8584 L1102.964 120.0647 L1104.0953 119.281 L1105.2269 118.5068 L1106.3585 117.7428 L1107.4902 116.9884 L1108.6221 116.2448 L1109.7538 115.511 L1110.8856 114.7873 L1112.0168 114.0744 L1113.1486 113.3721 L1114.2803 112.6802 L1115.4117 111.9988 L1116.5439 111.3282 L1117.6753 110.6685 L1118.8071 110.0194 L1119.9387 109.3812 L1121.0702 108.7538 L1122.202 108.1374 L1123.3336 107.5318 L1124.4656 106.9372 L1125.5972 106.3532 L1126.7284 105.7805 L1127.8607 105.2186 L1128.9918 104.6674 L1130.1239 104.1272 L1131.2555 103.5978 L1132.3873 103.0792 L1133.5187 102.5711 L1134.6501 102.0737 L1135.7823 101.587 L1136.9139 101.111 L1138.0457 100.6453 L1139.1774 100.1898 L1140.309 99.7448 L1141.4407 99.31 L1142.5723 98.8852 L1143.7037 98.4704 L1144.8353 98.0653 L1145.9672 97.6703 L1147.0989 97.2847 L1148.2305 96.9088 L1149.3618 96.5423 L1150.4935 96.1848 L1151.6256 95.8364 L1152.7568 95.4973 L1153.8889 95.167 L1155.0206 94.8453 L1156.152 94.5321 L1157.2836 94.2275 L1158.4154 93.9311 L1159.5472 93.6426 L1160.6788 93.3624 L1161.8103 93.0898 L1162.942 92.8249 L1164.0736 92.5674 L1165.2053 92.3174 L1166.337 92.0745 L1167.4688 91.8388 L1168.6003 91.6099 L1169.7319 91.3877 L1170.8639 91.172 L1171.9956 90.9627 L1173.1268 90.7599 L1174.2588 90.563 L1175.3906 90.3723 L1176.5222 90.1872 L1177.6536 90.0077 L1178.7852 89.834 L1179.917 89.6656 L1181.049 89.5024 L1182.1805 89.3445 L1183.3118 89.1913 L1184.4437 89.0432 L1185.5752 88.8996 L1186.7072 88.7607 L1187.8389 88.6263 L1188.9703 88.4961 L1190.1019 88.3703 L1191.2335 88.2483 L1192.3655 88.1305 L1193.4968 88.0164 L1194.6285 87.9063 L1195.7603 87.7997 L1196.8922 87.6964 L1198.0239 87.5968 L1199.1555 87.5005 L1200.2872 87.4072 L1201.4187 87.3171 L1202.5504 87.23 L1203.6819 87.1461 L1204.8138 87.0648 L1205.9456 86.9862 L1207.0773 86.9104 L1208.2086 86.8371 L1209.3403 86.7662 L1210.4723 86.6979 L1211.6036 86.6317 L1212.7354 86.568 L1213.8671 86.5064 L1214.9988 86.4469 L1216.1302 86.3896 L1217.262 86.334 L1218.3937 86.2805 L1219.5255 86.2289 L1220.6572 86.1788 L1221.7887 86.1309 L1222.9203 86.0842 L1224.0521 86.0394 L1225.1838 85.9961 L1226.3154 85.9543 L1227.447 85.9139 L1228.5787 85.875 L1229.7104 85.8374 L1230.842 85.8013 L1231.9738 85.7662 L1233.1052 85.7326 L1234.2372 85.7 L1235.3687 85.6687 L1236.5002 85.6384 L1237.6322 85.6091 L1238.7639 85.5809 L1239.8955 85.5538 L1241.0272 85.5275 L1242.1586 85.5022 L1243.2903 85.4777 L1244.4219 85.4543 L1245.5537 85.4315 L1246.6855 85.4096 L1247.8169 85.3886 L1248.9487 85.3681 L1250.0804 85.3484 L1251.2122 85.3295 L1252.3439 85.3113 L1253.4755 85.2937 L1254.6072 85.2767 L1255.7389 85.2603 L1256.8704 85.2445 L1258.002 85.2292 L1259.1338 85.2147 L1260.2654 85.2003 L1261.397 85.1868 L1262.5287 85.1735 L1263.6604 85.1609 L1264.7922 85.1486 L1265.924 85.1369 L1267.0553 85.1255 L1268.187 85.1145 L1269.3186 85.104 L1270.4504 85.0938 L1271.5822 85.0838 L1272.7137 85.0744 L1273.8455 85.0652 L1274.9771 85.0565 L1276.1086 85.0481 L1277.2405 85.0397 L1278.3723 85.032 L1279.5038 85.0244 L1280.6354 85.0171 L1281.7672 85.0099 L1282.8987 85.0032 L1284.0305 84.9965 L1285.162 84.9902 L1286.2939 84.9841 L1287.4254 84.9782 L1288.5571 84.9726 L1289.6888 84.9671 L1290.8206 84.9618 L1291.9523 84.9567 L1293.0837 84.9518 L1294.2156 84.9472 L1295.347 84.9427 L1296.4786 84.9382 L1297.6105 84.9339 L1298.7422 84.9298 L1299.8737 84.926 L1301.0056 84.9221 L1302.1371 84.9186 L1303.2687 84.915 L1304.4005 84.9117 L1305.5321 84.9085 L1306.6638 84.9052 L1307.7955 84.9022 L1308.927 84.8993 L1310.0588 84.8964 L1311.1906 84.8938 L1312.3223 84.8911 L1313.454 84.8885 L1314.5854 84.8863 L1315.7172 84.8838 L1316.8489 84.8816 L1317.9806 84.8793 L1319.1122 84.8773 L1320.2438 84.8753 L1321.3755 84.8732 L1322.5072 84.8714 L1323.6389 84.8696 L1324.7704 84.868 L1325.9022 84.8661 L1327.0338 84.8647 L1328.1653 84.8631 L1329.2972 84.8614 L1330.4288 84.86 L1331.5603 84.8586 L1332.692 84.8574 L1333.8237 84.8559 L1334.9556 84.8547 L1336.087 84.8535 L1337.2189 84.8525 L1338.3506 84.8513 L1339.4822 84.8502 L1340.6138 84.8492 L1341.7455 84.8482 L1342.8771 84.8472 L1344.0088 84.8464 L1345.1405 84.8454 L1346.2721 84.8446 L1347.4038 84.8438 L1348.5353 84.8429 L1349.6671 84.8421 L1350.7998 84.8413 L1351.9298 84.8407 L1353.0618 84.8401 L1354.1935 84.8392 L1355.3248 84.8387 L1356.458 84.838 L1357.5884 84.8374 L1358.7208 84.8368 L1359.8528 84.8364 L1360.9841 84.8358 L1362.115 84.8352 L1363.2477 84.8348 L1364.3799 84.8344 L1365.5114 84.8338 L1366.6422 84.8334 L1367.7749 84.8329 L1368.9045 84.8325 L1370.0381 84.8321 L1371.1687 84.8317 L1372.3008 84.8316 L1373.4324 84.8311 L1374.563 84.8307 L1375.6951 84.8305 L1376.8264 84.8301 L1377.9591 84.8297 L1379.0909 84.8295 L1380.222 84.8293 L1381.3544 84.8289 L1382.4858 84.8287 L1383.6163 84.8285 L1384.748 84.8283 L1385.8811 84.8279 L1387.0131 84.8277 L1388.1439 84.8275 L1389.276 84.8273 L1390.407 84.827 L1391.5391 84.8269 L1392.67 84.8266 L1393.8021 84.8265 L1394.933 84.8265 L1396.0647 84.8262 L1397.1974 84.826 L1398.3289 84.8258 L1399.4613 84.8258 L1400.5924 84.8256 L1401.7244 84.8254 L1402.855 84.8254 L1403.9865 84.8252 L1405.1185 84.825 L1406.2513 84.825 L1407.3828 84.8248 L1408.5129 84.8248 L1409.6458 84.8246 L1410.7771 84.8246 L1411.9089 84.8244 L1413.0413 84.8244 L1414.1722 84.8242 L1415.3036 84.8242 L1416.4355 84.824 L1417.5677 84.824 L1418.6985 84.824 L1419.8297 84.8238 L1420.963 84.8238 L1422.0929 84.8236 L1423.225 84.8236 L1424.3573 84.8236 L1425.488 84.8236 L1426.6207 84.8234 L1427.7518 84.8234 L1428.8831 84.8234 L1430.0162 84.8232 L1431.1477 84.8232 L1432.2793 84.8232 L1433.4109 84.8232 L1434.5426 84.823 L1435.6743 84.823 L1436.8059 84.823 L1437.9375 84.823 L1439.0691 84.823 L1440.2006 84.823 L1441.3319 84.8228 L1442.4631 84.8228 L1443.5958 84.8228 L1444.7267 84.8228 L1445.8591 84.8228 L1446.9912 84.8228 L1448.1215 84.8226 L1449.2531 84.8226 L1450.386 84.8226 L1451.517 84.8226 L1452.6492 84.8226 L1453.7811 84.8226 L1454.9126 84.8226 L1456.0437 84.8226 L1457.176 84.8226 L1458.3079 84.8224 L1459.4392 84.8224 L1460.5701 84.8224 L1461.702 84.8224 L1462.8334 84.8224 L1463.9657 84.8224 L1465.0974 84.8224 L1466.2286 84.8224 L1467.3607 84.8224 L1468.4922 84.8224 L1469.6244 84.8224 L1470.7561 84.8224 L1471.887 84.8224 L1473.0186 84.8222 L1474.151 84.8222 L1475.2826 84.8222 L1476.4135 84.8222 L1477.5449 84.8222 L1478.6771 84.8222 L1479.8083 84.8222 L1480.9402 84.8222 L1482.0725 84.8222 L1483.204 84.8222 L1484.3361 84.8222 L1485.467 84.8222 L1486.5985 84.8222 L1487.7305 84.8222 L1488.8628 84.8222 L1489.994 84.8222 L1491.1256 84.8222 L1492.2576 84.8222 L1493.3884 84.8222 L1494.5208 84.8222 L1495.6522 84.8222 L1496.7838 84.8222 L1497.9155 84.8222 L1499.0475 84.8222 L1500.1794 84.8222 L1501.3103 84.8222 L1502.4426 84.8222 L1503.5736 84.8222 L1504.7059 84.8222 L1505.837 84.8222 L1506.9694 84.8222 L1508.1003 84.8222 L1509.2328 84.8222 L1510.3636 84.8222 L1511.4957 84.8222 L1512.6277 84.8222 L1513.7583 84.8222 L1514.8899 84.8222 L1516.0227 84.8222 L1517.1539 84.8222 L1518.2849 84.8222 L1519.4169 84.8222" style="fill:none; fill-rule:evenodd;"
    /></g
    ><g style="text-rendering:optimizeSpeed; shape-rendering:crispEdges; color-interpolation:sRGB; color-rendering:optimizeSpeed; image-rendering:optimizeSpeed;"
    ><path style="stroke:none;" d="M1174.3 94.7 L1174.3 84.3 L1184.7 84.3 L1184.7 94.7 Z"
    /></g
    ><g style="stroke-linecap:butt; fill:rgb(255,255,220); text-rendering:geometricPrecision; color-rendering:optimizeQuality; image-rendering:optimizeQuality; color-interpolation:linearRGB; stroke:rgb(255,255,220); stroke-width:1.3333;"
    ><path d="M1174.3 94.7 L1174.3 84.3 L1184.7 84.3 L1184.7 94.7 Z" style="fill:none; fill-rule:evenodd;"
    /></g
    ><g style="text-rendering:optimizeSpeed; shape-rendering:crispEdges; color-interpolation:sRGB; color-rendering:optimizeSpeed; image-rendering:optimizeSpeed;"
    ><path style="stroke:none;" d="M939.3 277.7 L939.3 267.3 L949.7 267.3 L949.7 277.7 Z"
    /></g
    ><g style="stroke-linecap:butt; fill:rgb(255,255,220); text-rendering:geometricPrecision; color-rendering:optimizeQuality; image-rendering:optimizeQuality; color-interpolation:linearRGB; stroke:rgb(255,255,220); stroke-width:1.3333;"
    ><path d="M939.3 277.7 L939.3 267.3 L949.7 267.3 L949.7 277.7 Z" style="fill:none; fill-rule:evenodd;"
    /></g
    ><g style="text-rendering:optimizeSpeed; shape-rendering:crispEdges; color-interpolation:sRGB; color-rendering:optimizeSpeed; image-rendering:optimizeSpeed;"
    ><path style="stroke:none;" d="M1119.3 111.7 L1119.3 101.3 L1129.7 101.3 L1129.7 111.7 Z"
    /></g
    ><g style="stroke-linecap:butt; fill:rgb(255,255,220); text-rendering:geometricPrecision; color-rendering:optimizeQuality; image-rendering:optimizeQuality; color-interpolation:linearRGB; stroke:rgb(255,255,220); stroke-width:1.3333;"
    ><path d="M1119.3 111.7 L1119.3 101.3 L1129.7 101.3 L1129.7 111.7 Z" style="fill:none; fill-rule:evenodd;"
    /></g
    ><g style="fill:rgb(255,255,238); text-rendering:optimizeSpeed; color-rendering:optimizeSpeed; image-rendering:optimizeSpeed; shape-rendering:crispEdges; color-interpolation:sRGB; stroke:rgb(255,255,238);"
    ><path style="stroke:none;" d="M1186.5836 138.3323 L1243.5836 138.3323 L1243.5836 96.3323 L1186.5836 96.3323 Z"
    /></g
    ><g style="stroke-linecap:butt; fill:rgb(204,204,204); text-rendering:geometricPrecision; color-rendering:optimizeQuality; image-rendering:optimizeQuality; color-interpolation:linearRGB; stroke:rgb(204,204,204); stroke-width:0.6667;"
    ><path d="M1186.5836 138.3323 L1243.5836 138.3323 L1243.5836 96.3323 L1186.5836 96.3323 Z" style="fill:none; fill-rule:evenodd;"
    /></g
    ><g transform="translate(1190.5836,134.3323)" style="text-rendering:geometricPrecision; font-size:13px; color-interpolation:linearRGB; color-rendering:optimizeQuality; image-rendering:optimizeQuality;"
    ><text x="0" xml:space="preserve" y="-20" style="stroke:none;"
      >X: 5012</text
    ></g
    ><g transform="translate(1190.5836,134.3323)" style="text-rendering:geometricPrecision; font-size:13px; color-interpolation:linearRGB; color-rendering:optimizeQuality; image-rendering:optimizeQuality;"
    ><text x="0" xml:space="preserve" y="-3" style="stroke:none;"
      >Y: 9.343</text
    ></g
    ><g style="fill:rgb(255,255,238); text-rendering:optimizeSpeed; color-rendering:optimizeSpeed; image-rendering:optimizeSpeed; shape-rendering:crispEdges; color-interpolation:sRGB; stroke:rgb(255,255,238);"
    ><path style="stroke:none;" d="M951.1967 266.2373 L1012.1967 266.2373 L1012.1967 224.2373 L951.1967 224.2373 Z"
    /></g
    ><g style="stroke-linecap:butt; fill:rgb(204,204,204); text-rendering:geometricPrecision; color-rendering:optimizeQuality; image-rendering:optimizeQuality; color-interpolation:linearRGB; stroke:rgb(204,204,204); stroke-width:0.6667;"
    ><path d="M951.1967 266.2373 L1012.1967 266.2373 L1012.1967 224.2373 L951.1967 224.2373 Z" style="fill:none; fill-rule:evenodd;"
    /></g
    ><g transform="translate(955.1967,262.2373)" style="text-rendering:geometricPrecision; font-size:13px; color-interpolation:linearRGB; color-rendering:optimizeQuality; image-rendering:optimizeQuality;"
    ><text x="0" xml:space="preserve" y="-20" style="stroke:none;"
      >X: 1923</text
    ></g
    ><g transform="translate(955.1967,262.2373)" style="text-rendering:geometricPrecision; font-size:13px; color-interpolation:linearRGB; color-rendering:optimizeQuality; image-rendering:optimizeQuality;"
    ><text x="0" xml:space="preserve" y="-3" style="stroke:none;"
      >Y: -15.41</text
    ></g
    ><g style="fill:rgb(255,255,238); text-rendering:optimizeSpeed; color-rendering:optimizeSpeed; image-rendering:optimizeSpeed; shape-rendering:crispEdges; color-interpolation:sRGB; stroke:rgb(255,255,238);"
    ><path style="stroke:none;" d="M1064.799 155.6039 L1117.799 155.6039 L1117.799 113.6039 L1064.799 113.6039 Z"
    /></g
    ><g style="stroke-linecap:butt; fill:rgb(204,204,204); text-rendering:geometricPrecision; color-rendering:optimizeQuality; image-rendering:optimizeQuality; color-interpolation:linearRGB; stroke:rgb(204,204,204); stroke-width:0.6667;"
    ><path d="M1064.799 155.6039 L1117.799 155.6039 L1117.799 113.6039 L1064.799 113.6039 Z" style="fill:none; fill-rule:evenodd;"
    /></g
    ><g transform="translate(1068.799,151.6039)" style="text-rendering:geometricPrecision; font-size:13px; color-interpolation:linearRGB; color-rendering:optimizeQuality; image-rendering:optimizeQuality;"
    ><text x="0" xml:space="preserve" y="-20" style="stroke:none;"
      >X: 3999</text
    ></g
    ><g transform="translate(1068.799,151.6039)" style="text-rendering:geometricPrecision; font-size:13px; color-interpolation:linearRGB; color-rendering:optimizeQuality; image-rendering:optimizeQuality;"
    ><text x="0" xml:space="preserve" y="-3" style="stroke:none;"
      >Y: 7.01</text
    ></g
    ><g style="fill-opacity:0.3922; fill:rgb(0,0,0); text-rendering:optimizeSpeed; color-rendering:optimizeSpeed; image-rendering:optimizeSpeed; shape-rendering:crispEdges; color-interpolation:sRGB; stroke:rgb(0,0,0); stroke-opacity:0.3922;"
    ><path style="stroke:none;" d="M1174.8199 94.18 L1174.8199 84.82 L1184.1801 84.82 L1184.1801 94.18 Z"
    /></g
    ><g style="stroke-linecap:butt; fill-opacity:0.3922; fill:rgb(255,255,220); text-rendering:geometricPrecision; color-rendering:optimizeQuality; image-rendering:optimizeQuality; color-interpolation:linearRGB; stroke:rgb(255,255,220); stroke-width:1.3333; stroke-opacity:0.3922;"
    ><path d="M1174.3 94.7 L1174.3 84.3 L1184.7 84.3 L1184.7 94.7 Z" style="fill:none; fill-rule:evenodd;"
    /></g
    ><g style="fill-opacity:0.3922; fill:rgb(0,0,0); text-rendering:optimizeSpeed; color-rendering:optimizeSpeed; image-rendering:optimizeSpeed; shape-rendering:crispEdges; color-interpolation:sRGB; stroke:rgb(0,0,0); stroke-opacity:0.3922;"
    ><path style="stroke:none;" d="M939.82 277.18 L939.82 267.82 L949.18 267.82 L949.18 277.18 Z"
    /></g
    ><g style="stroke-linecap:butt; fill-opacity:0.3922; fill:rgb(255,255,220); text-rendering:geometricPrecision; color-rendering:optimizeQuality; image-rendering:optimizeQuality; color-interpolation:linearRGB; stroke:rgb(255,255,220); stroke-width:1.3333; stroke-opacity:0.3922;"
    ><path d="M939.3 277.7 L939.3 267.3 L949.7 267.3 L949.7 277.7 Z" style="fill:none; fill-rule:evenodd;"
    /></g
    ><g style="fill-opacity:0.3922; fill:rgb(0,0,0); text-rendering:optimizeSpeed; color-rendering:optimizeSpeed; image-rendering:optimizeSpeed; shape-rendering:crispEdges; color-interpolation:sRGB; stroke:rgb(0,0,0); stroke-opacity:0.3922;"
    ><path style="stroke:none;" d="M1119.8199 111.18 L1119.8199 101.82 L1129.1801 101.82 L1129.1801 111.18 Z"
    /></g
    ><g style="stroke-linecap:butt; fill-opacity:0.3922; fill:rgb(255,255,220); text-rendering:geometricPrecision; color-rendering:optimizeQuality; image-rendering:optimizeQuality; color-interpolation:linearRGB; stroke:rgb(255,255,220); stroke-width:1.3333; stroke-opacity:0.3922;"
    ><path d="M1119.3 111.7 L1119.3 101.3 L1129.7 101.3 L1129.7 111.7 Z" style="fill:none; fill-rule:evenodd;"
    /></g
  ></g
></svg
>
